rewiring/large_test_100m/cycle_0024/tb_top.vcd
$date
	Tue Nov  4 01:14:07 2025
$end
$version
	Icarus Verilog
$end
$timescale
	1ps
$end
$scope module tb_top $end
$var wire 159 ! out_flat [158:0] $end
$var reg 1 " clk $end
$var reg 134 # in_flat [133:0] $end
$var reg 32 $ rng_state [31:0] $end
$var reg 1 % rst_n $end
$var integer 32 & cyc [31:0] $end
$var integer 32 ' cycles [31:0] $end
$var integer 32 ( i [31:0] $end
$var integer 32 ) seed [31:0] $end
$scope module dut $end
$var wire 1 " clk $end
$var wire 134 * in_flat [133:0] $end
$var wire 1 % rst_n $end
$var wire 159 + out_flat [158:0] $end
$var wire 24 , const_shift_wrapper_out_flat [23:0] $end
$var wire 11 - const_shift_wrapper_in_flat [10:0] $end
$var wire 6 . const_reduce_wrapper_out_flat [5:0] $end
$var wire 4 / const_reduce_wrapper_in_flat [3:0] $end
$var wire 8 0 const_partselect_wrapper_out_flat [7:0] $end
$var wire 20 1 const_partselect_wrapper_in_flat [19:0] $end
$var wire 8 2 const_nested_wrapper_out_flat [7:0] $end
$var wire 27 3 const_nested_wrapper_in_flat [26:0] $end
$var wire 19 4 const_logic_wrapper_out_flat [18:0] $end
$var wire 10 5 const_logic_wrapper_in_flat [9:0] $end
$var wire 24 6 const_conditional_wrapper_out_flat [23:0] $end
$var wire 34 7 const_conditional_wrapper_in_flat [33:0] $end
$var wire 22 8 const_concat_repl_wrapper_out_flat [21:0] $end
$var wire 10 9 const_concat_repl_wrapper_in_flat [9:0] $end
$var wire 8 : const_compare_wrapper_out_flat [7:0] $end
$var wire 24 ; const_compare_wrapper_in_flat [23:0] $end
$var wire 40 < const_arith_wrapper_out_flat [39:0] $end
$var wire 16 = const_arith_wrapper_in_flat [15:0] $end
$scope module u_const_arith_wrapper $end
$var wire 16 > in_flat [15:0] $end
$var wire 8 ? sum_c [7:0] $end
$var wire 8 @ rem_c [7:0] $end
$var wire 8 A quot_c [7:0] $end
$var wire 8 B prod_c [7:0] $end
$var wire 40 C out_flat [39:0] $end
$var wire 8 D diff_c [7:0] $end
$var wire 8 E b [7:0] $end
$var wire 8 F a [7:0] $end
$scope module u_const_arith $end
$var wire 8 G a [7:0] $end
$var wire 8 H b [7:0] $end
$var wire 8 I sum_c [7:0] $end
$var wire 8 J rem_c [7:0] $end
$var wire 8 K quot_c [7:0] $end
$var wire 8 L prod_c [7:0] $end
$var wire 8 M diff_c [7:0] $end
$upscope $end
$upscope $end
$scope module u_const_compare_wrapper $end
$var wire 24 N in_flat [23:0] $end
$var wire 8 O out_flat [7:0] $end
$var wire 1 P neq_c $end
$var wire 1 Q lt_c $end
$var wire 1 R le_c $end
$var wire 1 S gt_c $end
$var wire 1 T ge_c $end
$var wire 1 U eq_c $end
$var wire 4 V d [3:0] $end
$var wire 1 W case_neq_c $end
$var wire 1 X case_eq_c $end
$var wire 4 Y c [3:0] $end
$var wire 8 Z b [7:0] $end
$var wire 8 [ a [7:0] $end
$scope module u_const_compare $end
$var wire 8 \ a [7:0] $end
$var wire 8 ] b [7:0] $end
$var wire 4 ^ c [3:0] $end
$var wire 4 _ d [3:0] $end
$var wire 1 P neq_c $end
$var wire 1 Q lt_c $end
$var wire 1 R le_c $end
$var wire 1 S gt_c $end
$var wire 1 T ge_c $end
$var wire 1 U eq_c $end
$var wire 1 W case_neq_c $end
$var wire 1 X case_eq_c $end
$upscope $end
$upscope $end
$scope module u_const_concat_repl_wrapper $end
$var wire 10 ` in_flat [9:0] $end
$var wire 8 a rep_c [7:0] $end
$var wire 6 b rep2_c [5:0] $end
$var wire 22 c out_flat [21:0] $end
$var wire 8 d cat_c [7:0] $end
$var wire 2 e c [1:0] $end
$var wire 4 f b [3:0] $end
$var wire 4 g a [3:0] $end
$scope module u_const_concat_repl $end
$var wire 4 h a [3:0] $end
$var wire 4 i b [3:0] $end
$var wire 2 j c [1:0] $end
$var wire 8 k rep_c [7:0] $end
$var wire 6 l rep2_c [5:0] $end
$var wire 8 m cat_c [7:0] $end
$upscope $end
$upscope $end
$scope module u_const_conditional_wrapper $end
$var wire 34 n in_flat [33:0] $end
$var wire 1 o sel2 $end
$var wire 1 p sel1 $end
$var wire 24 q out_flat [23:0] $end
$var wire 8 r d [7:0] $end
$var wire 8 s cond3_c [7:0] $end
$var wire 8 t cond2_c [7:0] $end
$var wire 8 u cond1_c [7:0] $end
$var wire 8 v c [7:0] $end
$var wire 8 w b [7:0] $end
$var wire 8 x a [7:0] $end
$scope module u_const_conditional $end
$var wire 8 y a [7:0] $end
$var wire 8 z b [7:0] $end
$var wire 8 { c [7:0] $end
$var wire 8 | d [7:0] $end
$var wire 1 p sel1 $end
$var wire 1 o sel2 $end
$var wire 8 } cond3_c [7:0] $end
$var wire 8 ~ cond2_c [7:0] $end
$var wire 8 !" cond1_c [7:0] $end
$upscope $end
$upscope $end
$scope module u_const_logic_wrapper $end
$var wire 10 "" in_flat [9:0] $end
$var wire 4 #" y [3:0] $end
$var wire 4 $" xor_c [3:0] $end
$var wire 4 %" x [3:0] $end
$var wire 19 &" out_flat [18:0] $end
$var wire 4 '" or_c [3:0] $end
$var wire 4 (" not_c [3:0] $end
$var wire 1 )" lor_c $end
$var wire 1 *" lnot_c $end
$var wire 1 +" land_c $end
$var wire 1 ," b $end
$var wire 4 -" and_c [3:0] $end
$var wire 1 ." a $end
$scope module u_const_logic $end
$var wire 1 ." a $end
$var wire 4 /" and_c [3:0] $end
$var wire 1 ," b $end
$var wire 1 +" land_c $end
$var wire 1 )" lor_c $end
$var wire 4 0" not_c [3:0] $end
$var wire 4 1" or_c [3:0] $end
$var wire 4 2" x [3:0] $end
$var wire 4 3" xor_c [3:0] $end
$var wire 4 4" y [3:0] $end
$var wire 1 *" lnot_c $end
$upscope $end
$upscope $end
$scope module u_const_nested_wrapper $end
$var wire 27 5" in_flat [26:0] $end
$var wire 8 6" out_flat [7:0] $end
$var wire 3 7" s [2:0] $end
$var wire 8 8" r [7:0] $end
$var wire 8 9" q [7:0] $end
$var wire 8 :" p [7:0] $end
$var wire 8 ;" nested_c [7:0] $end
$scope module u_const_nested $end
$var wire 8 <" and_part [7:0] $end
$var wire 8 =" nested_c [7:0] $end
$var wire 8 >" p [7:0] $end
$var wire 8 ?" q [7:0] $end
$var wire 8 @" r [7:0] $end
$var wire 3 A" s [2:0] $end
$var wire 8 B" xor_qr [7:0] $end
$var wire 8 C" shl_rs [7:0] $end
$var wire 8 D" mul_part [7:0] $end
$var wire 8 E" mod_part [7:0] $end
$var wire 8 F" div_part [7:0] $end
$var wire 8 G" denom [7:0] $end
$var wire 8 H" add_pq [7:0] $end
$upscope $end
$upscope $end
$scope module u_const_partselect_wrapper $end
$var wire 20 I" in_flat [19:0] $end
$var wire 3 J" sel2_c [2:0] $end
$var wire 4 K" sel1_c [3:0] $end
$var wire 1 L" ovf_range $end
$var wire 8 M" out_flat [7:0] $end
$var wire 4 N" idx [3:0] $end
$var wire 8 O" data2 [7:0] $end
$var wire 8 P" data1 [7:0] $end
$scope module u_const_partselect $end
$var wire 8 Q" data1 [7:0] $end
$var wire 8 R" data2 [7:0] $end
$var wire 4 S" idx [3:0] $end
$var wire 3 T" sel2_c [2:0] $end
$var wire 4 U" sel1_c [3:0] $end
$var wire 1 L" ovf_range $end
$upscope $end
$upscope $end
$scope module u_const_reduce_wrapper $end
$var wire 4 V" in_flat [3:0] $end
$var wire 4 W" in_vec [3:0] $end
$var wire 1 X" red_xor_c $end
$var wire 1 Y" red_xnor_c $end
$var wire 1 Z" red_or_c $end
$var wire 1 [" red_nor_c $end
$var wire 1 \" red_nand_c $end
$var wire 1 ]" red_and_c $end
$var wire 6 ^" out_flat [5:0] $end
$scope module u_const_reduce $end
$var wire 4 _" in_vec [3:0] $end
$var wire 1 X" red_xor_c $end
$var wire 1 Y" red_xnor_c $end
$var wire 1 Z" red_or_c $end
$var wire 1 [" red_nor_c $end
$var wire 1 \" red_nand_c $end
$var wire 1 ]" red_and_c $end
$upscope $end
$upscope $end
$scope module u_const_shift_wrapper $end
$var wire 11 `" in_flat [10:0] $end
$var wire 8 a" shr_c [7:0] $end
$var wire 8 b" shl_c [7:0] $end
$var wire 3 c" shift_amt [2:0] $end
$var wire 24 d" out_flat [23:0] $end
$var wire 8 e" data_in [7:0] $end
$var wire 8 f" ashr_c [7:0] $end
$scope module u_const_shift $end
$var wire 8 g" data_in [7:0] $end
$var wire 3 h" shift_amt [2:0] $end
$var wire 8 i" shr_c [7:0] $end
$var wire 8 j" shl_c [7:0] $end
$var wire 8 k" ashr_c [7:0] $end
$upscope $end
$upscope $end
$upscope $end
$upscope $end
$enddefinitions $end
$comment Show the parameter values. $end
$dumpall
$end
#0
$dumpvars
b0 k"
b1000000 j"
b0 i"
b110 h"
b11001 g"
b0 f"
b11001 e"
b10000000000000000000000 d"
b110 c"
b1000000 b"
b0 a"
b11001110 `"
b11 _"
b10101 ^"
0]"
1\"
0["
1Z"
1Y"
0X"
b11 W"
b11 V"
b0 U"
b10 T"
b0 S"
b11010010 R"
b1110 Q"
b1110 P"
b11010010 O"
b0 N"
b100 M"
0L"
b0 K"
b10 J"
b1110110100100000 I"
b1100000 H"
b110101 G"
b0 F"
b0 E"
b11000000 D"
b10001010 C"
b10111110 B"
b0 A"
b10001010 @"
b110100 ?"
b101100 >"
b10000000 ="
b10000000 <"
b10000000 ;"
b101100 :"
b110100 9"
b10001010 8"
b0 7"
b10000000 6"
b1011000011010010001010000 5"
b110 4"
b1100 3"
b1010 2"
b1110 1"
b101 0"
b10 /"
0."
b10 -"
1,"
0+"
1*"
1)"
b101 ("
b1110 '"
b10111011000101011 &"
b1010 %"
b1100 $"
b110 #"
b1010011001 ""
b11100110 !"
b1111001 ~
b1000000 }
b10111110 |
b1111001 {
b1000000 z
b11100110 y
b11100110 x
b1000000 w
b1111001 v
b11100110 u
b1111001 t
b1000000 s
b10111110 r
b111001100111100101000000 q
1p
0o
b1110011001000000011110011011111010 n
b11110001 m
b10101 l
b11111111 k
b1 j
b1 i
b1111 h
b1111 g
b1 f
b1 e
b11110001 d
b1111000111111111010101 c
b10101 b
b11111111 a
b1111000101 `
b1111 _
b1001 ^
b101101 ]
b10010110 \
b10010110 [
b101101 Z
b1001 Y
0X
1W
b1111 V
0U
1T
1S
0R
0Q
1P
b1001101 O
b100101100010110110011111 N
b1001100 M
b1011100 L
b0 K
b110 J
b11000000 I
b10111010 H
b110 G
b110 F
b10111010 E
b1001100 D
b1100000001001100010111000000000000000110 C
b1011100 B
b0 A
b110 @
b11000000 ?
b11010111010 >
b11010111010 =
b1100000001001100010111000000000000000110 <
b100101100010110110011111 ;
b1001101 :
b1111000101 9
b1111000111111111010101 8
b1110011001000000011110011011111010 7
b111001100111100101000000 6
b1010011001 5
b10111011000101011 4
b1011000011010010001010000 3
b10000000 2
b1110110100100000 1
b100 0
b11 /
b10101 .
b11001110 -
b10000000000000000000000 ,
b10000000000000000000000010101000001001000000000101110110001010111110011001111001010000001111000111111111010101010011011100000001001100010111000000000000000110 +
b11011100100011101101000000101100001100101010001010110111100110010000001111011011110101110010110101100010110110111110000011010111010 *
b10000110000011000000101111100101 )
bx (
b11001000 '
b0 &
0%
b10011111001101101010010000110 $
b11011100100011101101000000101100001100101010001010110111100110010000001111011011110101110010110101100010110110111110000011010111010 #
0"
b10000000000000000000000010101000001001000000000101110110001010111110011001111001010000001111000111111111010101010011011100000001001100010111000000000000000110 !
$end
#1000
b1 &
1"
#2000
b0 (
0"
#3000
b10 &
1"
#4000
b11100 .
b11100 ^"
b111000000010001111100010111001100xxx00001000100001111111100110011001010010010100100101000011110100110011010101010011011100100000111010110001110000000100111010 !
b111000000010001111100010111001100xxx00001000100001111111100110011001010010010100100101000011110100110011010101010011011100100000111010110001110000000100111010 +
1X"
0Y"
b1100xxx0 0
b1100xxx0 M"
b111111110011001 4
b111111110011001 &"
b10001 2
b10001 6"
b10001 ;"
b10001 ="
b100101001001010010010100 6
b100101001001010010010100 q
b1100 K"
b1100 U"
bx J"
bx T"
b1 E"
b1 F"
b10001 B"
b10000 <"
b11110100110011010101 8
b11110100110011010101 c
b10010100 u
b10010100 !"
b10010100 s
b10010100 }
b10010100 t
b10010100 ~
b1100100000111010110001110000000100111010 <
b1100100000111010110001110000000100111010 C
b11001001 P"
b11001001 Q"
b1111011 O"
b1111011 R"
b1000 N"
b1000 S"
b11100000001000111110001 ,
b11100000001000111110001 d"
b11 ("
b11 0"
b0 -"
b0 /"
b1111 '"
b1111 1"
b1111 $"
b1111 3"
0)"
b1100010 :"
b1100010 >"
b10100110 H"
b1000101 G"
b1000100 9"
b1000100 ?"
b1010101 8"
b1010101 @"
b1111000 D"
b1010100 C"
b10 7"
b10 A"
b110011 a
b110011 k
b111101 d
b111101 m
b10010100 x
b10010100 y
b11101111 w
b11101111 z
b10001100 v
b10001100 {
b1011101 r
b1011101 |
1o
b1 A
b1 K
b111010 @
b111010 J
b11001000 [
b11001000 \
b1100111 Z
b1100111 ]
b10 Y
b10 ^
b1101 V
b1101 _
b11001001011110111000 1
b11001001011110111000 I"
b10001110 e"
b10001110 g"
b1110000 b"
b1110000 j"
b10001 a"
b10001 i"
b11110001 f"
b11110001 k"
b11 c"
b11 h"
b1100 %"
b1100 2"
b11 #"
b11 4"
0,"
b11000100100010001010101010 3
b11000100100010001010101010 5"
b11 g
b11 h
b1101 f
b1101 i
b1001010011101111100011000101110111 7
b1001010011101111100011000101110111 n
b10000001 F
b10000001 G
b11001000 ?
b11001000 I
b111010 D
b111010 M
b11000111 B
b11000111 L
b1000111 E
b1000111 H
b110010000110011100101101 ;
b110010000110011100101101 N
b10001110011 -
b10001110011 `"
b1100001100 5
b1100001100 ""
b11110101 9
b11110101 `
b1000000101000111 =
b1000000101000111 >
b1101 W"
b1101 _"
b1101 /
b1101 V"
b1 (
b10001100111011010010111011001100010010000000101011100011010010100111011110001000101101110111010111010000110011101011011000000101000111 #
b10001100111011010010111011001100010010000000101011100011010010100111011110001000101101110111010111010000110011101011011000000101000111 *
b1100001101101101110101011100011 $
0"
1%
#5000
b11 &
1"
#6000
b1000101 8"
b1000101 @"
b110001000011000000110000101010100xxx01000000001100111000110010110111001001110010111101001111001111111111101010010011010011110001111100100000000000000001011100 !
b110001000011000000110000101010100xxx01000000001100111000110010110111001001110010111101001111001111111111101010010011010011110001111100100000000000000001011100 +
b10100 C"
b10 7"
b10 A"
b100xxx0 0
b100xxx0 M"
b110011100011001011 4
b110011100011001011 &"
b10000000 2
b10000000 6"
b10000000 ;"
b10000000 ="
b1110010 t
b1110010 ~
b11100100111001011110100 6
b11100100111001011110100 q
b100 K"
b100 U"
b10100011 B"
b10000000 <"
b0 E"
b0 F"
b1111001111111111101010 8
b1111001111111111101010 c
b1110010 u
b1110010 !"
b11110100 s
b11110100 }
b11110001111100100000000000000001011100 <
b11110001111100100000000000000001011100 C
b1001100 P"
b1001100 Q"
b1100110 O"
b1100110 R"
b11000100001100000011000 ,
b11000100001100000011000 d"
b1001 ("
b1001 0"
b110 -"
b110 /"
b111 '"
b111 1"
b1 $"
b1 3"
1)"
b1000111 :"
b1000111 >"
b10000100 D"
b101101 H"
b11100111 G"
b11100110 9"
b11100110 ?"
b11111111 a
b11111111 k
b11110011 d
b11110011 m
b101010 b
b101010 l
b1110010 x
b1110010 y
b11110100 w
b11110100 z
b1101101 v
b1101101 {
b10101000 r
b10101000 |
b0 A
b0 K
b1011100 @
b1011100 J
b1010011 [
b1010011 \
b1001010 Z
b1001010 ]
b100 Y
b100 ^
b101 V
b101 _
b1001100011001101000 1
b1001100011001101000 I"
b10101 .
b10101 ^"
b110001 e"
b110001 g"
b1100010 b"
b1100010 j"
b11000 a"
b11000 i"
b11000 f"
b11000 k"
b1 c"
b1 h"
b110 %"
b110 2"
b111 #"
b111 4"
1,"
b10001111110011001000101010 3
b10001111110011001000101010 5"
b1111 g
b1111 h
b11 f
b11 i
b10 e
b10 j
b111001011110100011011011010100011 7
b111001011110100011011011010100011 n
b1011100 F
b1011100 G
b111100 ?
b111100 I
b1111100 D
b1111100 M
b10000000 B
b10000000 L
b11100000 E
b11100000 H
b10100110100101001000101 ;
b10100110100101001000101 N
b110001001 -
b110001001 `"
b110011101 5
b110011101 ""
b1111001110 9
b1111001110 `
b101110011100000 =
b101110011100000 >
0]"
0X"
1\"
1Y"
b1010 W"
b1010 _"
b1010 /
b1010 V"
b10 (
b110010011101011000110101001000111111010000101010110111101110010111101001101011010100111110111001100110100101000001010101110011100000 #
b110010011101011000110101001000111111010000101010110111101110010111101001101011010100111110111001100110100101000001010101110011100000 *
b11100010000100110110011100001100 $
0"
#7000
b100 &
1"
#8000
b10000100100001001000010110001001010100000000000100011000111010011001101000011110110111000010001000100010010101011100010000110101100011000110000000001000001110 !
b10000100100001001000010110001001010100000000000100011000111010011001101000011110110111000010001000100010010101011100010000110101100011000110000000001000001110 +
b110001 .
b110001 ^"
1]"
0\"
b1111 W"
b1111 _"
b1111 /
b1111 V"
b101010 0
b101010 M"
b10001100011101001 4
b10001100011101001 &"
b0 2
b0 6"
b0 ;"
b0 ="
b100110100001111011011100 6
b100110100001111011011100 q
b1110001 :
b1110001 O
b10 K"
b10 U"
b101 J"
b101 T"
b110011 F"
b101010 B"
b0 <"
b10001000100010010101 8
b10001000100010010101 c
b10011010 u
b10011010 !"
b11011100 s
b11011100 }
b11110 t
b11110 ~
b110101100011000110000000001000001110 <
b110101100011000110000000001000001110 C
b100010 P"
b100010 Q"
b10110101 O"
b10110101 R"
b0 N"
b0 S"
b10000100100001001000010 ,
b10000100100001001000010 d"
b1101 ("
b1101 0"
b10 -"
b10 /"
b11 '"
b11 1"
0)"
b11111111 :"
b11111111 >"
b11 H"
b101 G"
b100 9"
b100 ?"
b101110 8"
b101110 @"
b1000000 D"
b11000000 C"
b101 7"
b101 A"
b100010 a
b100010 k
b100010 d
b100010 m
b10101 b
b10101 l
b10011010 x
b10011010 y
b11011100 w
b11011100 z
b11110 v
b11110 {
b11001110 r
b11001110 |
0o
b10 A
b10 K
b1110 @
b1110 J
b10110101 [
b10110101 \
1Q
1R
0S
0T
b11010101 Z
b11010101 ]
b1011 Y
b1011 ^
b0 V
b0 _
b100010101101010000 1
b100010101101010000 I"
b1000010 e"
b1000010 g"
b1000010 b"
b1000010 j"
b1000010 a"
b1000010 i"
b1000010 f"
b1000010 k"
b0 c"
b0 h"
b10 %"
b10 2"
b11 #"
b11 4"
0,"
b111111110000010000101110101 3
b111111110000010000101110101 5"
b10 g
b10 h
b10 f
b10 i
b1 e
b1 j
b1001101011011100000111101100111010 7
b1001101011011100000111101100111010 n
b10111000 F
b10111000 G
b1101 ?
b1101 I
b1100011 D
b1100011 M
b11000 B
b11000 L
b1010101 E
b1010101 H
b101101011101010110110000 ;
b101101011101010110110000 N
b1000010000 -
b1000010000 `"
b10001100 5
b10001100 ""
b10001001 9
b10001001 `
b1011100001010101 =
b1011100001010101 >
b11 (
b1000100001100000101011110011111111000000011110100010011010011010110111000011101100110100100100110101011101010111100001011100001010101 #
b1000100001100000101011110011111111000000011110100010011010011010110111000011101100110100100100110101011101010111100001011100001010101 *
b110011110100011000010011010001 $
0"
#9000
b101 &
1"
#10000
1X"
0Y"
b10010000000010000000100111001100xxx01111010001101110100000010010010010000100100001001000001001000010001000000010011011010000100110101100100100000000100110101 !
b10010000000010000000100111001100xxx01111010001101110100000010010010010000100100001001000001001000010001000000010011011010000100110101100100100000000100110101 +
1Z"
0["
b1100xxx0 0
b1100xxx0 M"
b110111010000001001 4
b110111010000001001 &"
b11110100 2
b11110100 6"
b11110100 ;"
b11110100 ="
b1001000010010000100100 6
b1001000010010000100100 q
b1001101 :
b1001101 O
b1100 K"
b1100 U"
bx J"
bx T"
b0 F"
b11110111 B"
b11110100 <"
b1001000010001000000 8
b1001000010001000000 c
b100100 s
b100100 }
b100100 u
b100100 !"
b100100 t
b100100 ~
b1010000100110101100100100000000100110101 <
b1010000100110101100100100000000100110101 C
b11000011 P"
b11000011 Q"
b11010 O"
b11010 R"
b1010 N"
b1010 S"
b1001000000001000000010 ,
b1001000000001000000010 d"
b1 ("
b1 0"
b110 -"
b110 /"
b1110 '"
b1110 1"
b1000 $"
b1000 3"
b10100001 :"
b10100001 >"
b1010101 H"
b10110101 G"
b10110100 9"
b10110100 ?"
b1000011 8"
b1000011 @"
b11111100 D"
b1100 C"
b10 7"
b10 A"
b10010 d
b10010 m
b10001 a
b10001 k
b0 b
b0 l
b1011101 x
b1011101 y
b100100 w
b100100 z
b110101 v
b110101 {
b11100011 r
b11100011 |
0p
1o
b1 A
b1 K
b110101 @
b110101 J
b11001111 [
b11001111 \
0Q
0R
1S
1T
b1100010 Z
b1100010 ]
b1001 Y
b1001 ^
b11 V
b11 _
b11000011000110101010 1
b11000011000110101010 I"
b11100 .
b11100 ^"
b1001 e"
b1001 g"
b100100 b"
b100100 j"
b10 a"
b10 i"
b10 f"
b10 k"
b10 c"
b10 h"
b1110 %"
b1110 2"
b110 #"
b110 4"
b101000011011010001000011010 3
b101000011011010001000011010 5"
b1 g
b1 h
b0 e
b0 j
b101110100100100001101011110001101 7
b101110100100100001101011110001101 n
b1101011 F
b1101011 G
b10100001 ?
b10100001 I
b110101 D
b110101 M
b10010010 B
b10010010 L
b110110 E
b110110 H
b110011110110001010010011 ;
b110011110110001010010011 N
b1001010 -
b1001010 `"
b1110011000 5
b1110011000 ""
b1001000 9
b1001000 `
b110101100110110 =
b110101100110110 >
0]"
1\"
b100 W"
b100 _"
b100 /
b100 V"
b100 (
b1010100011000110001001110100001101100000011011110110001011101001001000110011110011010010100011011110110001010100110110101100110110 #
b1010100011000110001001110100001101100000011011110110001011101001001000110011110011010010100011011110110001010100110110101100110110 *
b10110110011000110000010011000010 $
0"
#11000
b110 &
1"
#12000
b101110111011101110111011010101101110001000000000111111110000000111110100001101100010010011111111011111111000000011100010010010101111111100101100000000001010010 !
b101110111011101110111011010101101110001000000000111111110000000111110100001101100010010011111111011111111000000011100010010010101111111100101100000000001010010 +
b10111000 0
b10111000 M"
b11111111000000011 4
b11111111000000011 &"
b10000000 2
b10000000 6"
b10000000 ;"
b10000000 ="
b111010000110110001001001 6
b111010000110110001001001 q
b1110001 :
b1110001 O
b1011 K"
b1011 U"
b100 J"
b100 T"
b10001111 B"
b10000000 <"
b1111111011111111000000 8
b1111111011111111000000 c
b1001001 s
b1001001 }
b11101000 u
b11101000 !"
b1101100 t
b1101100 ~
b10010101111111100101100000000001010010 <
b10010101111111100101100000000001010010 C
b10111100 P"
b10111100 Q"
b10011 O"
b10011 R"
b10 N"
b10 S"
b101110111011101110111011 ,
b101110111011101110111011 d"
b0 ("
b0 0"
b11 -"
b11 /"
b1111 '"
b1111 1"
b1100 $"
b1100 3"
1)"
b1100001 :"
b1100001 >"
b110110 H"
b11010110 G"
b11010101 9"
b11010101 ?"
b11110000 D"
b1101000 C"
b1011010 8"
b1011010 @"
b11111111 a
b11111111 k
b11111110 d
b11111110 m
b11101000 x
b11101000 y
b1001001 w
b1001001 z
b1101100 v
b1101100 {
b110001 r
b110001 |
1p
0o
b0 A
b0 K
b1010010 @
b1010010 J
1Q
1R
0S
0T
b1000001 [
b1000001 \
b10000111 Z
b10000111 ]
b10 Y
b10 ^
b1000 V
b1000 _
b10111100000100110010 1
b10111100000100110010 I"
b10101 .
b10101 ^"
b10111011 e"
b10111011 g"
b10111011 b"
b10111011 j"
b10111011 a"
b10111011 i"
b10111011 f"
b10111011 k"
b0 c"
b0 h"
b1111 %"
b1111 2"
b11 #"
b11 4"
1,"
b11000011101010101011010010 3
b11000011101010101011010010 5"
b1111 g
b1111 h
b1110 f
b1110 i
b1110100001001001011011000011000110 7
b1110100001001001011011000011000110 n
b1010010 F
b1010010 G
b100101 ?
b100101 I
b1111111 D
b1111111 M
b10010110 B
b10010110 L
b11010011 E
b11010011 H
b10000011000011100101000 ;
b10000011000011100101000 N
b10111011000 -
b10111011000 `"
b1111001101 5
b1111001101 ""
b1111111000 9
b1111111000 `
b101001011010011 =
b101001011010011 >
0X"
1Y"
b1100 W"
b1100 _"
b1100 /
b1100 V"
b101 (
b10111110001010111000001010101100001110101001010011111011111101000010010011101000011001101111100001000011000011101010000101001011010011 #
b10111110001010111000001010101100001110101001010011111011111101000010010011101000011001101111100001000011000011101010000101001011010011 *
b1110000100110110100100100101111 $
0"
#13000
b111 &
1"
#14000
b100000000101011111010011100111001100001000100000001000111110111101001011010010110100101100000011001100111111011100011110011101101111000101000000001000110011 !
b100000000101011111010011100111001100001000100000001000111110111101001011010010110100101100000011001100111111011100011110011101101111000101000000001000110011 +
b11100110 0
b11100110 M"
b100011111011 4
b100011111011 &"
b10001 2
b10001 6"
b10001 ;"
b10001 ="
b110100101101001011010010 6
b110100101101001011010010 q
b1110 K"
b1110 U"
b11 J"
b11 T"
b1010001 B"
b10001 <"
b1100000011001100111111 8
b1100000011001100111111 c
b11010010 s
b11010010 }
b11010010 u
b11010010 !"
b11010010 t
b11010010 ~
b1110011101101111000101000000001000110011 <
b1110011101101111000101000000001000110011 C
b11100011 P"
b11100011 Q"
b10101110 O"
b10101110 R"
b100000000101011111010 ,
b100000000101011111010 d"
b1111 ("
b1111 0"
b0 -"
b0 /"
b1 '"
b1 1"
b1 $"
b1 3"
b101001 :"
b101001 >"
b10011101 H"
b1110101 G"
b1110100 9"
b1110100 ?"
b100101 8"
b100101 @"
b10110001 D"
b100101 C"
b0 7"
b0 A"
b11001100 a
b11001100 k
b11000000 d
b11000000 m
b111111 b
b111111 l
b1010000 x
b1010000 y
b11010010 w
b11010010 z
b1101110 v
b1101110 {
b10100101 r
b10100101 |
0p
1o
b10 A
b10 K
b110011 @
b110011 J
b1011 [
b1011 \
b10010111 Z
b10010111 ]
b1100 Y
b1100 ^
b100 V
b100 _
b11100011101011100010 1
b11100011101011100010 I"
b11100 .
b11100 ^"
b10100001 e"
b10100001 g"
b10000 b"
b10000 j"
b1010 a"
b1010 i"
b11111010 f"
b11111010 k"
b100 c"
b100 h"
b0 %"
b0 2"
b1 #"
b1 4"
b1010010111010000100101000 3
b1010010111010000100101000 5"
b1100 g
b1100 h
b0 f
b0 i
b11 e
b11 j
b101000011010010011011101010010101 7
b101000011010010011011101010010101 n
b10101011 F
b10101011 G
b11100111 ?
b11100111 I
b1101111 D
b1101111 M
b10100 B
b10100 L
b111100 E
b111100 H
b10111001011111000100 ;
b10111001011111000100 N
b10100001100 -
b10100001100 `"
b101 5
b101 ""
b1100000011 9
b1100000011 `
b1010101100111100 =
b1010101100111100 >
1X"
0Y"
b1 W"
b1 _"
b1 /
b1 V"
b110 (
b10100011000011000111010100100101001011100010101000000001101010000110100101101101010001011000001100010111001011110001001010101100111100 #
b10100011000011000111010100100101001011100010101000000001101010000110100101101101010001011000001100010111001011110001001010101100111100 *
b10111010110011110011111100101000 $
0"
#15000
b1000 &
1"
#16000
b101 J"
b101 T"
1+"
b100110000001111011111110010101010010100000000100001110111001011100011101110011000011110010101010101010101111111010011011000010100000011010001000000000100000011 !
b100110000001111011111110010101010010100000000100001110111001011100011101110011000011110010101010101010101111111010011011000010100000011010001000000000100000011 +
0*"
1."
b1001010 0
b1001010 M"
b111011100101110 4
b111011100101110 &"
b1 2
b1 6"
b1 ;"
b1 ="
b1110111001100001111001 6
b1110111001100001111001 q
b1001101 :
b1001101 O
b100 K"
b100 U"
b1 E"
b1 F"
b10011110 B"
b0 <"
b101010101010101111111 8
b101010101010101111111 c
b111011 u
b111011 !"
b1111001 s
b1111001 }
b10011000 t
b10011000 ~
b1000010100000011010001000000000100000011 <
b1000010100000011010001000000000100000011 C
b1001101 P"
b1001101 Q"
b10100011 O"
b10100011 R"
b101 N"
b101 S"
b100110000001111011111110 ,
b100110000001111011111110 d"
b101 ("
b101 0"
b1110 '"
b1110 1"
b1110 $"
b1110 3"
b10111010 :"
b10111010 >"
b1010000 H"
b10010111 G"
b10010110 9"
b10010110 ?"
b1000 8"
b1000 @"
b0 D"
b0 C"
b110 7"
b110 A"
b1010101 a
b1010101 k
b1010101 d
b1010101 m
b1111001 x
b1111001 y
b111011 w
b111011 z
b10011000 v
b10011000 {
b1010111 r
b1010111 |
0o
b1 A
b1 K
b11 @
b11 J
0Q
0R
1S
1T
b10001101 [
b10001101 \
b1100000 Z
b1100000 ]
b1110 Y
b1110 ^
0X
1W
b1100 V
b1100 _
b1001101101000110101 1
b1001101101000110101 I"
b10101 .
b10101 ^"
b11110011 e"
b11110011 g"
b10011000 b"
b10011000 j"
b11110 a"
b11110 i"
b11111110 f"
b11111110 k"
b11 c"
b11 h"
b1010 %"
b1010 2"
b100 #"
b100 4"
b101110101001011000001000110 3
b101110101001011000001000110 5"
b101 g
b101 h
b101 f
b101 i
b111100100111011100110000101011100 7
b111100100111011100110000101011100 n
b1000100 F
b1000100 G
b10000101 ?
b10000101 I
b11 D
b11 M
b1000100 B
b1000100 L
b1000001 E
b1000001 H
b100011010110000011101100 ;
b100011010110000011101100 N
b11110011011 -
b11110011011 `"
b1010010011 5
b1010010011 ""
b101010111 9
b101010111 `
b100010001000001 =
b100010001000001 >
0X"
1Y"
b1001 W"
b1001 _"
b1001 /
b1001 V"
b111 (
b11110110111001011011010010010111010100110001000111010100101111001001110110011000101011000011011110011010110000011011000100010001000001 #
b11110110111001011011010010010111010100110001000111010100101111001001110110011000101011000011011110011010110000011011000100010001000001 *
b1001010111101111110001101111101 $
0"
#17000
b1001 &
1"
