rewiring/large_test_seed0_50mut/cycle_0004/tb_top.vcd
$date
	Tue Nov  4 00:13:04 2025
$end
$version
	Icarus Verilog
$end
$timescale
	1ps
$end
$scope module tb_top $end
$var wire 159 ! out_flat [158:0] $end
$var reg 1 " clk $end
$var reg 137 # in_flat [136:0] $end
$var reg 32 $ rng_state [31:0] $end
$var reg 1 % rst_n $end
$var integer 32 & cyc [31:0] $end
$var integer 32 ' cycles [31:0] $end
$var integer 32 ( i [31:0] $end
$var integer 32 ) seed [31:0] $end
$scope module dut $end
$var wire 1 " clk $end
$var wire 137 * in_flat [136:0] $end
$var wire 1 % rst_n $end
$var wire 159 + out_flat [158:0] $end
$var wire 24 , const_shift_wrapper_out_flat [23:0] $end
$var wire 11 - const_shift_wrapper_in_flat [10:0] $end
$var wire 6 . const_reduce_wrapper_out_flat [5:0] $end
$var wire 4 / const_reduce_wrapper_in_flat [3:0] $end
$var wire 8 0 const_partselect_wrapper_out_flat [7:0] $end
$var wire 20 1 const_partselect_wrapper_in_flat [19:0] $end
$var wire 8 2 const_nested_wrapper_out_flat [7:0] $end
$var wire 27 3 const_nested_wrapper_in_flat [26:0] $end
$var wire 19 4 const_logic_wrapper_out_flat [18:0] $end
$var wire 10 5 const_logic_wrapper_in_flat [9:0] $end
$var wire 24 6 const_conditional_wrapper_out_flat [23:0] $end
$var wire 34 7 const_conditional_wrapper_in_flat [33:0] $end
$var wire 22 8 const_concat_repl_wrapper_out_flat [21:0] $end
$var wire 10 9 const_concat_repl_wrapper_in_flat [9:0] $end
$var wire 8 : const_compare_wrapper_out_flat [7:0] $end
$var wire 24 ; const_compare_wrapper_in_flat [23:0] $end
$var wire 40 < const_arith_wrapper_out_flat [39:0] $end
$var wire 16 = const_arith_wrapper_in_flat [15:0] $end
$scope module u_const_arith_wrapper $end
$var wire 16 > in_flat [15:0] $end
$var wire 8 ? sum_c [7:0] $end
$var wire 8 @ rem_c [7:0] $end
$var wire 8 A quot_c [7:0] $end
$var wire 8 B prod_c [7:0] $end
$var wire 40 C out_flat [39:0] $end
$var wire 8 D diff_c [7:0] $end
$var wire 8 E b [7:0] $end
$var wire 8 F a [7:0] $end
$scope module u_const_arith $end
$var wire 8 G a [7:0] $end
$var wire 8 H b [7:0] $end
$var wire 8 I sum_c [7:0] $end
$var wire 8 J rem_c [7:0] $end
$var wire 8 K quot_c [7:0] $end
$var wire 8 L prod_c [7:0] $end
$var wire 8 M diff_c [7:0] $end
$upscope $end
$upscope $end
$scope module u_const_compare_wrapper $end
$var wire 24 N in_flat [23:0] $end
$var wire 8 O out_flat [7:0] $end
$var wire 1 P neq_c $end
$var wire 1 Q lt_c $end
$var wire 1 R le_c $end
$var wire 1 S gt_c $end
$var wire 1 T ge_c $end
$var wire 1 U eq_c $end
$var wire 4 V d [3:0] $end
$var wire 1 W case_neq_c $end
$var wire 1 X case_eq_c $end
$var wire 4 Y c [3:0] $end
$var wire 8 Z b [7:0] $end
$var wire 8 [ a [7:0] $end
$scope module u_const_compare $end
$var wire 8 \ a [7:0] $end
$var wire 8 ] b [7:0] $end
$var wire 4 ^ c [3:0] $end
$var wire 4 _ d [3:0] $end
$var wire 1 P neq_c $end
$var wire 1 Q lt_c $end
$var wire 1 R le_c $end
$var wire 1 S gt_c $end
$var wire 1 T ge_c $end
$var wire 1 U eq_c $end
$var wire 1 W case_neq_c $end
$var wire 1 X case_eq_c $end
$upscope $end
$upscope $end
$scope module u_const_concat_repl_wrapper $end
$var wire 10 ` in_flat [9:0] $end
$var wire 8 a rep_c [7:0] $end
$var wire 6 b rep2_c [5:0] $end
$var wire 22 c out_flat [21:0] $end
$var wire 8 d cat_c [7:0] $end
$var wire 2 e c [1:0] $end
$var wire 4 f b [3:0] $end
$var wire 4 g a [3:0] $end
$scope module u_const_concat_repl $end
$var wire 4 h a [3:0] $end
$var wire 4 i b [3:0] $end
$var wire 2 j c [1:0] $end
$var wire 8 k rep_c [7:0] $end
$var wire 6 l rep2_c [5:0] $end
$var wire 8 m cat_c [7:0] $end
$upscope $end
$upscope $end
$scope module u_const_conditional_wrapper $end
$var wire 34 n in_flat [33:0] $end
$var wire 1 o sel2 $end
$var wire 1 p sel1 $end
$var wire 24 q out_flat [23:0] $end
$var wire 8 r d [7:0] $end
$var wire 8 s cond3_c [7:0] $end
$var wire 8 t cond2_c [7:0] $end
$var wire 8 u cond1_c [7:0] $end
$var wire 8 v c [7:0] $end
$var wire 8 w b [7:0] $end
$var wire 8 x a [7:0] $end
$scope module u_const_conditional $end
$var wire 8 y a [7:0] $end
$var wire 8 z b [7:0] $end
$var wire 8 { c [7:0] $end
$var wire 8 | d [7:0] $end
$var wire 1 p sel1 $end
$var wire 1 o sel2 $end
$var wire 8 } cond3_c [7:0] $end
$var wire 8 ~ cond2_c [7:0] $end
$var wire 8 !" cond1_c [7:0] $end
$upscope $end
$upscope $end
$scope module u_const_logic_wrapper $end
$var wire 10 "" in_flat [9:0] $end
$var wire 4 #" y [3:0] $end
$var wire 4 $" xor_c [3:0] $end
$var wire 4 %" x [3:0] $end
$var wire 19 &" out_flat [18:0] $end
$var wire 4 '" or_c [3:0] $end
$var wire 4 (" not_c [3:0] $end
$var wire 1 )" lor_c $end
$var wire 1 *" lnot_c $end
$var wire 1 +" land_c $end
$var wire 1 ," b $end
$var wire 4 -" and_c [3:0] $end
$var wire 1 ." a $end
$scope module u_const_logic $end
$var wire 1 ." a $end
$var wire 4 /" and_c [3:0] $end
$var wire 1 ," b $end
$var wire 1 +" land_c $end
$var wire 1 )" lor_c $end
$var wire 4 0" not_c [3:0] $end
$var wire 4 1" or_c [3:0] $end
$var wire 4 2" x [3:0] $end
$var wire 4 3" xor_c [3:0] $end
$var wire 4 4" y [3:0] $end
$var wire 1 *" lnot_c $end
$upscope $end
$upscope $end
$scope module u_const_nested_wrapper $end
$var wire 27 5" in_flat [26:0] $end
$var wire 8 6" out_flat [7:0] $end
$var wire 3 7" s [2:0] $end
$var wire 8 8" r [7:0] $end
$var wire 8 9" q [7:0] $end
$var wire 8 :" p [7:0] $end
$var wire 8 ;" nested_c [7:0] $end
$scope module u_const_nested $end
$var wire 8 <" and_part [7:0] $end
$var wire 8 =" nested_c [7:0] $end
$var wire 8 >" p [7:0] $end
$var wire 8 ?" q [7:0] $end
$var wire 8 @" r [7:0] $end
$var wire 3 A" s [2:0] $end
$var wire 8 B" xor_qr [7:0] $end
$var wire 8 C" shl_rs [7:0] $end
$var wire 8 D" mul_part [7:0] $end
$var wire 8 E" mod_part [7:0] $end
$var wire 8 F" div_part [7:0] $end
$var wire 8 G" denom [7:0] $end
$var wire 8 H" add_pq [7:0] $end
$upscope $end
$upscope $end
$scope module u_const_partselect_wrapper $end
$var wire 20 I" in_flat [19:0] $end
$var wire 3 J" sel2_c [2:0] $end
$var wire 4 K" sel1_c [3:0] $end
$var wire 1 L" ovf_range $end
$var wire 8 M" out_flat [7:0] $end
$var wire 4 N" idx [3:0] $end
$var wire 8 O" data2 [7:0] $end
$var wire 8 P" data1 [7:0] $end
$scope module u_const_partselect $end
$var wire 8 Q" data1 [7:0] $end
$var wire 8 R" data2 [7:0] $end
$var wire 4 S" idx [3:0] $end
$var wire 3 T" sel2_c [2:0] $end
$var wire 4 U" sel1_c [3:0] $end
$var wire 1 L" ovf_range $end
$upscope $end
$upscope $end
$scope module u_const_reduce_wrapper $end
$var wire 4 V" in_flat [3:0] $end
$var wire 4 W" in_vec [3:0] $end
$var wire 1 X" red_xor_c $end
$var wire 1 Y" red_xnor_c $end
$var wire 1 Z" red_or_c $end
$var wire 1 [" red_nor_c $end
$var wire 1 \" red_nand_c $end
$var wire 1 ]" red_and_c $end
$var wire 6 ^" out_flat [5:0] $end
$scope module u_const_reduce $end
$var wire 4 _" in_vec [3:0] $end
$var wire 1 X" red_xor_c $end
$var wire 1 Y" red_xnor_c $end
$var wire 1 Z" red_or_c $end
$var wire 1 [" red_nor_c $end
$var wire 1 \" red_nand_c $end
$var wire 1 ]" red_and_c $end
$upscope $end
$upscope $end
$scope module u_const_shift_wrapper $end
$var wire 11 `" in_flat [10:0] $end
$var wire 8 a" shr_c [7:0] $end
$var wire 8 b" shl_c [7:0] $end
$var wire 3 c" shift_amt [2:0] $end
$var wire 24 d" out_flat [23:0] $end
$var wire 8 e" data_in [7:0] $end
$var wire 8 f" ashr_c [7:0] $end
$scope module u_const_shift $end
$var wire 8 g" data_in [7:0] $end
$var wire 3 h" shift_amt [2:0] $end
$var wire 8 i" shr_c [7:0] $end
$var wire 8 j" shl_c [7:0] $end
$var wire 8 k" ashr_c [7:0] $end
$upscope $end
$upscope $end
$upscope $end
$upscope $end
$enddefinitions $end
$comment Show the parameter values. $end
$dumpall
$end
#0
$dumpvars
b1011111 k"
b1011111 j"
b1011111 i"
b0 h"
b1011111 g"
b1011111 f"
b1011111 e"
b10111110101111101011111 d"
b0 c"
b1011111 b"
b1011111 a"
b1011111000 `"
b11 _"
b10101 ^"
0]"
1\"
0["
1Z"
1Y"
0X"
b11 W"
b11 V"
b10 U"
b110 T"
b0 S"
b11100110 R"
b101010 Q"
b101010 P"
b11100110 O"
b0 N"
b101100 M"
0L"
b10 K"
b110 J"
b101010111001100000 I"
b10000010 H"
b10000000 G"
b0 F"
b0 E"
b111000 D"
b10011100 C"
b11011000 B"
b10 A"
b10100111 @"
b1111111 ?"
b11 >"
b11000 ="
b11000 <"
b11000 ;"
b11 :"
b1111111 9"
b10100111 8"
b10 7"
b11000 6"
b110111111110100111010 5"
b1011 4"
b1111 3"
b100 2"
b1111 1"
b1011 0"
b0 /"
1."
b0 -"
0,"
0+"
0*"
1)"
b1011 ("
b1111 '"
b111111111011010 &"
b100 %"
b1111 $"
b1011 #"
b100101110 ""
b11011111 !"
b11011111 ~
b11101001 }
b11100010 |
b11001001 {
b11011111 z
b11101001 y
b11101001 x
b11011111 w
b11001001 v
b11011111 u
b11011111 t
b11101001 s
b11100010 r
b110111111101111111101001 q
0p
1o
b1110100111011111110010011110001001 n
b1000100 m
b101010 l
b1000100 k
b10 j
b100 i
b100 h
b100 g
b100 f
b10 e
b1000100 d
b100010001000100101010 c
b101010 b
b1000100 a
b100010010 `
b1111 _
b1000 ^
b10101001 ]
b1001000 \
b1001000 [
b10101001 Z
b1000 Y
0X
1W
b1111 V
0U
0T
0S
1R
1Q
1P
b1110001 O
b10010001010100110001111 N
b10000 M
b0 L
b1 K
b10000 J
b10110000 I
b1010000 H
b1100000 G
b1100000 F
b1010000 E
b10000 D
b1011000000010000000000000000000100010000 C
b0 B
b1 A
b10000 @
b10110000 ?
b110000001010000 >
b110000001010000 =
b1011000000010000000000000000000100010000 <
b10010001010100110001111 ;
b1110001 :
b100010010 9
b100010001000100101010 8
b1110100111011111110010011110001001 7
b110111111101111111101001 6
b100101110 5
b111111111011010 4
b110111111110100111010 3
b11000 2
b101010111001100000 1
b101100 0
b11 /
b10101 .
b1011111000 -
b10111110101111101011111 ,
b10111110101111101011111010101001011000001100000001111111110110101101111111011111111010010100010001000100101010011100011011000000010000000000000000000100010000 +
b10111110000000101111001100000000001101111111101001101001010110111010011101111110100111100100100100100100100010100011001110110000001010000 *
b11101000011110100001011000010011 )
bx (
b1100100 '
b0 &
0%
b11011111010100011000101111100 $
b10111110000000101111001100000000001101111111101001101001010110111010011101111110100111100100100100100100100010100011001110110000001010000 #
0"
b10111110101111101011111010101001011000001100000001111111110110101101111111011111111010010100010001000100101010011100011011000000010000000000000000000100010000 !
$end
#1000
b1 &
1"
#2000
b0 (
0"
#3000
b10 &
1"
#4000
0)"
1*"
0."
b100000000011100011111000011100011000010000000100001011101101110011001000100001001100100011110010011101110101010011100010000111100000101001100100000001000000000 !
b100000000011100011111000011100011000010000000100001011101101110011001000100001001100100011110010011101110101010011100010000111100000101001100100000001000000000 +
0o
b101110110111001 4
b101110110111001 &"
b1 2
b1 6"
b1 ;"
b1 ="
b1001 t
b1001 ~
b100100010000100110010001 6
b100100010000100110010001 q
b110 K"
b110 U"
b0 J"
b0 T"
b1100001 0
b1100001 M"
b1 E"
b1 F"
b1101 B"
b0 <"
b1110010011101110101010 8
b1110010011101110101010 c
b10010001 s
b10010001 }
b10010001 u
b10010001 !"
b111100000101001100100000001000000000 <
b111100000101001100100000001000000000 C
b100000000011100011111000 ,
b100000000011100011111000 d"
b1100000 P"
b1100000 Q"
b1100110 O"
b1100110 R"
1L"
b1111 N"
b1111 S"
b111 ("
b111 0"
b1011 '"
b1011 1"
b1011 $"
b1011 3"
b1001011 :"
b1001011 >"
b10001111 H"
b1000101 G"
b1000100 9"
b1000100 ?"
b1001001 8"
b1001001 @"
b10000000 D"
b10000000 C"
b111 7"
b111 A"
b11100100 d
b11100100 m
b11101110 a
b11101110 k
b10010001 x
b10010001 y
b1101011 w
b1101011 z
b1001 v
b1001 {
b110011 r
b110011 |
1p
b10 A
b10 K
b0 @
b0 J
b11010111 [
b11010111 \
b11111110 Z
b11111110 ]
b1100 Y
b1100 ^
b11 V
b11 _
b11100000 e"
b11100000 g"
b10000000 b"
b10000000 j"
b111000 a"
b111000 i"
b11111000 f"
b11111000 k"
b10 c"
b10 h"
b1100000011001101111 1
b1100000011001101111 I"
b11100 .
b11100 ^"
b1000 %"
b1000 2"
b11 #"
b11 4"
b10010110100010001001001111 3
b10010110100010001001001111 5"
b1110 g
b1110 h
b1001000101101011000010010011001110 7
b1001000101101011000010010011001110 n
b1010 F
b1010 G
b1111 ?
b1111 I
b101 D
b101 M
b110010 B
b110010 L
b101 E
b101 H
b110101111111111011000011 ;
b110101111111111011000011 N
b11100000010 -
b11100000010 `"
b1000001100 5
b1000001100 ""
b1110010010 9
b1110010010 `
b101000000101 =
b101000000101 >
1X"
0Y"
b1110 W"
b1110 _"
b1110 /
b1110 V"
b1 (
b11000000101010000011001101110100101101000100010010111110000110100100010110111000100100110111110100101101011111111101100110000101000000101 #
b11000000101010000011001101110100101101000100010010111110000110100100010110111000100100110111110100101101011111111101100110000101000000101 *
b10000101010111110100000110000001 $
0"
1%
#5000
b11 &
1"
#6000
1o
b1100000000000010000000100101011011x0000000000000101011100101010011000000010000000100000000011010000110011111111011100011000100000111100100011000000001000010110 !
b1100000000000010000000100101011011x0000000000000101011100101010011000000010000000100000000011010000110011111111011100011000100000111100100011000000001000010110 +
b10101 .
b10101 ^"
0X"
1Y"
b1100 W"
b1100 _"
b1100 /
b1100 V"
b10101110010101001 4
b10101110010101001 &"
b0 2
b0 6"
b0 ;"
b0 ="
b100000001000000010000000 6
b100000001000000010000000 q
b1011 K"
b1011 U"
bx00 J"
bx00 T"
b1011x000 0
b1011x000 M"
b0 E"
b0 F"
b11110010 B"
b11010000110011111111 8
b11010000110011111111 c
b10000000 t
b10000000 ~
b10000000 s
b10000000 }
b10000000 u
b10000000 !"
b1000100000111100100011000000001000010110 <
b1000100000111100100011000000001000010110 C
b110000000000001000000010 ,
b110000000000001000000010 d"
b10110100 P"
b10110100 Q"
b111101 O"
b111101 R"
0L"
b110 N"
b110 S"
b10 -"
b10 /"
b1001 $"
b1001 3"
b101 ("
b101 0"
b10100101 :"
b10100101 >"
b10010000 H"
b11101100 G"
b11101011 9"
b11101011 ?"
b11001 8"
b11001 @"
b0 D"
b1000000 C"
b110 7"
b110 A"
b110100 d
b110100 m
b110011 a
b110011 k
b111111 b
b111111 l
b10000010 x
b10000010 y
b10000000 w
b10000000 z
b10110111 v
b10110111 {
b10110110 r
b10110110 |
0p
b10110 @
b10110 J
b111001 [
b111001 \
b11010001 Z
b11010001 ]
b1 Y
b1 ^
b10 V
b10 _
b101100 e"
b101100 g"
b11000000 b"
b11000000 j"
b10 a"
b10 i"
b10 f"
b10 k"
b100 c"
b100 h"
b10110100001111010110 1
b10110100001111010110 I"
b1010 %"
b1010 2"
b101001011110101100011001110 3
b101001011110101100011001110 5"
b11 g
b11 h
b11 e
b11 j
b1000001010000000101101111011011001 7
b1000001010000000101101111011011001 n
b1100010 F
b1100010 G
b10001000 ?
b10001000 I
b111100 D
b111100 M
b10001100 B
b10001100 L
b100110 E
b100110 H
b1110011101000100010010 ;
b1110011101000100010010 N
b101100100 -
b101100100 `"
b1010001100 5
b1010001100 ""
b11010011 9
b11010011 `
b110001000100110 =
b110001000100110 >
b10 (
b1011001001101010001111010111010010111101011000110111010100110100000101000000101011110111100011100110011100111010010010100110001000100110 #
b1011001001101010001111010111010010111101011000110111010100110100000101000000101011110111100011100110011100111010010010100110001000100110 *
b111100111010100111101010110010 $
0"
#7000
b100 &
1"
#8000
b101000 2
b101000 6"
b101000 ;"
b101000 ="
b101000 <"
b1000000000000001111111110111000100xxx00010100000001011101111010111111011101100011001010101111001111111111000000011100011010110110100111111111100011100000000010 !
b1000000000000001111111110111000100xxx00010100000001011101111010111111011101100011001010101111001111111111000000011100011010110110100111111111100011100000000010 +
0o
b100xxx0 0
b100xxx0 M"
b101110111101011 4
b101110111101011 &"
b1100011 t
b1100011 ~
b111101110110001100101010 6
b111101110110001100101010 q
b100 K"
b100 U"
bx J"
bx T"
b1101001 B"
b1111001111111111000000 8
b1111001111111111000000 c
b101010 s
b101010 }
b11110111 u
b11110111 !"
b1010110110100111111111100011100000000010 <
b1010110110100111111111100011100000000010 C
b1000010 P"
b1000010 Q"
b1 O"
b1 R"
b1001 N"
b1001 S"
b100000000000000111111111 ,
b100000000000000111111111 d"
b1101 ("
b1101 0"
b0 -"
b0 /"
b1011 $"
b1011 3"
1)"
b1111111 :"
b1111111 >"
b1110101 H"
b11110111 G"
b11110110 9"
b11110110 ?"
b10011111 8"
b10011111 @"
b10101100 D"
b1111100 C"
b10 7"
b10 A"
b11111111 a
b11111111 k
b11110011 d
b11110011 m
b0 b
b0 l
b11110111 x
b11110111 y
b101010 w
b101010 z
b1100011 v
b1100011 {
b11010101 r
b11010101 |
1p
b111000 A
b111000 K
b10 @
b10 J
b11 [
b11 \
b11001011 Z
b11001011 ]
b1010 Y
b1010 ^
b100 V
b100 _
b1000010000000011001 1
b1000010000000011001 I"
b11100 .
b11100 ^"
b11010111 e"
b11010111 g"
b10000000 b"
b10000000 j"
b1 a"
b1 i"
b11111111 f"
b11111111 k"
b111 c"
b111 h"
b10 %"
b10 2"
b1001 #"
b1001 4"
1,"
b11111111111011010011111010 3
b11111111111011010011111010 5"
b1111 g
b1111 h
b11 f
b11 i
b0 e
b0 j
b1111011100101010011000111101010110 7
b1111011100101010011000111101010110 n
b10101010 F
b10101010 G
b10101101 ?
b10101101 I
b10100111 D
b10100111 M
b11111110 B
b11111110 L
b11 E
b11 H
b111100101110100100 ;
b111100101110100100 N
b11010111111 -
b11010111111 `"
b10100101 5
b10100101 ""
b1111001100 9
b1111001100 `
b1010101000000011 =
b1010101000000011 >
1X"
0Y"
b10 W"
b10 _"
b10 /
b10 V"
b11 (
b10101111110010001000000011000111111111110110100111101000110011111101110010110011001111011011111011000000001111000111001001010101000000011 #
b10101111110010001000000011000111111111110110100111101000110011111101110010110011001111011011111011000000001111000111001001010101000000011 *
b10011111111011110001101011111 $
0"
#9000
b101 &
1"
#10000
b1110111 a
b1110111 k
b11000011 Z
b11000011 ]
b111 g
b111 h
b10011000101001111010011011100001010001101000000001110111010110111100000100001111110000010111010001110111111111011100011001110101000101111011000000000101000101 !
b10011000101001111010011011100001010001101000000001110111010110111100000100001111110000010111010001110111111111011100011001110101000101111011000000000101000101 +
0o
b101000 0
b101000 M"
b111011101011011 4
b111011101011011 &"
b11010000 2
b11010000 6"
b11010000 ;"
b11010000 ="
b110000010000111111000001 6
b110000010000111111000001 q
b10 K"
b10 U"
b100 J"
b100 T"
b11010011 B"
b11010000 <"
b111010001110111111111 8
b111010001110111111111 c
b11000001 u
b11000001 !"
b1111 t
b1111 ~
b11000001 s
b11000001 }
b1001110101000101111011000000000101000101 <
b1001110101000101111011000000000101000101 C
b10011000101001111010011 ,
b10011000101001111010011 d"
b101000 P"
b101000 Q"
b1000111 O"
b1000111 R"
b100 N"
b100 S"
b1011 ("
b1011 0"
b1110 '"
b1110 1"
b1110 $"
b1110 3"
b10110011 :"
b10110011 >"
b10010001 H"
b11011111 G"
b11011110 9"
b11011110 ?"
b1101 8"
b1101 @"
b11010000 D"
b11010000 C"
b100 7"
b100 A"
b1110100 d
b1110100 m
b111111 b
b111111 l
b11000001 x
b11000001 y
b1010110 w
b1010110 z
b1111 v
b1111 {
b10101 r
b10101 |
b1 A
b1 K
b1000101 @
b1000101 J
b10101110 [
b10101110 \
b101 Y
b101 ^
b1010 V
b1010 _
b10100110 e"
b10100110 g"
b1001100 b"
b1001100 j"
b1010011 a"
b1010011 i"
b11010011 f"
b11010011 k"
b1 c"
b1 h"
b101000010001110100 1
b101000010001110100 I"
b11100 .
b11100 ^"
b100 %"
b100 2"
b1010 #"
b1010 4"
b101100111101111000001101100 3
b101100111101111000001101100 5"
b100 f
b100 i
b11 e
b11 j
b1100000101010110000011110001010110 7
b1100000101010110000011110001010110 n
b11110001 F
b11110001 G
b10011101 ?
b10011101 I
b1000101 D
b1000101 M
b11101100 B
b11101100 L
b10101100 E
b10101100 H
b101011101100001101011010 ;
b101011101100001101011010 N
b10100110001 -
b10100110001 `"
b100101001 5
b100101001 ""
b111010011 9
b111010011 `
b1111000110101100 =
b1111000110101100 >
1X"
0Y"
b111 W"
b111 _"
b111 /
b111 V"
b100 (
b1001100011000100010001110101011001111011110000011110001010101110000010101010000111100011011111100111010111011000110110101111000110101100 #
b1001100011000100010001110101011001111011110000011110001010101110000010101010000111100011011111100111010111011000110110101111000110101100 *
b1101100110110110111110010011000 $
0"
#11000
b110 &
1"
#12000
1L"
b1011000011001011110010011100100100010010001001001101100110110111110101010111000111010100000100100000000101010010011010111110110011011110011000000000010001100 !
b1011000011001011110010011100100100010010001001001101100110110111110101010111000111010100000100100000000101010010011010111110110011011110011000000000010001100 +
0o
b10010001 0
b10010001 M"
b100110110011011011 4
b100110110011011011 &"
b100010 2
b100010 6"
b100010 ;"
b100010 ="
b111010101011100011101010 6
b111010101011100011101010 q
b1001101 :
b1001101 O
b1001 K"
b1001 U"
b0 J"
b0 T"
b10 E"
b10 F"
b111000 B"
b100000 <"
b100100000000101010 8
b100100000000101010 c
b11101010 u
b11101010 !"
b11101010 s
b11101010 }
b10111000 t
b10111000 ~
b111110110011011110011000000000010001100 <
b111110110011011110011000000000010001100 C
b10011110 P"
b10011110 Q"
b1010111 O"
b1010111 R"
b1101 N"
b1101 S"
b1011000011001011110010 ,
b1011000011001011110010 d"
b100 -"
b100 /"
b1101 '"
b1101 1"
b1001 $"
b1001 3"
b1010010 :"
b1010010 >"
b1110111 H"
b100110 G"
b100101 9"
b100101 ?"
b11101 8"
b11101 @"
b1100000 D"
b10100000 C"
b101 7"
b101 A"
b0 a
b0 k
b1001 d
b1001 m
b101010 b
b101010 l
b11101010 x
b11101010 y
b11110100 w
b11110100 z
b10111000 v
b10111000 {
b101110 r
b101110 |
b0 A
b0 K
b10001100 @
b10001100 J
b10110001 [
b10110001 \
0Q
0R
1S
1T
b1110011 Z
b1110011 ]
b1101 Y
b1101 ^
b10011110010101111101 1
b10011110010101111101 I"
b11100 .
b11100 ^"
b11001011 e"
b11001011 g"
b101100 b"
b101100 j"
b110010 a"
b110010 i"
b11110010 f"
b11110010 k"
b10 c"
b10 h"
b1101 #"
b1101 4"
b10100100010010100011101101 3
b10100100010010100011101101 5"
b0 g
b0 h
b1001 f
b1001 i
b10 e
b10 j
b1110101011110100101110000010111010 7
b1110101011110100101110000010111010 n
b10001100 F
b10001100 G
b1111101 ?
b1111101 I
b10011011 D
b10011011 M
b11001100 B
b11001100 L
b11110001 E
b11110001 H
b101100010111001111011010 ;
b101100010111001111011010 N
b11001011010 -
b11001011010 `"
b100110101 5
b100110101 ""
b100110 9
b100110 `
b1000110011110001 =
b1000110011110001 >
1X"
0Y"
b1 W"
b1 _"
b1 /
b1 V"
b101 (
b10010110100101111010101111100101001000100101000111110101011011111010101111000101100000101101000001101011000101110111110101000110011110001 #
b10010110100101111010101111100101001000100101000111110101011011111010101111000101100000101101000001101011000101110111110101000110011110001 *
b10011100100110100000011100101101 $
0"
#13000
b111 &
1"
#14000
1o
b11000000000010111111101010101100000010000000000000110011011010010000110100001101000011010110001101100110111111011100010101011010010010011010000000001000110000 !
b11000000000010111111101010101100000010000000000000110011011010010000110100001101000011010110001101100110111111011100010101011010010010011010000000001000110000 +
b10101 .
b10101 ^"
b10000001 0
b10000001 M"
0X"
1Y"
b1010 W"
b1010 _"
b1010 /
b1010 V"
b11001101101001 4
b11001101101001 &"
b0 2
b0 6"
b0 ;"
b0 ="
b11010000110100001101 6
b11010000110100001101 q
b1110001 :
b1110001 O
b1000 K"
b1000 U"
b0 E"
b0 F"
b10111011 B"
b0 <"
b110001101100110111111 8
b110001101100110111111 c
b1101 t
b1101 ~
b1101 s
b1101 }
b1101 u
b1101 !"
b101011010010010011010000000001000110000 <
b101011010010010011010000000001000110000 C
b10001110 P"
b10001110 Q"
b111100 O"
b111100 R"
b1111 N"
b1111 S"
b11000000000010111111101 ,
b11000000000010111111101 d"
b1101 ("
b1101 0"
b0 -"
b0 /"
b110 '"
b110 1"
b110 $"
b110 3"
0)"
b1001001 :"
b1001001 >"
b10010100 H"
b1001100 G"
b1001011 9"
b1001011 ?"
b0 D"
b0 C"
b11110000 8"
b11110000 @"
b1100110 a
b1100110 k
b1100011 d
b1100011 m
b111111 b
b111111 l
b11010110 x
b11010110 y
b1101 w
b1101 z
b10101110 v
b10101110 {
b10100000 r
b10100000 |
0p
b10 A
b10 K
b110000 @
b110000 J
1Q
1R
0S
0T
b10011100 [
b10011100 \
b10101110 Z
b10101110 ]
b100 Y
b100 ^
b10001110001111001111 1
b10001110001111001111 I"
b10101011 e"
b10101011 g"
b1100000 b"
b1100000 j"
b101 a"
b101 i"
b11111101 f"
b11111101 k"
b101 c"
b101 h"
b10 %"
b10 2"
b100 #"
b100 4"
0,"
b10010010100101111110000101 3
b10010010100101111110000101 5"
b110 g
b110 h
b11 f
b11 i
b11 e
b11 j
b1101011000001101101011101010000001 7
b1101011000001101101011101010000001 n
b11110100 F
b11110100 G
b1010110 ?
b1010110 I
b10010010 D
b10010010 M
b1101000 B
b1101000 L
b1100010 E
b1100010 H
b100111001010111001001010 ;
b100111001010111001001010 N
b10101011101 -
b10101011101 `"
b10010000 5
b10010000 ""
b110001111 9
b110001111 `
b1111010001100010 =
b1111010001100010 >
b110 (
b1010111010100111001111001110100100101001011111100010100101000110101100000101101111010100000110011111001110010101100100101111010001100010 #
b1010111010100111001111001110100100101001011111100010100101000110101100000101101111010100000110011111001110010101100100101111010001100010 *
b10000010101011111111010010101110 $
0"
#15000
b1000 &
1"
#16000
b10101000 r
b10101000 |
b1011 f
b1011 i
b1000000000000000000000000101010001xxx00000000000101110110011010111011111110111111110111001111101111111111101010010011011011000100010011001111100000000100010011 !
b1000000000000000000000000101010001xxx00000000000101110110011010111011111110111111110111001111101111111111101010010011011011000100010011001111100000000100010011 +
1o
b10111011001101011 4
b10111011001101011 &"
b0 2
b0 6"
b0 ;"
b0 ="
b10111111 t
b10111111 ~
b101111111011111111011100 6
b101111111011111111011100 q
b1001101 :
b1001101 O
b1 K"
b1 U"
bx J"
bx T"
b1xxx0 0
b1xxx0 M"
b100101 B"
b0 <"
b1111101111111111101010 8
b1111101111111111101010 c
b10111111 u
b10111111 !"
b11011100 s
b11011100 }
b1011000100010011001111100000000100010011 <
b1011000100010011001111100000000100010011 C
b11100 P"
b11100 Q"
b10001010 O"
b10001010 R"
0L"
b1010 N"
b1010 S"
b100000000000000000000000 ,
b100000000000000000000000 d"
b10 -"
b10 /"
b1110 '"
b1110 1"
b1100 $"
b1100 3"
1)"
b1101101 :"
b1101101 >"
b10000000 D"
b1000010 H"
b11010110 G"
b11010101 9"
b11010101 ?"
b11000000 C"
b10 7"
b10 A"
b11111011 d
b11111011 m
b11111111 a
b11111111 k
b101010 b
b101010 l
b11011100 x
b11011100 y
b10111111 w
b10111111 z
b10011010 v
b10011010 {
b1 A
b1 K
b10011 @
b10011 J
b11100101 [
b11100101 \
0Q
0R
1S
1T
b1110000 Z
b1110000 ]
b1 Y
b1 ^
b1100 V
b1100 _
b11100100010101010 1
b11100100010101010 I"
b10101 .
b10101 ^"
b11010 e"
b11010 g"
b10000000 b"
b10000000 j"
b0 a"
b0 i"
b0 f"
b0 k"
b110 c"
b110 h"
b1110 #"
b1110 4"
1,"
b11011011101010111110000010 3
b11011011101010111110000010 5"
b1111 g
b1111 h
b10 e
b10 j
b1101110010111111100110101010100001 7
b1101110010111111100110101010100001 n
b1100010 F
b1100010 G
b10110001 ?
b10110001 I
b10011 D
b10011 M
b111110 B
b111110 L
b1001111 E
b1001111 H
b111001010111000000011100 ;
b111001010111000000011100 N
b11010110 -
b11010110 `"
b10111001 5
b10111001 ""
b1111101110 9
b1111101110 `
b110001001001111 =
b110001001001111 >
0X"
1Y"
b110 W"
b110 _"
b110 /
b110 V"
b111 (
b110101101001110100010101010110110111010101111100001000111101110111001011111100101010100000111011101110010101110000011000110001001001111 #
b110101101001110100010101010110110111010101111100001000111101110111001011111100101010100000111011101110010101110000011000110001001001111 *
b1001001110101101101010001101011 $
0"
#17000
b1001 &
1"
