rewiring/large_test_seed0/cycle_0035/tb_top.vcd
$date
	Tue Nov  4 00:12:47 2025
$end
$version
	Icarus Verilog
$end
$timescale
	1ps
$end
$scope module tb_top $end
$var wire 159 ! out_flat [158:0] $end
$var reg 1 " clk $end
$var reg 137 # in_flat [136:0] $end
$var reg 32 $ rng_state [31:0] $end
$var reg 1 % rst_n $end
$var integer 32 & cyc [31:0] $end
$var integer 32 ' cycles [31:0] $end
$var integer 32 ( i [31:0] $end
$var integer 32 ) seed [31:0] $end
$scope module dut $end
$var wire 1 " clk $end
$var wire 137 * in_flat [136:0] $end
$var wire 1 % rst_n $end
$var wire 159 + out_flat [158:0] $end
$var wire 24 , const_shift_wrapper_out_flat [23:0] $end
$var wire 11 - const_shift_wrapper_in_flat [10:0] $end
$var wire 6 . const_reduce_wrapper_out_flat [5:0] $end
$var wire 4 / const_reduce_wrapper_in_flat [3:0] $end
$var wire 8 0 const_partselect_wrapper_out_flat [7:0] $end
$var wire 20 1 const_partselect_wrapper_in_flat [19:0] $end
$var wire 8 2 const_nested_wrapper_out_flat [7:0] $end
$var wire 27 3 const_nested_wrapper_in_flat [26:0] $end
$var wire 19 4 const_logic_wrapper_out_flat [18:0] $end
$var wire 10 5 const_logic_wrapper_in_flat [9:0] $end
$var wire 24 6 const_conditional_wrapper_out_flat [23:0] $end
$var wire 34 7 const_conditional_wrapper_in_flat [33:0] $end
$var wire 22 8 const_concat_repl_wrapper_out_flat [21:0] $end
$var wire 10 9 const_concat_repl_wrapper_in_flat [9:0] $end
$var wire 8 : const_compare_wrapper_out_flat [7:0] $end
$var wire 24 ; const_compare_wrapper_in_flat [23:0] $end
$var wire 40 < const_arith_wrapper_out_flat [39:0] $end
$var wire 16 = const_arith_wrapper_in_flat [15:0] $end
$scope module u_const_arith_wrapper $end
$var wire 16 > in_flat [15:0] $end
$var wire 8 ? sum_c [7:0] $end
$var wire 8 @ rem_c [7:0] $end
$var wire 8 A quot_c [7:0] $end
$var wire 8 B prod_c [7:0] $end
$var wire 40 C out_flat [39:0] $end
$var wire 8 D diff_c [7:0] $end
$var wire 8 E b [7:0] $end
$var wire 8 F a [7:0] $end
$scope module u_const_arith $end
$var wire 8 G a [7:0] $end
$var wire 8 H b [7:0] $end
$var wire 8 I sum_c [7:0] $end
$var wire 8 J rem_c [7:0] $end
$var wire 8 K quot_c [7:0] $end
$var wire 8 L prod_c [7:0] $end
$var wire 8 M diff_c [7:0] $end
$upscope $end
$upscope $end
$scope module u_const_compare_wrapper $end
$var wire 24 N in_flat [23:0] $end
$var wire 8 O out_flat [7:0] $end
$var wire 1 P neq_c $end
$var wire 1 Q lt_c $end
$var wire 1 R le_c $end
$var wire 1 S gt_c $end
$var wire 1 T ge_c $end
$var wire 1 U eq_c $end
$var wire 4 V d [3:0] $end
$var wire 1 W case_neq_c $end
$var wire 1 X case_eq_c $end
$var wire 4 Y c [3:0] $end
$var wire 8 Z b [7:0] $end
$var wire 8 [ a [7:0] $end
$scope module u_const_compare $end
$var wire 8 \ a [7:0] $end
$var wire 8 ] b [7:0] $end
$var wire 4 ^ c [3:0] $end
$var wire 4 _ d [3:0] $end
$var wire 1 P neq_c $end
$var wire 1 Q lt_c $end
$var wire 1 R le_c $end
$var wire 1 S gt_c $end
$var wire 1 T ge_c $end
$var wire 1 U eq_c $end
$var wire 1 W case_neq_c $end
$var wire 1 X case_eq_c $end
$upscope $end
$upscope $end
$scope module u_const_concat_repl_wrapper $end
$var wire 10 ` in_flat [9:0] $end
$var wire 8 a rep_c [7:0] $end
$var wire 6 b rep2_c [5:0] $end
$var wire 22 c out_flat [21:0] $end
$var wire 8 d cat_c [7:0] $end
$var wire 2 e c [1:0] $end
$var wire 4 f b [3:0] $end
$var wire 4 g a [3:0] $end
$scope module u_const_concat_repl $end
$var wire 4 h a [3:0] $end
$var wire 4 i b [3:0] $end
$var wire 2 j c [1:0] $end
$var wire 8 k rep_c [7:0] $end
$var wire 6 l rep2_c [5:0] $end
$var wire 8 m cat_c [7:0] $end
$upscope $end
$upscope $end
$scope module u_const_conditional_wrapper $end
$var wire 34 n in_flat [33:0] $end
$var wire 1 o sel2 $end
$var wire 1 p sel1 $end
$var wire 24 q out_flat [23:0] $end
$var wire 8 r d [7:0] $end
$var wire 8 s cond3_c [7:0] $end
$var wire 8 t cond2_c [7:0] $end
$var wire 8 u cond1_c [7:0] $end
$var wire 8 v c [7:0] $end
$var wire 8 w b [7:0] $end
$var wire 8 x a [7:0] $end
$scope module u_const_conditional $end
$var wire 8 y a [7:0] $end
$var wire 8 z b [7:0] $end
$var wire 8 { c [7:0] $end
$var wire 8 | d [7:0] $end
$var wire 1 p sel1 $end
$var wire 1 o sel2 $end
$var wire 8 } cond3_c [7:0] $end
$var wire 8 ~ cond2_c [7:0] $end
$var wire 8 !" cond1_c [7:0] $end
$upscope $end
$upscope $end
$scope module u_const_logic_wrapper $end
$var wire 10 "" in_flat [9:0] $end
$var wire 4 #" y [3:0] $end
$var wire 4 $" xor_c [3:0] $end
$var wire 4 %" x [3:0] $end
$var wire 19 &" out_flat [18:0] $end
$var wire 4 '" or_c [3:0] $end
$var wire 4 (" not_c [3:0] $end
$var wire 1 )" lor_c $end
$var wire 1 *" lnot_c $end
$var wire 1 +" land_c $end
$var wire 1 ," b $end
$var wire 4 -" and_c [3:0] $end
$var wire 1 ." a $end
$scope module u_const_logic $end
$var wire 1 ." a $end
$var wire 4 /" and_c [3:0] $end
$var wire 1 ," b $end
$var wire 1 +" land_c $end
$var wire 1 )" lor_c $end
$var wire 4 0" not_c [3:0] $end
$var wire 4 1" or_c [3:0] $end
$var wire 4 2" x [3:0] $end
$var wire 4 3" xor_c [3:0] $end
$var wire 4 4" y [3:0] $end
$var wire 1 *" lnot_c $end
$upscope $end
$upscope $end
$scope module u_const_nested_wrapper $end
$var wire 27 5" in_flat [26:0] $end
$var wire 8 6" out_flat [7:0] $end
$var wire 3 7" s [2:0] $end
$var wire 8 8" r [7:0] $end
$var wire 8 9" q [7:0] $end
$var wire 8 :" p [7:0] $end
$var wire 8 ;" nested_c [7:0] $end
$scope module u_const_nested $end
$var wire 8 <" and_part [7:0] $end
$var wire 8 =" nested_c [7:0] $end
$var wire 8 >" p [7:0] $end
$var wire 8 ?" q [7:0] $end
$var wire 8 @" r [7:0] $end
$var wire 3 A" s [2:0] $end
$var wire 8 B" xor_qr [7:0] $end
$var wire 8 C" shl_rs [7:0] $end
$var wire 8 D" mul_part [7:0] $end
$var wire 8 E" mod_part [7:0] $end
$var wire 8 F" div_part [7:0] $end
$var wire 8 G" denom [7:0] $end
$var wire 8 H" add_pq [7:0] $end
$upscope $end
$upscope $end
$scope module u_const_partselect_wrapper $end
$var wire 20 I" in_flat [19:0] $end
$var wire 3 J" sel2_c [2:0] $end
$var wire 4 K" sel1_c [3:0] $end
$var wire 1 L" ovf_range $end
$var wire 8 M" out_flat [7:0] $end
$var wire 4 N" idx [3:0] $end
$var wire 8 O" data2 [7:0] $end
$var wire 8 P" data1 [7:0] $end
$scope module u_const_partselect $end
$var wire 8 Q" data1 [7:0] $end
$var wire 8 R" data2 [7:0] $end
$var wire 4 S" idx [3:0] $end
$var wire 3 T" sel2_c [2:0] $end
$var wire 4 U" sel1_c [3:0] $end
$var wire 1 L" ovf_range $end
$upscope $end
$upscope $end
$scope module u_const_reduce_wrapper $end
$var wire 4 V" in_flat [3:0] $end
$var wire 4 W" in_vec [3:0] $end
$var wire 1 X" red_xor_c $end
$var wire 1 Y" red_xnor_c $end
$var wire 1 Z" red_or_c $end
$var wire 1 [" red_nor_c $end
$var wire 1 \" red_nand_c $end
$var wire 1 ]" red_and_c $end
$var wire 6 ^" out_flat [5:0] $end
$scope module u_const_reduce $end
$var wire 4 _" in_vec [3:0] $end
$var wire 1 X" red_xor_c $end
$var wire 1 Y" red_xnor_c $end
$var wire 1 Z" red_or_c $end
$var wire 1 [" red_nor_c $end
$var wire 1 \" red_nand_c $end
$var wire 1 ]" red_and_c $end
$upscope $end
$upscope $end
$scope module u_const_shift_wrapper $end
$var wire 11 `" in_flat [10:0] $end
$var wire 8 a" shr_c [7:0] $end
$var wire 8 b" shl_c [7:0] $end
$var wire 3 c" shift_amt [2:0] $end
$var wire 24 d" out_flat [23:0] $end
$var wire 8 e" data_in [7:0] $end
$var wire 8 f" ashr_c [7:0] $end
$scope module u_const_shift $end
$var wire 8 g" data_in [7:0] $end
$var wire 3 h" shift_amt [2:0] $end
$var wire 8 i" shr_c [7:0] $end
$var wire 8 j" shl_c [7:0] $end
$var wire 8 k" ashr_c [7:0] $end
$upscope $end
$upscope $end
$upscope $end
$upscope $end
$enddefinitions $end
$comment Show the parameter values. $end
$dumpall
$end
#0
$dumpvars
b10101000 k"
b10101000 j"
b10101000 i"
b0 h"
b10101000 g"
b10101000 f"
b10101000 e"
b101010001010100010101000 d"
b0 c"
b10101000 b"
b10101000 a"
b10101000000 `"
b111 _"
b11100 ^"
0]"
1\"
0["
1Z"
0Y"
1X"
b111 W"
b111 V"
b1010 U"
b11 T"
b10 S"
b101111 R"
b10101000 Q"
b10101000 P"
b101111 O"
b10 N"
b10100110 M"
0L"
b1010 K"
b11 J"
b10101000001011110010 I"
b1110001 H"
b1001110 G"
b0 F"
b0 E"
b10100000 D"
b10100000 C"
b10011101 B"
b1 A"
b11010000 @"
b1001101 ?"
b100100 >"
b10000000 ="
b10000000 <"
b10000000 ;"
b100100 :"
b1001101 9"
b11010000 8"
b1 7"
b10000000 6"
b1001000100110111010000001 5"
b1100 4"
b10 3"
b1110 2"
b1110 1"
b1 0"
b1100 /"
0."
b1100 -"
0,"
0+"
1*"
0)"
b1 ("
b1110 '"
b1100111000100001001 &"
b1110 %"
b10 $"
b1100 #"
b1110110000 ""
b101000 !"
b101000 ~
b10000000 }
b11010011 |
b10011111 {
b101000 z
b10000000 y
b10000000 x
b101000 w
b10011111 v
b101000 u
b101000 t
b10000000 s
b11010011 r
b1010000010100010000000 q
0p
1o
b1000000000101000100111111101001101 n
b101 m
b0 l
b0 k
b0 j
b101 i
b0 h
b0 g
b101 f
b0 e
b101 d
b10100000000000000 c
b0 b
b0 a
b10100 `
b10 _
b11 ^
b10111 ]
b11011011 \
b11011011 [
b10111 Z
b11 Y
0X
1W
b10 V
0U
1T
1S
0R
0Q
1P
b1001101 O
b110110110001011100110010 N
b100 M
b10100000 L
b1 K
b100 J
b11001100 I
b11100100 H
b11101000 G
b11101000 F
b11100100 E
b100 D
b1100110000000100101000000000000100000100 C
b10100000 B
b1 A
b100 @
b11001100 ?
b1110100011100100 >
b1110100011100100 =
b1100110000000100101000000000000100000100 <
b110110110001011100110010 ;
b1001101 :
b10100 9
b10100000000000000 8
b1000000000101000100111111101001101 7
b1010000010100010000000 6
b1110110000 5
b1100111000100001001 4
b1001000100110111010000001 3
b10000000 2
b10101000001011110010 1
b10100110 0
b111 /
b11100 .
b10101000000 -
b101010001010100010101000 ,
b101010001010100010101000011100101001101000000011001110001000010010010100000101000100000000000010100000000000000010011011100110000000100101000000000000100000100 +
b10101000011101100010111100100000100010011011101000001111011000100000000101000101111111010110100010100110101001011001100101110100011100100 *
b10101000000110101101010001110111 )
bx (
b1100100 '
b0 &
0%
b10000011101001111010111101010000 $
b10101000011101100010111100100000100010011011101000001111011000100000000101000101111111010110100010100110101001011001100101110100011100100 #
0"
b101010001010100010101000011100101001101000000011001110001000010010010100000101000100000000000010100000000000000010011011100110000000100101000000000000100000100 !
$end
#1000
b1 &
1"
#2000
b0 (
0"
#3000
b10 &
1"
#4000
b11000010000011100000011100000111000000000000001101110111101101111010011110100111101001101000111011101000000010011010111111011101100000111010000000000110101 !
b11000010000011100000011100000111000000000000001101110111101101111010011110100111101001101000111011101000000010011010111111011101100000111010000000000110101 +
b11100 0
b11100 M"
b0 2
b0 6"
b0 ;"
b0 ="
b11110100 t
b11110100 ~
b111101001111010011110100 6
b111101001111010011110100 q
b1 K"
b1 U"
b110 J"
b110 T"
b110111011110110 4
b110111011110110 &"
b11011 B"
b0 <"
b1101000111011101000000 8
b1101000111011101000000 c
b11110100 u
b11110100 !"
b11110100 s
b11110100 }
b111111011101100000111010000000000110101 <
b111111011101100000111010000000000110101 C
b11000010000011100000 ,
b11000010000011100000 d"
b10000 P"
b10000 Q"
b11110000 O"
b11110000 R"
b11 N"
b11 S"
b0 -"
b0 /"
b1101 '"
b1101 1"
b1101 $"
b1101 3"
b1110 ("
b1110 0"
1+"
1)"
b10100001 :"
b10100001 >"
b10010010 H"
b11110010 G"
b11110001 9"
b11110001 ?"
b11101010 8"
b11101010 @"
b0 D"
b10000000 C"
b110 7"
b110 A"
b11011101 a
b11011101 k
b11010001 d
b11010001 m
b1101100 x
b1101100 y
b11110100 w
b11110100 z
b11101 v
b11101 {
b11001100 r
b11001100 |
b0 A
b0 K
b110101 @
b110101 J
b11101000 [
b11101000 \
b1011010 Z
b1011010 ]
b1011 Y
b1011 ^
b0 V
b0 _
b10000011 e"
b10000011 g"
b1100 b"
b1100 j"
b100000 a"
b100000 i"
b11100000 f"
b11100000 k"
b10 c"
b10 h"
b10000111100000011 1
b10000111100000011 I"
b11100 .
b11100 ^"
b1 %"
b1 2"
0*"
1."
1,"
b101000011111000111101010110 3
b101000011111000111101010110 5"
b1101 g
b1101 h
b1 f
b1 i
b110110011110100000111011100110001 7
b110110011110100000111011100110001 n
b110101 F
b110101 G
b1111110 ?
b1111110 I
b11101100 D
b11101100 M
b11101 B
b11101 L
b1001001 E
b1001001 H
b111010000101101010110000 ;
b111010000101101010110000 N
b10000011010 -
b10000011010 `"
b1110011 5
b1110011 ""
b1101000100 9
b1101000100 `
b11010101001001 =
b11010101001001 >
1X"
0Y"
b1011 W"
b1011 _"
b1011 /
b1011 V"
b1 (
b10000010101000000011000000111000001111100011110110110000111011011011011110100001110111001000111100100111000001101101100000011010101001001 #
b10000010101000000011000000111000001111100011110110110000111011011011011110100001110111001000111100100111000001101101100000011010101001001 *
b1000111001111011101110100000101 $
0"
1%
#5000
b11 &
1"
#6000
b1100000000100111111001000111010100000100000000000010001011011100000110000001100000011001101011011011101000000010011010010101101110111011110100000001000011101 !
b1100000000100111111001000111010100000100000000000010001011011100000110000001100000011001101011011011101000000010011010010101101110111011110100000001000011101 +
0Z"
1["
b1010000 0
b1010000 M"
b1000101101110 4
b1000101101110 &"
b1000000 2
b1000000 6"
b1000000 ;"
b1000000 ="
b1100 t
b1100 ~
b11000000110000001100 6
b11000000110000001100 q
b1001101 :
b1001101 O
b101 K"
b101 U"
b0 J"
b0 T"
b110 F"
b1111000 B"
b1000000 <"
b1101011011011101000000 8
b1101011011011101000000 c
b1100 s
b1100 }
b1100 u
b1100 !"
b10101101110111011110100000001000011101 <
b10101101110111011110100000001000011101 C
b1100000000100111111001 ,
b1100000000100111111001 d"
b1011100 P"
b1011100 Q"
b1100010 O"
b1100010 R"
b10 N"
b10 S"
b1101 ("
b1101 0"
b10 '"
b10 1"
b10 $"
b10 3"
b110010 :"
b110010 >"
b111001 H"
b1000 G"
b111 9"
b111 ?"
b1111111 8"
b1111111 @"
b1000111 D"
b1111111 C"
b0 7"
b0 A"
b11010110 d
b11010110 m
b1100 x
b1100 y
b10001110 w
b10001110 z
b10010010 v
b10010010 {
b11010010 r
b11010010 |
1p
b10 A
b10 K
b11101 @
b11101 J
0Q
0R
1S
1T
b10110010 [
b10110010 \
b10001011 Z
b10001011 ]
b1000 Y
b1000 ^
b1100 V
b1100 _
b10010011 e"
b10010011 g"
b110000 b"
b110000 j"
b1001 a"
b1001 i"
b11111001 f"
b11111001 k"
b100 c"
b100 h"
b1011100011000100010 1
b1011100011000100010 I"
b111 .
b111 ^"
b10 %"
b10 2"
b0 #"
b0 4"
b1100100000011101111111000 3
b1100100000011101111111000 5"
b110 f
b110 i
b110010001110100100101101001011 7
b110010001110100100101101001011 n
b11010001 F
b11010001 G
b101011 ?
b101011 I
b1110111 D
b1110111 M
b1111010 B
b1111010 L
b1011010 E
b1011010 H
b101100101000101110001100 ;
b101100101000101110001100 N
b10010011100 -
b10010011100 `"
b10000011 5
b10000011 ""
b1101011000 9
b1101011000 `
b1101000101011010 =
b1101000101011010 >
0X"
1Y"
b0 W"
b0 _"
b0 /
b0 V"
b10 (
b10010011000010110010001000100010010000001110111111000001000011000011010001110101001011010101111111000101101100101100011001101000101011010 #
b10010011000010110010001000100010010000001110111111000001000011000011010001110101001011010101111111000101101100101100011001101000101011010 *
b100101101101010100100100110 $
0"
#7000
b100 &
1"
#8000
b11100 .
b11100 ^"
b1011111110011100001110100000000010101111010100000011101011111010111111101010001010000010001010101011100010011000001100010110111110000000101100010 !
b1011111110011100001110100000000010101111010100000011101011111010111111101010001010000010001010101011100010011000001100010110111110000000101100010 +
1Z"
1X"
0["
0Y"
b1000 W"
b1000 _"
b1000 /
b1000 V"
b111010 0
b111010 M"
b0 2
b0 6"
b0 ;"
b0 ="
b11010111 t
b11010111 ~
b110101111101011111110101 6
b110101111101011111110101 q
b1110001 :
b1110001 O
b11 K"
b11 U"
b101 J"
b101 T"
b1010111101010000001 4
b1010111101010000001 &"
b0 F"
b10001 B"
b0 <"
b1010000010001010101 8
b1010000010001010101 c
b11110101 s
b11110101 }
b11010111 u
b11010111 !"
b11000001100010110111110000000101100010 <
b11000001100010110111110000000101100010 C
b1011111110 ,
b1011111110 d"
b111110 P"
b111110 Q"
b101010 O"
b101010 R"
b1 N"
b1 S"
b0 ("
b0 0"
b1010 -"
b1010 /"
b1111 '"
b1111 1"
b101 $"
b101 3"
0+"
0)"
b10100110 :"
b10100110 >"
b1110000 H"
b11001011 G"
b11001010 9"
b11001010 ?"
b11011011 8"
b11011011 @"
b0 D"
b11000000 C"
b110 7"
b110 A"
b10001 a
b10001 k
b10100 d
b10100 m
b10101 b
b10101 l
b11110101 x
b11110101 y
b11010111 w
b11010111 z
b10010100 v
b10010100 {
b10101001 r
b10101001 |
0p
b1 A
b1 K
b1100010 @
b1100010 J
1Q
1R
0S
0T
b1000000 [
b1000000 \
b11000101 Z
b11000101 ]
b1011 Y
b1011 ^
b11 V
b11 _
b10000000 e"
b10000000 g"
b0 b"
b0 j"
b10 a"
b10 i"
b11111110 f"
b11111110 k"
b110 c"
b110 h"
b111110001010100001 1
b111110001010100001 I"
b1111 %"
b1111 2"
b1010 #"
b1010 4"
1*"
0."
0,"
b101001101100101011011011110 3
b101001101100101011011011110 5"
b1 g
b1 h
b100 f
b100 i
b1 e
b1 j
b1111010111010111100101001010100101 7
b1111010111010111100101001010100101 n
b11001001 F
b11001001 G
b110000 ?
b110000 I
b1100010 D
b1100010 M
b11011111 B
b11011111 L
b1100111 E
b1100111 H
b10000001100010110110011 ;
b10000001100010110110011 N
b10000000110 -
b10000000110 `"
b1111101000 5
b1111101000 ""
b1010001 9
b1010001 `
b1100100101100111 =
b1100100101100111 >
b11 (
b10000001100001111010101000011000110110010101101111110111110100111101111010111101010010100010100110001010000100010101100111100100101100111 #
b10000001100001111010101000011000110110010101101111110111110100111101111010111101010010100010100110001010000100010101100111100100101100111 *
b11001111101010011001010100000011 $
0"
#9000
b101 &
1"
#10000
b10101110101011101010111011100001101000010000110101111010100000101110100101101111111010010011101000110011111111010011010000110000001100000000000000000100001100 !
b10101110101011101010111011100001101000010000110101111010100000101110100101101111111010010011101000110011111111010011010000110000001100000000000000000100001100 +
b110011 a
b110011 k
b11 g
b11 h
b110100 0
b110100 M"
b100001 2
b100001 6"
b100001 ;"
b100001 ="
b111010010110111111101001 6
b111010010110111111101001 q
b1001101 :
b1001101 O
b10 J"
b10 T"
b1010111101010000010 4
b1010111101010000010 &"
b100000 <"
b1 E"
b1 F"
b1101110 B"
b11101000110011111111 8
b11101000110011111111 c
b11101001 u
b11101001 !"
b11101001 s
b11101001 }
b1101111 t
b1101111 ~
b110000001100000000000000000100001100 <
b110000001100000000000000000100001100 C
b10101110101011101010111 ,
b10101110101011101010111 d"
b110011 P"
b110011 Q"
b10011 O"
b10011 R"
b11 N"
b11 S"
1)"
b11011001 :"
b11011001 >"
b100000 D"
b1010110 H"
b1111110 G"
b1111101 9"
b1111101 ?"
b10011 8"
b10011 @"
b110000 C"
b100 7"
b100 A"
b111010 d
b111010 m
b111111 b
b111111 l
b11011111 x
b11011111 y
b11101001 w
b11101001 z
b1101111 v
b1101111 {
b10100000 r
b10100000 |
0o
b1100 @
b1100 J
0Q
0R
1S
1T
b10011000 [
b10011000 \
b110010 Z
b110010 ]
b1110 Y
b1110 ^
b1101 V
b1101 _
b1010111 e"
b1010111 g"
b1010111 b"
b1010111 j"
b1010111 a"
b1010111 i"
b1010111 f"
b1010111 k"
b0 c"
b0 h"
b110011000100110011 1
b110011000100110011 I"
0*"
1."
b110110010111110100010011100 3
b110110010111110100010011100 5"
b1010 f
b1010 i
b11 e
b11 j
b1101111111101001011011111010000000 7
b1101111111101001011011111010000000 n
b10001100 F
b10001100 G
b1100 ?
b1100 I
b1100 D
b1100 M
b0 B
b0 L
b10000000 E
b10000000 H
b100110000011001011101101 ;
b100110000011001011101101 N
b1010111000 -
b1010111000 `"
b1111101010 5
b1111101010 ""
b11101011 9
b11101011 `
b1000110010000000 =
b1000110010000000 >
b100 (
b1010110000001001101001100111111001011111010001011100111110110110111111101001010111110100000000101011100100011001111011011000110010000000 #
b1010110000001001101001100111111001011111010001011100111110110110111111101001010111110100000000101011100100011001111011011000110010000000 *
b10110010110111101111000010101100 $
0"
#11000
b110 &
1"
#12000
b10101 .
b10101 ^"
b111000000011111011111110010101011101000000000110101110010000010011011111100010111001011110110110001100110000000010011011000011010011100110001010000000000010001 !
b111000000011111011111110010101011101000000000110101110010000010011011111100010111001011110110110001100110000000010011011000011010011100110001010000000000010001 +
0X"
1Y"
b1110100 0
b1110100 M"
b1 2
b1 6"
b1 ;"
b1 ="
b101111110001011100101111 6
b101111110001011100101111 q
b111 K"
b111 U"
b1010111001000001001 4
b1010111001000001001 &"
b1 E"
b1 F"
b1011 B"
b0 <"
b110110001100110000000 8
b110110001100110000000 c
b10111111 u
b10111111 !"
b10111 t
b10111 ~
b101111 s
b101111 }
b1000011010011100110001010000000000010001 <
b1000011010011100110001010000000000010001 C
b111000000011111011111110 ,
b111000000011111011111110 d"
b1111001 P"
b1111001 Q"
b11010000 O"
b11010000 R"
b1110 '"
b1110 1"
b100 $"
b100 3"
b1 ("
b1 0"
0)"
b1101110 :"
b1101110 >"
b11001111 H"
b1100010 G"
b1100001 9"
b1100001 ?"
b1101010 8"
b1101010 @"
b11000000 D"
b1000000 C"
b101 7"
b101 A"
b1100110 a
b1100110 k
b1101100 d
b1101100 m
b0 b
b0 l
b101111 x
b101111 y
b10111111 w
b10111111 z
b10111 v
b10111 {
b1100001 r
b1100001 |
b0 A
b0 K
b10001 @
b10001 J
b10100110 [
b10100110 \
b10001111 Z
b10001111 ]
b100 Y
b100 ^
b1001 V
b1001 _
b11111000 e"
b11111000 g"
b11100000 b"
b11100000 j"
b111110 a"
b111110 i"
b11111110 f"
b11111110 k"
b10 c"
b10 h"
b1111001110100000011 1
b1111001110100000011 I"
b1110 %"
b1110 2"
1*"
0."
b11011100110000101101010101 3
b11011100110000101101010101 5"
b110 g
b110 h
b1100 f
b1100 i
b0 e
b0 j
b10111110111111000101110110000100 7
b10111110111111000101110110000100 n
b10001 F
b10001 G
b10000110 ?
b10000110 I
b10011100 D
b10011100 M
b11000101 B
b11000101 L
b1110101 E
b1110101 H
b101001101000111101001001 ;
b101001101000111101001001 N
b11111000010 -
b11111000010 `"
b1110101000 5
b1110101000 ""
b110110000 9
b110110000 `
b1000101110101 =
b1000101110101 >
b110 W"
b110 _"
b110 /
b110 V"
b101 (
b11111000111011100101000000110101110011000010110110101111010100001011110111111001011101100010001010000101011100111010010010001000101110101 #
b11111000111011100101000000110101110011000010110110101111010100001011110111111001011101100010001010000101011100111010010010001000101110101 *
b10100000101001100100111111110001 $
0"
#13000
b111 &
1"
#14000
b1xxxx01 :
b1xxxx01 O
xQ
xR
xS
xT
b1000000001011111110110111001101xx1000000001100011100110001101101001111010011110xx01xxx100110011001100101010101xxxx010111110111010001100110100000000010100111 !
b1000000001011111110110111001101xx1000000001100011100110001101101001111010011110xx01xxx100110011001100101010101xxxx010111110111010001100110100000000010100111 +
b11100 .
b11100 ^"
1X"
0Y"
b111 W"
b111 _"
b111 /
b111 V"
b1101xx10 0
b1101xx10 M"
b1000111001100011011 4
b1000111001100011011 &"
b1001111010011110xx01xxx 6
b1001111010011110xx01xxx q
b1101 K"
b1101 U"
bx1 J"
bx1 T"
b101000 B"
b1001100110011001010101 8
b1001100110011001010101 c
b0xx01xxx s
b0xx01xxx }
b1001111 u
b1001111 !"
b1001111 t
b1001111 ~
b111110111010001100110100000000010100111 <
b111110111010001100110100000000010100111 C
b100000000101111111011 ,
b100000000101111111011 d"
b11010001 P"
b11010001 Q"
b10011111 O"
b10011111 R"
b111 N"
b111 S"
b1000 -"
b1000 /"
b110 $"
b110 3"
b11 ("
b11 0"
1)"
b11101000 :"
b11101000 >"
b10011111 H"
b10111000 G"
b10110111 9"
b10110111 ?"
b10011111 8"
b10011111 @"
b10000000 D"
b10000000 C"
b111 7"
b111 A"
b10011001 a
b10011001 k
b10011001 d
b10011001 m
b10101 b
b10101 l
b101000 x
b101000 y
b1001111 w
b1001111 z
b10100101 v
b10100101 {
b101x111 r
b101x111 |
1o
b10100111 @
b10100111 J
b1110000 [
b1110000 \
b0x110001 Z
b0x110001 ]
b1001 Y
b1001 ^
b1 V
b1 _
b10110001 e"
b10110001 g"
b10000 b"
b10000 j"
b1011 a"
b1011 i"
b11111011 f"
b11111011 k"
b100 c"
b100 h"
b11010001100111110111 1
b11010001100111110111 I"
b1100 %"
b1100 2"
1,"
b111010001011011110011111111 3
b111010001011011110011111111 5"
b1001 g
b1001 h
b1001 f
b1001 i
b1 e
b1 j
b10100001001111101001010101x11101 7
b10100001001111101001010101x11101 n
b10100111 F
b10100111 G
b1111101 ?
b1111101 I
b11010001 D
b11010001 M
b10011010 B
b10011010 L
b11010110 E
b11010110 H
b11100000x11000110010001 ;
b11100000x11000110010001 N
b10110001100 -
b10110001100 `"
b1100101001 5
b1100101001 ""
b1001100101 9
b1001100101 `
b1010011111010110 =
b1010011111010110 >
b110 (
b10110001011110000101111101111101000101101111001111111110010101001010001001111110010101011110110100101011100011000100100011010011111010110 #
b10110001011110000101111101111101000101101111001111111110010101001010001001111110010101011110110100101011100011000100100011010011111010110 *
b10011101010110000110101101100010 $
0"
#15000
b1000 &
1"
#16000
b1110001 :
b1110001 O
1Q
1R
0S
0T
b110000000000001011111110010101000100010010000100001110111000010111001110010011100100111000100111001000100111111011100011011011111010001000011000000000011000100 !
b110000000000001011111110010101000100010010000100001110111000010111001110010011100100111000100111001000100111111011100011011011111010001000011000000000011000100 +
b10101 .
b10101 ^"
0X"
1Y"
b110 W"
b110 _"
b110 /
b110 V"
b111011100001011 4
b111011100001011 &"
b100001 2
b100001 6"
b100001 ;"
b100001 ="
b10011100 t
b10011100 ~
b100111001001110010011100 6
b100111001001110010011100 q
b1 K"
b1 U"
b0 J"
b0 T"
b10001 0
b10001 M"
b10101101 B"
b100000 <"
b100111001000100111111 8
b100111001000100111111 c
b10011100 u
b10011100 !"
b10011100 s
b10011100 }
b1011011111010001000011000000000011000100 <
b1011011111010001000011000000000011000100 C
b110000000000001011111110 ,
b110000000000001011111110 d"
b11101 P"
b11101 Q"
b11101010 O"
b11101010 R"
1L"
b1110 N"
b1110 S"
b1 ("
b1 0"
b0 -"
b0 /"
b1110 $"
b1110 3"
b11101110 :"
b11101110 >"
b10100111 H"
b10111010 G"
b10111001 9"
b10111001 ?"
b10100 8"
b10100 @"
b1100000 D"
b10100000 C"
b11 7"
b11 A"
b1000100 a
b1000100 k
b1001110 d
b1001110 m
b111111 b
b111111 l
b10000100 x
b10000100 y
b10011100 w
b10011100 z
b1101101 v
b1101101 {
b11100100 r
b11100100 |
b11000100 @
b11000100 J
b110 [
b110 \
b111111 Z
b111111 ]
b10 Y
b10 ^
0X
1W
b1001 V
b1001 _
b10100111 e"
b10100111 g"
b11000000 b"
b11000000 j"
b10 a"
b10 i"
b11111110 f"
b11111110 k"
b110 c"
b110 h"
b11101111010101110 1
b11101111010101110 I"
b1110 %"
b1110 2"
b0 #"
b0 4"
b111011101011100100010100011 3
b111011101011100100010100011 5"
b100 g
b100 h
b1110 f
b1110 i
b11 e
b11 j
b1000010010011100011011011110010001 7
b1000010010011100011011011110010001 n
b11000100 F
b11000100 G
b10110111 ?
b10110111 I
b11010001 D
b11010001 M
b1100 B
b1100 L
b11110011 E
b11110011 H
b1100011111100101001 ;
b1100011111100101001 N
b10100111110 -
b10100111110 `"
b1110000001 5
b1110000001 ""
b100111011 9
b100111011 `
b1100010011110011 =
b1100010011110011 >
b111 (
b10100111111000110110101011101101110101110010001000011111000001100001010011100010110111101000101011011000011011111001010011100010011110011 #
b10100111111000110110101011101101110101110010001000011111000001100001010011100010110111101000101011011000011011111001010011100010011110011 *
b11101000100100011011110101001111 $
0"
#17000
b1001 &
1"
