rewiring/large_test_seed0/cycle_0048/tb_top.vcd
$date
	Tue Nov  4 00:14:17 2025
$end
$version
	Icarus Verilog
$end
$timescale
	1ps
$end
$scope module tb_top $end
$var wire 159 ! out_flat [158:0] $end
$var reg 1 " clk $end
$var reg 138 # in_flat [137:0] $end
$var reg 32 $ rng_state [31:0] $end
$var reg 1 % rst_n $end
$var integer 32 & cyc [31:0] $end
$var integer 32 ' cycles [31:0] $end
$var integer 32 ( i [31:0] $end
$var integer 32 ) seed [31:0] $end
$scope module dut $end
$var wire 1 " clk $end
$var wire 138 * in_flat [137:0] $end
$var wire 1 % rst_n $end
$var wire 159 + out_flat [158:0] $end
$var wire 24 , const_shift_wrapper_out_flat [23:0] $end
$var wire 11 - const_shift_wrapper_in_flat [10:0] $end
$var wire 6 . const_reduce_wrapper_out_flat [5:0] $end
$var wire 4 / const_reduce_wrapper_in_flat [3:0] $end
$var wire 8 0 const_partselect_wrapper_out_flat [7:0] $end
$var wire 20 1 const_partselect_wrapper_in_flat [19:0] $end
$var wire 8 2 const_nested_wrapper_out_flat [7:0] $end
$var wire 27 3 const_nested_wrapper_in_flat [26:0] $end
$var wire 19 4 const_logic_wrapper_out_flat [18:0] $end
$var wire 10 5 const_logic_wrapper_in_flat [9:0] $end
$var wire 24 6 const_conditional_wrapper_out_flat [23:0] $end
$var wire 34 7 const_conditional_wrapper_in_flat [33:0] $end
$var wire 22 8 const_concat_repl_wrapper_out_flat [21:0] $end
$var wire 10 9 const_concat_repl_wrapper_in_flat [9:0] $end
$var wire 8 : const_compare_wrapper_out_flat [7:0] $end
$var wire 24 ; const_compare_wrapper_in_flat [23:0] $end
$var wire 40 < const_arith_wrapper_out_flat [39:0] $end
$var wire 16 = const_arith_wrapper_in_flat [15:0] $end
$scope module u_const_arith_wrapper $end
$var wire 16 > in_flat [15:0] $end
$var wire 8 ? sum_c [7:0] $end
$var wire 8 @ rem_c [7:0] $end
$var wire 8 A quot_c [7:0] $end
$var wire 8 B prod_c [7:0] $end
$var wire 40 C out_flat [39:0] $end
$var wire 8 D diff_c [7:0] $end
$var wire 8 E b [7:0] $end
$var wire 8 F a [7:0] $end
$scope module u_const_arith $end
$var wire 8 G a [7:0] $end
$var wire 8 H b [7:0] $end
$var wire 8 I sum_c [7:0] $end
$var wire 8 J rem_c [7:0] $end
$var wire 8 K quot_c [7:0] $end
$var wire 8 L prod_c [7:0] $end
$var wire 8 M diff_c [7:0] $end
$upscope $end
$upscope $end
$scope module u_const_compare_wrapper $end
$var wire 24 N in_flat [23:0] $end
$var wire 8 O out_flat [7:0] $end
$var wire 1 P neq_c $end
$var wire 1 Q lt_c $end
$var wire 1 R le_c $end
$var wire 1 S gt_c $end
$var wire 1 T ge_c $end
$var wire 1 U eq_c $end
$var wire 4 V d [3:0] $end
$var wire 1 W case_neq_c $end
$var wire 1 X case_eq_c $end
$var wire 4 Y c [3:0] $end
$var wire 8 Z b [7:0] $end
$var wire 8 [ a [7:0] $end
$scope module u_const_compare $end
$var wire 8 \ a [7:0] $end
$var wire 8 ] b [7:0] $end
$var wire 4 ^ c [3:0] $end
$var wire 4 _ d [3:0] $end
$var wire 1 P neq_c $end
$var wire 1 Q lt_c $end
$var wire 1 R le_c $end
$var wire 1 S gt_c $end
$var wire 1 T ge_c $end
$var wire 1 U eq_c $end
$var wire 1 W case_neq_c $end
$var wire 1 X case_eq_c $end
$upscope $end
$upscope $end
$scope module u_const_concat_repl_wrapper $end
$var wire 10 ` in_flat [9:0] $end
$var wire 8 a rep_c [7:0] $end
$var wire 6 b rep2_c [5:0] $end
$var wire 22 c out_flat [21:0] $end
$var wire 8 d cat_c [7:0] $end
$var wire 2 e c [1:0] $end
$var wire 4 f b [3:0] $end
$var wire 4 g a [3:0] $end
$scope module u_const_concat_repl $end
$var wire 4 h a [3:0] $end
$var wire 4 i b [3:0] $end
$var wire 2 j c [1:0] $end
$var wire 8 k rep_c [7:0] $end
$var wire 6 l rep2_c [5:0] $end
$var wire 8 m cat_c [7:0] $end
$upscope $end
$upscope $end
$scope module u_const_conditional_wrapper $end
$var wire 34 n in_flat [33:0] $end
$var wire 1 o sel2 $end
$var wire 1 p sel1 $end
$var wire 24 q out_flat [23:0] $end
$var wire 8 r d [7:0] $end
$var wire 8 s cond3_c [7:0] $end
$var wire 8 t cond2_c [7:0] $end
$var wire 8 u cond1_c [7:0] $end
$var wire 8 v c [7:0] $end
$var wire 8 w b [7:0] $end
$var wire 8 x a [7:0] $end
$scope module u_const_conditional $end
$var wire 8 y a [7:0] $end
$var wire 8 z b [7:0] $end
$var wire 8 { c [7:0] $end
$var wire 8 | d [7:0] $end
$var wire 1 p sel1 $end
$var wire 1 o sel2 $end
$var wire 8 } cond3_c [7:0] $end
$var wire 8 ~ cond2_c [7:0] $end
$var wire 8 !" cond1_c [7:0] $end
$upscope $end
$upscope $end
$scope module u_const_logic_wrapper $end
$var wire 10 "" in_flat [9:0] $end
$var wire 4 #" y [3:0] $end
$var wire 4 $" xor_c [3:0] $end
$var wire 4 %" x [3:0] $end
$var wire 19 &" out_flat [18:0] $end
$var wire 4 '" or_c [3:0] $end
$var wire 4 (" not_c [3:0] $end
$var wire 1 )" lor_c $end
$var wire 1 *" lnot_c $end
$var wire 1 +" land_c $end
$var wire 1 ," b $end
$var wire 4 -" and_c [3:0] $end
$var wire 1 ." a $end
$scope module u_const_logic $end
$var wire 1 ." a $end
$var wire 4 /" and_c [3:0] $end
$var wire 1 ," b $end
$var wire 1 +" land_c $end
$var wire 1 )" lor_c $end
$var wire 4 0" not_c [3:0] $end
$var wire 4 1" or_c [3:0] $end
$var wire 4 2" x [3:0] $end
$var wire 4 3" xor_c [3:0] $end
$var wire 4 4" y [3:0] $end
$var wire 1 *" lnot_c $end
$upscope $end
$upscope $end
$scope module u_const_nested_wrapper $end
$var wire 27 5" in_flat [26:0] $end
$var wire 8 6" out_flat [7:0] $end
$var wire 3 7" s [2:0] $end
$var wire 8 8" r [7:0] $end
$var wire 8 9" q [7:0] $end
$var wire 8 :" p [7:0] $end
$var wire 8 ;" nested_c [7:0] $end
$scope module u_const_nested $end
$var wire 8 <" and_part [7:0] $end
$var wire 8 =" nested_c [7:0] $end
$var wire 8 >" p [7:0] $end
$var wire 8 ?" q [7:0] $end
$var wire 8 @" r [7:0] $end
$var wire 3 A" s [2:0] $end
$var wire 8 B" xor_qr [7:0] $end
$var wire 8 C" shl_rs [7:0] $end
$var wire 8 D" mul_part [7:0] $end
$var wire 8 E" mod_part [7:0] $end
$var wire 8 F" div_part [7:0] $end
$var wire 8 G" denom [7:0] $end
$var wire 8 H" add_pq [7:0] $end
$upscope $end
$upscope $end
$scope module u_const_partselect_wrapper $end
$var wire 20 I" in_flat [19:0] $end
$var wire 3 J" sel2_c [2:0] $end
$var wire 4 K" sel1_c [3:0] $end
$var wire 1 L" ovf_range $end
$var wire 8 M" out_flat [7:0] $end
$var wire 4 N" idx [3:0] $end
$var wire 8 O" data2 [7:0] $end
$var wire 8 P" data1 [7:0] $end
$scope module u_const_partselect $end
$var wire 8 Q" data1 [7:0] $end
$var wire 8 R" data2 [7:0] $end
$var wire 4 S" idx [3:0] $end
$var wire 3 T" sel2_c [2:0] $end
$var wire 4 U" sel1_c [3:0] $end
$var wire 1 L" ovf_range $end
$upscope $end
$upscope $end
$scope module u_const_reduce_wrapper $end
$var wire 4 V" in_flat [3:0] $end
$var wire 4 W" in_vec [3:0] $end
$var wire 1 X" red_xor_c $end
$var wire 1 Y" red_xnor_c $end
$var wire 1 Z" red_or_c $end
$var wire 1 [" red_nor_c $end
$var wire 1 \" red_nand_c $end
$var wire 1 ]" red_and_c $end
$var wire 6 ^" out_flat [5:0] $end
$scope module u_const_reduce $end
$var wire 4 _" in_vec [3:0] $end
$var wire 1 X" red_xor_c $end
$var wire 1 Y" red_xnor_c $end
$var wire 1 Z" red_or_c $end
$var wire 1 [" red_nor_c $end
$var wire 1 \" red_nand_c $end
$var wire 1 ]" red_and_c $end
$upscope $end
$upscope $end
$scope module u_const_shift_wrapper $end
$var wire 11 `" in_flat [10:0] $end
$var wire 8 a" shr_c [7:0] $end
$var wire 8 b" shl_c [7:0] $end
$var wire 3 c" shift_amt [2:0] $end
$var wire 24 d" out_flat [23:0] $end
$var wire 8 e" data_in [7:0] $end
$var wire 8 f" ashr_c [7:0] $end
$scope module u_const_shift $end
$var wire 8 g" data_in [7:0] $end
$var wire 3 h" shift_amt [2:0] $end
$var wire 8 i" shr_c [7:0] $end
$var wire 8 j" shl_c [7:0] $end
$var wire 8 k" ashr_c [7:0] $end
$upscope $end
$upscope $end
$upscope $end
$upscope $end
$enddefinitions $end
$comment Show the parameter values. $end
$dumpall
$end
#0
$dumpvars
b0 k"
b0 j"
b0 i"
b111 h"
b111000 g"
b0 f"
b111000 e"
b0 d"
b111 c"
b0 b"
b0 a"
b111000111 `"
b1110 _"
b11100 ^"
0]"
1\"
0["
1Z"
0Y"
1X"
b1110 W"
b1110 V"
b0 U"
bx T"
b1001 S"
b10001101 R"
b1000 Q"
b1000 P"
b10001101 O"
b1001 N"
b0xxx0 M"
0L"
b0 K"
bx J"
b1000100011011001 I"
b101011 H"
b10011100 G"
b0 F"
b0 E"
bx D"
b101x0000 C"
b1011000x B"
b100 A"
b10101x @"
b10011011 ?"
b10010000 >"
bx0xx000x ="
bx0xx000x <"
bx0xx000x ;"
b10010000 :"
b10011011 9"
b10101x 8"
b100 7"
bx0xx000x 6"
b10010000100110110010101x100 5"
b1110 4"
b100 3"
b1010 2"
b1110 1"
b101 0"
b1010 /"
0."
b1010 -"
0,"
0+"
1*"
0)"
b101 ("
b1110 '"
b1010111001000101001 &"
b1010 %"
b100 $"
b1110 #"
b1010111000 ""
b1000010 !"
b10111001 ~
b1000010 }
b1110001 |
b10111001 {
b1110100 z
b1000010 y
b1000010 x
b1110100 w
b10111001 v
b1000010 u
b10111001 t
b1000010 s
b1110001 r
b10000101011100101000010 q
1p
0o
b100001001110100101110010111000110 n
b10011011 m
b101010 l
b10011001 k
b10 j
b1011 i
b1001 h
b1001 g
b1011 f
b10 e
b10011011 d
b1001101110011001101010 c
b101010 b
b10011001 a
b1001101110 `
b1010 _
b0 ^
b100101 ]
b11001110 \
b11001110 [
b100101 Z
b0 Y
0X
1W
b1010 V
0U
1T
1S
0R
0Q
1P
b1001101 O
b110011100010010100001010 N
b11010111 M
b1010010 L
b0 K
b11110 J
b1100101 I
b1000111 H
b11110 G
b11110 F
b1000111 E
b11010111 D
b110010111010111010100100000000000011110 C
b1010010 B
b0 A
b11110 @
b1100101 ?
b1111001000111 >
b1111001000111 =
b110010111010111010100100000000000011110 <
b110011100010010100001010 ;
b1001101 :
b1001101110 9
b1001101110011001101010 8
b100001001110100101110010111000110 7
b10000101011100101000010 6
b1010111000 5
b1010111001000101001 4
b10010000100110110010101x100 3
bx0xx000x 2
b1000100011011001 1
b0xxx0 0
b1110 /
b11100 .
b111000111 -
b0 ,
b111000000xxx0x0xx000x10101110010001010010100001010111001010000101001101110011001101010010011010110010111010111010100100000000000011110 +
b1110001111000010010001101001100100010010110010101101011110010000100111010101110010111000110100110111010011100010010100101000111101000111 *
b10011100110111110101101010000110 )
bx (
b1100100 '
b0 &
0%
b110000100111101101100011100011 $
b1110001111000010010001101001100100010010110010101101011110010000100111010101110010111000110100110111010011100010010100101000111101000111 #
0"
b111000000xxx0x0xx000x10101110010001010010100001010111001010000101001101110011001101010010011010110010111010111010100100000000000011110 !
$end
#1000
b1 &
1"
#2000
b0 (
0"
#3000
b10 &
1"
#4000
b0 D"
b100001100010000100100001110001111111000000000000001100110001110010111101000110010110100011100110011001100111111011100011000010011000100100000000000000010100100 !
b100001100010000100100001110001111111000000000000001100110001110010111101000110010110100011100110011001100111111011100011000010011000100100000000000000010100100 +
b110001 .
b110001 ^"
b0 2
b0 6"
b0 ;"
b0 ="
1]"
0X"
0\"
1Y"
b1111 W"
b1111 _"
b1111 /
b1111 V"
b11111100 0
b11111100 M"
b110011000111001 4
b110011000111001 &"
b0 <"
b11110100011001011010001 6
b11110100011001011010001 q
b1110001 :
b1110001 O
b1111 K"
b1111 U"
b110 J"
b110 T"
b10101000 B"
b1100110011001100111111 8
b1100110011001100111111 c
b11010001 s
b11010001 }
b110010 t
b110010 ~
b1111010 u
b1111010 !"
b1000010011000100100000000000000010100100 <
b1000010011000100100000000000000010100100 C
b100001100010000100100001 ,
b100001100010000100100001 d"
b11110110 P"
b11110110 Q"
b10111000 O"
b10111000 R"
b10 N"
b10 S"
b111 ("
b111 0"
b0 -"
b0 /"
b1100 '"
b1100 1"
b1100 $"
b1100 3"
b1 :"
b1 >"
b11111101 H"
b11111101 G"
b11111100 9"
b11111100 ?"
b1010100 8"
b1010100 @"
b0 C"
b110 7"
b110 A"
b11001100 a
b11001100 k
b11001100 d
b11001100 m
b111111 b
b111111 l
b11010001 x
b11010001 y
b1111010 w
b1111010 z
b110010 v
b110010 {
b1000011 r
b1000011 |
0p
b10100100 @
b10100100 J
1Q
1R
0S
0T
b10010111 [
b10010111 \
b11000100 Z
b11000100 ]
b10 Y
b10 ^
b110 V
b110 _
b1000011 e"
b1000011 g"
b10000110 b"
b10000110 j"
b100001 a"
b100001 i"
b100001 f"
b100001 k"
b1 c"
b1 h"
b11110110101110000010 1
b11110110101110000010 I"
b1000 %"
b1000 2"
b100 #"
b100 4"
b11111110001010100110 3
b11111110001010100110 5"
b1100 g
b1100 h
b1100 f
b1100 i
b11 e
b11 j
b1101000101111010001100100100001100 7
b1101000101111010001100100100001100 n
b10100100 F
b10100100 G
b10000100 ?
b10000100 I
b11000100 D
b11000100 M
b10000000 B
b10000000 L
b11100000 E
b11100000 H
b100101111100010000100110 ;
b100101111100010000100110 N
b1000011001 -
b1000011001 `"
b1000010000 5
b1000010000 ""
b1100110011 9
b1100110011 `
b1010010011100000 =
b1010010011100000 >
b1 (
b10000110011111101110111000010000000111111000101010111000100110100010111101001100100100001100110011001100101111100010010011011001011100000 #
b10000110011111101110111000010000000111111000101010111000100110100010111101001100100100001100110011001100101111100010010011011001011100000 *
b11000010001110001110100001100 $
0"
1%
#5000
b11 &
1"
#6000
b1101 $"
b1101 3"
b110100000010110111101101010101010000010000000100101111110100010010110110101101101000001011100001111001100010101010011010100000110010111010111000000001001000010 !
b110100000010110111101101010101010000010000000100101111110100010010110110101101101000001011100001111001100010101010011010100000110010111010111000000001001000010 +
b10111111010001001 4
b10111111010001001 &"
b1 2
b1 6"
b1 ;"
b1 ="
b11011010110110100000101 6
b11011010110110100000101 q
b1001101 :
b1001101 O
b100 K"
b100 U"
b0 J"
b0 T"
b1000001 0
b1000001 M"
b1 E"
b1 F"
b101100 B"
b1100001111001100010101 8
b1100001111001100010101 c
b1101101 u
b1101101 !"
b101 s
b101 }
b1101101 t
b1101101 ~
b100000110010111010111000000001001000010 <
b100000110010111010111000000001001000010 C
b110100000010110111101101 ,
b110100000010110111101101 d"
b1000010 P"
b1000010 Q"
b10011101 O"
b10011101 R"
1L"
b1111 N"
b1111 S"
b1 ("
b1 0"
b10 -"
b10 /"
b1111 '"
b1111 1"
b11011101 :"
b11011101 >"
b10100101 H"
b11001001 G"
b11001000 9"
b11001000 ?"
b11100100 8"
b11100100 @"
b11000011 d
b11000011 m
b10101 b
b10101 l
b101 x
b101 y
b1101101 w
b1101101 z
b10100 v
b10100 {
b110000 r
b110000 |
1o
b10 A
b10 K
b1000010 @
b1000010 J
b10101000 [
b10101000 \
0Q
0R
1S
1T
b1000110 Z
b1000110 ]
b100 V
b100 _
b10110100 e"
b10110100 g"
b11010000 b"
b11010000 j"
b101101 a"
b101101 i"
b11101101 f"
b11101101 k"
b10 c"
b10 h"
b1000010100111011111 1
b1000010100111011111 I"
b10101 .
b10101 ^"
b1110 %"
b1110 2"
b11 #"
b11 4"
b110111011100100011100100110 3
b110111011100100011100100110 5"
b11 f
b11 i
b1 e
b1 j
b10101101101000101000011000001 7
b10101101101000101000011000001 n
b11101100 F
b11101100 G
b1000001 ?
b1000001 I
b10010111 D
b10010111 M
b1011100 B
b1011100 L
b1010101 E
b1010101 H
b101010000100011000100100 ;
b101010000100011000100100 N
b10110100010 -
b10110100010 `"
b1110001100 5
b1110001100 ""
b1100001101 9
b1100001101 `
b1110110001010101 =
b1110110001010101 >
0]"
0X"
1\"
1Y"
b1100 W"
b1100 _"
b1100 /
b1100 V"
b10 (
b101101000110010000110011101111110111111000001110010111110010000001010110110000101000011000001110000110101010000100011010010011011001010101 #
b101101000110010000110011101111110111111000001110010111110010000001010110110000101000011000001110000110101010000100011010010011011001010101 *
b11111010100111110001011010001 $
0"
#7000
b100 &
1"
#8000
1)"
1,"
b10111111101011100100100010000000110001000000001110110000011000011011100100011100000111001100101010010011011101100001101100001011000000001100000000 !
b10111111101011100100100010000000110001000000001110110000011000011011100100011100000111001100101010010011011101100001101100001011000000001100000000 +
b10010001 0
b10010001 M"
b1000100000000111011 4
b1000100000000111011 &"
b1100001101110010001 6
b1100001101110010001 q
b1001 K"
b1001 U"
b11111000 B"
b1100000111001100101010 8
b1100000111001100101010 c
b10010001 s
b10010001 }
b110 u
b110 !"
b11011 t
b11011 ~
b1101100001101100001011000000001100000000 <
b1101100001101100001011000000001100000000 C
b10111111101 ,
b10111111101 d"
b10011100 P"
b10011100 Q"
b11000101 O"
b11000101 R"
b1101 N"
b1101 S"
b111 ("
b111 0"
b1000 -"
b1000 /"
b1000 '"
b1000 1"
b0 $"
b0 3"
b10110000 :"
b10110000 >"
b10110 H"
b1100111 G"
b1100110 9"
b1100110 ?"
b0 D"
b10000000 C"
b10011110 8"
b10011110 @"
b11000001 d
b11000001 m
b101010 b
b101010 l
b110 x
b110 y
b10010001 w
b10010001 z
b11011 v
b11011 {
b11101111 r
b11101111 |
1p
0o
b11 A
b11 K
b0 @
b0 J
b11110110 [
b11110110 \
b1000111 Z
b1000111 ]
b101 V
b101 _
b10110000 e"
b10110000 g"
b0 b"
b0 j"
b101 a"
b101 i"
b11111101 f"
b11111101 k"
b101 c"
b101 h"
b10011100110001011101 1
b10011100110001011101 I"
b11100 .
b11100 ^"
b1000 %"
b1000 2"
b1000 #"
b1000 4"
b101100000110011010011110110 3
b101100000110011010011110110 5"
b1 f
b1 i
b10 e
b10 j
b11010010001000110111110111110 7
b11010010001000110111110111110 n
b10100010 F
b10100010 G
b11011000 ?
b11011000 I
b1101100 D
b1101100 M
b101100 B
b101100 L
b110110 E
b110110 H
b111101100100011100100101 ;
b111101100100011100100101 N
b10110000101 -
b10110000101 `"
b1000100001 5
b1000100001 ""
b1100000110 9
b1100000110 `
b1010001000110110 =
b1010001000110110 >
1X"
0Y"
b100 W"
b100 _"
b100 /
b100 V"
b11 (
b101100001000100111011000101101101100001101101001111111001000000001101001000000110111110111110110000011011101100100011110010111000100110110 #
b101100001000100111011000101101101100001101101001111111001000000001101001000000110111110111110110000011011101100100011110010111000100110110 *
b10011100111000110110101011000010 $
0"
#9000
b101 &
1"
#10000
b1000000 @
b1000000 J
0)"
b1000000000000001111111110111001100xx000000000001001111101110010010010011100011100011011001010000010101010101010011100010001001101101101110000000000000001000000 !
b1000000000000001111111110111001100xx000000000001001111101110010010010011100011100011011001010000010101010101010011100010001001101101101110000000000000001000000 +
0,"
b100111110111001001 4
b100111110111001001 &"
b0 2
b0 6"
b0 ;"
b0 ="
b1001110001110001101100 6
b1001110001110001101100 q
b1110001 :
b1110001 O
b1100 K"
b1100 U"
bx0 J"
bx0 T"
b1100xx00 0
b1100xx00 M"
b0 E"
b0 F"
b10100000 B"
b1010000010101010101010 8
b1010000010101010101010 c
b11100 t
b11100 ~
b1101100 s
b1101100 }
b100111 u
b100111 !"
b1001101101101110000000000000001000000 <
b1001101101101110000000000000001000000 C
b100000000000000111111111 ,
b100000000000000111111111 d"
b11000000 P"
b11000000 Q"
b10 O"
b10 R"
0L"
b111 N"
b111 S"
b1001 ("
b1001 0"
b100 -"
b100 /"
b1111 '"
b1111 1"
b1011 $"
b1011 3"
b10000 :"
b10000 >"
b10001010 H"
b1111011 G"
b1111010 9"
b1111010 ?"
b11011010 8"
b11011010 @"
b10101010 a
b10101010 k
b10100000 d
b10100000 m
b1101100 x
b1101100 y
b100111 w
b100111 z
b11100 v
b11100 {
b111111 r
b111111 |
0p
b0 A
b0 K
1Q
1R
0S
0T
b10001110 [
b10001110 \
b10110110 Z
b10110110 ]
b1001 Y
b1001 ^
b1111 V
b1111 _
b10000000 b"
b10000000 j"
b11001011 e"
b11001011 g"
b1 a"
b1 i"
b11111111 f"
b11111111 k"
b111 c"
b111 h"
b11000000000000100111 1
b11000000000000100111 I"
b110 %"
b110 2"
b1101 #"
b1101 4"
b100000111101011011010110 3
b100000111101011011010110 5"
b1010 g
b1010 h
b0 f
b0 i
b110110000100111000111000011111100 7
b110110000100111000111000011111100 n
b1000000 F
b1000000 G
b10011 ?
b10011 I
b1101101 D
b1101101 M
b11000000 B
b11000000 L
b11010011 E
b11010011 H
b100011101011011010011111 ;
b100011101011011010011111 N
b11001011111 -
b11001011111 `"
b110110100 5
b110110100 ""
b1010000010 9
b1010000010 `
b100000011010011 =
b100000011010011 >
b1110 W"
b1110 _"
b1110 /
b1110 V"
b100 (
b110010111111110000000000010111000100001110101101101110111100011011000010011000111000011111100101000001000011101011011001111100000011010011 #
b110010111111110000000000010111000100001110101101101110111100011011000010011000111000011111100101000001000011101011011001111100000011010011 *
b10011111111000111001011100101111 $
0"
#11000
b110 &
1"
#12000
b1111 '"
b1111 1"
1)"
1,"
b100101001001010010010100111000110xx000000000100101111110111000110100000000110101011010111111011011111111000000010011011011111101000111101101000000001000001011 !
b100101001001010010010100111000110xx000000000100101111110111000110100000000110101011010111111011011111111000000010011011011111101000111101101000000001000001011 +
b110xx00 0
b110xx00 M"
b10111111011100011 4
b10111111011100011 &"
b1 2
b1 6"
b1 ;"
b1 ="
b10000000011010101101011 6
b10000000011010101101011 q
b1001101 :
b1001101 O
b110 K"
b110 U"
b1 E"
b1 F"
b11000010 B"
b1111011011111111000000 8
b1111011011111111000000 c
b110101 t
b110101 ~
b1101011 s
b1101011 }
b1000000 u
b1000000 !"
b1011111101000111101101000000001000001011 <
b1011111101000111101101000000001000001011 C
b10010100100101001001010 ,
b10010100100101001001010 d"
b1100110 P"
b1100110 Q"
b111001 O"
b111001 R"
b1100 ("
b1100 0"
b10 -"
b10 /"
b1101 $"
b1101 3"
b1110100 :"
b1110100 >"
b11010000 H"
b1011101 G"
b1011100 9"
b1011100 ?"
b10011110 8"
b10011110 @"
b11111111 a
b11111111 k
b11110110 d
b11110110 m
b0 b
b0 l
b1000000 x
b1000000 y
b1101011 w
b1101011 z
b110101 v
b110101 {
b11001010 r
b11001010 |
1p
b10 A
b10 K
b1011 @
b1011 J
0Q
0R
1S
1T
b11010100 [
b11010100 \
b10010101 Z
b10010101 ]
b0 Y
b0 ^
b111 V
b111 _
b1001010 e"
b1001010 g"
b1001010 b"
b1001010 j"
b1001010 a"
b1001010 i"
b1001010 f"
b1001010 k"
b0 c"
b0 h"
b1100110001110010111 1
b1100110001110010111 I"
b11100 .
b11100 ^"
b11 %"
b11 2"
b1110 #"
b1110 4"
b11101000101110010011110110 3
b11101000101110010011110110 5"
b1111 g
b1111 h
b110 f
b110 i
b0 e
b0 j
b100000001101011001101011100101010 7
b100000001101011001101011100101010 n
b10000011 F
b10000011 G
b10111111 ?
b10111111 I
b1000111 D
b1000111 M
b10110100 B
b10110100 L
b111100 E
b111100 H
b110101001001010100000111 ;
b110101001001010100000111 N
b1001010000 -
b1001010000 `"
b11111001 5
b11111001 ""
b1111011000 9
b1111011000 `
b1000001100111100 =
b1000001100111100 >
1X"
0Y"
b1000 W"
b1000 _"
b1000 /
b1000 V"
b101 (
b10010100010011001100111000111011101001011001001111110011110010000000110101001101011100101010111101100010101001001010100011110000100111100 #
b10010100010011001100111000111011101001011001001111110011110010000000110101001101011100101010111101100010101001001010100011110000100111100 *
b1100010111110011101010100101000 $
0"
#13000
b111 &
1"
#14000
b1001110 :
b1001110 O
1X
0W
b11 A
b11 K
0)"
b1000 Y
b1000 ^
b11111000001011100010111010101001001100000000101001101100100100011001111011010011100111101001111110011001000000010011100000010110000011110001000000001100000001 !
b11111000001011100010111010101001001100000000101001101100100100011001111011010011100111101001111110011001000000010011100000010110000011110001000000001100000001 +
0,"
b10101 .
b10101 ^"
0X"
1Y"
b1001 W"
b1001 _"
b1001 /
b1001 V"
b100110 0
b100110 M"
b100110110010010001 4
b100110110010010001 &"
b1 2
b1 6"
b1 ;"
b1 ="
b100111101101001110011110 6
b100111101101001110011110 q
b10 K"
b10 U"
b11 J"
b11 T"
b10011 B"
b0 <"
b1001111110011001000000 8
b1001111110011001000000 c
b10011110 s
b10011110 }
b11010011 t
b11010011 ~
b10011110 u
b10011110 !"
b10110000011110001000000001100000001 <
b10110000011110001000000001100000001 C
b11111000001011100010111 ,
b11111000001011100010111 d"
b100010 P"
b100010 Q"
b1010111 O"
b1010111 R"
b1 N"
b1 S"
b10 ("
b10 0"
b100 -"
b100 /"
b1101 '"
b1101 1"
b1001 $"
b1001 3"
b10111100 :"
b10111100 >"
b1100100 H"
b10101001 G"
b10101000 9"
b10101000 ?"
b10111011 8"
b10111011 @"
b1100000 D"
b11011000 C"
b11 7"
b11 A"
b10011001 a
b10011001 k
b10011111 d
b10011111 m
b11110100 x
b11110100 y
b10011110 w
b10011110 z
b11010011 v
b11010011 {
b10111101 r
b10111101 |
0p
b1 @
b1 J
b11100100 [
b11100100 \
b10000100 Z
b10000100 ]
b1000 V
b1000 _
b1011111 e"
b1011111 g"
b1111100 b"
b1111100 j"
b10111 a"
b10111 i"
b10111 f"
b10111 k"
b10 c"
b10 h"
b100010010101110001 1
b100010010101110001 I"
b1101 %"
b1101 2"
b100 #"
b100 4"
b101111001010100010111011011 3
b101111001010100010111011011 5"
b1001 g
b1001 h
b1111 f
b1111 i
b1111010010011110110100111011110100 7
b1111010010011110110100111011110100 n
b11000100 F
b11000100 G
b101 ?
b101 I
b10000011 D
b10000011 M
b11000100 B
b11000100 L
b1000001 E
b1000001 H
b111001001000010010001000 ;
b111001001000010010001000 N
b1011111010 -
b1011111010 `"
b1101010000 5
b1101010000 ""
b1001111100 9
b1001111100 `
b1100010001000001 =
b1100010001000001 >
b110 (
b10111110110001000101010110001101111010100001011101011100100111101001001111110100111011110100100111110011001001000010000100010001001000001 #
b10111110110001000101010110001101111010100001011101011100100111101001001111110100111011110100100111110011001001000010000100010001001000001 *
b10101101010011011010000101111101 $
0"
#15000
b1000 &
1"
#16000
b0 Y
b0 ^
1)"
1,"
b111100000000011000000110011100011000011100000000000100010010110110000001000001101000000100010011000100010000000010011101000001010011110001000000000000000010000 !
b111100000000011000000110011100011000011100000000000100010010110110000001000001101000000100010011000100010000000010011101000001010011110001000000000000000010000 +
b10001001011011 4
b10001001011011 &"
b11000000 2
b11000000 6"
b11000000 ;"
b11000000 ="
b100000110100000010 6
b100000110100000010 q
b1001110 :
b1001110 O
b110 K"
b110 U"
b0 J"
b0 T"
b1100001 0
b1100001 M"
b0 E"
b0 F"
b11100000 B"
b11000000 <"
b10011000100010000000 8
b10011000100010000000 c
b10 u
b10 !"
b1101 t
b1101 ~
b10 s
b10 }
b1000001010011110001000000000000000010000 <
b1000001010011110001000000000000000010000 C
b111100000000011000000110 ,
b111100000000011000000110 d"
b1101010 P"
b1101010 Q"
b101111 O"
b101111 R"
1L"
b1101 N"
b1101 S"
b1011 ("
b1011 0"
b0 -"
b0 /"
b100 '"
b100 1"
b100 $"
b100 3"
b10000101 :"
b10000101 >"
b1010011 H"
b11001111 G"
b11001110 9"
b11001110 ?"
b101110 8"
b101110 @"
b11010100 D"
b1011100 C"
b1 7"
b1 A"
b100010 a
b100010 k
b100110 d
b100110 m
b10000101 x
b10000101 y
b10 w
b10 z
b1101 v
b1101 {
b11100101 r
b11100101 |
b0 A
b0 K
b10000 @
b10000 J
b10110001 [
b10110001 \
b1001111 Z
b1001111 ]
1X
0W
b0 V
b0 _
b1101111 e"
b1101111 g"
b11110000 b"
b11110000 j"
b110 a"
b110 i"
b110 f"
b110 k"
b100 c"
b100 h"
b1101010001011111101 1
b1101010001011111101 I"
b11100 .
b11100 ^"
b100 %"
b100 2"
b0 #"
b0 4"
b100001011100111000101110001 3
b100001011100111000101110001 5"
b10 g
b10 h
b110 f
b110 i
b1000010100000010000011011110010100 7
b1000010100000010000011011110010100 n
b10000 F
b10000 G
b10000010 ?
b10000010 I
b10011110 D
b10011110 M
b100000 B
b100000 L
b1110010 E
b1110010 H
b101100010100111100000000 ;
b101100010100111100000000 N
b1101111100 -
b1101111100 `"
b100000001 5
b100000001 ""
b10011000 9
b10011000 `
b1000001110010 =
b1000001110010 >
1X"
0Y"
b1110 W"
b1110 _"
b1110 /
b1110 V"
b111 (
b11011111011011010100101111101100001111001100010111000100000100001010000001000011011110010100001001100001100010100111100000000100001110010 #
b11011111011011010100101111101100001111001100010111000100000100001010000001000011011110010100001001100001100010100111100000000100001110010 *
b1111101001100100011100110111110 $
0"
#17000
b1001 &
1"
