rewiring/dual_bug_hunt_3/cycle_0001/tb_top.vcd
$date
	Mon Sep 22 02:29:48 2025
$end
$version
	Icarus Verilog
$end
$timescale
	1ps
$end
$scope module tb_top $end
$var wire 159 ! out_flat [158:0] $end
$var reg 1 " clk $end
$var reg 139 # in_flat [138:0] $end
$var reg 32 $ rng_state [31:0] $end
$var reg 1 % rst_n $end
$var integer 32 & cyc [31:0] $end
$var integer 32 ' cycles [31:0] $end
$var integer 32 ( i [31:0] $end
$var integer 32 ) seed [31:0] $end
$scope module dut $end
$var wire 1 " clk $end
$var wire 139 * in_flat [138:0] $end
$var wire 1 % rst_n $end
$var wire 159 + out_flat [158:0] $end
$var wire 24 , const_shift_wrapper_out_flat [23:0] $end
$var wire 11 - const_shift_wrapper_in_flat [10:0] $end
$var wire 6 . const_reduce_wrapper_out_flat [5:0] $end
$var wire 4 / const_reduce_wrapper_in_flat [3:0] $end
$var wire 8 0 const_partselect_wrapper_out_flat [7:0] $end
$var wire 20 1 const_partselect_wrapper_in_flat [19:0] $end
$var wire 8 2 const_nested_wrapper_out_flat [7:0] $end
$var wire 27 3 const_nested_wrapper_in_flat [26:0] $end
$var wire 19 4 const_logic_wrapper_out_flat [18:0] $end
$var wire 10 5 const_logic_wrapper_in_flat [9:0] $end
$var wire 24 6 const_conditional_wrapper_out_flat [23:0] $end
$var wire 34 7 const_conditional_wrapper_in_flat [33:0] $end
$var wire 22 8 const_concat_repl_wrapper_out_flat [21:0] $end
$var wire 10 9 const_concat_repl_wrapper_in_flat [9:0] $end
$var wire 8 : const_compare_wrapper_out_flat [7:0] $end
$var wire 24 ; const_compare_wrapper_in_flat [23:0] $end
$var wire 40 < const_arith_wrapper_out_flat [39:0] $end
$var wire 16 = const_arith_wrapper_in_flat [15:0] $end
$scope module u_const_arith_wrapper $end
$var wire 16 > in_flat [15:0] $end
$var wire 8 ? sum_c [7:0] $end
$var wire 8 @ rem_c [7:0] $end
$var wire 8 A quot_c [7:0] $end
$var wire 8 B prod_c [7:0] $end
$var wire 40 C out_flat [39:0] $end
$var wire 8 D diff_c [7:0] $end
$var wire 8 E b [7:0] $end
$var wire 8 F a [7:0] $end
$scope module u_const_arith $end
$var wire 8 G a [7:0] $end
$var wire 8 H b [7:0] $end
$var wire 8 I sum_c [7:0] $end
$var wire 8 J rem_c [7:0] $end
$var wire 8 K quot_c [7:0] $end
$var wire 8 L prod_c [7:0] $end
$var wire 8 M diff_c [7:0] $end
$upscope $end
$upscope $end
$scope module u_const_compare_wrapper $end
$var wire 24 N in_flat [23:0] $end
$var wire 8 O out_flat [7:0] $end
$var wire 1 P neq_c $end
$var wire 1 Q lt_c $end
$var wire 1 R le_c $end
$var wire 1 S gt_c $end
$var wire 1 T ge_c $end
$var wire 1 U eq_c $end
$var wire 4 V d [3:0] $end
$var wire 1 W case_neq_c $end
$var wire 1 X case_eq_c $end
$var wire 4 Y c [3:0] $end
$var wire 8 Z b [7:0] $end
$var wire 8 [ a [7:0] $end
$scope module u_const_compare $end
$var wire 8 \ a [7:0] $end
$var wire 8 ] b [7:0] $end
$var wire 4 ^ c [3:0] $end
$var wire 4 _ d [3:0] $end
$var wire 1 P neq_c $end
$var wire 1 Q lt_c $end
$var wire 1 R le_c $end
$var wire 1 S gt_c $end
$var wire 1 T ge_c $end
$var wire 1 U eq_c $end
$var wire 1 W case_neq_c $end
$var wire 1 X case_eq_c $end
$upscope $end
$upscope $end
$scope module u_const_concat_repl_wrapper $end
$var wire 10 ` in_flat [9:0] $end
$var wire 8 a rep_c [7:0] $end
$var wire 6 b rep2_c [5:0] $end
$var wire 22 c out_flat [21:0] $end
$var wire 8 d cat_c [7:0] $end
$var wire 2 e c [1:0] $end
$var wire 4 f b [3:0] $end
$var wire 4 g a [3:0] $end
$scope module u_const_concat_repl $end
$var wire 4 h a [3:0] $end
$var wire 4 i b [3:0] $end
$var wire 2 j c [1:0] $end
$var wire 8 k rep_c [7:0] $end
$var wire 6 l rep2_c [5:0] $end
$var wire 8 m cat_c [7:0] $end
$upscope $end
$upscope $end
$scope module u_const_conditional_wrapper $end
$var wire 34 n in_flat [33:0] $end
$var wire 1 o sel2 $end
$var wire 1 p sel1 $end
$var wire 24 q out_flat [23:0] $end
$var wire 8 r d [7:0] $end
$var wire 8 s cond3_c [7:0] $end
$var wire 8 t cond2_c [7:0] $end
$var wire 8 u cond1_c [7:0] $end
$var wire 8 v c [7:0] $end
$var wire 8 w b [7:0] $end
$var wire 8 x a [7:0] $end
$scope module u_const_conditional $end
$var wire 8 y a [7:0] $end
$var wire 8 z b [7:0] $end
$var wire 8 { c [7:0] $end
$var wire 8 | d [7:0] $end
$var wire 1 p sel1 $end
$var wire 1 o sel2 $end
$var wire 8 } cond3_c [7:0] $end
$var wire 8 ~ cond2_c [7:0] $end
$var wire 8 !" cond1_c [7:0] $end
$upscope $end
$upscope $end
$scope module u_const_logic_wrapper $end
$var wire 10 "" in_flat [9:0] $end
$var wire 4 #" y [3:0] $end
$var wire 4 $" xor_c [3:0] $end
$var wire 4 %" x [3:0] $end
$var wire 19 &" out_flat [18:0] $end
$var wire 4 '" or_c [3:0] $end
$var wire 4 (" not_c [3:0] $end
$var wire 1 )" lor_c $end
$var wire 1 *" lnot_c $end
$var wire 1 +" land_c $end
$var wire 1 ," b $end
$var wire 4 -" and_c [3:0] $end
$var wire 1 ." a $end
$scope module u_const_logic $end
$var wire 1 ." a $end
$var wire 4 /" and_c [3:0] $end
$var wire 1 ," b $end
$var wire 1 +" land_c $end
$var wire 1 )" lor_c $end
$var wire 4 0" not_c [3:0] $end
$var wire 4 1" or_c [3:0] $end
$var wire 4 2" x [3:0] $end
$var wire 4 3" xor_c [3:0] $end
$var wire 4 4" y [3:0] $end
$var wire 1 *" lnot_c $end
$upscope $end
$upscope $end
$scope module u_const_nested_wrapper $end
$var wire 27 5" in_flat [26:0] $end
$var wire 8 6" out_flat [7:0] $end
$var wire 3 7" s [2:0] $end
$var wire 8 8" r [7:0] $end
$var wire 8 9" q [7:0] $end
$var wire 8 :" p [7:0] $end
$var wire 8 ;" nested_c [7:0] $end
$scope module u_const_nested $end
$var wire 8 <" and_part [7:0] $end
$var wire 8 =" nested_c [7:0] $end
$var wire 8 >" p [7:0] $end
$var wire 8 ?" q [7:0] $end
$var wire 8 @" r [7:0] $end
$var wire 3 A" s [2:0] $end
$var wire 8 B" xor_qr [7:0] $end
$var wire 8 C" shl_rs [7:0] $end
$var wire 8 D" mul_part [7:0] $end
$var wire 8 E" mod_part [7:0] $end
$var wire 8 F" div_part [7:0] $end
$var wire 8 G" denom [7:0] $end
$var wire 8 H" add_pq [7:0] $end
$upscope $end
$upscope $end
$scope module u_const_partselect_wrapper $end
$var wire 20 I" in_flat [19:0] $end
$var wire 3 J" sel2_c [2:0] $end
$var wire 4 K" sel1_c [3:0] $end
$var wire 1 L" ovf_range $end
$var wire 8 M" out_flat [7:0] $end
$var wire 4 N" idx [3:0] $end
$var wire 8 O" data2 [7:0] $end
$var wire 8 P" data1 [7:0] $end
$scope module u_const_partselect $end
$var wire 8 Q" data1 [7:0] $end
$var wire 8 R" data2 [7:0] $end
$var wire 4 S" idx [3:0] $end
$var wire 3 T" sel2_c [2:0] $end
$var wire 4 U" sel1_c [3:0] $end
$var wire 1 L" ovf_range $end
$upscope $end
$upscope $end
$scope module u_const_reduce_wrapper $end
$var wire 4 V" in_flat [3:0] $end
$var wire 4 W" in_vec [3:0] $end
$var wire 1 X" red_xor_c $end
$var wire 1 Y" red_xnor_c $end
$var wire 1 Z" red_or_c $end
$var wire 1 [" red_nor_c $end
$var wire 1 \" red_nand_c $end
$var wire 1 ]" red_and_c $end
$var wire 6 ^" out_flat [5:0] $end
$scope module u_const_reduce $end
$var wire 4 _" in_vec [3:0] $end
$var wire 1 X" red_xor_c $end
$var wire 1 Y" red_xnor_c $end
$var wire 1 Z" red_or_c $end
$var wire 1 [" red_nor_c $end
$var wire 1 \" red_nand_c $end
$var wire 1 ]" red_and_c $end
$upscope $end
$upscope $end
$scope module u_const_shift_wrapper $end
$var wire 11 `" in_flat [10:0] $end
$var wire 8 a" shr_c [7:0] $end
$var wire 8 b" shl_c [7:0] $end
$var wire 3 c" shift_amt [2:0] $end
$var wire 24 d" out_flat [23:0] $end
$var wire 8 e" data_in [7:0] $end
$var wire 8 f" ashr_c [7:0] $end
$scope module u_const_shift $end
$var wire 8 g" data_in [7:0] $end
$var wire 3 h" shift_amt [2:0] $end
$var wire 8 i" shr_c [7:0] $end
$var wire 8 j" shl_c [7:0] $end
$var wire 8 k" ashr_c [7:0] $end
$upscope $end
$upscope $end
$upscope $end
$upscope $end
$enddefinitions $end
$comment Show the parameter values. $end
$dumpall
$end
#0
$dumpvars
b11000011 k"
b1110 j"
b1000011 i"
b1 h"
b10000111 g"
b11000011 f"
b10000111 e"
b11100100001111000011 d"
b1 c"
b1110 b"
b1000011 a"
b10000111001 `"
b100 _"
b11100 ^"
0]"
1\"
0["
1Z"
0Y"
1X"
b100 W"
b100 V"
b1001 U"
b0 T"
b0 S"
b10000000 R"
b10010000 Q"
b10010000 P"
b10000000 O"
b0 N"
b10010000 M"
0L"
b1001 K"
b0 J"
b10010000100000000000 I"
b1001010 H"
b1100001 G"
b10 F"
b10 E"
b10010000 D"
b10101000 C"
b10110101 B"
b11 A"
b11010101 @"
b1100000 ?"
b11101010 >"
b10010010 ="
b10010000 <"
b10010010 ;"
b11101010 :"
b1100000 9"
b11010101 8"
b11 7"
b10010010 6"
b111010100110000011010101011 5"
b0 4"
b1001 3"
b1001 2"
b1001 1"
b110 0"
b0 /"
1."
b0 -"
1,"
1+"
0*"
1)"
b110 ("
b1001 '"
b100110010110110 &"
b1001 %"
b1001 $"
b0 #"
b1001000011 ""
b10101000 !"
b10101000 ~
b10101000 }
b100110 |
b1111000 {
b10101000 z
b10000011 y
b10000011 x
b10101000 w
b1111000 v
b10101000 u
b10101000 t
b10101000 s
b100110 r
b101010001010100010101000 q
0p
1o
b1000001110101000011110000010011001 n
b10111 m
b0 l
b10001 k
b0 j
b111 i
b1 h
b1 g
b111 f
b0 e
b10111 d
b1011100010001000000 c
b0 b
b10001 a
b1011100 `
b1100 _
b1010 ^
b11110010 ]
b10111010 \
b10111010 [
b11110010 Z
b1010 Y
0X
1W
b1100 V
0U
0T
0S
1R
1Q
1P
b1110001 O
b101110101111001010101100 N
b11111111 M
b10010010 L
b0 K
b110001 J
b1100011 I
b110010 H
b110001 G
b110001 F
b110010 E
b11111111 D
b110001111111111100100100000000000110001 C
b10010010 B
b0 A
b110001 @
b1100011 ?
b11000100110010 >
b11000100110010 =
b110001111111111100100100000000000110001 <
b101110101111001010101100 ;
b1110001 :
b1011100 9
b1011100010001000000 8
b1000001110101000011110000010011001 7
b101010001010100010101000 6
b1001000011 5
b100110010110110 4
b111010100110000011010101011 3
b10010010 2
b10010000100000000000 1
b10010000 0
b100 /
b11100 .
b10000111001 -
b11100100001111000011 ,
b11100100001111000011011100100100001001001000001001100101101101010100010101000101010000001011100010001000000011100010110001111111111100100100000000000110001 +
b1000110011000100010000000001101010011000001010101111001000111000001101010000111100000100110010001011100101110101111010101011000100010011010 *
b10010000111001011110100101000101 )
bx (
b11001000 '
b0 &
0%
b1001001011100111001010001100110 $
b1000110011000100010000000001101010011000001010101111001000111000001101010000111100000100110010001011100101110101111010101011000100010011010 #
0"
b11100100001111000011011100100100001001001000001001100101101101010100010101000101010000001011100010001000000011100010110001111111111100100100000000000110001 !
$end
#1000
b1 &
1"
#2000
b0 (
0"
#3000
b10 &
1"
#4000
b10101010101010101010101x1xx0x0010xxx00000000100001100110001110111111110111111101111101100100000101000100010101011100010011011010011000010010010000001001001001 !
b10101010101010101010101x1xx0x0010xxx00000000100001100110001110111111110111111101111101100100000101000100010101011100010011011010011000010010010000001001001001 +
x]"
x\"
b10xxx0 0
b10xxx0 M"
b1 2
b1 6"
b1 ;"
b1 ="
b11111101 t
b11111101 ~
b111111011111110111110110 6
b111111011111110111110110 q
b10 K"
b10 U"
bx J"
bx T"
b110011000111011 4
b110011000111011 &"
b1 E"
b1 F"
b1000010 B"
b0 <"
b100000101000100010101 8
b100000101000100010101 c
b11111101 u
b11111101 !"
b11110110 s
b11110110 }
b11011010011000010010010000001001001001 <
b11011010011000010010010000001001001001 C
b10101010101010101010101 ,
b10101010101010101010101 d"
b101110 P"
b101110 Q"
b10 O"
b10 R"
b1001 N"
b1001 S"
b111 ("
b111 0"
b1100 '"
b1100 1"
b1100 $"
b1100 3"
0+"
b11001000 :"
b11001000 >"
b1000001 H"
b1111010 G"
b1111001 9"
b1111001 ?"
b111011 8"
b111011 @"
b10110000 D"
b10110000 C"
b100 7"
b100 A"
b1000100 a
b1000100 k
b1000001 d
b1000001 m
b10101 b
b10101 l
b11110110 x
b11110110 y
b11111101 w
b11111101 z
b10110000 v
b10110000 {
b10101 r
b10101 |
b10 A
b10 K
b1001001 @
b1001001 J
b1000010 [
b1000010 \
1Q
1R
0S
0T
b10100010 Z
b10100010 ]
b1000 Y
b1000 ^
0X
1W
b1010 V
b1010 _
bx1xx0x .
bx1xx0x ^"
b1010101 e"
b1010101 g"
b1010101 b"
b1010101 j"
b1010101 a"
b1010101 i"
b1010101 f"
b1010101 k"
b0 c"
b0 h"
b101110000000101001 1
b101110000000101001 I"
b1000 %"
b1000 2"
b100 #"
b100 4"
1*"
0."
b110010000111100100111011100 3
b110010000111100100111011100 5"
b100 g
b100 h
b1 f
b1 i
b1 e
b1 j
b1111011011111101101100000001010101 7
b1111011011111101101100000001010101 n
b11100111 F
b11100111 G
b110110 ?
b110110 I
b10011000 D
b10011000 M
b1001001 B
b1001001 L
b1001111 E
b1001111 H
b10000101010001010001010 ;
b10000101010001010001010 N
b1010101000 -
b1010101000 `"
b1000010001 5
b1000010001 ""
b100000101 9
b100000101 `
b1110011101001111 =
b1110011101001111 >
xX"
xY"
b111x W"
b111x _"
b111x /
b111x V"
b1 (
b110100001101011100000101001001000011110010111011001000010011111011111111011011000000010101010100000101010000101010010100010111001110100111 #
b110100001101011100000101001001000011110010111011001000010011111011111111011011000000010101010100000101010000101010010100010111001110100111 *
b110000101111010001101000011 $
0"
1%
#5000
b11 &
1"
#6000
0Z"
1["
b0 E"
b0 F"
b111110000001001111110011000111100000011000000001010111001010100110011111000111110100101000110101101100110111111010011011101101111011011100000000000000001011011 !
b111110000001001111110011000111100000011000000001010111001010100110011111000111110100101000110101101100110111111010011011101101111011011100000000000000001011011 +
0X"
1Y"
b101011100101010011 4
b101011100101010011 &"
b10000000 2
b10000000 6"
b10000000 ;"
b10000000 ="
b111110 t
b111110 ~
b1111100011111010010100 6
b1111100011111010010100 q
b1001101 :
b1001101 O
b1000 K"
b1000 U"
b0 J"
b0 T"
b10000001 0
b10000001 M"
b10101101 B"
b10000000 <"
b110101101100110111111 8
b110101101100110111111 c
b10010100 s
b10010100 }
b111110 u
b111110 !"
b1101101111011011100000000000000001011011 <
b1101101111011011100000000000000001011011 C
b111110000001001111110011 ,
b111110000001001111110011 d"
b10001010 P"
b10001010 Q"
b1110000 O"
b1110000 R"
1L"
b1111 N"
b1111 S"
b1010 ("
b1010 0"
b101 -"
b101 /"
b111 '"
b111 1"
b10 $"
b10 3"
b11000 :"
b11000 >"
b1100111 H"
b1010000 G"
b1001111 9"
b1001111 ?"
b11100010 8"
b11100010 @"
b11000000 D"
b1000000 C"
b101 7"
b101 A"
b1100110 a
b1100110 k
b1101011 d
b1101011 m
b111111 b
b111111 l
b10010100 x
b10010100 y
b111110 w
b111110 z
b10100010 v
b10100010 {
b101010 r
b101010 |
b0 A
b0 K
b1011011 @
b1011011 J
0Q
0R
1S
1T
b10010001 [
b10010001 \
b1001101 Z
b1001101 ]
b0 Y
b0 ^
0X
1W
b1001 V
b1001 _
b111 .
b111 ^"
b10011111 e"
b10011111 g"
b11111000 b"
b11111000 j"
b10011 a"
b10011 i"
b11110011 f"
b11110011 k"
b11 c"
b11 h"
b10001010011100001111 1
b10001010011100001111 I"
b101 %"
b101 2"
b111 #"
b111 4"
b110000100111111100010101 3
b110000100111111100010101 5"
b110 g
b110 h
b1011 f
b1011 i
b11 e
b11 j
b1001010000111110101000100010101001 7
b1001010000111110101000100010101001 n
b1011011 F
b1011011 G
b11011011 ?
b11011011 I
b11011011 D
b11011011 M
b10000000 B
b10000000 L
b10000000 E
b10000000 H
b100100010100110100001001 ;
b100100010100110100001001 N
b10011111011 -
b10011111011 `"
b101011101 5
b101011101 ""
b110101111 9
b110101111 `
b101101110000000 =
b101101110000000 >
0]"
1\"
b0 W"
b0 _"
b0 /
b0 V"
b10 (
b1011110110000010101100001110011000010011111100010010101011011001010001111101010001000101010010110101111100100010100101000010001110111000000 #
b1011110110000010101100001110011000010011111100010010101011011001010001111101010001000101010010110101111100100010100101000010001110111000000 *
b1010101010110100101010111101100 $
0"
#7000
b100 &
1"
#8000
b100000000000000000000001x10x1101xxx00000000100001011101111000011011101110111011101110110011000100110011000000011100010010000001010110110001110000000101010110 !
b100000000000000000000001x10x1101xxx00000000100001011101111000011011101110111011101110110011000100110011000000011100010010000001010110110001110000000101010110 +
b101110111100001 4
b101110111100001 &"
b1 2
b1 6"
b1 ;"
b1 ="
b10111011 t
b10111011 ~
b101110111011101110111011 6
b101110111011101110111011 q
b1110001 :
b1110001 O
b1101 K"
b1101 U"
bx J"
bx T"
b1101xxx0 0
b1101xxx0 M"
b1 E"
b1 F"
b11111110 B"
b0 <"
b11000100110011000000 8
b11000100110011000000 c
b10111011 u
b10111011 !"
b10111011 s
b10111011 }
b10000001010110110001110000000101010110 <
b10000001010110110001110000000101010110 C
b1000000000000000000000 ,
b1000000000000000000000 d"
b11011110 P"
b11011110 Q"
b1110001 O"
b1110001 R"
0L"
b1001 N"
b1001 S"
b1100 ("
b1100 0"
b0 -"
b0 /"
b1011 '"
b1011 1"
b1011 $"
b1011 3"
0)"
b10110010 :"
b10110010 >"
b11110 H"
b1101101 G"
b1101100 9"
b1101100 ?"
b10010010 8"
b10010010 @"
b0 D"
b0 C"
b111 7"
b111 A"
b110011 a
b110011 k
b110001 d
b110001 m
b0 b
b0 l
b1101110 x
b1101110 y
b10111011 w
b10111011 z
b1100100 v
b1100100 {
b11110001 r
b11110001 |
b1 A
b1 K
b1010110 @
b1010110 J
b10100011 [
b10100011 \
1Q
1R
0S
0T
b11100101 Z
b11100101 ]
b110 Y
b110 ^
b100 V
b100 _
b1x10x .
b1x10x ^"
b10 e"
b10 g"
b100000 b"
b100000 j"
b0 a"
b0 i"
b0 f"
b0 k"
b100 c"
b100 h"
b11011110011100011001 1
b11011110011100011001 I"
b11 %"
b11 2"
b1000 #"
b1000 4"
0,"
b101100100110110010010010111 3
b101100100110110010010010111 5"
b11 g
b11 h
b1 f
b1 i
b0 e
b0 j
b110111010111011011001001111000101 7
b110111010111011011001001111000101 n
b10111011 F
b10111011 G
b100000 ?
b100000 I
b1010110 D
b1010110 M
b11000111 B
b11000111 L
b1100101 E
b1100101 H
b101000111110010101100100 ;
b101000111110010101100100 N
b10100 -
b10100 `"
b11100000 5
b11100000 ""
b11000100 9
b11000100 `
b1011101101100101 =
b1011101101100101 >
1Z"
xX"
0["
xY"
b101x W"
b101x _"
b101x /
b101x V"
b11 (
b11000110111101100011001110010011011000010010110011100000110111101110110110010011110001010011000100101000111110001011001010110110110101 #
b11000110111101100011001110010011011000010010110011100000110111101110110110010011110001010011000100101000111110001011001010110110110101 *
b1111001110001110111000000110001 $
0"
#9000
b101 &
1"
#10000
b11 7"
b11 A"
b11100 .
b11100 ^"
b10010110100101101001011011100100001101100100101000111001110100101110110111100001111011010101001001010101010101010011011010110001100000111001000000001100010100 !
b10010110100101101001011011100100001101100100101000111001110100101110110111100001111011010101001001010101010101010011011010110001100000111001000000001100010100 +
1X"
0Y"
b10000110 0
b10000110 M"
b11001001 2
b11001001 6"
b11001001 ;"
b11001001 ="
b111011011110000111101101 6
b111011011110000111101101 q
b1001101 :
b1001101 O
b1000 K"
b1000 U"
b11 J"
b11 T"
b100011100111010010 4
b100011100111010010 &"
b11001000 <"
b1 E"
b100 F"
b11101001 B"
b101001001010101010101 8
b101001001010101010101 c
b11101101 s
b11101101 }
b11101101 u
b11101101 !"
b11100001 t
b11100001 ~
b1010110001100000111001000000001100010100 <
b1010110001100000111001000000001100010100 C
b10010110100101101001011 ,
b10010110100101101001011 d"
b10000110 P"
b10000110 Q"
b1001110 O"
b1001110 R"
b10 N"
b10 S"
b1010 ("
b1010 0"
b100 -"
b100 /"
b111 '"
b111 1"
b11 $"
b11 3"
1)"
b11011000 D"
b11101111 :"
b11101111 >"
b100101 H"
b110111 G"
b110110 9"
b110110 ?"
b11111000 C"
b11011111 8"
b11011111 @"
b1010101 a
b1010101 k
b1010010 d
b1010010 m
b10101 b
b10101 l
b11101101 x
b11101101 y
b10000100 w
b10000100 z
b11100001 v
b11100001 {
b101000 r
b101000 |
1p
0o
b11 A
b11 K
b10100 @
b10100 J
b1111101 [
b1111101 \
0Q
0R
1S
1T
b1001111 Z
b1001111 ]
b1111 Y
b1111 ^
b1110 V
b1110 _
b1001011 e"
b1001011 g"
b1001011 b"
b1001011 j"
b1001011 a"
b1001011 i"
b1001011 f"
b1001011 k"
b0 c"
b0 h"
b10000110010011100010 1
b10000110010011100010 I"
b101 %"
b101 2"
b110 #"
b110 4"
0*"
1."
b111011110011011011011111011 3
b111011110011011011011111011 5"
b101 g
b101 h
b10 f
b10 i
b1 e
b1 j
b1110110110000100111000010010100010 7
b1110110110000100111000010010100010 n
b10000110 F
b10000110 G
b10101100 ?
b10101100 I
b1100000 D
b1100000 M
b11100100 B
b11100100 L
b100110 E
b100110 H
b11111010100111111111110 ;
b11111010100111111111110 N
b1001011000 -
b1001011000 `"
b101011010 5
b101011010 ""
b101001001 9
b101001001 `
b1000011000100110 =
b1000011000100110 >
b1101 W"
b1101 _"
b1101 /
b1101 V"
b100 (
b101010001000001100011100011101111001101101011111110101011101110110100001001110000100101000100101001001011111010100111111111110001100010110 #
b101010001000001100011100011101111001101101011111110101011101110110100001001110000100101000100101001001011111010100111111111110001100010110 *
b10110011100011110001101010100010 $
0"
#11000
b110 &
1"
#12000
b1111 V
b1111 _
b10100110 F
b10100110 G
b110010000001101111111011011100111110100100000010011111011000100110110100101101001011010011101101111011101111111011100010000100101000011001100100000000101000011 !
b110010000001101111111011011100111110100100000010011111011000100110110100101101001011010011101101111011101111111011100010000100101000011001100100000000101000011 +
b11111010 0
b11111010 M"
b1000000 2
b1000000 6"
b1000000 ;"
b1000000 ="
b11010010110100101101001 6
b11010010110100101101001 q
b1110001 :
b1110001 O
b1111 K"
b1111 U"
b101 J"
b101 T"
b1001111101100010011 4
b1001111101100010011 &"
b0 E"
b0 F"
b11011011 B"
b1000000 <"
b1101101111011101111111 8
b1101101111011101111111 c
b1101001 s
b1101001 }
b1101001 u
b1101001 !"
b1101001 t
b1101001 ~
b100101000011001100100000000101000011 <
b100101000011001100100000000101000011 C
b110010000001101111111011 ,
b110010000001101111111011 d"
b11111110 P"
b11111110 Q"
b1011101 O"
b1011101 R"
b0 N"
b0 S"
b10 ("
b10 0"
b1001 -"
b1001 /"
b1111 '"
b1111 1"
b110 $"
b110 3"
b11111 :"
b11111 >"
b10010110 H"
b1111000 G"
b1110111 9"
b1110111 ?"
b1000000 D"
b1100000 C"
b10101100 8"
b10101100 @"
b11011101 a
b11011101 k
b11011011 d
b11011011 m
b111111 b
b111111 l
b11101000 x
b11101000 y
b1101001 w
b1101001 z
b101110 v
b101110 {
b10111 r
b10111 |
0p
1o
b1 A
b1 K
b1000011 @
b1000011 J
b1100 [
b1100 \
1Q
1R
0S
0T
b10010110 Z
b10010110 ]
b1011 Y
b1011 ^
b11100 .
b11100 ^"
b11011001 e"
b11011001 g"
b11001000 b"
b11001000 j"
b11011 a"
b11011 i"
b11111011 f"
b11111011 k"
b11 c"
b11 h"
b11111110010111010000 1
b11111110010111010000 I"
b1101 %"
b1101 2"
b1011 #"
b1011 4"
1*"
0."
1,"
b111110111011110101100011 3
b111110111011110101100011 5"
b1101 g
b1101 h
b1011 f
b1011 i
b11 e
b11 j
b1110100001101001001011100001011101 7
b1110100001101001001011100001011101 n
b1001 ?
b1001 I
b1000011 D
b1000011 M
b110010 B
b110010 L
b1100011 E
b1100011 H
b11001001011010111111 ;
b11001001011010111111 N
b11011001011 -
b11011001011 `"
b1101101101 5
b1101101101 ""
b1101101111 9
b1101101111 `
b1010011001100011 =
b1010011001100011 >
0]"
1X"
1\"
0Y"
b111 W"
b111 _"
b111 /
b111 V"
b101 (
b1111000111111111100111010000011111011101110101100111101101011110100011010010010111000010111011101101111000011001001010101111110001100110011 #
b1111000111111111100111010000011111011101110101100111101101011110100011010010010111000010111011101101111000011001001010101111110001100110011 *
b10001100001000110111111110001111 $
0"
#13000
b111 &
1"
#14000
b111 .
b111 ^"
b1000010000011100000000111010100001000000010011101010001100101111101011111010111110101011100010111011101010010011010111100000010000110100000000000100010000 !
b1000010000011100000000111010100001000000010011101010001100101111101011111010111110101011100010111011101010010011010111100000010000110100000000000100010000 +
0Z"
0X"
1["
1Y"
b1010000 0
b1010000 M"
b10000000 2
b10000000 6"
b10000000 ;"
b10000000 ="
b11111010 t
b11111010 ~
b111110101111101011111010 6
b111110101111101011111010 q
b1001101 :
b1001101 O
b101 K"
b101 U"
b0 J"
b0 T"
b1001110101000110010 4
b1001110101000110010 &"
b10110000 B"
b10000000 <"
b1011100010111011101010 8
b1011100010111011101010 c
b11111010 u
b11111010 !"
b11111010 s
b11111010 }
b111100000010000110100000000000100010000 <
b111100000010000110100000000000100010000 C
b1000010000011100000 ,
b1000010000011100000 d"
b1011000 P"
b1011000 Q"
b1100 O"
b1100 R"
b101 N"
b101 S"
b110 ("
b110 0"
b1101 '"
b1101 1"
b100 $"
b100 3"
b10000010 :"
b10000010 >"
b1010111 H"
b11010110 G"
b11010101 9"
b11010101 ?"
b1100101 8"
b1100101 @"
b11000000 D"
b1000000 C"
b110 7"
b110 A"
b10111011 a
b10111011 k
b10111000 d
b10111000 m
b101010 b
b101010 l
b10110110 x
b10110110 y
b11111010 w
b11111010 z
b10111111 v
b10111111 {
b10100101 r
b10100101 |
b10000 @
b10000 J
0Q
0R
1S
1T
b1010111 [
b1010111 \
b111000 Z
b111000 ]
b1010 Y
b1010 ^
b1001 V
b1001 _
b10000001 e"
b10000001 g"
b100 b"
b100 j"
b100000 a"
b100000 i"
b11100000 f"
b11100000 k"
b10 c"
b10 h"
b1011000000011000101 1
b1011000000011000101 I"
b1001 %"
b1001 2"
b1101 #"
b1101 4"
0*"
1."
0,"
b100000101101010101100101110 3
b100000101101010101100101110 5"
b1011 g
b1011 h
b1000 f
b1000 i
b10 e
b10 j
b1011011011111010101111111010010101 7
b1011011011111010101111111010010101 n
b1000100 F
b1000100 G
b1111000 ?
b1111000 I
b10000 D
b10000 M
b11010000 B
b11010000 L
b110100 E
b110100 H
b10101110011100010101001 ;
b10101110011100010101001 N
b10000001010 -
b10000001010 `"
b1001110110 5
b1001110110 ""
b1011100010 9
b1011100010 `
b100010000110100 =
b100010000110100 >
b0 W"
b0 _"
b0 /
b0 V"
b110 (
b1000000100010110000011000101000010110101011100101101001110101011011111110101011111110100101011011100010010101110011100101010001001000011100 #
b1000000100010110000011000101000010110101011100101101001110101011011111110101011111110100101011011100010010101110011100101010001001000011100 *
b11101011111011110011010000001000 $
0"
#15000
b1000 &
1"
