rewiring/large_test_seed0/cycle_0033/tb_top.vcd
$date
	Tue Nov  4 00:12:31 2025
$end
$version
	Icarus Verilog
$end
$timescale
	1ps
$end
$scope module tb_top $end
$var wire 159 ! out_flat [158:0] $end
$var reg 1 " clk $end
$var reg 143 # in_flat [142:0] $end
$var reg 32 $ rng_state [31:0] $end
$var reg 1 % rst_n $end
$var integer 32 & cyc [31:0] $end
$var integer 32 ' cycles [31:0] $end
$var integer 32 ( i [31:0] $end
$var integer 32 ) seed [31:0] $end
$scope module dut $end
$var wire 1 " clk $end
$var wire 143 * in_flat [142:0] $end
$var wire 1 % rst_n $end
$var wire 159 + out_flat [158:0] $end
$var wire 24 , const_shift_wrapper_out_flat [23:0] $end
$var wire 11 - const_shift_wrapper_in_flat [10:0] $end
$var wire 6 . const_reduce_wrapper_out_flat [5:0] $end
$var wire 4 / const_reduce_wrapper_in_flat [3:0] $end
$var wire 8 0 const_partselect_wrapper_out_flat [7:0] $end
$var wire 20 1 const_partselect_wrapper_in_flat [19:0] $end
$var wire 8 2 const_nested_wrapper_out_flat [7:0] $end
$var wire 27 3 const_nested_wrapper_in_flat [26:0] $end
$var wire 19 4 const_logic_wrapper_out_flat [18:0] $end
$var wire 10 5 const_logic_wrapper_in_flat [9:0] $end
$var wire 24 6 const_conditional_wrapper_out_flat [23:0] $end
$var wire 34 7 const_conditional_wrapper_in_flat [33:0] $end
$var wire 22 8 const_concat_repl_wrapper_out_flat [21:0] $end
$var wire 10 9 const_concat_repl_wrapper_in_flat [9:0] $end
$var wire 8 : const_compare_wrapper_out_flat [7:0] $end
$var wire 24 ; const_compare_wrapper_in_flat [23:0] $end
$var wire 40 < const_arith_wrapper_out_flat [39:0] $end
$var wire 16 = const_arith_wrapper_in_flat [15:0] $end
$scope module u_const_arith_wrapper $end
$var wire 16 > in_flat [15:0] $end
$var wire 8 ? sum_c [7:0] $end
$var wire 8 @ rem_c [7:0] $end
$var wire 8 A quot_c [7:0] $end
$var wire 8 B prod_c [7:0] $end
$var wire 40 C out_flat [39:0] $end
$var wire 8 D diff_c [7:0] $end
$var wire 8 E b [7:0] $end
$var wire 8 F a [7:0] $end
$scope module u_const_arith $end
$var wire 8 G a [7:0] $end
$var wire 8 H b [7:0] $end
$var wire 8 I sum_c [7:0] $end
$var wire 8 J rem_c [7:0] $end
$var wire 8 K quot_c [7:0] $end
$var wire 8 L prod_c [7:0] $end
$var wire 8 M diff_c [7:0] $end
$upscope $end
$upscope $end
$scope module u_const_compare_wrapper $end
$var wire 24 N in_flat [23:0] $end
$var wire 8 O out_flat [7:0] $end
$var wire 1 P neq_c $end
$var wire 1 Q lt_c $end
$var wire 1 R le_c $end
$var wire 1 S gt_c $end
$var wire 1 T ge_c $end
$var wire 1 U eq_c $end
$var wire 4 V d [3:0] $end
$var wire 1 W case_neq_c $end
$var wire 1 X case_eq_c $end
$var wire 4 Y c [3:0] $end
$var wire 8 Z b [7:0] $end
$var wire 8 [ a [7:0] $end
$scope module u_const_compare $end
$var wire 8 \ a [7:0] $end
$var wire 8 ] b [7:0] $end
$var wire 4 ^ c [3:0] $end
$var wire 4 _ d [3:0] $end
$var wire 1 P neq_c $end
$var wire 1 Q lt_c $end
$var wire 1 R le_c $end
$var wire 1 S gt_c $end
$var wire 1 T ge_c $end
$var wire 1 U eq_c $end
$var wire 1 W case_neq_c $end
$var wire 1 X case_eq_c $end
$upscope $end
$upscope $end
$scope module u_const_concat_repl_wrapper $end
$var wire 10 ` in_flat [9:0] $end
$var wire 8 a rep_c [7:0] $end
$var wire 6 b rep2_c [5:0] $end
$var wire 22 c out_flat [21:0] $end
$var wire 8 d cat_c [7:0] $end
$var wire 2 e c [1:0] $end
$var wire 4 f b [3:0] $end
$var wire 4 g a [3:0] $end
$scope module u_const_concat_repl $end
$var wire 4 h a [3:0] $end
$var wire 4 i b [3:0] $end
$var wire 2 j c [1:0] $end
$var wire 8 k rep_c [7:0] $end
$var wire 6 l rep2_c [5:0] $end
$var wire 8 m cat_c [7:0] $end
$upscope $end
$upscope $end
$scope module u_const_conditional_wrapper $end
$var wire 34 n in_flat [33:0] $end
$var wire 1 o sel2 $end
$var wire 1 p sel1 $end
$var wire 24 q out_flat [23:0] $end
$var wire 8 r d [7:0] $end
$var wire 8 s cond3_c [7:0] $end
$var wire 8 t cond2_c [7:0] $end
$var wire 8 u cond1_c [7:0] $end
$var wire 8 v c [7:0] $end
$var wire 8 w b [7:0] $end
$var wire 8 x a [7:0] $end
$scope module u_const_conditional $end
$var wire 8 y a [7:0] $end
$var wire 8 z b [7:0] $end
$var wire 8 { c [7:0] $end
$var wire 8 | d [7:0] $end
$var wire 1 p sel1 $end
$var wire 1 o sel2 $end
$var wire 8 } cond3_c [7:0] $end
$var wire 8 ~ cond2_c [7:0] $end
$var wire 8 !" cond1_c [7:0] $end
$upscope $end
$upscope $end
$scope module u_const_logic_wrapper $end
$var wire 10 "" in_flat [9:0] $end
$var wire 4 #" y [3:0] $end
$var wire 4 $" xor_c [3:0] $end
$var wire 4 %" x [3:0] $end
$var wire 19 &" out_flat [18:0] $end
$var wire 4 '" or_c [3:0] $end
$var wire 4 (" not_c [3:0] $end
$var wire 1 )" lor_c $end
$var wire 1 *" lnot_c $end
$var wire 1 +" land_c $end
$var wire 1 ," b $end
$var wire 4 -" and_c [3:0] $end
$var wire 1 ." a $end
$scope module u_const_logic $end
$var wire 1 ." a $end
$var wire 4 /" and_c [3:0] $end
$var wire 1 ," b $end
$var wire 1 +" land_c $end
$var wire 1 )" lor_c $end
$var wire 4 0" not_c [3:0] $end
$var wire 4 1" or_c [3:0] $end
$var wire 4 2" x [3:0] $end
$var wire 4 3" xor_c [3:0] $end
$var wire 4 4" y [3:0] $end
$var wire 1 *" lnot_c $end
$upscope $end
$upscope $end
$scope module u_const_nested_wrapper $end
$var wire 27 5" in_flat [26:0] $end
$var wire 8 6" out_flat [7:0] $end
$var wire 3 7" s [2:0] $end
$var wire 8 8" r [7:0] $end
$var wire 8 9" q [7:0] $end
$var wire 8 :" p [7:0] $end
$var wire 8 ;" nested_c [7:0] $end
$scope module u_const_nested $end
$var wire 8 <" and_part [7:0] $end
$var wire 8 =" nested_c [7:0] $end
$var wire 8 >" p [7:0] $end
$var wire 8 ?" q [7:0] $end
$var wire 8 @" r [7:0] $end
$var wire 3 A" s [2:0] $end
$var wire 8 B" xor_qr [7:0] $end
$var wire 8 C" shl_rs [7:0] $end
$var wire 8 D" mul_part [7:0] $end
$var wire 8 E" mod_part [7:0] $end
$var wire 8 F" div_part [7:0] $end
$var wire 8 G" denom [7:0] $end
$var wire 8 H" add_pq [7:0] $end
$upscope $end
$upscope $end
$scope module u_const_partselect_wrapper $end
$var wire 20 I" in_flat [19:0] $end
$var wire 3 J" sel2_c [2:0] $end
$var wire 4 K" sel1_c [3:0] $end
$var wire 1 L" ovf_range $end
$var wire 8 M" out_flat [7:0] $end
$var wire 4 N" idx [3:0] $end
$var wire 8 O" data2 [7:0] $end
$var wire 8 P" data1 [7:0] $end
$scope module u_const_partselect $end
$var wire 8 Q" data1 [7:0] $end
$var wire 8 R" data2 [7:0] $end
$var wire 4 S" idx [3:0] $end
$var wire 3 T" sel2_c [2:0] $end
$var wire 4 U" sel1_c [3:0] $end
$var wire 1 L" ovf_range $end
$upscope $end
$upscope $end
$scope module u_const_reduce_wrapper $end
$var wire 4 V" in_flat [3:0] $end
$var wire 4 W" in_vec [3:0] $end
$var wire 1 X" red_xor_c $end
$var wire 1 Y" red_xnor_c $end
$var wire 1 Z" red_or_c $end
$var wire 1 [" red_nor_c $end
$var wire 1 \" red_nand_c $end
$var wire 1 ]" red_and_c $end
$var wire 6 ^" out_flat [5:0] $end
$scope module u_const_reduce $end
$var wire 4 _" in_vec [3:0] $end
$var wire 1 X" red_xor_c $end
$var wire 1 Y" red_xnor_c $end
$var wire 1 Z" red_or_c $end
$var wire 1 [" red_nor_c $end
$var wire 1 \" red_nand_c $end
$var wire 1 ]" red_and_c $end
$upscope $end
$upscope $end
$scope module u_const_shift_wrapper $end
$var wire 11 `" in_flat [10:0] $end
$var wire 8 a" shr_c [7:0] $end
$var wire 8 b" shl_c [7:0] $end
$var wire 3 c" shift_amt [2:0] $end
$var wire 24 d" out_flat [23:0] $end
$var wire 8 e" data_in [7:0] $end
$var wire 8 f" ashr_c [7:0] $end
$scope module u_const_shift $end
$var wire 8 g" data_in [7:0] $end
$var wire 3 h" shift_amt [2:0] $end
$var wire 8 i" shr_c [7:0] $end
$var wire 8 j" shl_c [7:0] $end
$var wire 8 k" ashr_c [7:0] $end
$upscope $end
$upscope $end
$upscope $end
$upscope $end
$enddefinitions $end
$comment Show the parameter values. $end
$dumpall
$end
#0
$dumpvars
b1 k"
b11110000 j"
b1 i"
b100 h"
b11111 g"
b1 f"
b11111 e"
b111100000000000100000001 d"
b100 c"
b11110000 b"
b1 a"
b11111100 `"
b1000 _"
b11100 ^"
0]"
1\"
0["
1Z"
0Y"
1X"
b1000 W"
b1000 V"
b111 U"
bx T"
b1001 S"
b1 R"
b1110101 Q"
b1110101 P"
b1 O"
b1001 N"
b111xxx0 M"
0L"
b111 K"
bx J"
b1110101000000011001 I"
b10011101 H"
b10111001 G"
b1 F"
b1 E"
b1000000 D"
b1000000 C"
b11000001 B"
b110 A"
b1111001 @"
b10111000 ?"
b11100101 >"
b1000001 ="
b1000000 <"
b1000001 ;"
b11100101 :"
b10111000 9"
b1111001 8"
b110 7"
b1000001 6"
b111001011011100001111001110 5"
b1100 4"
b1001 3"
b101 2"
b1101 1"
b1010 0"
b100 /"
1."
b100 -"
1,"
1+"
0*"
1)"
b1010 ("
b1101 '"
b100110110011010110 &"
b101 %"
b1001 $"
b1100 #"
b101110011 ""
b1 !"
b1 ~
b1 }
b110100 |
b110001 {
b10110101 z
b1 y
b1 x
b10110101 w
b110001 v
b1 u
b1 t
b1 s
b110100 r
b10000000100000001 q
1p
1o
b110110101001100010011010011 n
b101000 m
b10101 l
b100010 k
b1 j
b1000 i
b10 h
b10 g
b1000 f
b1 e
b101000 d
b10100000100010010101 c
b10101 b
b100010 a
b10100001 `
b10 _
b1010 ^
b110111 ]
b1010100 \
b1010100 [
b110111 Z
b1010 Y
0X
1W
b10 V
0U
1T
1S
0R
0Q
1P
b1001101 O
b10101000011011110100010 N
b1 M
b10110 L
b1 K
b1 J
b1011011 I
b101101 H
b101110 G
b101110 F
b101101 E
b1 D
b101101100000001000101100000000100000001 C
b10110 B
b1 A
b1 @
b1011011 ?
b10111000101101 >
b10111000101101 =
b101101100000001000101100000000100000001 <
b10101000011011110100010 ;
b1001101 :
b10100001 9
b10100000100010010101 8
b110110101001100010011010011 7
b10000000100000001 6
b101110011 5
b100110110011010110 4
b111001011011100001111001110 3
b1000001 2
b1110101000000011001 1
b111xxx0 0
b1000 /
b11100 .
b11111100 -
b111100000000000100000001 ,
b1111000000000001000000010111000111xxx00100000101001101100110101100000000100000001000000010010100000100010010101010011010101101100000001000101100000000100000001 +
b11111001000111010100000011011110010110111000011110011100101100110000000110110110110001001101011010100010101010001011110100010001011100010101 *
b1001010010100110000100011001100 )
bx (
b1100100 '
b0 &
0%
b11101010001110010000111110010001 $
b11111001000111010100000011011110010110111000011110011100101100110000000110110110110001001101011010100010101010001011110100010001011100010101 #
0"
b1111000000000001000000010111000111xxx00100000101001101100110101100000000100000001000000010010100000100010010101010011010101101100000001000101100000000100000001 !
$end
#1000
b1 &
1"
#2000
b0 (
0"
#3000
b10 &
1"
#4000
b0 J"
b0 T"
1L"
b110000000000001000000010000111101100010000000010101110010001010100100110101001101010011010100100101000100111111010011011110011100010011010000100000000100010011 !
b110000000000001000000010000111101100010000000010101110010001010100100110101001101010011010100100101000100111111010011011110011100010011010000100000000100010011 +
b10110001 0
b10110001 M"
b1010111001000101010 4
b1010111001000101010 &"
b0 2
b0 6"
b0 ;"
b0 ="
b1001101 t
b1001101 ~
b10011010100110101001101 6
b10011010100110101001101 q
b1011 K"
b1011 U"
b0 E"
b0 F"
b10001111 B"
b0 <"
b100100101000100111111 8
b100100101000100111111 c
b1001101 s
b1001101 }
b1001101 u
b1001101 !"
b1110011100010011010000100000000100010011 <
b1110011100010011010000100000000100010011 C
b110000000000001000000010 ,
b110000000000001000000010 d"
b10110111 P"
b10110111 Q"
b10010001 O"
b10010001 R"
b1110 N"
b1110 S"
b101 ("
b101 0"
b1010 -"
b1010 /"
b1110 '"
b1110 1"
b100 $"
b100 3"
0+"
b10011 :"
b10011 >"
b11100000 H"
b11001110 G"
b11001101 9"
b11001101 ?"
b1000010 8"
b1000010 @"
b0 D"
b100000 C"
b100 7"
b100 A"
b1000100 a
b1000100 k
b1001001 d
b1001001 m
b111111 b
b111111 l
b1010110 x
b1010110 y
b1001101 w
b1001101 z
b10010001 v
b10010001 {
b10001010 r
b10001010 |
0p
b10011 @
b10011 J
b10111111 [
b10111111 \
0Q
0R
1S
1T
b1010000 Z
b1010000 ]
b101 Y
b101 ^
b1111 V
b1111 _
b111 .
b111 ^"
b11000000 b"
b11000000 j"
b10 a"
b10 i"
b10 f"
b10 k"
b101100 e"
b101100 g"
b10110111100100011110 1
b10110111100100011110 I"
b1010 %"
b1010 2"
b1110 #"
b1110 4"
0,"
b100111100110101000010100 3
b100111100110101000010100 5"
b100 g
b100 h
b1001 f
b1001 i
b11 e
b11 j
b101011001001101100100011000101001 7
b101011001001101100100011000101001 n
b11111101 F
b11111101 G
b11100111 ?
b11100111 I
b10011 D
b10011 M
b1000010 B
b1000010 L
b11101010 E
b11101010 H
b101111110101000001011111 ;
b101111110101000001011111 N
b101100100 -
b101100100 `"
b1010111010 5
b1010111010 ""
b100100111 9
b100100111 `
b1111110111101010 =
b1111110111101010 >
0Z"
0X"
1["
1Y"
b0 W"
b0 _"
b0 /
b0 V"
b1 (
b101001000001011011110010011100001001111001101010000101001011110100101011001001111010001100010101100101111011111111000001011111111111011110110 #
b101001000001011011110010011100001001111001101010000101001011110100101011001001111010001100010101100101111011111111000001011111111111011110110 *
b11001110110101010001010010000010 $
0"
1%
#5000
b11 &
1"
#6000
b100000000000000000000000010101111011000000000100001110111001010111001010010010100111111000100110101000100101010010011010011001011101100000011010000000000001111 !
b100000000000000000000000010101111011000000000100001110111001010111001010010010100111111000100110101000100101010010011010011001011101100000011010000000000001111 +
b1 2
b1 6"
b1 ;"
b1 ="
b10010100 t
b10010100 ~
b100101001001010011111100 6
b100101001001010011111100 q
b1110 K"
b1110 U"
b110 J"
b110 T"
b11101100 0
b11101100 M"
b111011100101011 4
b111011100101011 &"
b1 E"
b1 F"
b10101100 B"
b100110101000100101010 8
b100110101000100101010 c
b10010100 u
b10010100 !"
b11111100 s
b11111100 }
b11001011101100000011010000000000001111 <
b11001011101100000011010000000000001111 C
b100000000000000000000000 ,
b100000000000000000000000 d"
b11100111 P"
b11100111 Q"
b10110000 O"
b10110000 R"
0L"
b11 N"
b11 S"
b0 -"
b0 /"
b1110 $"
b1110 3"
b11110110 :"
b11110110 >"
b11000100 H"
b11001111 G"
b11001110 9"
b11001110 ?"
b1100010 8"
b1100010 @"
b10000 D"
b11000100 C"
b1 7"
b1 A"
b1001101 d
b1001101 m
b101010 b
b101010 l
b11111100 x
b11111100 y
b10010100 w
b10010100 z
b10010111 v
b10010111 {
b1101110 r
b1101110 |
b0 A
b0 K
b1111 @
b1111 J
b10000110 [
b10000110 \
b1010111 Z
b1010111 ]
b0 Y
b0 ^
b1011 V
b1011 _
b10101 .
b10101 ^"
b10001 e"
b10001 g"
b10000000 b"
b10000000 j"
b0 a"
b0 i"
b0 f"
b0 k"
b111 c"
b111 h"
b11100111101100000011 1
b11100111101100000011 I"
b100 #"
b100 4"
1*"
0."
1,"
b111101101100111001100010001 3
b111101101100111001100010001 5"
b1101 f
b1101 i
b10 e
b10 j
b1111110010010100100101110110111001 7
b1111110010010100100101110110111001 n
b1111 F
b1111 G
b110010 ?
b110010 I
b11101100 D
b11101100 M
b1101 B
b1101 L
b100011 E
b100011 H
b100001100101011100001011 ;
b100001100101011100001011 N
b10001111 -
b10001111 `"
b1010010001 5
b1010010001 ""
b100110110 9
b100110110 `
b111100100011 =
b111100100011 >
1Z"
0["
b101 W"
b101 _"
b101 /
b101 V"
b10 (
b10011110111110011110110000111111011011001110011000100011010100011111110010010101010111011011101100111101000011011011100001011000011110010011 #
b10011110111110011110110000111111011011001110011000100011010100011111110010010101010111011011101100111101000011011011100001011000011110010011 *
b1111111111101110000100111101111 $
0"
#7000
b100 &
1"
#8000
b101010001xxx01010000100100110010010011100001110100011101101001000011110100110011000000011100010111000110000001001110000000000001111001 !
b101010001xxx01010000100100110010010011100001110100011101101001000011110100110011000000011100010111000110000001001110000000000001111001 +
b1xxx0 0
b1xxx0 M"
b10100001 2
b10100001 6"
b10100001 ;"
b10100001 ="
b11101 t
b11101 ~
b111010001110110100100 6
b111010001110110100100 q
b1110001 :
b1110001 O
b1 K"
b1 U"
bx J"
bx T"
b10011001001001110 4
b10011001001001110 &"
b111 F"
b11101110 B"
b10100000 <"
b11110100110011000000 8
b11110100110011000000 c
b10100100 s
b10100100 }
b11101 u
b11101 !"
b111000110000001001110000000000001111001 <
b111000110000001001110000000000001111001 C
b0 ,
b0 d"
b10100 P"
b10100 Q"
b1010010 O"
b1010010 R"
b1100 N"
b1100 S"
b1001 ("
b1001 0"
b10 -"
b10 /"
b110 '"
b110 1"
b100 $"
b100 3"
1+"
b1010110 :"
b1010110 >"
b1100001 H"
b1100 G"
b1011 9"
b1011 ?"
b11100101 8"
b11100101 @"
b10100000 D"
b10100000 C"
b101 7"
b101 A"
b111101 d
b111101 m
b110011 a
b110011 k
b0 b
b0 l
b11101 x
b11101 y
b10100100 w
b10100100 z
b11001101 v
b11001101 {
b10011010 r
b10011010 |
1p
b1111001 @
b1111001 J
1Q
1R
0S
0T
b101000 [
b101000 \
b1011110 Z
b1011110 ]
b10 Y
b10 ^
0X
1W
b0 V
b0 _
b10101 .
b10101 ^"
b0 b"
b0 j"
b1011100 e"
b1011100 g"
b10100010100101100 1
b10100010100101100 I"
b110 %"
b110 2"
b10 #"
b10 4"
0*"
1."
b10101100000101111100101101 3
b10101100000101111100101101 5"
b11 g
b11 h
b0 e
b0 j
b1110110100100110011011001101011 7
b1110110100100110011011001101011 n
b1111001 F
b1111001 G
b1110001 ?
b1110001 I
b10000001 D
b10000001 M
b111000 B
b111000 L
b11111000 E
b11111000 H
b1010000101111000100000 ;
b1010000101111000100000 N
b1011100111 -
b1011100111 `"
b110001011 5
b110001011 ""
b11110100 9
b11110100 `
b111100111111000 =
b111100111111000 >
0X"
1Y"
b110 W"
b110 _"
b110 /
b110 V"
b11 (
b1011001110100001010001010101000101011000001011111001011010110010110001110110100101001101100110111011111000010100011111000100000011110011111100 #
b1011001110100001010001010101000101011000001011111001011010110010110001110110100101001101100110111011111000010100011111000100000011110011111100 *
b10101010101000100010110011101000 $
0"
#9000
b101 &
1"
#10000
b1101000000110100001101110001010100101000000000001001100101110010111100011101000011110000100010101000100010101011100010000001111111001111101100011001000000100 !
b1101000000110100001101110001010100101000000000001001100101110010111100011101000011110000100010101000100010101011100010000001111111001111101100011001000000100 +
b1010010 0
b1010010 M"
b10000000 2
b10000000 6"
b10000000 ;"
b10000000 ="
b11110001110100001111000 6
b11110001110100001111000 q
b101 K"
b101 U"
b1 J"
b1 T"
b100110010111001 4
b100110010111001 &"
b0 E"
b0 F"
b11000101 B"
b10000000 <"
b100010101000100010101 8
b100010101000100010101 c
b1111000 s
b1111000 }
b1111000 u
b1111000 !"
b11101000 t
b11101000 ~
b1111111001111101100011001000000100 <
b1111111001111101100011001000000100 C
b1101000000110100001101 ,
b1101000000110100001101 d"
b1010111 P"
b1010111 Q"
b111000 O"
b111000 R"
b101 N"
b101 S"
b111 ("
b111 0"
b0 -"
b0 /"
b1001 '"
b1001 1"
b1001 $"
b1001 3"
0+"
0)"
b101111 :"
b101111 >"
b11000011 H"
b10010101 G"
b10010100 9"
b10010100 ?"
b1010001 8"
b1010001 @"
b10000000 D"
b10000000 C"
b111 7"
b111 A"
b1000100 a
b1000100 k
b1000101 d
b1000101 m
b10101 b
b10101 l
b1111110 x
b1111110 y
b1111000 w
b1111000 z
b11101000 v
b11101000 {
b11010000 r
b11010000 |
0p
0o
b110010 A
b110010 K
b100 @
b100 J
b110101 [
b110101 \
b1101000 Z
b1101000 ]
b101 Y
b101 ^
b111 V
b111 _
b110001 .
b110001 ^"
b11010 e"
b11010 g"
b110100 b"
b110100 j"
b1101 a"
b1101 i"
b1101 f"
b1101 k"
b1 c"
b1 h"
b1010111001110000101 1
b1010111001110000101 I"
b1000 %"
b1000 2"
b1 #"
b1 4"
1*"
0."
0,"
b1011111001010001010001111 3
b1011111001010001010001111 5"
b100 g
b100 h
b101 f
b101 i
b1 e
b1 j
b111111001111000111010001101000000 7
b111111001111000111010001101000000 n
b11111110 F
b11111110 G
b11 ?
b11 I
b11111001 D
b11111001 M
b11110110 B
b11110110 L
b101 E
b101 H
b1101010110100001010111 ;
b1101010110100001010111 N
b11010001 -
b11010001 `"
b1000000100 5
b1000000100 ""
b100010101 9
b100010101 `
b1111111000000101 =
b1111111000000101 >
1]"
0\"
b1111 W"
b1111 _"
b1111 /
b1111 V"
b100 (
b10100011110101011100111000010010111110010100010100011111000001000111111001111001101000110100000100011010011010110100001010111111111100000001 #
b10100011110101011100111000010010111110010100010100011111000001000111111001111001101000110100000100011010011010110100001010111111111100000001 *
b10001000110110001000101000111101 $
0"
#11000
b110 &
1"
#12000
b11100 .
b11100 ^"
b101110000000101000001010011100100100100101001001001111101110101100001000000010000000011010110110101100110000000011100101010101011011110000110000000000001000100 !
b101110000000101000001010011100100100100101001001001111101110101100001000000010000000011010110110101100110000000011100101010101011011110000110000000000001000100 +
0]"
1X"
1\"
0Y"
b1101 W"
b1101 _"
b1101 /
b1101 V"
b10010010 0
b10010010 M"
b1010010 2
b1010010 6"
b1010010 ;"
b1010010 ="
b100000001000000001101 6
b100000001000000001101 q
b1110010 :
b1110010 O
b1001 K"
b1001 U"
b1 J"
b1 T"
b100111110111010110 4
b100111110111010110 &"
b10 E"
b10 F"
b1010100 B"
b1010000 <"
b110110101100110000000 8
b110110101100110000000 c
b1101 s
b1101 }
b10000 u
b10000 !"
b10000 t
b10000 ~
b1010101011011110000110000000000001000100 <
b1010101011011110000110000000000001000100 C
b101110000000101000001010 ,
b101110000000101000001010 d"
b10010011 P"
b10010011 Q"
b110001 O"
b110001 R"
b0 N"
b0 S"
b1010 ("
b1010 0"
b100 -"
b100 /"
b1111 '"
b1111 1"
b1011 $"
b1011 3"
1+"
1)"
b10001101 :"
b10001101 >"
b11000110 H"
b111010 G"
b111001 9"
b111001 ?"
b1101101 8"
b1101101 @"
b1110000 D"
b1101000 C"
b11 7"
b11 A"
b1100110 a
b1100110 k
b1101101 d
b1101101 m
b0 b
b0 l
b10000 x
b10000 y
b1101 w
b1101 z
b1110001 v
b1110001 {
b10111100 r
b10111100 |
1p
1o
b0 A
b0 K
b1000100 @
b1000100 J
b11101 [
b11101 \
1Q
1R
0S
0T
b101100 Z
b101100 ]
1X
0W
b1111 Y
b1111 ^
b1111 V
b1111 _
b1010111 e"
b1010111 g"
b10111000 b"
b10111000 j"
b1010 a"
b1010 i"
b1010 f"
b1010 k"
b11 c"
b11 h"
b10010011001100010000 1
b10010011001100010000 I"
b101 %"
b101 2"
b1110 #"
b1110 4"
0*"
1."
1,"
b100011010011100101101101011 3
b100011010011100101101101011 5"
b110 g
b110 h
b1101 f
b1101 i
b0 e
b0 j
b1000000001101011100011011110011 7
b1000000001101011100011011110011 n
b1000100 F
b1000100 G
b10101010 ?
b10101010 I
b11011110 D
b11011110 M
b11000 B
b11000 L
b1100110 E
b1100110 H
b111010010110011111111 ;
b111010010110011111111 N
b1010111011 -
b1010111011 `"
b101111011 5
b101111011 ""
b110110100 9
b110110100 `
b100010001100110 =
b100010001100110 >
b101 (
b1011110111111001001100110010001000110100111001011011010110101110110001000000001110110001101111011110111000001110100110011111111010001000110010 #
b1011110111111001001100110010001000110100111001011011010110101110110001000000001110110001101111011110111000001110100110011111111010001000110010 *
b1111111100000011010111101111110 $
0"
#13000
b111 &
1"
#14000
1L"
b100000000000000111111111010101111100010011000111001111001100110010011111100110101001111111111010011111111010101010011010101100011011010001001110000000010011001 !
b100000000000000111111111010101111100010011000111001111001100110010011111100110101001111111111010011111111010101010011010101100011011010001001110000000010011001 +
b11110001 0
b11110001 M"
b110001 2
b110001 6"
b110001 ;"
b110001 ="
b1111110011010100111111 6
b1111110011010100111111 q
b1001101 :
b1001101 O
b1111 K"
b1111 U"
b0 J"
b0 T"
b1100111100110011001 4
b1100111100110011001 &"
b0 E"
b0 F"
b110001 B"
b110001 <"
b1111010011111111010101 8
b1111010011111111010101 c
b111111 u
b111111 !"
b111111 s
b111111 }
b110101 t
b110101 ~
b101100011011010001001110000000010011001 <
b101100011011010001001110000000010011001 C
b100000000000000111111111 ,
b100000000000000111111111 d"
b11111001 P"
b11111001 Q"
b1000100 O"
b1000100 R"
b1101 N"
b1101 S"
b11 ("
b11 0"
b1100 -"
b1100 /"
b11 $"
b11 3"
0+"
0)"
b1000101 :"
b1000101 >"
b11001111 H"
b10001011 G"
b10001010 9"
b10001010 ?"
b10111011 8"
b10111011 @"
b110101 D"
b10111011 C"
b0 7"
b0 A"
b11111111 a
b11111111 k
b11110100 d
b11110100 m
b10101 b
b10101 l
b111111 x
b111111 y
b1011001 w
b1011001 z
b110101 v
b110101 {
b1101011 r
b1101011 |
0o
b10011001 @
b10011001 J
0Q
0R
1S
1T
b1100100 [
b1100100 \
b1110 Z
b1110 ]
b100 Y
b100 ^
0X
1W
b1000 V
b1000 _
b10101 .
b10101 ^"
b10100111 e"
b10100111 g"
b10000000 b"
b10000000 j"
b1 a"
b1 i"
b11111111 f"
b11111111 k"
b111 c"
b111 h"
b11111001010001001101 1
b11111001010001001101 I"
b1100 %"
b1100 2"
b1111 #"
b1111 4"
1*"
0."
0,"
b10001011000101010111011000 3
b10001011000101010111011000 5"
b1111 g
b1111 h
b100 f
b100 i
b1 e
b1 j
b11111101011001001101010110101110 7
b11111101011001001101010110101110 n
b10011001 F
b10011001 G
b1011000 ?
b1011000 I
b11011010 D
b11011010 M
b100111 B
b100111 L
b10111111 E
b10111111 H
b11001000000111001001000 ;
b11001000000111001001000 N
b10100111111 -
b10100111111 `"
b1100111100 5
b1100111100 ""
b1111010001 9
b1111010001 `
b1001100110111111 =
b1001100110111111 >
0X"
1Y"
b1100 W"
b1100 _"
b1100 /
b1100 V"
b110 (
b10101111111101111100101000001010100010110001010101110110001101111000011111101011010110101011010110111010010110010000111001001000100110011011111 #
b10101111111101111100101000001010100010110001010101110110001101111000011111101011010110101011010110111010010110010000111001001000100110011011111 *
b11110001001010101101011111111011 $
0"
#15000
b1000 &
1"
#16000
b100000000000001000000010111000010xxx00100000110001101010100101100110010101100101011001010010100000100010111111010011010111010000001100000000000000000100001100 !
b100000000000001000000010111000010xxx00100000110001101010100101100110010101100101011001010010100000100010111111010011010111010000001100000000000000000100001100 +
b10 ("
b10 0"
b1101 %"
b1101 2"
b1000001 2
b1000001 6"
b1000001 ;"
b1000001 ="
b11001010110010101100101 6
b11001010110010101100101 q
b10 K"
b10 U"
bx J"
bx T"
b10xxx0 0
b10xxx0 M"
b1000110101010010110 4
b1000110101010010110 &"
b1 E"
b1 F"
b1000001 B"
b1000000 <"
b10100000100010111111 8
b10100000100010111111 c
b1100101 s
b1100101 }
b1100101 u
b1100101 !"
b1100101 t
b1100101 ~
b111010000001100000000000000000100001100 <
b111010000001100000000000000000100001100 C
b10000000000000100000001 ,
b10000000000000100000001 d"
b100001 P"
b100001 Q"
b1010000 O"
b1010000 R"
0L"
b1000 N"
b1000 S"
b1000 -"
b1000 /"
b1101 '"
b1101 1"
b101 $"
b101 3"
1+"
1)"
b11111000 :"
b11111000 >"
b11001111 H"
b11011000 G"
b11010111 9"
b11010111 ?"
b10010110 8"
b10010110 @"
b1010000 D"
b10110000 C"
b11 7"
b11 A"
b100010 a
b100010 k
b101000 d
b101000 m
b111111 b
b111111 l
b101 x
b101 y
b1100101 w
b1100101 z
b11100 v
b11100 {
b11000110 r
b11000110 |
0p
1o
b1 A
b1 K
b1100 @
b1100 J
b10001100 [
b10001100 \
b1000 Z
b1000 ]
b101 Y
b101 ^
b1101 V
b1101 _
b11100 .
b11100 ^"
b1000101 e"
b1000101 g"
b1000000 b"
b1000000 j"
b1 a"
b1 i"
b1 f"
b1 k"
b110 c"
b110 h"
b100001010100001000 1
b100001010100001000 I"
b1000 #"
b1000 4"
0*"
1."
1,"
b111110001101011110010110011 3
b111110001101011110010110011 5"
b10 g
b10 h
b1000 f
b1000 i
b11 e
b11 j
b10101100101000111001100011001 7
b10101100101000111001100011001 n
b1000000 F
b1000000 G
b1110100 ?
b1110100 I
b1100 D
b1100 M
b0 B
b0 L
b110100 E
b110100 H
b100011000000100001011101 ;
b100011000000100001011101 N
b1000101110 -
b1000101110 `"
b1101100011 5
b1101100011 ""
b10100011 9
b10100011 `
b100000000110100 =
b100000000110100 >
1X"
0Y"
b1 W"
b1 _"
b1 /
b1 V"
b111 (
b1001011100010010000101010001001111100011010111100101100111101000110000010101100110011100110001101010100111000110000100001011101010000000011000 #
b1001011100010010000101010001001111100011010111100101100111101000110000010101100110011100110001101010100111000110000100001011101010000000011000 *
b11001111011110011010010111000100 $
0"
#17000
b1001 &
1"
