rewiring/scripts/bugs/dual_sim_results_archive_20250923_192817/cycle_0004/tb_top.vcd
$date
	Tue Sep 23 19:22:15 2025
$end
$version
	Icarus Verilog
$end
$timescale
	1ps
$end
$scope module tb_top $end
$var wire 159 ! out_flat [158:0] $end
$var reg 1 " clk $end
$var reg 135 # in_flat [134:0] $end
$var reg 32 $ rng_state [31:0] $end
$var reg 1 % rst_n $end
$var integer 32 & cyc [31:0] $end
$var integer 32 ' cycles [31:0] $end
$var integer 32 ( i [31:0] $end
$var integer 32 ) seed [31:0] $end
$scope module dut $end
$var wire 1 " clk $end
$var wire 135 * in_flat [134:0] $end
$var wire 1 % rst_n $end
$var wire 159 + out_flat [158:0] $end
$var wire 24 , const_shift_wrapper_out_flat [23:0] $end
$var wire 11 - const_shift_wrapper_in_flat [10:0] $end
$var wire 6 . const_reduce_wrapper_out_flat [5:0] $end
$var wire 4 / const_reduce_wrapper_in_flat [3:0] $end
$var wire 8 0 const_partselect_wrapper_out_flat [7:0] $end
$var wire 20 1 const_partselect_wrapper_in_flat [19:0] $end
$var wire 8 2 const_nested_wrapper_out_flat [7:0] $end
$var wire 27 3 const_nested_wrapper_in_flat [26:0] $end
$var wire 19 4 const_logic_wrapper_out_flat [18:0] $end
$var wire 10 5 const_logic_wrapper_in_flat [9:0] $end
$var wire 24 6 const_conditional_wrapper_out_flat [23:0] $end
$var wire 34 7 const_conditional_wrapper_in_flat [33:0] $end
$var wire 22 8 const_concat_repl_wrapper_out_flat [21:0] $end
$var wire 10 9 const_concat_repl_wrapper_in_flat [9:0] $end
$var wire 8 : const_compare_wrapper_out_flat [7:0] $end
$var wire 24 ; const_compare_wrapper_in_flat [23:0] $end
$var wire 40 < const_arith_wrapper_out_flat [39:0] $end
$var wire 16 = const_arith_wrapper_in_flat [15:0] $end
$scope module u_const_arith_wrapper $end
$var wire 16 > in_flat [15:0] $end
$var wire 8 ? sum_c [7:0] $end
$var wire 8 @ rem_c [7:0] $end
$var wire 8 A quot_c [7:0] $end
$var wire 8 B prod_c [7:0] $end
$var wire 40 C out_flat [39:0] $end
$var wire 8 D diff_c [7:0] $end
$var wire 8 E b [7:0] $end
$var wire 8 F a [7:0] $end
$scope module u_const_arith $end
$var wire 8 G a [7:0] $end
$var wire 8 H b [7:0] $end
$var wire 8 I sum_c [7:0] $end
$var wire 8 J rem_c [7:0] $end
$var wire 8 K quot_c [7:0] $end
$var wire 8 L prod_c [7:0] $end
$var wire 8 M diff_c [7:0] $end
$upscope $end
$upscope $end
$scope module u_const_compare_wrapper $end
$var wire 24 N in_flat [23:0] $end
$var wire 8 O out_flat [7:0] $end
$var wire 1 P neq_c $end
$var wire 1 Q lt_c $end
$var wire 1 R le_c $end
$var wire 1 S gt_c $end
$var wire 1 T ge_c $end
$var wire 1 U eq_c $end
$var wire 4 V d [3:0] $end
$var wire 1 W case_neq_c $end
$var wire 1 X case_eq_c $end
$var wire 4 Y c [3:0] $end
$var wire 8 Z b [7:0] $end
$var wire 8 [ a [7:0] $end
$scope module u_const_compare $end
$var wire 8 \ a [7:0] $end
$var wire 8 ] b [7:0] $end
$var wire 4 ^ c [3:0] $end
$var wire 4 _ d [3:0] $end
$var wire 1 P neq_c $end
$var wire 1 Q lt_c $end
$var wire 1 R le_c $end
$var wire 1 S gt_c $end
$var wire 1 T ge_c $end
$var wire 1 U eq_c $end
$var wire 1 W case_neq_c $end
$var wire 1 X case_eq_c $end
$upscope $end
$upscope $end
$scope module u_const_concat_repl_wrapper $end
$var wire 10 ` in_flat [9:0] $end
$var wire 8 a rep_c [7:0] $end
$var wire 6 b rep2_c [5:0] $end
$var wire 22 c out_flat [21:0] $end
$var wire 8 d cat_c [7:0] $end
$var wire 2 e c [1:0] $end
$var wire 4 f b [3:0] $end
$var wire 4 g a [3:0] $end
$scope module u_const_concat_repl $end
$var wire 4 h a [3:0] $end
$var wire 4 i b [3:0] $end
$var wire 2 j c [1:0] $end
$var wire 8 k rep_c [7:0] $end
$var wire 6 l rep2_c [5:0] $end
$var wire 8 m cat_c [7:0] $end
$upscope $end
$upscope $end
$scope module u_const_conditional_wrapper $end
$var wire 34 n in_flat [33:0] $end
$var wire 1 o sel2 $end
$var wire 1 p sel1 $end
$var wire 24 q out_flat [23:0] $end
$var wire 8 r d [7:0] $end
$var wire 8 s cond3_c [7:0] $end
$var wire 8 t cond2_c [7:0] $end
$var wire 8 u cond1_c [7:0] $end
$var wire 8 v c [7:0] $end
$var wire 8 w b [7:0] $end
$var wire 8 x a [7:0] $end
$scope module u_const_conditional $end
$var wire 8 y a [7:0] $end
$var wire 8 z b [7:0] $end
$var wire 8 { c [7:0] $end
$var wire 8 | d [7:0] $end
$var wire 1 p sel1 $end
$var wire 1 o sel2 $end
$var wire 8 } cond3_c [7:0] $end
$var wire 8 ~ cond2_c [7:0] $end
$var wire 8 !" cond1_c [7:0] $end
$upscope $end
$upscope $end
$scope module u_const_logic_wrapper $end
$var wire 10 "" in_flat [9:0] $end
$var wire 4 #" y [3:0] $end
$var wire 4 $" xor_c [3:0] $end
$var wire 4 %" x [3:0] $end
$var wire 19 &" out_flat [18:0] $end
$var wire 4 '" or_c [3:0] $end
$var wire 4 (" not_c [3:0] $end
$var wire 1 )" lor_c $end
$var wire 1 *" lnot_c $end
$var wire 1 +" land_c $end
$var wire 1 ," b $end
$var wire 4 -" and_c [3:0] $end
$var wire 1 ." a $end
$scope module u_const_logic $end
$var wire 1 ." a $end
$var wire 4 /" and_c [3:0] $end
$var wire 1 ," b $end
$var wire 1 +" land_c $end
$var wire 1 )" lor_c $end
$var wire 4 0" not_c [3:0] $end
$var wire 4 1" or_c [3:0] $end
$var wire 4 2" x [3:0] $end
$var wire 4 3" xor_c [3:0] $end
$var wire 4 4" y [3:0] $end
$var wire 1 *" lnot_c $end
$upscope $end
$upscope $end
$scope module u_const_nested_wrapper $end
$var wire 27 5" in_flat [26:0] $end
$var wire 8 6" out_flat [7:0] $end
$var wire 3 7" s [2:0] $end
$var wire 8 8" r [7:0] $end
$var wire 8 9" q [7:0] $end
$var wire 8 :" p [7:0] $end
$var wire 8 ;" nested_c [7:0] $end
$scope module u_const_nested $end
$var wire 8 <" and_part [7:0] $end
$var wire 8 =" nested_c [7:0] $end
$var wire 8 >" p [7:0] $end
$var wire 8 ?" q [7:0] $end
$var wire 8 @" r [7:0] $end
$var wire 3 A" s [2:0] $end
$var wire 8 B" xor_qr [7:0] $end
$var wire 8 C" shl_rs [7:0] $end
$var wire 8 D" mul_part [7:0] $end
$var wire 8 E" mod_part [7:0] $end
$var wire 8 F" div_part [7:0] $end
$var wire 8 G" denom [7:0] $end
$var wire 8 H" add_pq [7:0] $end
$upscope $end
$upscope $end
$scope module u_const_partselect_wrapper $end
$var wire 20 I" in_flat [19:0] $end
$var wire 3 J" sel2_c [2:0] $end
$var wire 4 K" sel1_c [3:0] $end
$var wire 1 L" ovf_range $end
$var wire 8 M" out_flat [7:0] $end
$var wire 4 N" idx [3:0] $end
$var wire 8 O" data2 [7:0] $end
$var wire 8 P" data1 [7:0] $end
$scope module u_const_partselect $end
$var wire 8 Q" data1 [7:0] $end
$var wire 8 R" data2 [7:0] $end
$var wire 4 S" idx [3:0] $end
$var wire 3 T" sel2_c [2:0] $end
$var wire 4 U" sel1_c [3:0] $end
$var wire 1 L" ovf_range $end
$upscope $end
$upscope $end
$scope module u_const_reduce_wrapper $end
$var wire 4 V" in_flat [3:0] $end
$var wire 4 W" in_vec [3:0] $end
$var wire 1 X" red_xor_c $end
$var wire 1 Y" red_xnor_c $end
$var wire 1 Z" red_or_c $end
$var wire 1 [" red_nor_c $end
$var wire 1 \" red_nand_c $end
$var wire 1 ]" red_and_c $end
$var wire 6 ^" out_flat [5:0] $end
$scope module u_const_reduce $end
$var wire 4 _" in_vec [3:0] $end
$var wire 1 X" red_xor_c $end
$var wire 1 Y" red_xnor_c $end
$var wire 1 Z" red_or_c $end
$var wire 1 [" red_nor_c $end
$var wire 1 \" red_nand_c $end
$var wire 1 ]" red_and_c $end
$upscope $end
$upscope $end
$scope module u_const_shift_wrapper $end
$var wire 11 `" in_flat [10:0] $end
$var wire 8 a" shr_c [7:0] $end
$var wire 8 b" shl_c [7:0] $end
$var wire 3 c" shift_amt [2:0] $end
$var wire 24 d" out_flat [23:0] $end
$var wire 8 e" data_in [7:0] $end
$var wire 8 f" ashr_c [7:0] $end
$scope module u_const_shift $end
$var wire 8 g" data_in [7:0] $end
$var wire 3 h" shift_amt [2:0] $end
$var wire 8 i" shr_c [7:0] $end
$var wire 8 j" shl_c [7:0] $end
$var wire 8 k" ashr_c [7:0] $end
$upscope $end
$upscope $end
$upscope $end
$upscope $end
$enddefinitions $end
$comment Show the parameter values. $end
$dumpall
$end
#0
$dumpvars
b0 k"
b0 j"
b0 i"
b111 h"
b110 g"
b0 f"
b110 e"
b0 d"
b111 c"
b0 b"
b0 a"
b110111 `"
b100 _"
b11100 ^"
0]"
1\"
0["
1Z"
0Y"
1X"
b100 W"
b100 V"
b11 U"
b111 T"
b10 S"
b1111110 R"
b111000 Q"
b111000 P"
b1111110 O"
b10 N"
b111110 M"
0L"
b11 K"
b111 J"
b111000011111100010 I"
b10000 H"
b11010111 G"
b0 F"
b0 E"
b0 D"
b10000000 C"
b110111 B"
b111 A"
b11100001 @"
b11010110 ?"
b111010 >"
b0 ="
b0 <"
b0 ;"
b111010 :"
b11010110 9"
b11100001 8"
b111 7"
b0 6"
b1110101101011011100001111 5"
b11 4"
b1011 3"
b1000 2"
b1011 1"
b111 0"
b0 /"
0."
b0 -"
1,"
0+"
1*"
1)"
b111 ("
b1011 '"
b101110110111011 &"
b1000 %"
b1011 $"
b11 #"
b1000001101 ""
b11000000 !"
b11000000 ~
b11000000 }
b1000011 |
b11000 {
b10100110 z
b11000000 y
b11000000 x
b10100110 w
b11000 v
b11000000 u
b11000000 t
b11000000 s
b1000011 r
b110000001100000011000000 q
1p
1o
b1100000010100110000110000100001111 n
b10000100 m
b111111 l
b10001000 k
b11 j
b100 i
b1000 h
b1000 g
b100 f
b11 e
b10000100 d
b1000010010001000111111 c
b111111 b
b10001000 a
b1000010011 `
b0 _
b10 ^
b11010010 ]
b11100011 \
b11100011 [
b11010010 Z
b10 Y
0X
1W
b0 V
0U
1T
1S
0R
0Q
1P
b1001101 O
b111000111101001000100000 N
b10110110 M
b1011 L
b0 K
b100101 J
b10010100 I
b1101111 H
b100101 G
b100101 F
b1101111 E
b10110110 D
b1001010010110110000010110000000000100101 C
b1011 B
b0 A
b100101 @
b10010100 ?
b10010101101111 >
b10010101101111 =
b1001010010110110000010110000000000100101 <
b111000111101001000100000 ;
b1001101 :
b1000010011 9
b1000010010001000111111 8
b1100000010100110000110000100001111 7
b110000001100000011000000 6
b1000001101 5
b101110110111011 4
b1110101101011011100001111 3
b0 2
b111000011111100010 1
b111110 0
b100 /
b11100 .
b110111 -
b0 ,
b11100001111100000000000001011101101110111100000011000000110000001000010010001000111111010011011001010010110110000010110000000000100101 +
b101110001110000111110010001101011010110111000011111000110111000001010110011000100001111100100111110011110101000100000010010101101111 *
b10111101011010100101000001001110 )
bx (
b10010110 '
b0 &
0%
b110001101000111010100110001011 $
b101110001110000111110010001101011010110111000011111000110111000001010110011000100001111100100111110011110101000100000010010101101111 #
0"
b11100001111100000000000001011101101110111100000011000000110000001000010010001000111111010011011001010010110110000010110000000000100101 !
$end
#1000
b1 &
1"
#2000
b0 (
0"
#3000
b10 &
1"
#4000
b11100 .
b11100 ^"
1X"
0Y"
b100 W"
b100 _"
b100 /
b100 V"
1L"
b1000100000100000001000011100000100010000000000000001000111110101100010111000101110001011110010111101110000000011100010010001001010010100100000000000101010010 !
b1000100000100000001000011100000100010000000000000001000111110101100010111000101110001011110010111101110000000011100010010001001010010100100000000000101010010 +
b10001 0
b10001 M"
b0 2
b0 6"
b0 ;"
b0 ="
b11000101 t
b11000101 ~
b110001011100010111000101 6
b110001011100010111000101 q
b1110001 :
b1110001 O
b1 K"
b1 U"
b0 J"
b0 T"
b100011111010 4
b100011111010 &"
b0 E"
b0 F"
b11110001 B"
b1110010111101110000000 8
b1110010111101110000000 c
b11000101 s
b11000101 }
b11000101 u
b11000101 !"
b10001001010010100100000000000101010010 <
b10001001010010100100000000000101010010 C
b1000100000100000001000 ,
b1000100000100000001000 d"
b11010 P"
b11010 Q"
b10000100 O"
b10000100 R"
b1101 N"
b1101 S"
b1111 ("
b1111 0"
b1 '"
b1 1"
b1 $"
b1 3"
b110011 :"
b110011 >"
b1101100 H"
b111010 G"
b111001 9"
b111001 ?"
b0 C"
b11001000 8"
b11001000 @"
b11101110 a
b11101110 k
b11100101 d
b11100101 m
b0 b
b0 l
b11001000 x
b11001000 y
b11000101 w
b11000101 z
b1011 v
b1011 {
b11100000 r
b11100000 |
0p
b1 A
b1 K
b1010010 @
b1010010 J
1Q
1R
0S
0T
b1101 [
b1101 \
b10110001 Z
b10110001 ]
b1011 Y
b1011 ^
0X
1W
b10 V
b10 _
b10001 e"
b10001 g"
b100010 b"
b100010 j"
b1000 a"
b1000 i"
b1000 f"
b1000 k"
b1 c"
b1 h"
b11010100001001101 1
b11010100001001101 I"
b0 %"
b0 2"
b1 #"
b1 4"
0*"
1."
0,"
b1100110011100111001000111 3
b1100110011100111001000111 5"
b1110 g
b1110 h
b101 f
b101 i
b0 e
b0 j
b1100100011000101000010111110000001 7
b1100100011000101000010111110000001 n
b10111010 F
b10111010 G
b100010 ?
b100010 I
b1010010 D
b1010010 M
b10010000 B
b10010000 L
b1101000 E
b1101000 H
b11011011000110110010 ;
b11011011000110110010 N
b10001001 -
b10001001 `"
b110 5
b110 ""
b1110010100 9
b1110010100 `
b1011101001101000 =
b1011101001101000 >
b1 (
b1010010000110101000010101001101100111001110010001110000011011001001100100001111110000001111101000000101101100110110011011101001101000 #
b1010010000110101000010101001101100111001110010001110000011011001001100100001111110000001111101000000101101100110110011011101001101000 *
b100010110001000001010100010100 $
0"
1%
#5000
b11 &
1"
#6000
bx01 J"
bx01 T"
b10 E"
0L"
b1011000000000110000001100101010000x0100010001000101111110110011101100001001100011011010000000011100000000010101011100011111111010000100111111010000000001000001 !
b1011000000000110000001100101010000x0100010001000101111110110011101100001001100011011010000000011100000000010101011100011111111010000100111111010000000001000001 +
b10 -"
b10 /"
b10101 .
b10101 ^"
0X"
1Y"
b101 W"
b101 _"
b101 /
b101 V"
b0x010 0
b0x010 M"
b10111111011001110 4
b10111111011001110 &"
b100010 2
b100010 6"
b100010 ;"
b100010 ="
b110000100110001101101000 6
b110000100110001101101000 q
b0 K"
b0 U"
b101111 F"
b101011 B"
b100000 <"
b11100000000010101 8
b11100000000010101 c
b1101000 s
b1101000 }
b11000010 u
b11000010 !"
b1100011 t
b1100011 ~
b1111111010000100111111010000000001000001 <
b1111111010000100111111010000000001000001 C
b101100000000011000000110 ,
b101100000000011000000110 d"
b1001 P"
b1001 Q"
b1011100 O"
b1011100 R"
b110 N"
b110 S"
b1001 ("
b1001 0"
b1111 '"
b1111 1"
b1101 $"
b1101 3"
1+"
b11101100 :"
b11101100 >"
b11110000 H"
b101 G"
b100 9"
b100 ?"
b101111 8"
b101111 @"
b100000 D"
b1011110 C"
b1 7"
b1 A"
b0 a
b0 k
b111 d
b111 m
b10101 b
b10101 l
b11000010 x
b11000010 y
b1101000 w
b1101000 z
b1100011 v
b1100011 {
b111101 r
b111101 |
1p
0o
b0 A
b0 K
b1000001 @
b1000001 J
b10010011 [
b10010011 \
b10110110 Z
b10110110 ]
b1100 Y
b1100 ^
b110110 e"
b110110 g"
b10110000 b"
b10110000 j"
b110 a"
b110 i"
b110 f"
b110 k"
b11 c"
b11 h"
b1001010111000110 1
b1001010111000110 I"
b110 %"
b110 2"
b1011 #"
b1011 4"
1,"
b111011000000010000101111001 3
b111011000000010000101111001 5"
b0 g
b0 h
b111 f
b111 i
b1 e
b1 j
b1100001001101000011000110011110110 7
b1100001001101000011000110011110110 n
b1000001 F
b1000001 G
b11111110 ?
b11111110 I
b10000100 D
b10000100 M
b11111101 B
b11111101 L
b10111101 E
b10111101 H
b100100111011011011000010 ;
b100100111011011011000010 N
b110110011 -
b110110011 `"
b110101111 5
b110101111 ""
b11101 9
b11101 `
b100000110111101 =
b100000110111101 >
b10 (
b11100110000010010101110110111010000000100001011110010110111111000000111000100110011110110000111011001011101101011000010100000110111101 #
b11100110000010010101110110111010000000100001011110010110111111000000111000100110011110110000111011001011101101011000010100000110111101 *
b11001111001010011110010111001 $
0"
#7000
b100 &
1"
#8000
b0 J"
b0 T"
1L"
b1110 N"
b1110 S"
b100000000000000000000000010101110000010000000100001111111111110011010100110100100101010010100000001000100101010010011010110011001101010001100000000000001101000 !
b100000000000000000000000010101110000010000000100001111111111110011010100110100100101010010100000001000100101010010011010110011001101010001100000000000001101000 +
b0 -"
b0 /"
b1111 $"
b1111 3"
b10101 .
b10101 ^"
0X"
1Y"
b1100 W"
b1100 _"
b1100 /
b1100 V"
b11000001 0
b11000001 M"
b1 2
b1 6"
b1 ;"
b1 ="
b0 <"
b101010011010010010101001 6
b101010011010010010101001 q
b1001101 :
b1001101 O
b1100 K"
b1100 U"
b111111111111001 4
b111111111111001 &"
b1 E"
b1 F"
b11 B"
b100000001000100101010 8
b100000001000100101010 c
b10101001 u
b10101001 !"
b10100100 t
b10100100 ~
b10101001 s
b10101001 }
b110011001101010001100000000000001101000 <
b110011001101010001100000000000001101000 C
b100000000000000000000000 ,
b100000000000000000000000 d"
b11001000 P"
b11001000 Q"
b1001111 O"
b1001111 R"
b1111 ("
b1111 0"
0+"
0)"
b10110011 :"
b10110011 >"
b1011110 H"
b10101100 G"
b10101011 9"
b10101011 ?"
b1100000 D"
b1010000 C"
b10101000 8"
b10101000 @"
b1000100 a
b1000100 k
b1000000 d
b1000000 m
b101010 b
b101010 l
b10101001 x
b10101001 y
b10001110 w
b10001110 z
b10100100 v
b10100100 {
b11110110 r
b11110110 |
b1101000 @
b1101000 J
b11111111 [
b11111111 \
0Q
0R
1S
1T
b111110 Z
b111110 ]
b110 Y
b110 ^
b1100 e"
b1100 g"
b10000000 b"
b10000000 j"
b0 a"
b0 i"
b0 f"
b0 k"
b101 c"
b101 h"
b11001000010011111110 1
b11001000010011111110 I"
b0 %"
b0 2"
b1111 #"
b1111 4"
1*"
0."
0,"
b101100111010101110101000001 3
b101100111010101110101000001 5"
b100 g
b100 h
b0 f
b0 i
b10 e
b10 j
b1010100110001110101001001111011010 7
b1010100110001110101001001111011010 n
b1101000 F
b1101000 G
b1100110 ?
b1100110 I
b1101010 D
b1101010 M
b110000 B
b110000 L
b11111110 E
b11111110 H
b111111110011111001100010 ;
b111111110011111001100010 N
b1100101 -
b1100101 `"
b111100 5
b111100 ""
b100000010 9
b100000010 `
b110100011111110 =
b110100011111110 >
b11 (
b101010110010000100111110101101110101011101010000010011110010101011001111100001111011010010000101111111001111001100010110100011111110 #
b101010110010000100111110101101110101011101010000010011110010101011001111100001111011010010000101111111001111001100010110100011111110 *
b10110101101101110001011100001010 $
0"
#9000
b101 &
1"
#10000
b1000000000000001111111110101010100xxx00000000000001100110011110100010101100100000011111000110001101100110000000010011011000011010010000010010010000000000001011 !
b1000000000000001111111110101010100xxx00000000000001100110011110100010101100100000011111000110001101100110000000010011011000011010010000010010010000000000001011 +
b10101 .
b10101 ^"
0X"
1Y"
b1001 W"
b1001 _"
b1001 /
b1001 V"
b0 2
b0 6"
b0 ;"
b0 ="
b1010110010000001111100 6
b1010110010000001111100 q
b100 K"
b100 U"
bx J"
bx T"
b100xxx0 0
b100xxx0 M"
b110011001111010 4
b110011001111010 &"
b0 E"
b0 F"
b100 B"
b110001101100110000000 8
b110001101100110000000 c
b1111100 s
b1111100 }
b100000 t
b100000 ~
b101011 u
b101011 !"
b1000011010010000010010010000000000001011 <
b1000011010010000010010010000000000001011 C
b100000000000000111111111 ,
b100000000000000111111111 d"
b1001000 P"
b1001000 Q"
b11011101 O"
b11011101 R"
0L"
b1001 N"
b1001 S"
b1100 '"
b1100 1"
b1100 $"
b1100 3"
1)"
b10011110 :"
b10011110 >"
b1010100 H"
b10110111 G"
b10110110 9"
b10110110 ?"
b11010000 D"
b1100100 C"
b10110010 8"
b10110010 @"
b1100110 a
b1100110 k
b1100011 d
b1100011 m
b0 b
b0 l
b1111100 x
b1111100 y
b101011 w
b101011 z
b100000 v
b100000 {
b1001001 r
b1001001 |
0p
b1011 @
b1011 J
b11000010 [
b11000010 \
b1111 Z
b1111 ]
b1100 V
b1100 _
b1 a"
b1 i"
b11111111 f"
b11111111 k"
b10010011 e"
b10010011 g"
b10000000 b"
b10000000 j"
b111 c"
b111 h"
b1001000110111011001 1
b1001000110111011001 I"
b1100 #"
b1100 4"
0*"
1."
b100111101011011010110010001 3
b100111101011011010110010001 5"
b110 g
b110 h
b11 f
b11 i
b0 e
b0 j
b111110000101011001000000100100100 7
b111110000101011001000000100100100 n
b1011 F
b1011 G
b10000110 ?
b10000110 I
b10010000 D
b10010000 M
b1001001 B
b1001001 L
b1111011 E
b1111011 H
b110000100000111101101100 ;
b110000100000111101101100 N
b10010011111 -
b10010011111 `"
b110010 5
b110010 ""
b110001100 9
b110001100 `
b101101111011 =
b101101111011 >
b100 (
b101011110010010001101111001100111010110110101100100010011001001111100011010100000100100100011011001100010000011101101100000101101111011 #
b101011110010010001101111001100111010110110101100100010011001001111100011010100000100100100011011001100010000011101101100000101101111011 *
b10000100000011111110010001010111 $
0"
#11000
b110 &
1"
#12000
b111010000011101000111010101011110x0000001000101101111100100011100100111110101101010011111010000010101010010101010011010010111110100111011011000000001100011111 !
b111010000011101000111010101011110x0000001000101101111100100011100100111110101101010011111010000010101010010101010011010010111110100111011011000000001100011111 +
b10101 .
b10101 ^"
0X"
1Y"
b101 W"
b101 _"
b101 /
b101 V"
b110111110010001110 4
b110111110010001110 &"
b10001 2
b10001 6"
b10001 ;"
b10001 ="
b10000 <"
b10011111010110101001111 6
b10011111010110101001111 q
b1110 K"
b1110 U"
bx00 J"
bx00 T"
b1110x000 0
b1110x000 M"
b1 E"
b1 F"
b11110 B"
b1010000010101010010101 8
b1010000010101010010101 c
b1001111 u
b1001111 !"
b10101101 t
b10101101 ~
b1001111 s
b1001111 }
b10111110100111011011000000001100011111 <
b10111110100111011011000000001100011111 C
b11101000001110100011101 ,
b11101000001110100011101 d"
b11100111 P"
b11100111 Q"
b10000 O"
b10000 R"
0L"
b110 N"
b110 S"
b1 ("
b1 0"
b110 -"
b110 /"
b1111 '"
b1111 1"
b1001 $"
b1001 3"
1+"
b11100111 :"
b11100111 >"
b10000100 H"
b10011110 G"
b10011101 9"
b10011101 ?"
b10000011 8"
b10000011 @"
b110000 D"
b1100 C"
b10 7"
b10 A"
b10101010 a
b10101010 k
b10100000 d
b10100000 m
b10101 b
b10101 l
b1011010 x
b1011010 y
b1001111 w
b1001111 z
b10101101 v
b10101101 {
b10010110 r
b10010110 |
b11 A
b11 K
b11111 @
b11111 J
b1101011 [
b1101011 \
b10101 Z
b10101 ]
b100 Y
b100 ^
b1 V
b1 _
b111010 e"
b111010 g"
b1110100 b"
b1110100 j"
b11101 a"
b11101 i"
b11101 f"
b11101 k"
b1 c"
b1 h"
b11100111000100000110 1
b11100111000100000110 I"
b1110 %"
b1110 2"
b111 #"
b111 4"
1,"
b111001111001110110000011010 3
b111001111001110110000011010 5"
b1010 g
b1010 h
b0 f
b0 i
b1 e
b1 j
b101101001001111101011011001011000 7
b101101001001111101011011001011000 n
b11101011 F
b11101011 G
b101111 ?
b101111 I
b10100111 D
b10100111 M
b1101100 B
b1101100 L
b1000100 E
b1000100 H
b11010110001010101000001 ;
b11010110001010101000001 N
b111010001 -
b111010001 `"
b1110011111 5
b1110011111 ""
b1010000001 9
b1010000001 `
b1110101101000100 =
b1110101101000100 >
b101 (
b11000010111001110001000110111011110011101100000110101101111101011000101111101011001011000101000010110111000100101000001110101101000100 #
b11000010111001110001000110111011110011101100000110101101111101011000101111101011001011000101000010110111000100101000001110101101000100 *
b1110101011000110111011110110000 $
0"
#13000
b111 &
1"
#14000
1L"
b101001000010101011101010010101101000011011100100000100010010110111110111101110110111011110110001101100110010101010011011110111110011101101101100000010000100010 !
b101001000010101011101010010101101000011011100100000100010010110111110111101110110111011110110001101100110010101010011011110111110011101101101100000010000100010 +
b10100001 0
b10100001 M"
b10111001 2
b10111001 6"
b10111001 ;"
b10111001 ="
b111011110111011011101111 6
b111011110111011011101111 q
b1010 K"
b1010 U"
b0 J"
b0 T"
b10001001011011 4
b10001001011011 &"
b11111000 B"
b10111000 <"
b110001101100110010101 8
b110001101100110010101 c
b11101111 u
b11101111 !"
b1110110 t
b1110110 ~
b11101111 s
b11101111 }
b1110111110011101101101100000010000100010 <
b1110111110011101101101100000010000100010 C
b10100010 P"
b10100010 Q"
b0 O"
b0 R"
b1101 N"
b1101 S"
b101001000010101011101010 ,
b101001000010101011101010 d"
b1011 ("
b1011 0"
b0 -"
b0 /"
b100 '"
b100 1"
b100 $"
b100 3"
0+"
b11101110 :"
b11101110 >"
b11001111 H"
b11100010 G"
b11100001 9"
b11100001 ?"
b11001 8"
b11001 @"
b10111000 D"
b11001000 C"
b11 7"
b11 A"
b1100110 a
b1100110 k
b1100011 d
b1100011 m
b11010001 x
b11010001 y
b11101111 w
b11101111 z
b1110110 v
b1110110 {
b10000 r
b10000 |
b100 A
b100 K
b100010 @
b100010 J
b1110110 [
b1110110 \
b101111 Z
b101111 ]
b1110 Y
b1110 ^
b10 V
b10 _
b10100010000000001101 1
b10100010000000001101 I"
b10101 .
b10101 ^"
b10101001 e"
b10101001 g"
b10100100 b"
b10100100 j"
b101010 a"
b101010 i"
b11101010 f"
b11101010 k"
b10 c"
b10 h"
b100 %"
b100 2"
b0 #"
b0 4"
1*"
0."
b111011101110000100011001011 3
b111011101110000100011001011 5"
b110 g
b110 h
b11 f
b11 i
b1101000111101111011101100001000000 7
b1101000111101111011101100001000000 n
b11000110 F
b11000110 G
b11101111 ?
b11101111 I
b10011101 D
b10011101 M
b10110110 B
b10110110 L
b101001 E
b101001 H
b11101100010111111100010 ;
b11101100010111111100010 N
b10101001010 -
b10101001010 `"
b100000001 5
b100000001 ""
b110001101 9
b110001101 `
b1100011000101001 =
b1100011000101001 >
0X"
1Y"
b1010 W"
b1010 _"
b1010 /
b1010 V"
b110 (
b110010101101000100000000101111011011100001000110010110100000111010011111110110100001000000011011010111010001011111100011100011000101001 #
b110010101101000100000000101111011011100001000110010110100000111010011111110110100001000000011011010111010001011111100011100011000101001 *
b11010101101101111001101111100101 $
0"
#15000
b1000 &
1"
#16000
b110000000000000000000000111001010xxx00011000110001000000001111100011001101000101000000100100001001000100111111011100010001000010011100011111000000000001010110 !
b110000000000000000000000111001010xxx00011000110001000000001111100011001101000101000000100100001001000100111111011100010001000010011100011111000000000001010110 +
b110001 2
b110001 6"
b110001 ;"
b110001 ="
b1100110100010100000010 6
b1100110100010100000010 q
b1110001 :
b1110001 O
bx J"
bx T"
b1010xxx0 0
b1010xxx0 M"
b1000100000000111110 4
b1000100000000111110 &"
b1 E"
b1 F"
b10110000 B"
b110000 <"
b100001001000100111111 8
b100001001000100111111 c
b10 s
b10 }
b1000101 t
b1000101 ~
b110011 u
b110011 !"
b1000010011100011111000000000001010110 <
b1000010011100011111000000000001010110 C
b10101101 P"
b10101101 Q"
b101100 O"
b101100 R"
0L"
b1001 N"
b1001 S"
b11000000000000000000000 ,
b11000000000000000000000 d"
b111 ("
b111 0"
b1000 -"
b1000 /"
b1000 '"
b1000 1"
b0 $"
b0 3"
1+"
b10011 :"
b10011 >"
b11100 H"
b1010 G"
b1001 9"
b1001 ?"
b10111001 8"
b10111001 @"
b111100 D"
b10111001 C"
b0 7"
b0 A"
b1000100 a
b1000100 k
b1000010 d
b1000010 m
b111111 b
b111111 l
b110011 x
b110011 y
b10 w
b10 z
b1000101 v
b1000101 {
b10111001 r
b10111001 |
1p
b0 A
b0 K
b1010110 @
b1010110 J
b1011010 [
b1011010 \
1Q
1R
0S
0T
b10100001 Z
b10100001 ]
b1001 Y
b1001 ^
b110 V
b110 _
b10101101001011001001 1
b10101101001011001001 I"
b11100 .
b11100 ^"
b1011 e"
b1011 g"
b1100000 b"
b1100000 j"
b0 a"
b0 i"
b0 f"
b0 k"
b101 c"
b101 h"
b1000 %"
b1000 2"
b1000 #"
b1000 4"
0*"
1."
b100110000100110111001000 3
b100110000100110111001000 5"
b100 g
b100 h
b10 f
b10 i
b11 e
b11 j
b11001100000010010001011011100110 7
b11001100000010010001011011100110 n
b1010110 F
b1010110 G
b10000 ?
b10000 I
b10011100 D
b10011100 M
b1111100 B
b1111100 L
b10111010 E
b10111010 H
b10110101010000110010110 ;
b10110101010000110010110 N
b1011101 -
b1011101 `"
b1000100011 5
b1000100011 ""
b100001011 9
b100001011 `
b101011010111010 =
b101011010111010 >
1X"
0Y"
b1000 W"
b1000 _"
b1000 /
b1000 V"
b111 (
b11010101011010010110001000101100001001101110010001010001100110010000010000011011100110010010110101110101000110010110101011010111010 #
b11010101011010010110001000101100001001101110010001010001100110010000010000011011100110010010110101110101000110010110101011010111010 *
b11100000010010000010010010000110 $
0"
#17000
b1001 &
1"
