rewiring/large_test_seed0_50mut/cycle_0034/tb_top.vcd
$date
	Tue Nov  4 01:03:50 2025
$end
$version
	Icarus Verilog
$end
$timescale
	1ps
$end
$scope module tb_top $end
$var wire 159 ! out_flat [158:0] $end
$var reg 1 " clk $end
$var reg 137 # in_flat [136:0] $end
$var reg 32 $ rng_state [31:0] $end
$var reg 1 % rst_n $end
$var integer 32 & cyc [31:0] $end
$var integer 32 ' cycles [31:0] $end
$var integer 32 ( i [31:0] $end
$var integer 32 ) seed [31:0] $end
$scope module dut $end
$var wire 1 " clk $end
$var wire 137 * in_flat [136:0] $end
$var wire 1 % rst_n $end
$var wire 159 + out_flat [158:0] $end
$var wire 24 , const_shift_wrapper_out_flat [23:0] $end
$var wire 11 - const_shift_wrapper_in_flat [10:0] $end
$var wire 6 . const_reduce_wrapper_out_flat [5:0] $end
$var wire 4 / const_reduce_wrapper_in_flat [3:0] $end
$var wire 8 0 const_partselect_wrapper_out_flat [7:0] $end
$var wire 20 1 const_partselect_wrapper_in_flat [19:0] $end
$var wire 8 2 const_nested_wrapper_out_flat [7:0] $end
$var wire 27 3 const_nested_wrapper_in_flat [26:0] $end
$var wire 19 4 const_logic_wrapper_out_flat [18:0] $end
$var wire 10 5 const_logic_wrapper_in_flat [9:0] $end
$var wire 24 6 const_conditional_wrapper_out_flat [23:0] $end
$var wire 34 7 const_conditional_wrapper_in_flat [33:0] $end
$var wire 22 8 const_concat_repl_wrapper_out_flat [21:0] $end
$var wire 10 9 const_concat_repl_wrapper_in_flat [9:0] $end
$var wire 8 : const_compare_wrapper_out_flat [7:0] $end
$var wire 24 ; const_compare_wrapper_in_flat [23:0] $end
$var wire 40 < const_arith_wrapper_out_flat [39:0] $end
$var wire 16 = const_arith_wrapper_in_flat [15:0] $end
$scope module u_const_arith_wrapper $end
$var wire 16 > in_flat [15:0] $end
$var wire 8 ? sum_c [7:0] $end
$var wire 8 @ rem_c [7:0] $end
$var wire 8 A quot_c [7:0] $end
$var wire 8 B prod_c [7:0] $end
$var wire 40 C out_flat [39:0] $end
$var wire 8 D diff_c [7:0] $end
$var wire 8 E b [7:0] $end
$var wire 8 F a [7:0] $end
$scope module u_const_arith $end
$var wire 8 G a [7:0] $end
$var wire 8 H b [7:0] $end
$var wire 8 I sum_c [7:0] $end
$var wire 8 J rem_c [7:0] $end
$var wire 8 K quot_c [7:0] $end
$var wire 8 L prod_c [7:0] $end
$var wire 8 M diff_c [7:0] $end
$upscope $end
$upscope $end
$scope module u_const_compare_wrapper $end
$var wire 24 N in_flat [23:0] $end
$var wire 8 O out_flat [7:0] $end
$var wire 1 P neq_c $end
$var wire 1 Q lt_c $end
$var wire 1 R le_c $end
$var wire 1 S gt_c $end
$var wire 1 T ge_c $end
$var wire 1 U eq_c $end
$var wire 4 V d [3:0] $end
$var wire 1 W case_neq_c $end
$var wire 1 X case_eq_c $end
$var wire 4 Y c [3:0] $end
$var wire 8 Z b [7:0] $end
$var wire 8 [ a [7:0] $end
$scope module u_const_compare $end
$var wire 8 \ a [7:0] $end
$var wire 8 ] b [7:0] $end
$var wire 4 ^ c [3:0] $end
$var wire 4 _ d [3:0] $end
$var wire 1 P neq_c $end
$var wire 1 Q lt_c $end
$var wire 1 R le_c $end
$var wire 1 S gt_c $end
$var wire 1 T ge_c $end
$var wire 1 U eq_c $end
$var wire 1 W case_neq_c $end
$var wire 1 X case_eq_c $end
$upscope $end
$upscope $end
$scope module u_const_concat_repl_wrapper $end
$var wire 10 ` in_flat [9:0] $end
$var wire 8 a rep_c [7:0] $end
$var wire 6 b rep2_c [5:0] $end
$var wire 22 c out_flat [21:0] $end
$var wire 8 d cat_c [7:0] $end
$var wire 2 e c [1:0] $end
$var wire 4 f b [3:0] $end
$var wire 4 g a [3:0] $end
$scope module u_const_concat_repl $end
$var wire 4 h a [3:0] $end
$var wire 4 i b [3:0] $end
$var wire 2 j c [1:0] $end
$var wire 8 k rep_c [7:0] $end
$var wire 6 l rep2_c [5:0] $end
$var wire 8 m cat_c [7:0] $end
$upscope $end
$upscope $end
$scope module u_const_conditional_wrapper $end
$var wire 34 n in_flat [33:0] $end
$var wire 1 o sel2 $end
$var wire 1 p sel1 $end
$var wire 24 q out_flat [23:0] $end
$var wire 8 r d [7:0] $end
$var wire 8 s cond3_c [7:0] $end
$var wire 8 t cond2_c [7:0] $end
$var wire 8 u cond1_c [7:0] $end
$var wire 8 v c [7:0] $end
$var wire 8 w b [7:0] $end
$var wire 8 x a [7:0] $end
$scope module u_const_conditional $end
$var wire 8 y a [7:0] $end
$var wire 8 z b [7:0] $end
$var wire 8 { c [7:0] $end
$var wire 8 | d [7:0] $end
$var wire 1 p sel1 $end
$var wire 1 o sel2 $end
$var wire 8 } cond3_c [7:0] $end
$var wire 8 ~ cond2_c [7:0] $end
$var wire 8 !" cond1_c [7:0] $end
$upscope $end
$upscope $end
$scope module u_const_logic_wrapper $end
$var wire 10 "" in_flat [9:0] $end
$var wire 4 #" y [3:0] $end
$var wire 4 $" xor_c [3:0] $end
$var wire 4 %" x [3:0] $end
$var wire 19 &" out_flat [18:0] $end
$var wire 4 '" or_c [3:0] $end
$var wire 4 (" not_c [3:0] $end
$var wire 1 )" lor_c $end
$var wire 1 *" lnot_c $end
$var wire 1 +" land_c $end
$var wire 1 ," b $end
$var wire 4 -" and_c [3:0] $end
$var wire 1 ." a $end
$scope module u_const_logic $end
$var wire 1 ." a $end
$var wire 4 /" and_c [3:0] $end
$var wire 1 ," b $end
$var wire 1 +" land_c $end
$var wire 1 )" lor_c $end
$var wire 4 0" not_c [3:0] $end
$var wire 4 1" or_c [3:0] $end
$var wire 4 2" x [3:0] $end
$var wire 4 3" xor_c [3:0] $end
$var wire 4 4" y [3:0] $end
$var wire 1 *" lnot_c $end
$upscope $end
$upscope $end
$scope module u_const_nested_wrapper $end
$var wire 27 5" in_flat [26:0] $end
$var wire 8 6" out_flat [7:0] $end
$var wire 3 7" s [2:0] $end
$var wire 8 8" r [7:0] $end
$var wire 8 9" q [7:0] $end
$var wire 8 :" p [7:0] $end
$var wire 8 ;" nested_c [7:0] $end
$scope module u_const_nested $end
$var wire 8 <" and_part [7:0] $end
$var wire 8 =" nested_c [7:0] $end
$var wire 8 >" p [7:0] $end
$var wire 8 ?" q [7:0] $end
$var wire 8 @" r [7:0] $end
$var wire 3 A" s [2:0] $end
$var wire 8 B" xor_qr [7:0] $end
$var wire 8 C" shl_rs [7:0] $end
$var wire 8 D" mul_part [7:0] $end
$var wire 8 E" mod_part [7:0] $end
$var wire 8 F" div_part [7:0] $end
$var wire 8 G" denom [7:0] $end
$var wire 8 H" add_pq [7:0] $end
$upscope $end
$upscope $end
$scope module u_const_partselect_wrapper $end
$var wire 20 I" in_flat [19:0] $end
$var wire 3 J" sel2_c [2:0] $end
$var wire 4 K" sel1_c [3:0] $end
$var wire 1 L" ovf_range $end
$var wire 8 M" out_flat [7:0] $end
$var wire 4 N" idx [3:0] $end
$var wire 8 O" data2 [7:0] $end
$var wire 8 P" data1 [7:0] $end
$scope module u_const_partselect $end
$var wire 8 Q" data1 [7:0] $end
$var wire 8 R" data2 [7:0] $end
$var wire 4 S" idx [3:0] $end
$var wire 3 T" sel2_c [2:0] $end
$var wire 4 U" sel1_c [3:0] $end
$var wire 1 L" ovf_range $end
$upscope $end
$upscope $end
$scope module u_const_reduce_wrapper $end
$var wire 4 V" in_flat [3:0] $end
$var wire 4 W" in_vec [3:0] $end
$var wire 1 X" red_xor_c $end
$var wire 1 Y" red_xnor_c $end
$var wire 1 Z" red_or_c $end
$var wire 1 [" red_nor_c $end
$var wire 1 \" red_nand_c $end
$var wire 1 ]" red_and_c $end
$var wire 6 ^" out_flat [5:0] $end
$scope module u_const_reduce $end
$var wire 4 _" in_vec [3:0] $end
$var wire 1 X" red_xor_c $end
$var wire 1 Y" red_xnor_c $end
$var wire 1 Z" red_or_c $end
$var wire 1 [" red_nor_c $end
$var wire 1 \" red_nand_c $end
$var wire 1 ]" red_and_c $end
$upscope $end
$upscope $end
$scope module u_const_shift_wrapper $end
$var wire 11 `" in_flat [10:0] $end
$var wire 8 a" shr_c [7:0] $end
$var wire 8 b" shl_c [7:0] $end
$var wire 3 c" shift_amt [2:0] $end
$var wire 24 d" out_flat [23:0] $end
$var wire 8 e" data_in [7:0] $end
$var wire 8 f" ashr_c [7:0] $end
$scope module u_const_shift $end
$var wire 8 g" data_in [7:0] $end
$var wire 3 h" shift_amt [2:0] $end
$var wire 8 i" shr_c [7:0] $end
$var wire 8 j" shl_c [7:0] $end
$var wire 8 k" ashr_c [7:0] $end
$upscope $end
$upscope $end
$upscope $end
$upscope $end
$enddefinitions $end
$comment Show the parameter values. $end
$dumpall
$end
#0
$dumpvars
b11110001 k"
b1111000 j"
b10001 i"
b11 h"
b10001111 g"
b11110001 f"
b10001111 e"
b11110000001000111110001 d"
b11 c"
b1111000 b"
b10001 a"
b10001111011 `"
b1 _"
b11100 ^"
0]"
1\"
0["
1Z"
0Y"
1X"
b1 W"
b1 V"
b100 U"
bx10 T"
b110 S"
b10101000 R"
b1000110 Q"
b1000110 P"
b10101000 O"
b110 N"
b100x100 M"
0L"
b100 K"
bx10 J"
b1000110101010000110 I"
b11010100 H"
b11000101 G"
b0 F"
b0 E"
b0 D"
b10000000 C"
b1011 B"
b111 A"
b11001111 @"
b11000100 ?"
b10000 >"
b0 ="
b0 <"
b0 ;"
b10000 :"
b11000100 9"
b11001111 8"
b111 7"
b0 6"
b100001100010011001111111 5"
b110 4"
b1111 3"
b1001 2"
b1111 1"
b110 0"
b0 /"
0."
b0 -"
1,"
0+"
1*"
1)"
b110 ("
b1111 '"
b111111110110011 &"
b1001 %"
b1111 $"
b110 #"
b1001011001 ""
b11011 !"
b11011011 ~
b11011 }
b1110010 |
b11011011 {
b100 z
b11011 y
b11011 x
b100 w
b11011011 v
b11011 u
b11011011 t
b11011 s
b1110010 r
b110111101101100011011 q
1p
0o
b1101100000100110110110111001010 n
b1111001 m
b101010 l
b1110111 k
b10 j
b1001 i
b111 h
b111 g
b1001 f
b10 e
b1111001 d
b111100101110111101010 c
b101010 b
b1110111 a
b111100110 `
b111 _
b1 ^
b11011100 ]
b10110001 \
b10110001 [
b11011100 Z
b1 Y
0X
1W
b111 V
0U
0T
0S
1R
1Q
1P
b1110001 O
b101100011101110000010111 N
b10001100 M
b10000000 L
b0 K
b100000 J
b10110100 I
b10010100 H
b100000 G
b100000 F
b10010100 E
b10001100 D
b1011010010001100100000000000000000100000 C
b10000000 B
b0 A
b100000 @
b10110100 ?
b10000010010100 >
b10000010010100 =
b1011010010001100100000000000000000100000 <
b101100011101110000010111 ;
b1110001 :
b111100110 9
b111100101110111101010 8
b1101100000100110110110111001010 7
b110111101101100011011 6
b1001011001 5
b111111110110011 4
b100001100010011001111111 3
b0 2
b1000110101010000110 1
b100x100 0
b1 /
b11100 .
b10001111011 -
b11110000001000111110001 ,
b111100000010001111100010111000100x1000000000000001111111101100110001101111011011000110110111100101110111101010011100011011010010001100100000000000000000100000 +
b10001011001000110101000011000010000110001001100111111001011001000110110000100110110110111001010111011101100111111000000111001000001001010 *
b101111110011011000000110110101 )
bx (
b1100100 '
b0 &
0%
b11110111111100100110011100010110 $
b10001011001000110101000011000010000110001001100111111001011001000110110000100110110110111001010111011101100111111000000111001000001001010 #
0"
b111100000010001111100010111000100x1000000000000001111111101100110001101111011011000110110111100101110111101010011100011011010010001100100000000000000000100000 !
$end
#1000
b1 &
1"
#2000
b0 (
0"
#3000
b10 &
1"
#4000
bx0xx00x0 2
bx0xx00x0 6"
bx0xx00x0 ;"
bx0xx00x0 ="
bx0xx00x0 <"
b11011001001101110011010111000110xx00x0xx00x010001101010100110100100110100000011010011010100110001000100000000011100011011111001100100011111010000001100001010 !
b11011001001101110011010111000110xx00x0xx00x010001101010100110100100110100000011010011010100110001000100000000011100011011111001100100011111010000001100001010 +
b110xx00 0
b110xx00 M"
b10011010000001101001101 6
b10011010000001101001101 q
b110 K"
b110 U"
bx0 J"
bx0 T"
b1000110101010011010 4
b1000110101010011010 &"
b101100x0 B"
b100110001000100000000 8
b100110001000100000000 c
b1001101 u
b1001101 !"
b1001101 s
b1001101 }
b11 t
b11 ~
b1011111001100100011111010000001100001010 <
b1011111001100100011111010000001100001010 C
b1101100100110111001101 ,
b1101100100110111001101 d"
b1101101 P"
b1101101 Q"
b101001 O"
b101001 R"
b111 N"
b111 S"
b11 ("
b11 0"
b1000 -"
b1000 /"
b1101 '"
b1101 1"
b101 $"
b101 3"
b1111010 :"
b1111010 >"
bx D"
b11 H"
b10001010 G"
b10001001 9"
b10001001 ?"
b1110x1 8"
b1110x1 @"
b10x10000 C"
b100 7"
b100 A"
b1000100 a
b1000100 k
b1001100 d
b1001100 m
b0 b
b0 l
b1001101 x
b1001101 y
b10101100 w
b10101100 z
b11 v
b11 {
b1111001 r
b1111001 |
b11 A
b11 K
b1010 @
b1010 J
b1001001 [
b1001001 \
b11011010 Z
b11011010 ]
b1001 Y
b1001 ^
b101 V
b101 _
b11100 .
b11100 ^"
b10011011 e"
b10011011 g"
b110110 b"
b110110 j"
b1001101 a"
b1001101 i"
b11001101 f"
b11001101 k"
b1 c"
b1 h"
b1101101001010010111 1
b1101101001010010111 I"
b1100 %"
b1100 2"
b1001 #"
b1001 4"
0*"
1."
0,"
b111101010001001001110x1100 3
b111101010001001001110x1100 5"
b100 g
b100 h
b1100 f
b1100 i
b0 e
b0 j
b100110110101100000000110111100110 7
b100110110101100000000110111100110 n
b10010001 F
b10010001 G
b10111110 ?
b10111110 I
b1100100 D
b1100100 M
b1111101 B
b1111101 L
b101101 E
b101101 H
b10010011101101010010101 ;
b10010011101101010010101 N
b10011011001 -
b10011011001 `"
b1100100110 5
b1100100110 ""
b100110000 9
b100110000 `
b1001000100101101 =
b1001000100101101 >
1X"
0Y"
b1011 W"
b1011 _"
b1011 /
b1011 V"
b1 (
b10011001101101101001001011101111010100010010011101101100100110010011011010100000000110111100110101000010010111110101000101100100010010111 #
b10011001101101101001001011101111010100010010011101101100100110010011011010100000000110111100110101000010010111110101000101100100010010111 *
b1010110010000010101011100110011 $
0"
1%
#5000
b11 &
1"
#6000
b100000 D"
b110000000000000000000000010101011110000010000000101011100111000010101110101110110110001010010001100100010000000010011011001011111010011110010100000000010110101 !
b110000000000000000000000010101011110000010000000101011100111000010101110101110110110001010010001100100010000000010011011001011111010011110010100000000010110101 +
b100000 2
b100000 6"
b100000 ;"
b100000 ="
b1111000 0
b1111000 M"
b100000 <"
b10111010111011011000101 6
b10111010111011011000101 q
b1001101 :
b1001101 O
b111 K"
b111 U"
b100 J"
b100 T"
b10101110011100001 4
b10101110011100001 &"
b11 F"
b11110010 B"
b10001100100010000000 8
b10001100100010000000 c
b1011101 u
b1011101 !"
b1110110 t
b1110110 ~
b11000101 s
b11000101 }
b1001011111010011110010100000000010110101 <
b1001011111010011110010100000000010110101 C
b110000000000000000000000 ,
b110000000000000000000000 d"
b1110000 P"
b1110000 Q"
b101100 O"
b101100 R"
b0 N"
b0 S"
b1100 ("
b1100 0"
b10 -"
b10 /"
b1011 '"
b1011 1"
b1001 $"
b1001 3"
0)"
b11001110 :"
b11001110 >"
b1100 H"
b111111 G"
b111110 9"
b111110 ?"
b11001100 8"
b11001100 @"
b10011000 C"
b1 7"
b1 A"
b100010 a
b100010 k
b100011 d
b100011 m
b1011101 x
b1011101 y
b11000101 w
b11000101 z
b1110110 v
b1110110 {
b111000 r
b111000 |
b0 A
b0 K
b10110101 @
b10110101 J
b10010010 [
b10010010 \
0Q
0R
1S
1T
b111011 Z
b111011 ]
b100 Y
b100 ^
b1011 V
b1011 _
b10101 .
b10101 ^"
b1111 e"
b1111 g"
b11000000 b"
b11000000 j"
b0 a"
b0 i"
b0 f"
b0 k"
b110 c"
b110 h"
b1110000001011000000 1
b1110000001011000000 I"
b11 %"
b11 2"
b1010 #"
b1010 4"
1*"
0."
b110011100011111011001100001 3
b110011100011111011001100001 5"
b10 g
b10 h
b11 f
b11 i
b101110111000101011101100011100010 7
b101110111000101011101100011100010 n
b10110101 F
b10110101 G
b10010111 ?
b10010111 I
b11010011 D
b11010011 M
b11001010 B
b11001010 L
b11100010 E
b11100010 H
b100100100011101101001011 ;
b100100100011101101001011 N
b1111110 -
b1111110 `"
b11101000 5
b11101000 ""
b10001100 9
b10001100 `
b1011010111100010 =
b1011010111100010 >
0X"
1Y"
b101 W"
b101 _"
b101 /
b101 V"
b10 (
b1110001110000001100000011001110001111101100110010011101000010111011100101011101100011100010000110100100000110110101011101101011110000 #
b1110001110000001100000011001110001111101100110010011101000010111011100101011101100011100010000110100100000110110101011101101011110000 *
b10100011110101011011011000011100 $
0"
#7000
b100 &
1"
#8000
b1101011111010111110101110111000000xxx00x00x01000110011000011001100011010100110101011010000111111101110111101010010011011100111100111001101011000000000100111001 !
b1101011111010111110101110111000000xxx00x00x01000110011000011001100011010100110101011010000111111101110111101010010011011100111100111001101011000000000100111001 +
b0xxx0 0
b0xxx0 M"
b0x00x010 2
b0x00x010 6"
b0x00x010 ;"
b0x00x010 ="
b1101010011010101101000 6
b1101010011010101101000 q
b1001101 :
b1001101 O
b0 K"
b0 U"
bx J"
bx T"
b11001100001100110 4
b11001100001100110 &"
b10 E"
b10 F"
b10010x0 B"
b0x00x0x0 <"
b111111101110111101010 8
b111111101110111101010 c
b110101 u
b110101 !"
b1101000 s
b1101000 }
b110101 t
b110101 ~
b1100111100111001101011000000000100111001 <
b1100111100111001101011000000000100111001 C
b110101111101011111010111 ,
b110101111101011111010111 d"
b1001 P"
b1001 Q"
b10001101 O"
b10001101 R"
b1000 N"
b1000 S"
b11 -"
b11 /"
b11 '"
b11 1"
b0 $"
b0 3"
1+"
1)"
b1100000 :"
b1100000 >"
b10000001 H"
b100010 G"
b100001 9"
b100001 ?"
b11010x1 8"
b11010x1 @"
bx D"
b1010x100 C"
b10 7"
b10 A"
b1110111 a
b1110111 k
b1111111 d
b1111111 m
b101010 b
b101010 l
b110101 x
b110101 y
b1101000 w
b1101000 z
b10111100 v
b10111100 {
b10001001 r
b10001001 |
1o
b1 A
b1 K
b111001 @
b111001 J
b10101110 [
b10101110 \
0Q
0R
1S
1T
b10010100 Z
b10010100 ]
b1001 Y
b1001 ^
b110 V
b110 _
b11100 .
b11100 ^"
b11010111 e"
b11010111 g"
b11010111 b"
b11010111 j"
b11010111 a"
b11010111 i"
b11010111 f"
b11010111 k"
b0 c"
b0 h"
b1001100011011000 1
b1001100011011000 I"
b11 #"
b11 4"
0*"
1."
1,"
b110000000100001011010x1010 3
b110000000100001011010x1010 5"
b111 g
b111 h
b1111 f
b1111 i
b10 e
b10 j
b11010101101000101111001000100111 7
b11010101101000101111001000100111 n
b10000100 F
b10000100 G
b11001111 ?
b11001111 I
b111001 D
b111001 M
b10101100 B
b10101100 L
b1001011 E
b1001011 H
b101011101001010010010110 ;
b101011101001010010010110 N
b11010111000 -
b11010111000 `"
b11001111 5
b11001111 ""
b111111110 9
b111111110 `
b1000010001001011 =
b1000010001001011 >
1X"
0Y"
b1101 W"
b1101 _"
b1101 /
b1101 V"
b11 (
b11010000100001001100101100001100000001000010110101000011001111001101010110000101111001000100111111111101011010101001000110100001000100101 #
b11010000100001001100101100001100000001000010110101000011001111001101010110000101111001000100111111111101011010101001000110100001000100101 *
b1101110011010101101101110100001 $
0"
#9000
b101 &
1"
#10000
b10100000001010000010100000111000001100000000001001101100100110111000111010001110100011100001110000010001010101011100010000111111110111101001000000000010000011 !
b10100000001010000010100000111000001100000000001001101100100110111000111010001110100011100001110000010001010101011100010000111111110111101001000000000010000011 +
0Z"
1["
b110 0
b110 M"
b0 2
b0 6"
b0 ;"
b0 ="
b10001110 t
b10001110 ~
b100011101000111010001110 6
b100011101000111010001110 q
b1110001 :
b1110001 O
b11 J"
b11 T"
b100110110010011011 4
b100110110010011011 &"
b0 E"
b0 F"
b11001001 B"
b0 <"
b1110000010001010101 8
b1110000010001010101 c
b10001110 s
b10001110 }
b10001110 u
b10001110 !"
b111111110111101001000000000010000011 <
b111111110111101001000000000010000011 C
b10100000001010000010100 ,
b10100000001010000010100 d"
b10 P"
b10 Q"
b101110 O"
b101110 R"
b10 N"
b10 S"
b11 ("
b11 0"
b100 -"
b100 /"
b1101 '"
b1101 1"
b1001 $"
b1001 3"
0+"
b1000011 :"
b1000011 >"
b10111010 H"
b1111000 G"
b1110111 9"
b1110111 ?"
b10111110 8"
b10111110 @"
b0 D"
b0 C"
b111 7"
b111 A"
b10001 a
b10001 k
b11100 d
b11100 m
b10101 b
b10101 l
b10010110 x
b10010110 y
b10001110 w
b10001110 z
b111011 v
b111011 {
b10000 r
b10000 |
0p
b0 A
b0 K
b10000011 @
b10000011 J
1Q
1R
0S
0T
b1110110 [
b1110110 \
b10100111 Z
b10100111 ]
b1101 Y
b1101 ^
b1 V
b1 _
b111 .
b111 ^"
b101000 e"
b101000 g"
b1010000 b"
b1010000 j"
b10100 a"
b10100 i"
b10100 f"
b10100 k"
b1 c"
b1 h"
b10001011100010 1
b10001011100010 I"
b1100 %"
b1100 2"
b101 #"
b101 4"
1*"
0."
b10000110111011110111110111 3
b10000110111011110111110111 5"
b1 g
b1 h
b1100 f
b1100 i
b1 e
b1 j
b1001011010001110001110110001000001 7
b1001011010001110001110110001000001 n
b10000011 F
b10000011 G
b1111 ?
b1111 I
b11110111 D
b11110111 M
b10100100 B
b10100100 L
b10001100 E
b10001100 H
b11101101010011111010001 ;
b11101101010011111010001 N
b101000001 -
b101000001 `"
b1100010101 5
b1100010101 ""
b1110001 9
b1110001 `
b1000001110001100 =
b1000001110001100 >
0X"
1Y"
b0 W"
b0 _"
b0 /
b0 V"
b100 (
b101001000000010001110001001000011011101111011110111100010101100101101000110001110110001000001011000011101010001111100001100000111000110 #
b101001000000010001110001001000011011101111011110111100010101100101101000110001110110001000001011000011101010001111100001100000111000110 *
b1010110001001110011010001010010 $
0"
#11000
b110 &
1"
#12000
b10101011110001110000000001011101101101100011111111110100001111110010000100100010000000011100010010101110100001111111100000001100010111 !
b10101011110001110000000001011101101101100011111111110100001111110010000100100010000000011100010010101110100001111111100000001100010111 +
b0 b
b0 l
b0 e
b0 j
b1111000 0
b1111000 M"
b11100000 2
b11100000 6"
b11100000 ;"
b11100000 ="
b1111111111010000111111 6
b1111111111010000111111 q
b111 K"
b111 U"
b100 J"
b100 T"
b101110110110110 4
b101110110110110 &"
b11100111 B"
b11100000 <"
b10000100100010000000 8
b10000100100010000000 c
b111111 u
b111111 !"
b111111 s
b111111 }
b11110100 t
b11110100 ~
b10101110100001111111100000001100010111 <
b10101110100001111111100000001100010111 C
b0 ,
b0 d"
b1110111 P"
b1110111 Q"
b11101000 O"
b11101000 R"
b1 N"
b1 S"
b110 ("
b110 0"
b0 -"
b0 /"
b1011 '"
b1011 1"
b1011 $"
b1011 3"
1+"
b1110 :"
b1110 >"
b10001001 H"
b1111100 G"
b1111011 9"
b1111011 ?"
b10011100 8"
b10011100 @"
b11111000 D"
b111000 C"
b1 7"
b1 A"
b100010 a
b100010 k
b100001 d
b100001 m
b10111011 x
b10111011 y
b111111 w
b111111 z
b11110100 v
b11110100 {
b11011110 r
b11011110 |
0o
b11 A
b11 K
b10111 @
b10111 J
b1111 [
b1111 \
1Q
1R
0S
0T
b1001000 Z
b1001000 ]
b10 Y
b10 ^
b1100 V
b1100 _
b10101 .
b10101 ^"
b111110 e"
b111110 g"
b0 b"
b0 j"
b0 a"
b0 i"
b0 f"
b0 k"
b111 c"
b111 h"
b1110111111010000001 1
b1110111111010000001 I"
b1001 %"
b1001 2"
b10 #"
b10 4"
0*"
1."
b11100111101110011100001 3
b11100111101110011100001 5"
b10 g
b10 h
b1 f
b1 i
b1011101100111111111101001101111000 7
b1011101100111111111101001101111000 n
b11100110 F
b11100110 G
b101011 ?
b101011 I
b10100001 D
b10100001 M
b11111110 B
b11111110 L
b1000101 E
b1000101 H
b11110100100000101100 ;
b11110100100000101100 N
b111110111 -
b111110111 `"
b1001001011 5
b1001001011 ""
b10000100 9
b10000100 `
b1110011001000101 =
b1110011001000101 >
1Z"
0X"
0["
1Y"
b1001 W"
b1001 _"
b1001 /
b1001 V"
b101 (
b111111101110111111000000100001110011110111001110011001001011101110110011111111101001101111000000010000011101010000011100111001100100011 #
b111111101110111111000000100001110011110111001110011001001011101110110011111111101001101111000000010000011101010000011100111001100100011 *
b11001001010010110001111001111111 $
0"
#13000
b111 &
1"
#14000
b101000000000100111111001010101010011000000000101000111001110111100111010101110101011101010110100001100110101010011100010101011000100010000110000000000100100010 !
b101000000000100111111001010101010011000000000101000111001110111100111010101110101011101010110100001100110101010011100010101011000100010000110000000000100100010 +
b1001100 0
b1001100 M"
b100011100111011110 4
b100011100111011110 &"
b1 2
b1 6"
b1 ;"
b1 ="
b11101010111010101110101 6
b11101010111010101110101 q
b1110001 :
b1110001 O
b100 K"
b100 U"
b110 J"
b110 T"
b1 E"
b1 F"
b1110001 B"
b0 <"
b110100001100110101010 8
b110100001100110101010 c
b1110101 s
b1110101 }
b1110101 u
b1110101 !"
b1110101 t
b1110101 ~
b101011000100010000110000000000100100010 <
b101011000100010000110000000000100100010 C
b101000000000100111111001 ,
b101000000000100111111001 d"
b1000001 P"
b1000001 Q"
b1101111 O"
b1101111 R"
b100 N"
b100 S"
b1011 ("
b1011 0"
b100 -"
b100 /"
b111 '"
b111 1"
b11 $"
b11 3"
b10001110 :"
b10001110 >"
b11111100 H"
b1101111 G"
b1101110 9"
b1101110 ?"
b11111 8"
b11111 @"
b10000100 D"
b11111 C"
b0 7"
b0 A"
b1100110 a
b1100110 k
b1101000 d
b1101000 m
b101010 b
b101010 l
b1110101 x
b1110101 y
b1000001 w
b1000001 z
b11100110 v
b11100110 {
b11111 r
b11111 |
1p
1o
b1 A
b1 K
b100010 @
b100010 J
1Q
1R
0S
0T
b1010111 [
b1010111 \
b1110110 Z
b1110110 ]
b0 Y
b0 ^
b1 V
b1 _
b10101 .
b10101 ^"
b10011010 e"
b10011010 g"
b10100000 b"
b10100000 j"
b1001 a"
b1001 i"
b11111001 f"
b11111001 k"
b100 c"
b100 h"
b1000001011011110100 1
b1000001011011110100 I"
b100 %"
b100 2"
b111 #"
b111 4"
b100011100110111000011111000 3
b100011100110111000011111000 5"
b110 g
b110 h
b1000 f
b1000 i
b10 e
b10 j
b111010101000001111001100001111111 7
b111010101000001111001100001111111 n
b10111100 F
b10111100 G
b1010110 ?
b1010110 I
b100010 D
b100010 M
b11000 B
b11000 L
b10011010 E
b10011010 H
b10101110111011000000001 ;
b10101110111011000000001 N
b10011010100 -
b10011010100 `"
b100011111 5
b100011111 ""
b110100010 9
b110100010 `
b1011110010011010 =
b1011110010011010 >
0X"
1Y"
b11 W"
b11 _"
b11 /
b11 V"
b110 (
b10011100001000001011111010010001110011011100001111000100011111011101010100001111001100001111111101001010101101101100000001101111001001100 #
b10011100001000001011111010010001110011011100001111000100011111011101010100001111001100001111111101001010101101101100000001101111001001100 *
b11101000000000111001001100111000 $
0"
#15000
b1000 &
1"
#16000
b10111111100111001000xxx00x0000x100000010001011111101100111011010101110011101000001110001000101010011100010000000110111011010110100000011000001100 !
b10111111100111001000xxx00x0000x100000010001011111101100111011010101110011101000001110001000101010011100010000000110111011010110100000011000001100 +
b1000xxx0 0
b1000xxx0 M"
b1000101111110 4
b1000101111110 &"
b0x0000x1 2
b0x0000x1 6"
b0x0000x1 ;"
b0x0000x1 ="
b110011101101010111001110 6
b110011101101010111001110 q
b1000 K"
b1000 U"
bx J"
bx T"
b10000x0 B"
b0x0000x0 <"
b1000001110001000101010 8
b1000001110001000101010 c
b11001110 u
b11001110 !"
b11001110 s
b11001110 }
b11010101 t
b11010101 ~
b110111011010110100000011000001100 <
b110111011010110100000011000001100 C
b1011111110 ,
b1011111110 d"
b10000111 P"
b10000111 Q"
b11101110 O"
b11101110 R"
b1010 N"
b1010 S"
b1111 ("
b1111 0"
b0 -"
b0 /"
b10 '"
b10 1"
b10 $"
b10 3"
b10101011 :"
b10101011 >"
b111011 H"
b10010001 G"
b10010000 9"
b10010000 ?"
bx D"
b110100x0 C"
b110100x0 8"
b110100x0 @"
b10001000 a
b10001000 k
b10000011 d
b10000011 m
b11001110 x
b11001110 y
b11110011 w
b11110011 z
b11010101 v
b11010101 {
b110010 r
b110010 |
0o
b110 A
b110 K
b1100 @
b1100 J
b1101111 [
b1101111 \
b10110110 Z
b10110110 ]
b1100 Y
b1100 ^
b11100 .
b11100 ^"
b10100100 e"
b10100100 g"
b0 b"
b0 j"
b10 a"
b10 i"
b11111110 f"
b11111110 k"
b110 c"
b110 h"
b10000111111011101010 1
b10000111111011101010 I"
b0 %"
b0 2"
b10 #"
b10 4"
b1010101110010000110100x0000 3
b1010101110010000110100x0000 5"
b1000 g
b1000 h
b11 f
b11 i
b1100111011110011110101010011001010 7
b1100111011110011110101010011001010 n
b11011110 F
b11011110 G
b1 ?
b1 I
b10111011 D
b10111011 M
b1011010 B
b1011010 L
b100011 E
b100011 H
b11011111011011011000001 ;
b11011111011011011000001 N
b10100100110 -
b10100100110 `"
b1011 5
b1011 ""
b1000001110 9
b1000001110 `
b1101111000100011 =
b1101111000100011 >
1X"
0Y"
b1000 W"
b1000 _"
b1000 /
b1000 V"
b111 (
b10100110110000111111110101010101011100100001101000000000001011110011101111011110101010011001010000111011011110101101100001110111100010001 #
b10100110110000111111110101010101011100100001101000000000001011110011101111011110101010011001010000111011011110101101100001110111100010001 *
b1010110001001000110101101001101 $
0"
#17000
b1001 &
1"
