rewiring/large_test_seed0/cycle_0024/tb_top.vcd
$date
	Tue Nov  4 00:11:24 2025
$end
$version
	Icarus Verilog
$end
$timescale
	1ps
$end
$scope module tb_top $end
$var wire 159 ! out_flat [158:0] $end
$var reg 1 " clk $end
$var reg 138 # in_flat [137:0] $end
$var reg 32 $ rng_state [31:0] $end
$var reg 1 % rst_n $end
$var integer 32 & cyc [31:0] $end
$var integer 32 ' cycles [31:0] $end
$var integer 32 ( i [31:0] $end
$var integer 32 ) seed [31:0] $end
$scope module dut $end
$var wire 1 " clk $end
$var wire 138 * in_flat [137:0] $end
$var wire 1 % rst_n $end
$var wire 159 + out_flat [158:0] $end
$var wire 24 , const_shift_wrapper_out_flat [23:0] $end
$var wire 11 - const_shift_wrapper_in_flat [10:0] $end
$var wire 6 . const_reduce_wrapper_out_flat [5:0] $end
$var wire 4 / const_reduce_wrapper_in_flat [3:0] $end
$var wire 8 0 const_partselect_wrapper_out_flat [7:0] $end
$var wire 20 1 const_partselect_wrapper_in_flat [19:0] $end
$var wire 8 2 const_nested_wrapper_out_flat [7:0] $end
$var wire 27 3 const_nested_wrapper_in_flat [26:0] $end
$var wire 19 4 const_logic_wrapper_out_flat [18:0] $end
$var wire 10 5 const_logic_wrapper_in_flat [9:0] $end
$var wire 24 6 const_conditional_wrapper_out_flat [23:0] $end
$var wire 34 7 const_conditional_wrapper_in_flat [33:0] $end
$var wire 22 8 const_concat_repl_wrapper_out_flat [21:0] $end
$var wire 10 9 const_concat_repl_wrapper_in_flat [9:0] $end
$var wire 8 : const_compare_wrapper_out_flat [7:0] $end
$var wire 24 ; const_compare_wrapper_in_flat [23:0] $end
$var wire 40 < const_arith_wrapper_out_flat [39:0] $end
$var wire 16 = const_arith_wrapper_in_flat [15:0] $end
$scope module u_const_arith_wrapper $end
$var wire 16 > in_flat [15:0] $end
$var wire 8 ? sum_c [7:0] $end
$var wire 8 @ rem_c [7:0] $end
$var wire 8 A quot_c [7:0] $end
$var wire 8 B prod_c [7:0] $end
$var wire 40 C out_flat [39:0] $end
$var wire 8 D diff_c [7:0] $end
$var wire 8 E b [7:0] $end
$var wire 8 F a [7:0] $end
$scope module u_const_arith $end
$var wire 8 G a [7:0] $end
$var wire 8 H b [7:0] $end
$var wire 8 I sum_c [7:0] $end
$var wire 8 J rem_c [7:0] $end
$var wire 8 K quot_c [7:0] $end
$var wire 8 L prod_c [7:0] $end
$var wire 8 M diff_c [7:0] $end
$upscope $end
$upscope $end
$scope module u_const_compare_wrapper $end
$var wire 24 N in_flat [23:0] $end
$var wire 8 O out_flat [7:0] $end
$var wire 1 P neq_c $end
$var wire 1 Q lt_c $end
$var wire 1 R le_c $end
$var wire 1 S gt_c $end
$var wire 1 T ge_c $end
$var wire 1 U eq_c $end
$var wire 4 V d [3:0] $end
$var wire 1 W case_neq_c $end
$var wire 1 X case_eq_c $end
$var wire 4 Y c [3:0] $end
$var wire 8 Z b [7:0] $end
$var wire 8 [ a [7:0] $end
$scope module u_const_compare $end
$var wire 8 \ a [7:0] $end
$var wire 8 ] b [7:0] $end
$var wire 4 ^ c [3:0] $end
$var wire 4 _ d [3:0] $end
$var wire 1 P neq_c $end
$var wire 1 Q lt_c $end
$var wire 1 R le_c $end
$var wire 1 S gt_c $end
$var wire 1 T ge_c $end
$var wire 1 U eq_c $end
$var wire 1 W case_neq_c $end
$var wire 1 X case_eq_c $end
$upscope $end
$upscope $end
$scope module u_const_concat_repl_wrapper $end
$var wire 10 ` in_flat [9:0] $end
$var wire 8 a rep_c [7:0] $end
$var wire 6 b rep2_c [5:0] $end
$var wire 22 c out_flat [21:0] $end
$var wire 8 d cat_c [7:0] $end
$var wire 2 e c [1:0] $end
$var wire 4 f b [3:0] $end
$var wire 4 g a [3:0] $end
$scope module u_const_concat_repl $end
$var wire 4 h a [3:0] $end
$var wire 4 i b [3:0] $end
$var wire 2 j c [1:0] $end
$var wire 8 k rep_c [7:0] $end
$var wire 6 l rep2_c [5:0] $end
$var wire 8 m cat_c [7:0] $end
$upscope $end
$upscope $end
$scope module u_const_conditional_wrapper $end
$var wire 34 n in_flat [33:0] $end
$var wire 1 o sel2 $end
$var wire 1 p sel1 $end
$var wire 24 q out_flat [23:0] $end
$var wire 8 r d [7:0] $end
$var wire 8 s cond3_c [7:0] $end
$var wire 8 t cond2_c [7:0] $end
$var wire 8 u cond1_c [7:0] $end
$var wire 8 v c [7:0] $end
$var wire 8 w b [7:0] $end
$var wire 8 x a [7:0] $end
$scope module u_const_conditional $end
$var wire 8 y a [7:0] $end
$var wire 8 z b [7:0] $end
$var wire 8 { c [7:0] $end
$var wire 8 | d [7:0] $end
$var wire 1 p sel1 $end
$var wire 1 o sel2 $end
$var wire 8 } cond3_c [7:0] $end
$var wire 8 ~ cond2_c [7:0] $end
$var wire 8 !" cond1_c [7:0] $end
$upscope $end
$upscope $end
$scope module u_const_logic_wrapper $end
$var wire 10 "" in_flat [9:0] $end
$var wire 4 #" y [3:0] $end
$var wire 4 $" xor_c [3:0] $end
$var wire 4 %" x [3:0] $end
$var wire 19 &" out_flat [18:0] $end
$var wire 4 '" or_c [3:0] $end
$var wire 4 (" not_c [3:0] $end
$var wire 1 )" lor_c $end
$var wire 1 *" lnot_c $end
$var wire 1 +" land_c $end
$var wire 1 ," b $end
$var wire 4 -" and_c [3:0] $end
$var wire 1 ." a $end
$scope module u_const_logic $end
$var wire 1 ." a $end
$var wire 4 /" and_c [3:0] $end
$var wire 1 ," b $end
$var wire 1 +" land_c $end
$var wire 1 )" lor_c $end
$var wire 4 0" not_c [3:0] $end
$var wire 4 1" or_c [3:0] $end
$var wire 4 2" x [3:0] $end
$var wire 4 3" xor_c [3:0] $end
$var wire 4 4" y [3:0] $end
$var wire 1 *" lnot_c $end
$upscope $end
$upscope $end
$scope module u_const_nested_wrapper $end
$var wire 27 5" in_flat [26:0] $end
$var wire 8 6" out_flat [7:0] $end
$var wire 3 7" s [2:0] $end
$var wire 8 8" r [7:0] $end
$var wire 8 9" q [7:0] $end
$var wire 8 :" p [7:0] $end
$var wire 8 ;" nested_c [7:0] $end
$scope module u_const_nested $end
$var wire 8 <" and_part [7:0] $end
$var wire 8 =" nested_c [7:0] $end
$var wire 8 >" p [7:0] $end
$var wire 8 ?" q [7:0] $end
$var wire 8 @" r [7:0] $end
$var wire 3 A" s [2:0] $end
$var wire 8 B" xor_qr [7:0] $end
$var wire 8 C" shl_rs [7:0] $end
$var wire 8 D" mul_part [7:0] $end
$var wire 8 E" mod_part [7:0] $end
$var wire 8 F" div_part [7:0] $end
$var wire 8 G" denom [7:0] $end
$var wire 8 H" add_pq [7:0] $end
$upscope $end
$upscope $end
$scope module u_const_partselect_wrapper $end
$var wire 20 I" in_flat [19:0] $end
$var wire 3 J" sel2_c [2:0] $end
$var wire 4 K" sel1_c [3:0] $end
$var wire 1 L" ovf_range $end
$var wire 8 M" out_flat [7:0] $end
$var wire 4 N" idx [3:0] $end
$var wire 8 O" data2 [7:0] $end
$var wire 8 P" data1 [7:0] $end
$scope module u_const_partselect $end
$var wire 8 Q" data1 [7:0] $end
$var wire 8 R" data2 [7:0] $end
$var wire 4 S" idx [3:0] $end
$var wire 3 T" sel2_c [2:0] $end
$var wire 4 U" sel1_c [3:0] $end
$var wire 1 L" ovf_range $end
$upscope $end
$upscope $end
$scope module u_const_reduce_wrapper $end
$var wire 4 V" in_flat [3:0] $end
$var wire 4 W" in_vec [3:0] $end
$var wire 1 X" red_xor_c $end
$var wire 1 Y" red_xnor_c $end
$var wire 1 Z" red_or_c $end
$var wire 1 [" red_nor_c $end
$var wire 1 \" red_nand_c $end
$var wire 1 ]" red_and_c $end
$var wire 6 ^" out_flat [5:0] $end
$scope module u_const_reduce $end
$var wire 4 _" in_vec [3:0] $end
$var wire 1 X" red_xor_c $end
$var wire 1 Y" red_xnor_c $end
$var wire 1 Z" red_or_c $end
$var wire 1 [" red_nor_c $end
$var wire 1 \" red_nand_c $end
$var wire 1 ]" red_and_c $end
$upscope $end
$upscope $end
$scope module u_const_shift_wrapper $end
$var wire 11 `" in_flat [10:0] $end
$var wire 8 a" shr_c [7:0] $end
$var wire 8 b" shl_c [7:0] $end
$var wire 3 c" shift_amt [2:0] $end
$var wire 24 d" out_flat [23:0] $end
$var wire 8 e" data_in [7:0] $end
$var wire 8 f" ashr_c [7:0] $end
$scope module u_const_shift $end
$var wire 8 g" data_in [7:0] $end
$var wire 3 h" shift_amt [2:0] $end
$var wire 8 i" shr_c [7:0] $end
$var wire 8 j" shl_c [7:0] $end
$var wire 8 k" ashr_c [7:0] $end
$upscope $end
$upscope $end
$upscope $end
$upscope $end
$enddefinitions $end
$comment Show the parameter values. $end
$dumpall
$end
#0
$dumpvars
b11100000 k"
b0 j"
b100000 i"
b10 h"
b10000000 g"
b11100000 f"
b10000000 e"
b10000011100000 d"
b10 c"
b0 b"
b100000 a"
b10000000010 `"
b1 _"
b11100 ^"
0]"
1\"
0["
1Z"
0Y"
1X"
b1 W"
b1 V"
b1111 U"
bx11 T"
b110 S"
b11100111 R"
b11111000 Q"
b11111000 P"
b11100111 O"
b110 N"
b1111x110 M"
0L"
b1111 K"
bx11 J"
b11111000111001110110 I"
b10110100 H"
b1001110 G"
b1 F"
b1 E"
b1101000 D"
b1000010 C"
b1111 B"
b0 A"
b1000010 @"
b1001101 ?"
b1100111 >"
b1001 ="
b1000 <"
b1001 ;"
b1100111 :"
b1001101 9"
b1000010 8"
b0 7"
b1001 6"
b11001110100110101000010000 5"
b1110 4"
b1101 3"
b11 2"
b1111 1"
b1100 0"
b10 /"
0."
b10 -"
1,"
0+"
1*"
1)"
b1100 ("
b1111 '"
b10111111011100011 &"
b11 %"
b1101 $"
b1110 #"
b11111001 ""
b10111 !"
b100 ~
b100100 }
b11011111 |
b100 {
b100100 z
b10111 y
b10111 x
b100100 w
b100 v
b10111 u
b100 t
b100100 s
b11011111 r
b101110000010000100100 q
1p
0o
b1011100100100000001001101111110 n
b111000 m
b111111 l
b110011 k
b11 j
b1000 i
b11 h
b11 g
b1000 f
b11 e
b111000 d
b11100000110011111111 c
b111111 b
b110011 a
b11100011 `
b1011 _
b1001 ^
b10110000 ]
b10111011 \
b10111011 [
b10110000 Z
b1001 Y
0X
1W
b1011 V
0U
1T
1S
0R
0Q
1P
b1001101 O
b101110111011000010011011 N
b10110010 M
b11000000 L
b0 K
b10100000 J
b10001110 I
b11101110 H
b10100000 G
b10100000 F
b11101110 E
b10110010 D
b1000111010110010110000000000000010100000 C
b11000000 B
b0 A
b10100000 @
b10001110 ?
b1010000011101110 >
b1010000011101110 =
b1000111010110010110000000000000010100000 <
b101110111011000010011011 ;
b1001101 :
b11100011 9
b11100000110011111111 8
b1011100100100000001001101111110 7
b101110000010000100100 6
b11111001 5
b10111111011100011 4
b11001110100110101000010000 3
b1001 2
b11111000111001110110 1
b1111x110 0
b1 /
b11100 .
b10000000010 -
b10000011100000 ,
b100000111000000111001111x1100000100100101111110111000110001011100000100001001000011100000110011111111010011011000111010110010110000000000000010100000 +
b100000001001111001101110110011001101001101100001000000111110010010111001001000000100110111111001100111011101110110000100111101000001110110 *
b11011111010110011011100010001 )
bx (
b1100100 '
b0 &
0%
b11000111001000111111000000010 $
b100000001001111001101110110011001101001101100001000000111110010010111001001000000100110111111001100111011101110110000100111101000001110110 #
0"
b100000111000000111001111x1100000100100101111110111000110001011100000100001001000011100000110011111111010011011000111010110010110000000000000010100000 !
$end
#1000
b1 &
1"
#2000
b0 (
0"
#3000
b10 &
1"
#4000
b10000000000000100000001110001010110001000010000000111011110101100101101001011010010011010100001001000100101010010011010000100111000011011100100000011000010100 !
b10000000000000100000001110001010110001000010000000111011110101100101101001011010010011010100001001000100101010010011010000100111000011011100100000011000010100 +
b110001 .
b110001 ^"
1]"
0X"
0\"
1Y"
b1011000 0
b1011000 M"
b10000100 2
b10000100 6"
b10000100 ;"
b10000100 ="
b10110100101101001001101 6
b10110100101101001001101 q
b101 K"
b101 U"
b100 J"
b100 T"
b11101111010110 4
b11101111010110 &"
b0 E"
b11 F"
b10000100 B"
b10000100 <"
b100001001000100101010 8
b100001001000100101010 c
b1011010 u
b1011010 !"
b1001101 s
b1001101 }
b1011010 t
b1011010 ~
b100111000011011100100000011000010100 <
b100111000011011100100000011000010100 C
b10000000000000100000001 ,
b10000000000000100000001 d"
b1011000 P"
b1011000 Q"
b1000100 O"
b1000100 R"
b0 N"
b0 S"
b1010 ("
b1010 0"
b0 -"
b0 /"
b111 '"
b111 1"
b111 $"
b111 3"
1+"
b11110000 :"
b11110000 >"
b111110 H"
b1001111 G"
b1001110 9"
b1001110 ?"
b11101100 D"
b11001010 C"
b11001010 8"
b11001010 @"
b1000100 a
b1000100 k
b1000010 d
b1000010 m
b101010 b
b101010 l
b1011010 x
b1011010 y
b1001101 w
b1001101 z
b11110010 v
b11110010 {
b10010011 r
b10010011 |
1o
b110 A
b110 K
b10100 @
b10100 J
b10000001 [
b10000001 \
b1111001 Z
b1111001 ]
b1101 Y
b1101 ^
b100 V
b100 _
b1000000 b"
b1000000 j"
b1011101 e"
b1011101 g"
b1 a"
b1 i"
b1 f"
b1 k"
b110 c"
b110 h"
b1011000010001000000 1
b1011000010001000000 I"
b101 %"
b101 2"
b10 #"
b10 4"
0*"
1."
b111100000100111011001010000 3
b111100000100111011001010000 5"
b100 g
b100 h
b10 f
b10 i
b10 e
b10 j
b101101001001101111100101001001111 7
b101101001001101111100101001001111 n
b11100110 F
b11100110 G
b1001 ?
b1001 I
b11000011 D
b11000011 M
b1110010 B
b1110010 L
b100011 E
b100011 H
b100000010111100111010100 ;
b100000010111100111010100 N
b1011101110 -
b1011101110 `"
b101001011 5
b101001011 ""
b100001010 9
b100001010 `
b1110011000100011 =
b1110011000100011 >
b1111 W"
b1111 _"
b1111 /
b1111 V"
b1 (
b10110111110101000001000000111100001001110100101000001010010110111010010011011111010100100111110010101000000101111001110100111001100010011 #
b10110111110101000001000000111100001001110100101000001010010110111010010011011111010100100111110010101000000101111001110100111001100010011 *
b1010100110011110010110101101111 $
0"
1%
#5000
b11 &
1"
#6000
b0 V
b0 _
b110 f
b110 i
b1001110110011101100111010111000000x0001000000000111111110011000011001101010011010110100001111011011111111000000011100011011000010111000001100000000000010110100 !
b1001110110011101100111010111000000x0001000000000111111110011000011001101010011010110100001111011011111111000000011100011011000010111000001100000000000010110100 +
b10000000 2
b10000000 6"
b10000000 ;"
b10000000 ="
b0x000 0
b0x000 M"
b10000000 <"
b10011010 t
b10011010 ~
b100110101001101011010000 6
b100110101001101011010000 q
b1110001 :
b1110001 O
b0 K"
b0 U"
bx00 J"
bx00 T"
b11111111001100001 4
b11111111001100001 &"
b0 F"
b10110010 B"
b1111011011111111000000 8
b1111011011111111000000 c
b10011010 u
b10011010 !"
b11010000 s
b11010000 }
b1011000010111000001100000000000010110100 <
b1011000010111000001100000000000010110100 C
b100111011001110110011101 ,
b100111011001110110011101 d"
b1101 P"
b1101 Q"
b11001 O"
b11001 R"
b110 N"
b110 S"
b1100 ("
b1100 0"
b11 -"
b11 /"
b1111 '"
b1111 1"
b1100 $"
b1100 3"
0+"
0)"
b1100001 :"
b1100001 >"
b11101100 H"
b10001100 G"
b10001011 9"
b10001011 ?"
b10001100 D"
b111001 C"
b111001 8"
b111001 @"
b11110110 d
b11110110 m
b11111111 a
b11111111 k
b0 b
b0 l
b10011010 x
b10011010 y
b11010000 w
b11010000 z
b11100001 v
b11100001 {
b10100001 r
b10100001 |
b0 A
b0 K
b10110100 @
b10110100 J
1Q
1R
0S
0T
b101100 [
b101100 \
b1110111 Z
b1110111 ]
0X
1W
b100 Y
b100 ^
b11100 .
b11100 ^"
b10011101 e"
b10011101 g"
b10011101 b"
b10011101 j"
b10011101 a"
b10011101 i"
b10011101 f"
b10011101 k"
b0 c"
b0 h"
b1101000110010110 1
b1101000110010110 I"
b11 %"
b11 2"
b1111 #"
b1111 4"
1*"
0."
0,"
b11000011000101100111001000 3
b11000011000101100111001000 5"
b1111 g
b1111 h
b0 e
b0 j
b1001101011010000111000011010000111 7
b1001101011010000111000011010000111 n
b10110100 F
b10110100 G
b10110000 ?
b10110000 I
b10111000 D
b10111000 M
b110000 B
b110000 L
b11111100 E
b11111100 H
b1011000111011101000000 ;
b1011000111011101000000 N
b10011101000 -
b10011101000 `"
b11111100 5
b11111100 ""
b1111011000 9
b1111011000 `
b1011010011111100 =
b1011010011111100 >
0]"
1X"
1\"
0Y"
b10 W"
b10 _"
b10 /
b10 V"
b10 (
b100110100010000010010010110011000110001011011100100000111111001011010110100001110001101000011111110000010110001110111010000101101001111100 #
b100110100010000010010010110011000110001011011100100000111111001011010110100001110001101000011111110000010110001110111010000101101001111100 *
b11111111100111101010001001101000 $
0"
#7000
b100 &
1"
#8000
b111100000000011000000110011100000000011000001101001111101100010110011110101110101001111010001011000010001010101011100010000111000001100000011010000110100000000 !
b111100000000011000000110011100000000011000001101001111101100010110011110101110101001111010001011000010001010101011100010000111000001100000011010000110100000000 +
b100111110110001011 4
b100111110110001011 &"
b10000011 2
b10000011 6"
b10000011 ;"
b10000011 ="
b1111010111010100111101 6
b1111010111010100111101 q
b0 J"
b0 T"
b1 0
b1 M"
b10 E"
b1011 F"
b10000011 B"
b10000001 <"
b1011000010001010101 8
b1011000010001010101 c
b111101 s
b111101 }
b111101 u
b111101 !"
b1110101 t
b1110101 ~
b111000001100000011010000110100000000 <
b111000001100000011010000110100000000 C
b111100000000011000000110 ,
b111100000000011000000110 d"
b100 P"
b100 Q"
b110101 O"
b110101 R"
1L"
b1110 N"
b1110 S"
b1 ("
b1 0"
b100 -"
b100 /"
b1011 $"
b1011 3"
1)"
b11111011 :"
b11111011 >"
b1111 H"
b10101 G"
b10100 9"
b10100 ?"
b11011001 D"
b10010111 C"
b10010111 8"
b10010111 @"
b10110 d
b10110 m
b10001 a
b10001 k
b10101 b
b10101 l
b10111011 x
b10111011 y
b111101 w
b111101 z
b1110101 v
b1110101 {
b10111101 r
b10111101 |
0p
0o
b1101 A
b1101 K
b0 @
b0 J
b110001 [
b110001 \
b10000011 Z
b10000011 ]
b1011 Y
b1011 ^
b1001 V
b1001 _
b1101111 e"
b1101111 g"
b11110000 b"
b11110000 j"
b110 a"
b110 i"
b110 f"
b110 k"
b100 c"
b100 h"
b100001101011110 1
b100001101011110 I"
b1110 %"
b1110 2"
b101 #"
b101 4"
1,"
b111110110001010010010111000 3
b111110110001010010010111000 5"
b1 g
b1 h
b1 e
b1 j
b1011101100111101011101011011110100 7
b1011101100111101011101011011110100 n
b1101 F
b1101 G
b1110 ?
b1110 I
b1100 D
b1100 M
b1101 B
b1101 L
b1 E
b1 H
b1100011000001110111001 ;
b1100011000001110111001 N
b1101111100 -
b1101111100 `"
b1110010101 5
b1110010101 ""
b1011001 9
b1011001 `
b110100000001 =
b110100000001 >
b1000 W"
b1000 _"
b1000 /
b1000 V"
b11 (
b11011110100000000111011110111110100010100001011100011100101011011011001111010111101101111010000110010011000110000011101110000011010000001 #
b11011110100000000111011110111110100010100001011100011100101011011011001111010111101101111010000110010011000110000011101110000011010000001 *
b101111100011001000100110111101 $
0"
#9000
b101 &
1"
#10000
b1100000000000000000000000101010100xxx01000000001000101000110110110000001000010011000000100011011000110011000000011100010011100101110101010011100000001000010011 !
b1100000000000000000000000101010100xxx01000000001000101000110110110000001000010011000000100011011000110011000000011100010011100101110101010011100000001000010011 +
b10101 .
b10101 ^"
0X"
1Y"
b100010100011011011 4
b100010100011011011 &"
b10000000 2
b10000000 6"
b10000000 ;"
b10000000 ="
b100001001100000010 6
b100001001100000010 q
b100 K"
b100 U"
bx J"
bx T"
b100xxx0 0
b100xxx0 M"
b0 E"
b0 F"
b10100100 B"
b10000000 <"
b11011000110011000000 8
b11011000110011000000 c
b10 u
b10 !"
b10 s
b10 }
b10011 t
b10011 ~
b11100101110101010011100000001000010011 <
b11100101110101010011100000001000010011 C
b110000000000000000000000 ,
b110000000000000000000000 d"
b1000011 P"
b1000011 Q"
b10010111 O"
b10010111 R"
0L"
b1010 N"
b1010 S"
b101 '"
b101 1"
b1 $"
b1 3"
b1011 ("
b1011 0"
b1000 :"
b1000 >"
b11000001 H"
b10111010 G"
b10111001 9"
b10111001 ?"
b11101 8"
b11101 @"
b10000000 D"
b10000000 C"
b111 7"
b111 A"
b110110 d
b110110 m
b110011 a
b110011 k
b0 b
b0 l
b1110100 x
b1110100 y
b10 w
b10 z
b10011 v
b10011 {
b11011001 r
b11011001 |
b10 A
b10 K
b10011 @
b10011 J
b11100 [
b11100 \
b10101111 Z
b10101111 ]
b1110 Y
b1110 ^
b100 V
b100 _
b111011 e"
b111011 g"
b11000000 b"
b11000000 j"
b0 a"
b0 i"
b0 f"
b0 k"
b110 c"
b110 h"
b1000011100101111010 1
b1000011100101111010 I"
b100 %"
b100 2"
b10001011100100011101111 3
b10001011100100011101111 5"
b11 g
b11 h
b0 e
b0 j
b111010000000010000100111101100100 7
b111010000000010000100111101100100 n
b11010111 F
b11010111 G
b111001 ?
b111001 I
b1110101 D
b1110101 M
b1001110 B
b1001110 L
b1100010 E
b1100010 H
b111001010111111100100 ;
b111001010111111100100 N
b111011110 -
b111011110 `"
b100010101 5
b100010101 ""
b11011000 9
b11011000 `
b1101011101100010 =
b1101011101100010 >
b110 W"
b110 _"
b110 /
b110 V"
b100 (
b1111111010100111011111010000010010111001001110111101000101010110100000000100001011110110010001110000001110010101111111000110101110110010 #
b1111111010100111011111010000010010111001001110111101000101010110100000000100001011110110010001110000001110010101111111000110101110110010 *
b111110000011001000011111110 $
0"
#11000
b110 &
1"
#12000
b101 V
b101 _
b111110000001101111111011110001110100100000001000001000100001111101010110110101101000110111101000111011101010101010011010101111111100001011000000000000010100000 !
b111110000001101111111011110001110100100000001000001000100001111101010110110101101000110111101000111011101010101010011010101111111100001011000000000000010100000 +
1]"
0\"
b11010010 0
b11010010 M"
b10 2
b10 6"
b10 ;"
b10 ="
b0 <"
b101011011010110100011011 6
b101011011010110100011011 q
b1001101 :
b1001101 O
b1101 K"
b1101 U"
b1 J"
b1 T"
b100010000111110 4
b100010000111110 &"
b10 E"
b1011 F"
b0 B"
b1101000111011101010101 8
b1101000111011101010101 c
b10101101 u
b10101101 !"
b11011 s
b11011 }
b10101101 t
b10101101 ~
b101111111100001011000000000000010100000 <
b101111111100001011000000000000010100000 C
b111110000001101111111011 ,
b111110000001101111111011 d"
b11011101 P"
b11011101 Q"
b11001100 O"
b11001100 R"
b11 N"
b11 S"
b111 ("
b111 0"
b0 -"
b0 /"
b1000 '"
b1000 1"
b1000 $"
b1000 3"
1+"
b1111111 :"
b1111111 >"
b10001001 H"
b1011 G"
b1010 9"
b1010 ?"
b1010 8"
b1010 @"
b1000000 D"
b1000000 C"
b101 7"
b101 A"
b11011101 a
b11011101 k
b11010001 d
b11010001 m
b10101 b
b10101 l
b11011 x
b11011 y
b10101101 w
b10101101 z
b10000000 v
b10000000 {
b11010101 r
b11010101 |
1o
b0 A
b0 K
b10100000 @
b10100000 J
0Q
0R
1S
1T
b1100111 [
b1100111 \
b1010000 Z
b1010000 ]
b110 Y
b110 ^
b110001 .
b110001 ^"
b11011111 e"
b11011111 g"
b11111000 b"
b11111000 j"
b11011 a"
b11011 i"
b11111011 f"
b11111011 k"
b11 c"
b11 h"
b11011101110011000011 1
b11011101110011000011 I"
b1000 %"
b1000 2"
b0 #"
b0 4"
0*"
1."
b11111110000101000001010101 3
b11111110000101000001010101 5"
b1101 g
b1101 h
b1 f
b1 i
b1 e
b1 j
b1101110101101100000001101010101 7
b1101110101101100000001101010101 n
b10100000 F
b10100000 G
b1011111 ?
b1011111 I
b11100001 D
b11100001 M
b1100000 B
b1100000 L
b10111111 E
b10111111 H
b11001110101000001100101 ;
b11001110101000001100101 N
b11011111011 -
b11011111011 `"
b1000000011 5
b1000000011 ""
b1101000101 9
b1101000101 `
b1010000010111111 =
b1010000010111111 >
0X"
1Y"
b1111 W"
b1111 _"
b1111 /
b1111 V"
b101 (
b110111101111101011001000011011111100001010000101010110000000110011011101011011000000110101010110101010110011101010000011000101000001011111 #
b110111101111101011001000011011111100001010000101010110000000110011011101011011000000110101010110101010110011101010000011000101000001011111 *
b10110001010011111001001101111011 $
0"
#13000
b111 &
1"
#14000
b10000010 2
b10000010 6"
b10000010 ;"
b10000010 ="
b1001110 :
b1001110 O
b10000000 <"
1X
0W
b110111111101010101110010001000001000011011101001100011011011110110111000011100000001100000000111111010011100010001110110011011010000000010000001011 !
b110111111101010101110010001000001000011011101001100011011011110110111000011100000001100000000111111010011100010001110110011011010000000010000001011 +
b11001000 0
b11001000 M"
b10110111 t
b10110111 ~
b101101111011011100001110 6
b101101111011011100001110 q
b1100 K"
b1100 U"
b100 J"
b100 T"
b1101110100110001 4
b1101110100110001 &"
b10 F"
b10101100 B"
b1100000000111111 8
b1100000000111111 c
b1110 s
b1110 }
b10110111 u
b10110111 !"
b10001110110011011010000000010000001011 <
b10001110110011011010000000010000001011 C
b110111111101 ,
b110111111101 d"
b11001010 P"
b11001010 Q"
b11100111 O"
b11100111 R"
b110 ("
b110 0"
b1 -"
b1 /"
b1011 '"
b1011 1"
b1010 $"
b1010 3"
0+"
0)"
b11011010 :"
b11011010 >"
b110001 H"
b1011000 G"
b1010111 9"
b1010111 ?"
b11111011 8"
b11111011 @"
b11000000 D"
b11000000 C"
b110 7"
b110 A"
b0 a
b0 k
b11 d
b11 m
b111111 b
b111111 l
b1110 x
b1110 y
b10110111 w
b10110111 z
b10111000 v
b10111000 {
b110110 r
b110110 |
b100 A
b100 K
b1011 @
b1011 J
b10001000 [
b10001000 \
b1001111 Z
b1001111 ]
b1001 Y
b1001 ^
b1001 V
b1001 _
b10101 .
b10101 ^"
b11010000 e"
b11010000 g"
b0 b"
b0 j"
b1101 a"
b1101 i"
b11111101 f"
b11111101 k"
b100 c"
b100 h"
b11001010111001110011 1
b11001010111001110011 I"
b1001 %"
b1001 2"
b11 #"
b11 4"
1*"
0."
0,"
b110110100101011111111011110 3
b110110100101011111111011110 5"
b0 g
b0 h
b11 f
b11 i
b11 e
b11 j
b111010110111101110000011011001 7
b111010110111101110000011011001 n
b11101011 F
b11101011 G
b100011 ?
b100011 I
b10110011 D
b10110011 M
b1101000 B
b1101000 L
b111000 E
b111000 H
b100010000100111110011001 ;
b100010000100111110011001 N
b11010000100 -
b11010000100 `"
b1001001100 5
b1001001100 ""
b1111 9
b1111 `
b1110101100111000 =
b1110101100111000 >
0]"
0X"
1\"
1Y"
b110 W"
b110 _"
b110 /
b110 V"
b110 (
b110100010011100101101110011110110001010111111101111010010011000001110101101111011000001101100100011111000100001001111100110111010110011000 #
b110100010011100101101110011110110001010111111101111010010011000001110101101111011000001101100100011111000100001001111100110111010110011000 *
b1011000011101100101001101000100 $
0"
#15000
b1000 &
1"
#16000
b100010011000100110001001011100001000011000000100011011101011101100101011100011110100111000010001000100010111111010011010001010101011011110110000000000101011011 !
b100010011000100110001001011100001000011000000100011011101011101100101011100011110100111000010001000100010111111010011010001010101011011110110000000000101011011 +
b10000001 2
b10000001 6"
b10000001 ;"
b10000001 ="
b10101110001111010011100 6
b10101110001111010011100 q
b1001101 :
b1001101 O
b10 K"
b10 U"
b0 J"
b0 T"
b100001 0
b100001 M"
b1101110101110110 4
b1101110101110110 &"
b1 E"
b1 F"
b11010000 B"
b10000000 <"
b10001000100010111111 8
b10001000100010111111 c
b10011100 s
b10011100 }
b1010111 u
b1010111 !"
b11110 t
b11110 ~
b1010101011011110110000000000101011011 <
b1010101011011110110000000000101011011 C
b100010011000100110001001 ,
b100010011000100110001001 d"
b100010 P"
b100010 Q"
b11000100 O"
b11000100 R"
1L"
b1110 N"
b1110 S"
b1110 ("
b1110 0"
1+"
1)"
b10111111 :"
b10111111 >"
b1101111 H"
b10110001 G"
b10110000 9"
b10110000 ?"
b1100000 8"
b1100000 @"
b10100000 D"
b1100000 C"
b0 7"
b0 A"
b100010 a
b100010 k
b100010 d
b100010 m
b1010111 x
b1010111 y
b10011100 w
b10011100 z
b11110 v
b11110 {
b1100 r
b1100 |
1p
0o
b1 A
b1 K
b1011011 @
b1011011 J
b10011 [
b10011 \
b10010 Z
b10010 ]
b1100 Y
b1100 ^
0X
1W
b101 V
b101 _
b11100 .
b11100 ^"
b10001001 e"
b10001001 g"
b10001001 b"
b10001001 j"
b10001001 a"
b10001001 i"
b10001001 f"
b10001001 k"
b0 c"
b0 h"
b100010110001001110 1
b100010110001001110 I"
b1 %"
b1 2"
b1011 #"
b1011 4"
0*"
1."
1,"
b101111111011000001100000000 3
b101111111011000001100000000 5"
b10 g
b10 h
b10 f
b10 i
b101011110011100000111100000110010 7
b101011110011100000111100000110010 n
b10111000 F
b10111000 G
b10101 ?
b10101 I
b1011011 D
b1011011 M
b11011000 B
b11011000 L
b1011101 E
b1011101 H
b100110001001011000101 ;
b100110001001011000101 N
b10001001000 -
b10001001000 `"
b1101111 5
b1101111 ""
b10001011 9
b10001011 `
b1011100001011101 =
b1011100001011101 >
1X"
0Y"
b1110 W"
b1110 _"
b1110 /
b1110 V"
b111 (
b100010100110010101001001110101111110110000110000000000011011110110111100111000001110000011001001010110001001100010010110000101110000101101 #
b100010100110010101001001110101111110110000110000000000011011110110111100111000001110000011001001010110001001100010010110000101110000101101 *
b110011000010111000111000101001 $
0"
#17000
b1001 &
1"
