rewiring/large_test_seed0/cycle_0005/tb_top.vcd
$date
	Tue Nov  4 00:09:09 2025
$end
$version
	Icarus Verilog
$end
$timescale
	1ps
$end
$scope module tb_top $end
$var wire 159 ! out_flat [158:0] $end
$var reg 1 " clk $end
$var reg 140 # in_flat [139:0] $end
$var reg 32 $ rng_state [31:0] $end
$var reg 1 % rst_n $end
$var integer 32 & cyc [31:0] $end
$var integer 32 ' cycles [31:0] $end
$var integer 32 ( i [31:0] $end
$var integer 32 ) seed [31:0] $end
$scope module dut $end
$var wire 1 " clk $end
$var wire 140 * in_flat [139:0] $end
$var wire 1 % rst_n $end
$var wire 159 + out_flat [158:0] $end
$var wire 24 , const_shift_wrapper_out_flat [23:0] $end
$var wire 11 - const_shift_wrapper_in_flat [10:0] $end
$var wire 6 . const_reduce_wrapper_out_flat [5:0] $end
$var wire 4 / const_reduce_wrapper_in_flat [3:0] $end
$var wire 8 0 const_partselect_wrapper_out_flat [7:0] $end
$var wire 20 1 const_partselect_wrapper_in_flat [19:0] $end
$var wire 8 2 const_nested_wrapper_out_flat [7:0] $end
$var wire 27 3 const_nested_wrapper_in_flat [26:0] $end
$var wire 19 4 const_logic_wrapper_out_flat [18:0] $end
$var wire 10 5 const_logic_wrapper_in_flat [9:0] $end
$var wire 24 6 const_conditional_wrapper_out_flat [23:0] $end
$var wire 34 7 const_conditional_wrapper_in_flat [33:0] $end
$var wire 22 8 const_concat_repl_wrapper_out_flat [21:0] $end
$var wire 10 9 const_concat_repl_wrapper_in_flat [9:0] $end
$var wire 8 : const_compare_wrapper_out_flat [7:0] $end
$var wire 24 ; const_compare_wrapper_in_flat [23:0] $end
$var wire 40 < const_arith_wrapper_out_flat [39:0] $end
$var wire 16 = const_arith_wrapper_in_flat [15:0] $end
$scope module u_const_arith_wrapper $end
$var wire 16 > in_flat [15:0] $end
$var wire 8 ? sum_c [7:0] $end
$var wire 8 @ rem_c [7:0] $end
$var wire 8 A quot_c [7:0] $end
$var wire 8 B prod_c [7:0] $end
$var wire 40 C out_flat [39:0] $end
$var wire 8 D diff_c [7:0] $end
$var wire 8 E b [7:0] $end
$var wire 8 F a [7:0] $end
$scope module u_const_arith $end
$var wire 8 G a [7:0] $end
$var wire 8 H b [7:0] $end
$var wire 8 I sum_c [7:0] $end
$var wire 8 J rem_c [7:0] $end
$var wire 8 K quot_c [7:0] $end
$var wire 8 L prod_c [7:0] $end
$var wire 8 M diff_c [7:0] $end
$upscope $end
$upscope $end
$scope module u_const_compare_wrapper $end
$var wire 24 N in_flat [23:0] $end
$var wire 8 O out_flat [7:0] $end
$var wire 1 P neq_c $end
$var wire 1 Q lt_c $end
$var wire 1 R le_c $end
$var wire 1 S gt_c $end
$var wire 1 T ge_c $end
$var wire 1 U eq_c $end
$var wire 4 V d [3:0] $end
$var wire 1 W case_neq_c $end
$var wire 1 X case_eq_c $end
$var wire 4 Y c [3:0] $end
$var wire 8 Z b [7:0] $end
$var wire 8 [ a [7:0] $end
$scope module u_const_compare $end
$var wire 8 \ a [7:0] $end
$var wire 8 ] b [7:0] $end
$var wire 4 ^ c [3:0] $end
$var wire 4 _ d [3:0] $end
$var wire 1 P neq_c $end
$var wire 1 Q lt_c $end
$var wire 1 R le_c $end
$var wire 1 S gt_c $end
$var wire 1 T ge_c $end
$var wire 1 U eq_c $end
$var wire 1 W case_neq_c $end
$var wire 1 X case_eq_c $end
$upscope $end
$upscope $end
$scope module u_const_concat_repl_wrapper $end
$var wire 10 ` in_flat [9:0] $end
$var wire 8 a rep_c [7:0] $end
$var wire 6 b rep2_c [5:0] $end
$var wire 22 c out_flat [21:0] $end
$var wire 8 d cat_c [7:0] $end
$var wire 2 e c [1:0] $end
$var wire 4 f b [3:0] $end
$var wire 4 g a [3:0] $end
$scope module u_const_concat_repl $end
$var wire 4 h a [3:0] $end
$var wire 4 i b [3:0] $end
$var wire 2 j c [1:0] $end
$var wire 8 k rep_c [7:0] $end
$var wire 6 l rep2_c [5:0] $end
$var wire 8 m cat_c [7:0] $end
$upscope $end
$upscope $end
$scope module u_const_conditional_wrapper $end
$var wire 34 n in_flat [33:0] $end
$var wire 1 o sel2 $end
$var wire 1 p sel1 $end
$var wire 24 q out_flat [23:0] $end
$var wire 8 r d [7:0] $end
$var wire 8 s cond3_c [7:0] $end
$var wire 8 t cond2_c [7:0] $end
$var wire 8 u cond1_c [7:0] $end
$var wire 8 v c [7:0] $end
$var wire 8 w b [7:0] $end
$var wire 8 x a [7:0] $end
$scope module u_const_conditional $end
$var wire 8 y a [7:0] $end
$var wire 8 z b [7:0] $end
$var wire 8 { c [7:0] $end
$var wire 8 | d [7:0] $end
$var wire 1 p sel1 $end
$var wire 1 o sel2 $end
$var wire 8 } cond3_c [7:0] $end
$var wire 8 ~ cond2_c [7:0] $end
$var wire 8 !" cond1_c [7:0] $end
$upscope $end
$upscope $end
$scope module u_const_logic_wrapper $end
$var wire 10 "" in_flat [9:0] $end
$var wire 4 #" y [3:0] $end
$var wire 4 $" xor_c [3:0] $end
$var wire 4 %" x [3:0] $end
$var wire 19 &" out_flat [18:0] $end
$var wire 4 '" or_c [3:0] $end
$var wire 4 (" not_c [3:0] $end
$var wire 1 )" lor_c $end
$var wire 1 *" lnot_c $end
$var wire 1 +" land_c $end
$var wire 1 ," b $end
$var wire 4 -" and_c [3:0] $end
$var wire 1 ." a $end
$scope module u_const_logic $end
$var wire 1 ." a $end
$var wire 4 /" and_c [3:0] $end
$var wire 1 ," b $end
$var wire 1 +" land_c $end
$var wire 1 )" lor_c $end
$var wire 4 0" not_c [3:0] $end
$var wire 4 1" or_c [3:0] $end
$var wire 4 2" x [3:0] $end
$var wire 4 3" xor_c [3:0] $end
$var wire 4 4" y [3:0] $end
$var wire 1 *" lnot_c $end
$upscope $end
$upscope $end
$scope module u_const_nested_wrapper $end
$var wire 27 5" in_flat [26:0] $end
$var wire 8 6" out_flat [7:0] $end
$var wire 3 7" s [2:0] $end
$var wire 8 8" r [7:0] $end
$var wire 8 9" q [7:0] $end
$var wire 8 :" p [7:0] $end
$var wire 8 ;" nested_c [7:0] $end
$scope module u_const_nested $end
$var wire 8 <" and_part [7:0] $end
$var wire 8 =" nested_c [7:0] $end
$var wire 8 >" p [7:0] $end
$var wire 8 ?" q [7:0] $end
$var wire 8 @" r [7:0] $end
$var wire 3 A" s [2:0] $end
$var wire 8 B" xor_qr [7:0] $end
$var wire 8 C" shl_rs [7:0] $end
$var wire 8 D" mul_part [7:0] $end
$var wire 8 E" mod_part [7:0] $end
$var wire 8 F" div_part [7:0] $end
$var wire 8 G" denom [7:0] $end
$var wire 8 H" add_pq [7:0] $end
$upscope $end
$upscope $end
$scope module u_const_partselect_wrapper $end
$var wire 20 I" in_flat [19:0] $end
$var wire 3 J" sel2_c [2:0] $end
$var wire 4 K" sel1_c [3:0] $end
$var wire 1 L" ovf_range $end
$var wire 8 M" out_flat [7:0] $end
$var wire 4 N" idx [3:0] $end
$var wire 8 O" data2 [7:0] $end
$var wire 8 P" data1 [7:0] $end
$scope module u_const_partselect $end
$var wire 8 Q" data1 [7:0] $end
$var wire 8 R" data2 [7:0] $end
$var wire 4 S" idx [3:0] $end
$var wire 3 T" sel2_c [2:0] $end
$var wire 4 U" sel1_c [3:0] $end
$var wire 1 L" ovf_range $end
$upscope $end
$upscope $end
$scope module u_const_reduce_wrapper $end
$var wire 4 V" in_flat [3:0] $end
$var wire 4 W" in_vec [3:0] $end
$var wire 1 X" red_xor_c $end
$var wire 1 Y" red_xnor_c $end
$var wire 1 Z" red_or_c $end
$var wire 1 [" red_nor_c $end
$var wire 1 \" red_nand_c $end
$var wire 1 ]" red_and_c $end
$var wire 6 ^" out_flat [5:0] $end
$scope module u_const_reduce $end
$var wire 4 _" in_vec [3:0] $end
$var wire 1 X" red_xor_c $end
$var wire 1 Y" red_xnor_c $end
$var wire 1 Z" red_or_c $end
$var wire 1 [" red_nor_c $end
$var wire 1 \" red_nand_c $end
$var wire 1 ]" red_and_c $end
$upscope $end
$upscope $end
$scope module u_const_shift_wrapper $end
$var wire 11 `" in_flat [10:0] $end
$var wire 8 a" shr_c [7:0] $end
$var wire 8 b" shl_c [7:0] $end
$var wire 3 c" shift_amt [2:0] $end
$var wire 24 d" out_flat [23:0] $end
$var wire 8 e" data_in [7:0] $end
$var wire 8 f" ashr_c [7:0] $end
$scope module u_const_shift $end
$var wire 8 g" data_in [7:0] $end
$var wire 3 h" shift_amt [2:0] $end
$var wire 8 i" shr_c [7:0] $end
$var wire 8 j" shl_c [7:0] $end
$var wire 8 k" ashr_c [7:0] $end
$upscope $end
$upscope $end
$upscope $end
$upscope $end
$enddefinitions $end
$comment Show the parameter values. $end
$dumpall
$end
#0
$dumpvars
b11111011 k"
b0 j"
b1011 i"
b100 h"
b10110000 g"
b11111011 f"
b10110000 e"
b101111111011 d"
b100 c"
b0 b"
b1011 a"
b10110000100 `"
b101 _"
b10101 ^"
0]"
1\"
0["
1Z"
1Y"
0X"
b101 W"
b101 V"
b111 U"
b1 T"
b1 S"
b10100010 R"
b1110010 Q"
b1110010 P"
b10100010 O"
b1 N"
b1110010 M"
0L"
b111 K"
b1 J"
b1110010101000100001 I"
b1011000 H"
b11 G"
b11100 F"
b1 E"
b0 D"
b11000000 C"
b1010001 B"
b110 A"
b1010011 @"
b10 ?"
b1010110 >"
b1 ="
b0 <"
b1 ;"
b1010110 :"
b10 9"
b1010011 8"
b110 7"
b1 6"
b10101100000001001010011110 5"
b1 4"
b0 3"
b1 2"
b1 1"
b1110 0"
b1 /"
1."
b1 -"
0,"
0+"
0*"
1)"
b1110 ("
b1 '"
b1000100001110010 &"
b1 %"
b0 $"
b1 #"
b1000110 ""
b1101100 !"
b1101100 ~
b1101100 }
b10101001 |
b11110110 {
b1101100 z
b10011010 y
b10011010 x
b1101100 w
b11110110 v
b1101100 u
b1101100 t
b1101100 s
b10101001 r
b11011000110110001101100 q
0p
1o
b1001101001101100111101101010100101 n
b1010101 m
b111111 l
b1010101 k
b11 j
b101 i
b101 h
b101 g
b101 f
b11 e
b1010101 d
b101010101010101111111 c
b111111 b
b1010101 a
b101010111 `
b1 _
b1000 ^
b1101001 ]
b100011 \
b100011 [
b1101001 Z
b1000 Y
0X
1W
b1 V
0U
0T
0S
1R
1Q
1P
b1110001 O
b1000110110100110000001 N
b10001110 M
b1001000 L
b0 K
b1111100 J
b1101010 I
b11101110 H
b1111100 G
b1111100 F
b11101110 E
b10001110 D
b110101010001110010010000000000001111100 C
b1001000 B
b0 A
b1111100 @
b1101010 ?
b111110011101110 >
b111110011101110 =
b110101010001110010010000000000001111100 <
b1000110110100110000001 ;
b1110001 :
b101010111 9
b101010101010101111111 8
b1001101001101100111101101010100101 7
b11011000110110001101100 6
b1000110 5
b1000100001110010 4
b10101100000001001010011110 3
b1 2
b1110010101000100001 1
b1110010 0
b101 /
b10101 .
b10110000100 -
b101111111011 ,
b101111111011010101011100100000000100010001000011100100110110001101100011011000101010101010101111111011100010110101010001110010010000000000001111100 +
b10110001001101110010101000010101011000000010010100111000010001101011010011011001111011011010101010101110010011011010011000000101111001110111 *
b10000001001100110010100001110110 )
bx (
b1100100 '
b0 &
0%
b11111110011100100110101100010011 $
b10110001001101110010101000010101011000000010010100111000010001101011010011011001111011011010101010101110010011011010011000000101111001110111 #
0"
b101111111011010101011100100000000100010001000011100100110110001101100011011000101010101010101111111011100010110101010001110010010000000000001111100 !
$end
#1000
b1 &
1"
#2000
b0 (
0"
#3000
b10 &
1"
#4000
b1100000000000000000000000101011010xxx00000000100001111111110110110000001000000010011100010111100001110111101010011100010000001011000010010000000000000001100010 !
b1100000000000000000000000101011010xxx00000000100001111111110110110000001000000010011100010111100001110111101010011100010000001011000010010000000000000001100010 +
0L"
b0 D"
b1010xxx0 0
b1010xxx0 M"
b10 t
b10 ~
b100000001001110001 6
b100000001001110001 q
b1010 K"
b1010 U"
bx J"
bx T"
b111111111011011 4
b111111111011011 &"
b1 F"
b110011 B"
b111100001110111101010 8
b111100001110111101010 c
b1110001 s
b1110001 }
b10 u
b10 !"
b1011000010010000000000000001100010 <
b1011000010010000000000000001100010 C
b110000000000000000000000 ,
b110000000000000000000000 d"
b10101011 P"
b10101011 Q"
b10000101 O"
b10000101 R"
b1100 N"
b1100 S"
b1011 ("
b1011 0"
b0 -"
b0 /"
b1111 '"
b1111 1"
b1111 $"
b1111 3"
b10100101 :"
b10100101 >"
b10100 H"
b1110000 G"
b1101111 9"
b1101111 ?"
b1011100 8"
b1011100 @"
b0 C"
b111 7"
b111 A"
b1110111 a
b1110111 k
b1111000 d
b1111000 m
b101010 b
b101010 l
b10 x
b10 y
b1110001 w
b1110001 z
b1101001 v
b1101001 {
b10100110 r
b10100110 |
1p
b1100010 @
b1100010 J
b1001011 [
b1001011 \
b1011100 Z
b1011100 ]
b10 Y
b10 ^
b110 V
b110 _
b10101 .
b10101 ^"
b11000000 b"
b11000000 j"
b100111 e"
b100111 g"
b0 a"
b0 i"
b0 f"
b0 k"
b110 c"
b110 h"
b10101011100001011100 1
b10101011100001011100 I"
b100 %"
b100 2"
b1011 #"
b1011 4"
1*"
0."
1,"
b101001010110111101011100111 3
b101001010110111101011100111 5"
b111 g
b111 h
b1000 f
b1000 i
b10 e
b10 j
b1001110001011010011010011011 7
b1001110001011010011010011011 n
b1100010 F
b1100010 G
b10 ?
b10 I
b11000010 D
b11000010 M
b1000000 B
b1000000 L
b10100000 E
b10100000 H
b10010110101110000100110 ;
b10010110101110000100110 N
b100111110 -
b100111110 `"
b100101101 5
b100101101 ""
b111100010 9
b111100010 `
b110001010100000 =
b110001010100000 >
0X"
1Y"
b1010 W"
b1010 _"
b1010 /
b1010 V"
b1 (
b100111110010101011100011101010010101101111010111001101001011010000010011100010110100111001011011110100100111010111000010011001000101010000 #
b100111110010101011100011101010010101101111010111001101001011010000010011100010110100111001011011110100100111010111000010011001000101010000 *
b10100100111111100111001001111100 $
0"
1%
#5000
b11 &
1"
#6000
b1110100011101000111010000101011111xxx00000000000001010101011010100101111101011111100011000001100000010001101010010011011101100011000100000011000001010000000110 !
b1110100011101000111010000101011111xxx00000000000001010101011010100101111101011111100011000001100000010001101010010011011101100011000100000011000001010000000110 +
b1111xxx0 0
b1111xxx0 M"
b0 2
b0 6"
b0 ;"
b0 ="
b1011111 t
b1011111 ~
b10111110101111110001100 6
b10111110101111110001100 q
b1001101 :
b1001101 O
b1111 K"
b1111 U"
b101010101101010 4
b101010101101010 &"
b0 E"
b0 F"
b1111001 B"
b1100000010001101010 8
b1100000010001101010 c
b10001100 s
b10001100 }
b1011111 u
b1011111 !"
b1101100011000100000011000001010000000110 <
b1101100011000100000011000001010000000110 C
b111010001110100011101000 ,
b111010001110100011101000 d"
b11111100 P"
b11111100 Q"
b11110111 O"
b11110111 R"
b1101 ("
b1101 0"
b1010 '"
b1010 1"
b1010 $"
b1010 3"
b111010 :"
b111010 >"
b10000000 D"
b10100010 H"
b1101001 G"
b1101000 9"
b1101000 ?"
b1000000 C"
b10001 8"
b10001 @"
b110 7"
b110 A"
b11000 d
b11000 m
b10001 a
b10001 k
b10001100 x
b10001100 y
b1011111 w
b1011111 z
b11011100 v
b11011100 {
b1111111 r
b1111111 |
0p
b10100 A
b10100 K
b110 @
b110 J
b11010011 [
b11010011 \
0Q
0R
1S
1T
b111100 Z
b111100 ]
b1000 Y
b1000 ^
0X
1W
b10 V
b10 _
b11101000 e"
b11101000 g"
b11101000 b"
b11101000 j"
b11101000 a"
b11101000 i"
b11101000 f"
b11101000 k"
b0 c"
b0 h"
b11111100111101111100 1
b11111100111101111100 I"
b10 %"
b10 2"
b1000 #"
b1000 4"
0*"
1."
0,"
b1110100110100000010001110 3
b1110100110100000010001110 5"
b1 g
b1 h
b1000110001011111110111000111111101 7
b1000110001011111110111000111111101 n
b11001110 F
b11001110 G
b11011000 ?
b11011000 I
b11000100 D
b11000100 M
b1100 B
b1100 L
b1010 E
b1010 H
b110100110011110010000010 ;
b110100110011110010000010 N
b11101000000 -
b11101000000 `"
b10100010 5
b10100010 ""
b1100010 9
b1100010 `
b1100111000001010 =
b1100111000001010 >
b11 W"
b11 _"
b11 /
b11 V"
b10 (
b11101000000111111100111111100011101001101000000100011000101000101001100010111111101110001111101000110101101011001111001000001011011100000101 #
b11101000000111111100111111100011101001101000000100011000101000101001100010111111101110001111101000110101101011001111001000001011011100000101 *
b11000010011110101011111010000001 $
0"
#7000
b100 &
1"
#8000
b1001 f
b1001 i
b100100000000001100000011010101000000000000000100001110111000110110010100011110011001010001001100110011001111111010011011010001000001010100010000000000100001010 !
b100100000000001100000011010101000000000000000100001110111000110110010100011110011001010001001100110011001111111010011011010001000001010100010000000000100001010 +
b0 0
b0 M"
b1 2
b1 6"
b1 ;"
b1 ="
b1010001111001100101000 6
b1010001111001100101000 q
b0 K"
b0 U"
b0 J"
b0 T"
b111011100011011 4
b111011100011011 &"
b1 E"
b1 F"
b1101101 B"
b1001100110011001111111 8
b1001100110011001111111 c
b101000 s
b101000 }
b101000 u
b101000 !"
b11110011 t
b11110011 ~
b1010001000001010100010000000000100001010 <
b1010001000001010100010000000000100001010 C
b100100000000001100000011 ,
b100100000000001100000011 d"
b1010 P"
b1010 Q"
b11001 O"
b11001 R"
b101 N"
b101 S"
b11 ("
b11 0"
b1110 '"
b1110 1"
b1110 $"
b1110 3"
b11000001 :"
b11000001 >"
b1111110 H"
b10111110 G"
b10111101 9"
b10111101 ?"
b0 D"
b0 C"
b11010000 8"
b11010000 @"
b10011001 d
b10011001 m
b10011001 a
b10011001 k
b111111 b
b111111 l
b101000 x
b101000 y
b10100101 w
b10100101 z
b11110011 v
b11110011 {
1p
0o
b1 A
b1 K
b1010 @
b1010 J
b111001 [
b111001 \
b110100 Z
b110100 ]
b101 Y
b101 ^
b111001 e"
b111001 g"
b10010000 b"
b10010000 j"
b11 a"
b11 i"
b11 f"
b11 k"
b100 c"
b100 h"
b1010000110010101 1
b1010000110010101 I"
b1100 %"
b1100 2"
b10 #"
b10 4"
1*"
0."
1,"
b110000011011110111010000110 3
b110000011011110111010000110 5"
b1001 g
b1001 h
b11 e
b11 j
b10100010100101111100110111111110 7
b10100010100101111100110111111110 n
b1010110 F
b1010110 G
b10100010 ?
b10100010 I
b1010 D
b1010 M
b10001000 B
b10001000 L
b1001100 E
b1001100 H
b1110010011010001010010 ;
b1110010011010001010010 N
b111001100 -
b111001100 `"
b1100001001 5
b1100001001 ""
b1001100111 9
b1001100111 `
b101011001001100 =
b101011001001100 >
b110 W"
b110 _"
b110 /
b110 V"
b11 (
b111011001000001010000100111100000110111101110100001011000010010101000101001011111001101111110100110110011101001101000101001001101100100110 #
b111011001000001010000100111100000110111101110100001011000010010101000101001011111001101111110100110110011101001101000101001001101100100110 *
b100100100111110100001110110010 $
0"
#9000
b101 &
1"
#10000
b111111111110001010101100010000011101111000100001101010010110100101101001010111010101110111000000011100010000010111110111111100100010010000000010 !
b111111111110001010101100010000011101111000100001101010010110100101101001010111010101110111000000011100010000010111110111111100100010010000000010 +
b1010110 0
b1010110 M"
b100000 2
b100000 6"
b100000 ;"
b100000 ="
b101001011010010110100101 6
b101001011010010110100101 q
b1110001 :
b1110001 O
b101 K"
b101 U"
b11 J"
b11 T"
b1110111100010000110 4
b1110111100010000110 &"
b0 E"
b0 F"
b1110001 B"
b100000 <"
b111010101110111000000 8
b111010101110111000000 c
b10100101 u
b10100101 !"
b10100101 s
b10100101 }
b10100101 t
b10100101 ~
b10111110111111100100010010000000010 <
b10111110111111100100010010000000010 C
b111111111 ,
b111111111 d"
b1011001 P"
b1011001 Q"
b10110110 O"
b10110110 R"
b1 N"
b1 S"
b0 ("
b0 0"
b1110 -"
b1110 /"
b1111 '"
b1111 1"
b1 $"
b1 3"
1+"
b11101000 :"
b11101000 >"
b11100110 H"
b11111111 G"
b11111110 9"
b11111110 ?"
b10100000 D"
b11110000 C"
b10001111 8"
b10001111 @"
b100 7"
b100 A"
b1110111 a
b1110111 k
b1110101 d
b1110101 m
b0 b
b0 l
b10100101 x
b10100101 y
b11001011 w
b11001011 z
b10100 v
b10100 {
b101011 r
b101011 |
1o
b100100 A
b100100 K
b10 @
b10 J
b110 [
b110 \
1Q
1R
0S
0T
b10110000 Z
b10110000 ]
b111 Y
b111 ^
b0 V
b0 _
b110001 .
b110001 ^"
b10000110 e"
b10000110 g"
b0 b"
b0 j"
b1 a"
b1 i"
b11111111 f"
b11111111 k"
b111 c"
b111 h"
b1011001101101100001 1
b1011001101101100001 I"
b1111 %"
b1111 2"
b1110 #"
b1110 4"
0*"
1."
b111010001111111010001111100 3
b111010001111111010001111100 5"
b111 g
b111 h
b101 f
b101 i
b0 e
b0 j
b1010010111001011000101000010101111 7
b1010010111001011000101000010101111 n
b11111110 F
b11111110 G
b101 ?
b101 I
b11110111 D
b11110111 M
b11110010 B
b11110010 L
b111 E
b111 H
b1101011000001110000 ;
b1101011000001110000 N
b10000110111 -
b10000110111 `"
b1111111011 5
b1111111011 ""
b111010100 9
b111010100 `
b1111111000000111 =
b1111111000000111 >
1]"
0\"
b1111 W"
b1111 _"
b1111 /
b1111 V"
b100 (
b10000101111101011001101110011110100011111110100011110011111110111100101110010110001010001011111011101000000010101100000111000011111100000011 #
b10000101111101011001101110011110100011111110100011110011111110111100101110010110001010001011111011101000000010101100000111000011111100000011 *
b10001011100110011100100001011111 $
0"
#11000
b110 &
1"
#12000
b111111111 ,
b111111111 d"
b1 a"
b1 i"
b111 c"
b111 h"
b1111111110111000110xxx01000000100001111111111100110011100000111000010100110101100101010101111111010011010001110101101101101110000000001000010101 !
b1111111110111000110xxx01000000100001111111111100110011100000111000010100110101100101010101111111010011010001110101101101101110000000001000010101 +
b110xxx0 0
b110xxx0 M"
b10000001 2
b10000001 6"
b10000001 ;"
b10000001 ="
b111000 t
b111000 ~
b1110000011100001010011 6
b1110000011100001010011 q
b1001101 :
b1001101 O
b110 K"
b110 U"
bx J"
bx T"
b111111111110011 4
b111111111110011 &"
b1 E"
b1 F"
b11011011 B"
b10000000 <"
b101100101010101111111 8
b101100101010101111111 c
b111000 u
b111000 !"
b1010011 s
b1010011 }
b1110101101101101110000000001000010101 <
b1110101101101101110000000001000010101 C
b1101010 P"
b1101010 Q"
b110110 O"
b110110 R"
b1010 N"
b1010 S"
b0 -"
b0 /"
b1111 $"
b1111 3"
b1110 ("
b1110 0"
0+"
b10001011 :"
b10001011 >"
b110 H"
b1111100 G"
b1111011 9"
b1111011 ?"
b10100000 8"
b10100000 @"
b10000000 D"
b1000000 C"
b1 7"
b1 A"
b1010101 a
b1010101 k
b1011001 d
b1011001 m
b111111 b
b111111 l
b111000 x
b111000 y
b1010011 w
b1010011 z
b11011100 r
b11011100 |
b10 A
b10 K
b10101 @
b10101 J
0Q
0R
1S
1T
b10101001 [
b10101001 \
b10010000 Z
b10010000 ]
b0 Y
b0 ^
b101 V
b101 _
b11100 .
b11100 ^"
b11011000 e"
b11011000 g"
b1101010001101101010 1
b1101010001101101010 I"
b1 %"
b1 2"
1*"
0."
b100010110111101110100000001 3
b100010110111101110100000001 5"
b101 g
b101 h
b1001 f
b1001 i
b11 e
b11 j
b11100001010011000101001101110011 7
b11100001010011000101001101110011 n
b11000101 F
b11000101 G
b11101 ?
b11101 I
b1101101 D
b1101101 M
b10111000 B
b10111000 L
b1011000 E
b1011000 H
b101010011001000000000101 ;
b101010011001000000000101 N
b11011000111 -
b11011000111 `"
b1111001 5
b1111001 ""
b101100111 9
b101100111 `
b1100010101011000 =
b1100010101011000 >
0]"
1X"
1\"
0Y"
b10 W"
b10 _"
b10 /
b10 V"
b101 (
b11011001100001101010001111001000101101111011101000000100011110010111000010100110001010010110011010110111010101100100000000010111001010101100 #
b11011001100001101010001111001000101101111011101000000100011110010111000010100110001010010110011010110111010101100100000000010111001010101100 *
b11001010011010010000110110011000 $
0"
#13000
b111 &
1"
#14000
b10000010000000100000111000000xxx00100100110011111011000000101011111010101010001000101100110111001100101010010011011111010100110001110001100000000000010011 !
b10000010000000100000111000000xxx00100100110011111011000000101011111010101010001000101100110111001100101010010011011111010100110001110001100000000000010011 +
b0xxx0 0
b0xxx0 M"
b1001001 2
b1001001 6"
b1001001 ;"
b1001001 ="
b101111101010101000100010 6
b101111101010101000100010 q
b0 K"
b0 U"
b1001111101100000010 4
b1001111101100000010 &"
b11001000 B"
b1001000 <"
b1100110111001100101010 8
b1100110111001100101010 c
b100010 s
b100010 }
b10111110 u
b10111110 !"
b10101010 t
b10101010 ~
b1111010100110001110001100000000000010011 <
b1111010100110001110001100000000000010011 C
b1000001000000010000 ,
b1000001000000010000 d"
b110 P"
b110 Q"
b10101101 O"
b10101101 R"
b1011 N"
b1011 S"
b0 ("
b0 0"
b1001 -"
b1001 /"
b110 $"
b110 3"
b1101011 :"
b1101011 >"
b10101111 H"
b1000101 G"
b1000100 9"
b1000100 ?"
b1101000 D"
b11000 C"
b10001100 8"
b10001100 @"
b11001100 a
b11001100 k
b11001101 d
b11001101 m
b101010 b
b101010 l
b100010 x
b100010 y
b10111110 w
b10111110 z
b10101010 v
b10101010 {
b11000000 r
b11000000 |
0p
0o
b0 A
b0 K
b10011 @
b10011 J
b10110101 [
b10110101 \
b110001 Z
b110001 ]
b1011 Y
b1011 ^
b1101 V
b1101 _
b1000001 e"
b1000001 g"
b100 b"
b100 j"
b10000 a"
b10000 i"
b10000 f"
b10000 k"
b10 c"
b10 h"
b110101011011011 1
b110101011011011 I"
b1111 %"
b1111 2"
b1001 #"
b1001 4"
0*"
1."
0,"
b11010110100010010001100001 3
b11010110100010010001100001 5"
b1100 g
b1100 h
b1101 f
b1101 i
b10 e
b10 j
b10001010111110101010101100000000 7
b10001010111110101010101100000000 n
b10011 F
b10011 G
b11110101 ?
b11110101 I
b110001 D
b110001 M
b11000110 B
b11000110 L
b11100010 E
b11100010 H
b101101010011000110111101 ;
b101101010011000110111101 N
b1000001010 -
b1000001010 `"
b1111100110 5
b1111100110 ""
b1100110110 9
b1100110110 `
b1001111100010 =
b1001111100010 >
b1011 W"
b1011 _"
b1011 /
b1011 V"
b110 (
b1000010110100000110101011010110101101000100100011000111111001100100010101111101010101010000000110011101011001001100011011110100100111110001 #
b1000010110100000110101011010110101101000100100011000111111001100100010101111101010101010000000110011101011001001100011011110100100111110001 *
b11101001000111011001010000101101 $
0"
#15000
b1000 &
1"
#16000
b1110100000011011111110110111000100xxx00000000111011111001000101100011110100111101001111010111010101110111111111010011011001111000010110111010000000000100010110 !
b1110100000011011111110110111000100xxx00000000111011111001000101100011110100111101001111010111010101110111111111010011011001111000010110111010000000000100010110 +
b11 c"
b11 h"
b100xxx0 0
b100xxx0 M"
b1101111100100010110 4
b1101111100100010110 &"
b1 2
b1 6"
b1 ;"
b1 ="
b1111010011110100111101 6
b1111010011110100111101 q
b100 K"
b100 U"
b100010 B"
b0 <"
b111010101110111111111 8
b111010101110111111111 c
b111101 s
b111101 }
b111101 u
b111101 !"
b111101 t
b111101 ~
b1001111000010110111010000000000100010110 <
b1001111000010110111010000000000100010110 C
b111010000001101111111011 ,
b111010000001101111111011 d"
b1001100 P"
b1001100 Q"
b11100110 O"
b11100110 R"
b1010 N"
b1010 S"
b10 ("
b10 0"
b1101 -"
b1101 /"
b10 $"
b10 3"
1+"
b1000110 :"
b1000110 >"
b1101111 H"
b101010 G"
b101001 9"
b101001 ?"
b1011 8"
b1011 @"
b10100 D"
b101100 C"
b10 7"
b10 A"
b1110111 a
b1110111 k
b1110101 d
b1110101 m
b111111 b
b111111 l
b111101 x
b111101 y
b10000000 w
b10000000 z
b11010100 v
b11010100 {
b11101001 r
b11101001 |
1p
1o
b1 A
b1 K
b10110 @
b10110 J
b10011101 [
b10011101 \
b110010 Z
b110010 ]
b10 Y
b10 ^
b1111 V
b1111 _
b11101000 b"
b11101000 j"
b11011 a"
b11011 i"
b11111011 f"
b11111011 k"
b11011101 e"
b11011101 g"
b1001100111001101010 1
b1001100111001101010 I"
b1101 %"
b1101 2"
b1111 #"
b1111 4"
1,"
b10001100010100100001011010 3
b10001100010100100001011010 5"
b111 g
b111 h
b101 f
b101 i
b11 e
b11 j
b11110110000000110101001110100111 7
b11110110000000110101001110100111 n
b11011010 F
b11011010 G
b10011110 ?
b10011110 I
b10110 D
b10110 M
b11101000 B
b11101000 L
b11000100 E
b11000100 H
b100111010011001000101111 ;
b100111010011001000101111 N
b11011101011 -
b11011101011 `"
b1101111111 5
b1101111111 ""
b111010111 9
b111010111 `
b1101101011000100 =
b1101101011000100 >
b1110 W"
b1110 _"
b1110 /
b1110 V"
b111 (
b11011010111001001100111011000100011000101001000010111011011111110111101100000001101010011010111011101111001101001100100010111111110101100010 #
b11011010111001001100111011000100011000101001000010111011011111110111101100000001101010011010111011101111001101001100100010111111110101100010 *
b1101010101100001000110110101110 $
0"
#17000
b1001 &
1"
