rewiring/large_test_seed0_50mut/cycle_0003/tb_top.vcd
$date
	Tue Nov  4 00:12:56 2025
$end
$version
	Icarus Verilog
$end
$timescale
	1ps
$end
$scope module tb_top $end
$var wire 159 ! out_flat [158:0] $end
$var reg 1 " clk $end
$var reg 138 # in_flat [137:0] $end
$var reg 32 $ rng_state [31:0] $end
$var reg 1 % rst_n $end
$var integer 32 & cyc [31:0] $end
$var integer 32 ' cycles [31:0] $end
$var integer 32 ( i [31:0] $end
$var integer 32 ) seed [31:0] $end
$scope module dut $end
$var wire 1 " clk $end
$var wire 138 * in_flat [137:0] $end
$var wire 1 % rst_n $end
$var wire 159 + out_flat [158:0] $end
$var wire 24 , const_shift_wrapper_out_flat [23:0] $end
$var wire 11 - const_shift_wrapper_in_flat [10:0] $end
$var wire 6 . const_reduce_wrapper_out_flat [5:0] $end
$var wire 4 / const_reduce_wrapper_in_flat [3:0] $end
$var wire 8 0 const_partselect_wrapper_out_flat [7:0] $end
$var wire 20 1 const_partselect_wrapper_in_flat [19:0] $end
$var wire 8 2 const_nested_wrapper_out_flat [7:0] $end
$var wire 27 3 const_nested_wrapper_in_flat [26:0] $end
$var wire 19 4 const_logic_wrapper_out_flat [18:0] $end
$var wire 10 5 const_logic_wrapper_in_flat [9:0] $end
$var wire 24 6 const_conditional_wrapper_out_flat [23:0] $end
$var wire 34 7 const_conditional_wrapper_in_flat [33:0] $end
$var wire 22 8 const_concat_repl_wrapper_out_flat [21:0] $end
$var wire 10 9 const_concat_repl_wrapper_in_flat [9:0] $end
$var wire 8 : const_compare_wrapper_out_flat [7:0] $end
$var wire 24 ; const_compare_wrapper_in_flat [23:0] $end
$var wire 40 < const_arith_wrapper_out_flat [39:0] $end
$var wire 16 = const_arith_wrapper_in_flat [15:0] $end
$scope module u_const_arith_wrapper $end
$var wire 16 > in_flat [15:0] $end
$var wire 8 ? sum_c [7:0] $end
$var wire 8 @ rem_c [7:0] $end
$var wire 8 A quot_c [7:0] $end
$var wire 8 B prod_c [7:0] $end
$var wire 40 C out_flat [39:0] $end
$var wire 8 D diff_c [7:0] $end
$var wire 8 E b [7:0] $end
$var wire 8 F a [7:0] $end
$scope module u_const_arith $end
$var wire 8 G a [7:0] $end
$var wire 8 H b [7:0] $end
$var wire 8 I sum_c [7:0] $end
$var wire 8 J rem_c [7:0] $end
$var wire 8 K quot_c [7:0] $end
$var wire 8 L prod_c [7:0] $end
$var wire 8 M diff_c [7:0] $end
$upscope $end
$upscope $end
$scope module u_const_compare_wrapper $end
$var wire 24 N in_flat [23:0] $end
$var wire 8 O out_flat [7:0] $end
$var wire 1 P neq_c $end
$var wire 1 Q lt_c $end
$var wire 1 R le_c $end
$var wire 1 S gt_c $end
$var wire 1 T ge_c $end
$var wire 1 U eq_c $end
$var wire 4 V d [3:0] $end
$var wire 1 W case_neq_c $end
$var wire 1 X case_eq_c $end
$var wire 4 Y c [3:0] $end
$var wire 8 Z b [7:0] $end
$var wire 8 [ a [7:0] $end
$scope module u_const_compare $end
$var wire 8 \ a [7:0] $end
$var wire 8 ] b [7:0] $end
$var wire 4 ^ c [3:0] $end
$var wire 4 _ d [3:0] $end
$var wire 1 P neq_c $end
$var wire 1 Q lt_c $end
$var wire 1 R le_c $end
$var wire 1 S gt_c $end
$var wire 1 T ge_c $end
$var wire 1 U eq_c $end
$var wire 1 W case_neq_c $end
$var wire 1 X case_eq_c $end
$upscope $end
$upscope $end
$scope module u_const_concat_repl_wrapper $end
$var wire 10 ` in_flat [9:0] $end
$var wire 8 a rep_c [7:0] $end
$var wire 6 b rep2_c [5:0] $end
$var wire 22 c out_flat [21:0] $end
$var wire 8 d cat_c [7:0] $end
$var wire 2 e c [1:0] $end
$var wire 4 f b [3:0] $end
$var wire 4 g a [3:0] $end
$scope module u_const_concat_repl $end
$var wire 4 h a [3:0] $end
$var wire 4 i b [3:0] $end
$var wire 2 j c [1:0] $end
$var wire 8 k rep_c [7:0] $end
$var wire 6 l rep2_c [5:0] $end
$var wire 8 m cat_c [7:0] $end
$upscope $end
$upscope $end
$scope module u_const_conditional_wrapper $end
$var wire 34 n in_flat [33:0] $end
$var wire 1 o sel2 $end
$var wire 1 p sel1 $end
$var wire 24 q out_flat [23:0] $end
$var wire 8 r d [7:0] $end
$var wire 8 s cond3_c [7:0] $end
$var wire 8 t cond2_c [7:0] $end
$var wire 8 u cond1_c [7:0] $end
$var wire 8 v c [7:0] $end
$var wire 8 w b [7:0] $end
$var wire 8 x a [7:0] $end
$scope module u_const_conditional $end
$var wire 8 y a [7:0] $end
$var wire 8 z b [7:0] $end
$var wire 8 { c [7:0] $end
$var wire 8 | d [7:0] $end
$var wire 1 p sel1 $end
$var wire 1 o sel2 $end
$var wire 8 } cond3_c [7:0] $end
$var wire 8 ~ cond2_c [7:0] $end
$var wire 8 !" cond1_c [7:0] $end
$upscope $end
$upscope $end
$scope module u_const_logic_wrapper $end
$var wire 10 "" in_flat [9:0] $end
$var wire 4 #" y [3:0] $end
$var wire 4 $" xor_c [3:0] $end
$var wire 4 %" x [3:0] $end
$var wire 19 &" out_flat [18:0] $end
$var wire 4 '" or_c [3:0] $end
$var wire 4 (" not_c [3:0] $end
$var wire 1 )" lor_c $end
$var wire 1 *" lnot_c $end
$var wire 1 +" land_c $end
$var wire 1 ," b $end
$var wire 4 -" and_c [3:0] $end
$var wire 1 ." a $end
$scope module u_const_logic $end
$var wire 1 ." a $end
$var wire 4 /" and_c [3:0] $end
$var wire 1 ," b $end
$var wire 1 +" land_c $end
$var wire 1 )" lor_c $end
$var wire 4 0" not_c [3:0] $end
$var wire 4 1" or_c [3:0] $end
$var wire 4 2" x [3:0] $end
$var wire 4 3" xor_c [3:0] $end
$var wire 4 4" y [3:0] $end
$var wire 1 *" lnot_c $end
$upscope $end
$upscope $end
$scope module u_const_nested_wrapper $end
$var wire 27 5" in_flat [26:0] $end
$var wire 8 6" out_flat [7:0] $end
$var wire 3 7" s [2:0] $end
$var wire 8 8" r [7:0] $end
$var wire 8 9" q [7:0] $end
$var wire 8 :" p [7:0] $end
$var wire 8 ;" nested_c [7:0] $end
$scope module u_const_nested $end
$var wire 8 <" and_part [7:0] $end
$var wire 8 =" nested_c [7:0] $end
$var wire 8 >" p [7:0] $end
$var wire 8 ?" q [7:0] $end
$var wire 8 @" r [7:0] $end
$var wire 3 A" s [2:0] $end
$var wire 8 B" xor_qr [7:0] $end
$var wire 8 C" shl_rs [7:0] $end
$var wire 8 D" mul_part [7:0] $end
$var wire 8 E" mod_part [7:0] $end
$var wire 8 F" div_part [7:0] $end
$var wire 8 G" denom [7:0] $end
$var wire 8 H" add_pq [7:0] $end
$upscope $end
$upscope $end
$scope module u_const_partselect_wrapper $end
$var wire 20 I" in_flat [19:0] $end
$var wire 3 J" sel2_c [2:0] $end
$var wire 4 K" sel1_c [3:0] $end
$var wire 1 L" ovf_range $end
$var wire 8 M" out_flat [7:0] $end
$var wire 4 N" idx [3:0] $end
$var wire 8 O" data2 [7:0] $end
$var wire 8 P" data1 [7:0] $end
$scope module u_const_partselect $end
$var wire 8 Q" data1 [7:0] $end
$var wire 8 R" data2 [7:0] $end
$var wire 4 S" idx [3:0] $end
$var wire 3 T" sel2_c [2:0] $end
$var wire 4 U" sel1_c [3:0] $end
$var wire 1 L" ovf_range $end
$upscope $end
$upscope $end
$scope module u_const_reduce_wrapper $end
$var wire 4 V" in_flat [3:0] $end
$var wire 4 W" in_vec [3:0] $end
$var wire 1 X" red_xor_c $end
$var wire 1 Y" red_xnor_c $end
$var wire 1 Z" red_or_c $end
$var wire 1 [" red_nor_c $end
$var wire 1 \" red_nand_c $end
$var wire 1 ]" red_and_c $end
$var wire 6 ^" out_flat [5:0] $end
$scope module u_const_reduce $end
$var wire 4 _" in_vec [3:0] $end
$var wire 1 X" red_xor_c $end
$var wire 1 Y" red_xnor_c $end
$var wire 1 Z" red_or_c $end
$var wire 1 [" red_nor_c $end
$var wire 1 \" red_nand_c $end
$var wire 1 ]" red_and_c $end
$upscope $end
$upscope $end
$scope module u_const_shift_wrapper $end
$var wire 11 `" in_flat [10:0] $end
$var wire 8 a" shr_c [7:0] $end
$var wire 8 b" shl_c [7:0] $end
$var wire 3 c" shift_amt [2:0] $end
$var wire 24 d" out_flat [23:0] $end
$var wire 8 e" data_in [7:0] $end
$var wire 8 f" ashr_c [7:0] $end
$scope module u_const_shift $end
$var wire 8 g" data_in [7:0] $end
$var wire 3 h" shift_amt [2:0] $end
$var wire 8 i" shr_c [7:0] $end
$var wire 8 j" shl_c [7:0] $end
$var wire 8 k" ashr_c [7:0] $end
$upscope $end
$upscope $end
$upscope $end
$upscope $end
$enddefinitions $end
$comment Show the parameter values. $end
$dumpall
$end
#0
$dumpvars
b101110 k"
b10111010 j"
b101110 i"
b1 h"
b1011101 g"
b101110 f"
b1011101 e"
b101110100010111000101110 d"
b1 c"
b10111010 b"
b101110 a"
b1011101001 `"
b0 _"
b111 ^"
0]"
1\"
1["
0Z"
1Y"
0X"
b0 W"
b0 V"
b101 U"
b11 T"
b101 S"
b1100001 R"
b1010011 Q"
b1010011 P"
b1100001 O"
b101 N"
b1010110 M"
0L"
b101 K"
b11 J"
b1010011011000010101 I"
b11010100 H"
b11100001 G"
b1 F"
b1 E"
b1101100 D"
b11001111 C"
b101111 B"
b0 A"
b11001111 @"
b11100000 ?"
b11110100 >"
b101101 ="
b101100 <"
b101101 ;"
b11110100 :"
b11100000 9"
b11001111 8"
b0 7"
b101101 6"
b111101001110000011001111000 5"
b1111 4"
b1011 3"
b100 2"
b1111 1"
b1011 0"
b100 /"
1."
b100 -"
0,"
0+"
0*"
1)"
b1011 ("
b1111 '"
b100111110111011010 &"
b100 %"
b1011 $"
b1111 #"
b100111110 ""
b100101 !"
b1001000 ~
b10011000 }
b111100 |
b1001000 {
b10011000 z
b100101 y
b100101 x
b10011000 w
b1001000 v
b100101 u
b1001000 t
b10011000 s
b111100 r
b1001010100100010011000 q
1p
0o
b10010110011000010010000011110010 n
b10101000 m
b10101 l
b10101010 k
b1 j
b1000 i
b1010 h
b1010 g
b1000 f
b1 e
b10101000 d
b1010100010101010010101 c
b10101 b
b10101010 a
b1010100001 `
b111 _
b101 ^
b10011000 ]
b10101 \
b10101 [
b10011000 Z
b101 Y
0X
1W
b111 V
0U
0T
0S
1R
1Q
1P
b1110001 O
b101011001100001010111 N
b101010 M
b1011 L
b0 K
b111 J
b11100100 I
b11011101 H
b111 G
b111 F
b11011101 E
b101010 D
b1110010000101010000010110000000000000111 C
b1011 B
b0 A
b111 @
b11100100 ?
b11111011101 >
b11111011101 =
b1110010000101010000010110000000000000111 <
b101011001100001010111 ;
b1110001 :
b1010100001 9
b1010100010101010010101 8
b10010110011000010010000011110010 7
b1001010100100010011000 6
b100111110 5
b100111110111011010 4
b111101001110000011001111000 3
b101101 2
b1010011011000010101 1
b1010110 0
b0 /
b111 .
b1011101001 -
b101110100010111000101110 ,
b101110100010111000101110000111010101100010110101001111101110110100010010101001000100110001010100010101010010101011100011110010000101010000010110000000000000111 +
b11110100101010011011000110111101001110000110011110000101111000100101100110000100100000111100100100010001010110110001010111000001111101101 *
b1111010000000100100001000000100 )
bx (
b1100100 '
b0 &
0%
b11110011010010010111000111101001 $
b11110100101010011011000110111101001110000110011110000101111000100101100110000100100000111100100100010001010110110001010111000001111101101 #
0"
b101110100010111000101110000111010101100010110101001111101110110100010010101001000100110001010100010101010010101011100011110010000101010000010110000000000000111 !
$end
#1000
b1 &
1"
#2000
b0 (
0"
#3000
b10 &
1"
#4000
b1xxxx01 :
b1xxxx01 O
xQ
xR
xS
xT
bx A
bx K
bx E"
bx F"
bx001 f
bx001 i
b10111100001110111111101101x10x1011xxx0xxxxxxxx001x1111110x000x010011011000110110001101100x001x001x001x00110101001xxxx01xxxxxxxxxxxxxxxxxxxxxxxxxxxxxxxxxxxxxxxx !
b10111100001110111111101101x10x1011xxx0xxxxxxxx001x1111110x000x010011011000110110001101100x001x001x001x00110101001xxxx01xxxxxxxxxxxxxxxxxxxxxxxxxxxxxxxxxxxxxxxx +
b1x10x .
b1x10x ^"
1Z"
xX"
0["
xY"
b1x0 W"
b1x0 _"
b1x0 /
b1x0 V"
b1011xxx0 0
b1011xxx0 M"
b1x1111110x000x010 4
b1x1111110x000x010 &"
bx 2
bx 6"
bx ;"
bx ="
b11011000110110001101100 6
b11011000110110001101100 q
b1011 K"
b1011 U"
bx J"
bx T"
b11110011 B"
bx00xx <"
bx001x001x001x001101010 8
bx001x001x001x001101010 c
b1101100 u
b1101100 !"
b1101100 s
b1101100 }
b1101100 t
b1101100 ~
bx <
bx C
b101111000011101111111011 ,
b101111000011101111111011 d"
b10110111 P"
b10110111 Q"
b111101 O"
b111101 R"
b1001 N"
b1001 S"
b0x ("
b0x 0"
b1x -"
b1x /"
b110x $"
b110x 3"
bx0000111 :"
bx0000111 >"
bx H"
b1001100 G"
b1001011 9"
b1001011 ?"
b10111000 8"
b10111000 @"
bx D"
b11100000 C"
b10 7"
b10 A"
bx001x001 d
bx001x001 m
bx001x001 a
bx001x001 k
b101010 b
b101010 l
b1101100 x
b1101100 y
b11100011 w
b11100011 z
b10010111 v
b10010111 {
b10011111 r
b10011111 |
1o
bx @
bx J
b1111001 [
b1111001 \
b11x01000 Z
b11x01000 ]
b110 Y
b110 ^
b1 V
b1 _
b11101111 e"
b11101111 g"
b10111100 b"
b10111100 j"
b111011 a"
b111011 i"
b11111011 f"
b11111011 k"
b10 c"
b10 h"
b10110111001111011001 1
b10110111001111011001 I"
b111x %"
b111x 2"
b11 #"
b11 4"
bx00001110100101110111000010 3
bx00001110100101110111000010 5"
bx001 g
bx001 h
b10 e
b10 j
b110110011100011100101111001111111 7
b110110011100011100101111001111111 n
b1011100 F
b1011100 G
bx ?
bx I
bx D
bx M
bx B
bx L
b110x1110 E
b110x1110 H
b111100111x0100001100001 ;
b111100111x0100001100001 N
b11101111010 -
b11101111010 `"
b111x001110 5
b111x001110 ""
bx001x00110 9
bx001x00110 `
b1011100110x1110 =
b1011100110x1110 >
b1 (
b110111101010110111001111100100001110100101101110000101110111001101100111000111001011110011111110010000111100111010001100001010111001101110 #
b110111101010110111001111100100001110100101101110000101110111001101100111000111001011110011111110010000111100111010001100001010111001101110 *
b110100101111010100001101111010 $
0"
1%
#5000
b11 &
1"
#6000
b1110001 :
b1110001 O
1Q
1R
0S
0T
b111100111100011011110100000000000101110 <
b111100111100011011110100000000000101110 C
b0 A
b0 K
b101110 @
b101110 J
b1111001 ?
b1111001 I
b11100011 D
b11100011 M
b1111010 B
b1111010 L
b11100 .
b11100 ^"
1X"
0Y"
b0 2
b0 6"
b0 ;"
b0 ="
b0 E"
b0 F"
b0 D"
b11000111 H"
b100 J"
b100 T"
b111111111011100001110000000000010001011001101001100000101110111010101010011111010011111111101010011100010111100111100011011110100000000000101110 !
b111111111011100001110000000000010001011001101001100000101110111010101010011111010011111111101010011100010111100111100011011110100000000000101110 +
b1000 W"
b1000 _"
b1000 /
b1000 V"
b111000 0
b111000 M"
b1000101100110100110 4
b1000101100110100110 &"
b0 <"
b10111011101010101001 6
b10111011101010101001 q
b11 K"
b11 U"
b1101101 B"
b1111010011111111101010 8
b1111010011111111101010 c
b10101001 s
b10101001 }
b1011 u
b1011 !"
b10111010 t
b10111010 ~
b111111111 ,
b111111111 d"
b111100 P"
b111100 Q"
b1001100 O"
b1001100 R"
b0 N"
b0 S"
b100 ("
b100 0"
b1000 -"
b1000 /"
b1011 '"
b1011 1"
b11 $"
b11 3"
1+"
b111010 :"
b111010 >"
b10001110 G"
b10001101 9"
b10001101 ?"
b11100000 8"
b11100000 @"
b0 C"
b111 7"
b111 A"
b11111111 a
b11111111 k
b11110100 d
b11110100 m
b10101001 x
b10101001 y
b1011 w
b1011 z
b10111010 v
b10111010 {
b1000001 r
b1000001 |
0p
0o
b1000010 [
b1000010 \
b1100111 Z
b1100111 ]
b0 Y
b0 ^
b10 V
b10 _
b11000000 e"
b11000000 g"
b0 b"
b0 j"
b1 a"
b1 i"
b11111111 f"
b11111111 k"
b111 c"
b111 h"
b111100010011000000 1
b111100010011000000 I"
b1011 %"
b1011 2"
b1000 #"
b1000 4"
1,"
b1110101000110111100000111 3
b1110101000110111100000111 5"
b1111 g
b1111 h
b100 f
b100 i
b1010100100001011101110100100000100 7
b1010100100001011101110100100000100 n
b101110 F
b101110 G
b1001011 E
b1001011 H
b10000100110011100000010 ;
b10000100110011100000010 N
b11000000111 -
b11000000111 `"
b1011100011 5
b1011100011 ""
b1111010010 9
b1111010010 `
b10111001001011 =
b10111001001011 >
b10 (
b110000011100111100010011000001110101000110111000001111010001110101001000010111011101001000001001111000100001001001100000010001011100101011 #
b110000011100111100010011000001110101000110111000001111010001110101001000010111011101001000001001111000100001001001100000010001011100101011 *
b1000111011101111111101100000111 $
0"
#7000
b100 &
1"
#8000
b1 2
b1 6"
b1 ;"
b1 ="
b1 E"
b1 F"
1L"
b110101001101010011010100011100011100010000000110001111011100010101001001111001100001111100010001000100010000000010011011100110000000100101000000000000100000100 !
b110101001101010011010100011100011100010000000110001111011100010101001001111001100001111100010001000100010000000010011011100110000000100101000000000000100000100 +
b0 b
b0 l
b0 e
b0 j
b100 W"
b100 _"
b100 /
b100 V"
b1110001 0
b1110001 M"
b1000111101110001010 4
b1000111101110001010 &"
b100100111100110000111110 6
b100100111100110000111110 q
b1001101 :
b1001101 O
b111 K"
b111 U"
b0 J"
b0 T"
b11010 B"
b10001000100010000000 8
b10001000100010000000 c
b111110 s
b111110 }
b10010011 u
b10010011 !"
b11001100 t
b11001100 ~
b1100110000000100101000000000000100000100 <
b1100110000000100101000000000000100000100 C
b110101001101010011010100 ,
b110101001101010011010100 d"
b1111111 P"
b1111111 Q"
b1111 O"
b1111 R"
b1101 N"
b1101 S"
b1 ("
b1 0"
b1000 -"
b1000 /"
b1111 '"
b1111 1"
b111 $"
b111 3"
0+"
b10000001 :"
b10000001 >"
b11001000 H"
b1001000 G"
b1000111 9"
b1000111 ?"
b10000000 D"
b11010000 C"
b1011101 8"
b1011101 @"
b100 7"
b100 A"
b100010 a
b100010 k
b100010 d
b100010 m
b111110 x
b111110 y
b10010011 w
b10010011 z
b11001100 v
b11001100 {
b10010 r
b10010 |
b1 A
b1 K
b100 @
b100 J
0Q
0R
1S
1T
b11101111 [
b11101111 \
b1001001 Z
b1001001 ]
b1111 Y
b1111 ^
b1000 V
b1000 _
b11010100 e"
b11010100 g"
b11010100 b"
b11010100 j"
b11010100 a"
b11010100 i"
b11010100 f"
b11010100 k"
b0 c"
b0 h"
b1111111000011111101 1
b1111111000011111101 I"
b1110 %"
b1110 2"
b1001 #"
b1001 4"
0,"
b100000010100011101011101100 3
b100000010100011101011101100 5"
b10 g
b10 h
b10 f
b10 i
b11111010010011110011000001001000 7
b11111010010011110011000001001000 n
b1101000 F
b1101000 G
b11001100 ?
b11001100 I
b100 D
b100 M
b10100000 B
b10100000 L
b1100100 E
b1100100 H
b111011110100100111111000 ;
b111011110100100111111000 N
b11010100000 -
b11010100000 `"
b1110100110 5
b1110100110 ""
b10001000 9
b10001000 `
b110100001100100 =
b110100001100100 >
b11 (
b111010000001111111000011110100000010100011010111011001110011000111110100100111100110000010010000100101110111101010111111000011010000110100 #
b111010000001111111000011110100000010100011010111011001110011000111110100100111100110000010010000100101110111101010111111000011010000110100 *
b100000010000100101111110100000 $
0"
#9000
b101 &
1"
#10000
b1001101 :
b1001101 O
0Q
0R
1S
1T
b11100 .
b11100 ^"
1X"
0Y"
b1 E"
b1 F"
b101010 b
b101010 l
b10 e
b10 j
b0 J"
b0 T"
1L"
b10000000000000100000001011100111000010101000101001110101010110101111110111111101111111011111000011111111101010010011011111011110100101011111100000000001001110 !
b10000000000000100000001011100111000010101000101001110101010110101111110111111101111111011111000011111111101010010011011111011110100101011111100000000001001110 +
b1000 W"
b1000 _"
b1000 /
b1000 V"
b11100001 0
b11100001 M"
b100111010101011010 4
b100111010101011010 &"
b1010001 2
b1010001 6"
b1010001 ;"
b1010001 ="
b111111011111110111111101 6
b111111011111110111111101 q
b1110 K"
b1110 U"
b1111100 B"
b1010000 <"
b1111000011111111101010 8
b1111000011111111101010 c
b11111101 u
b11111101 !"
b11111101 s
b11111101 }
b11111101 t
b11111101 ~
b1111011110100101011111100000000001001110 <
b1111011110100101011111100000000001001110 C
b10000000000000100000001 ,
b10000000000000100000001 d"
b11100101 P"
b11100101 Q"
b11111100 O"
b11111100 R"
b1111 N"
b1111 S"
b1011 ("
b1011 0"
b100 -"
b100 /"
b1110 '"
b1110 1"
b1010 $"
b1010 3"
b10101011 :"
b10101011 >"
b1000100 H"
b10011010 G"
b10011001 9"
b10011001 ?"
b11100101 8"
b11100101 @"
b1010000 D"
b10010100 C"
b10 7"
b10 A"
b11111111 a
b11111111 k
b11110000 d
b11110000 m
b11111 x
b11111 y
b11111101 w
b11111101 z
b11111110 v
b11111110 {
b11011100 r
b11011100 |
1o
b0 A
b0 K
b1001110 @
b1001110 J
b11110100 [
b11110100 \
b1101100 Z
b1101100 ]
b100 Y
b100 ^
b1011 V
b1011 _
b100010 e"
b100010 g"
b1000000 b"
b1000000 j"
b1 a"
b1 i"
b1 f"
b1 k"
b101 c"
b101 h"
b11100101111111001111 1
b11100101111111001111 I"
b100 %"
b100 2"
b1110 #"
b1110 4"
b101010111001100111100101010 3
b101010111001100111100101010 5"
b1111 g
b1111 h
b0 f
b0 i
b1111111111101111111101101110001 7
b1111111111101111111101101110001 n
b1001110 F
b1001110 G
b11110111 ?
b11110111 I
b10100101 D
b10100101 M
b1111110 B
b1111110 L
b10101001 E
b10101001 H
b111101000110110001001011 ;
b111101000110110001001011 N
b100010101 -
b100010101 `"
b100111010 5
b100111010 ""
b1111000010 9
b1111000010 `
b100111010101001 =
b100111010101001 >
b100 (
b1010111100101111111011101010111001100111001010100101101000011111111111011111111011011100011110001111010001011001001011010011101011001 #
b1010111100101111111011101010111001100111001010100101101000011111111111011111111011011100011110001111010001011001001011010011101011001 *
b1101100000000000110000000010101 $
0"
#11000
b110 &
1"
#12000
bx000 f
bx000 i
bx1 J"
bx1 T"
0L"
b111 N"
b111 S"
b1000000000000011111111110xx1xx1111xx10xxxxxxxx000x1101110x001x001110000001000100000010101x001x000x001x00110101001xxxx01xxxxxxxxxxxxxxxxxxxxxxxxxxxxxxxxxxxxxxxx !
b1000000000000011111111110xx1xx1111xx10xxxxxxxx000x1101110x001x001110000001000100000010101x001x000x001x00110101001xxxx01xxxxxxxxxxxxxxxxxxxxxxxxxxxxxxxxxxxxxxxx +
b0xx1xx .
b0xx1xx ^"
xZ"
xX"
x["
xY"
b0x0 W"
b0x0 _"
b0x0 /
b0x0 V"
b1111xx10 0
b1111xx10 M"
bx 2
bx 6"
bx ;"
bx ="
b110000001000100000010101 6
b110000001000100000010101 q
b1xxxx01 :
b1xxxx01 O
b1111 K"
b1111 U"
b0x1101110x001x001 4
b0x1101110x001x001 &"
bx E"
bx F"
b10010110 B"
bx00x0xx0 <"
bx001x000x001x001101010 8
bx001x000x001x001101010 c
b11000000 u
b11000000 !"
b10101 s
b10101 }
b10001000 t
b10001000 ~
bx <
bx C
b100000000000001111111111 ,
b100000000000001111111111 d"
b11111000 P"
b11111000 Q"
b10010001 O"
b10010001 R"
b1x ("
b1x 0"
b0x -"
b0x /"
b1101 '"
b1101 1"
b110x $"
b110x 3"
0)"
bx1010001 :"
bx1010001 >"
bx H"
b100011 G"
b100010 9"
b100010 ?"
b10110100 8"
b10110100 @"
bx D"
b10110100 C"
b0 7"
b0 A"
bx001x000 d
bx001x000 m
bx001x001 a
bx001x001 k
b10101 x
b10101 y
b11000000 w
b11000000 z
b10001000 v
b10001000 {
b11010001 r
b11010001 |
0o
bx A
bx K
bx @
bx J
b11011101 [
b11011101 \
xQ
xR
xS
xT
b11x11001 Z
b11x11001 ]
b101 Y
b101 ^
b1010 V
b1010 _
b11011110 e"
b11011110 g"
b10000000 b"
b10000000 j"
b11 a"
b11 i"
b11111111 f"
b11111111 k"
b110 c"
b110 h"
b11111000100100010111 1
b11111000100100010111 I"
b110x %"
b110x 2"
b1 #"
b1 4"
1*"
0."
bx10100010010001010110100000 3
bx10100010010001010110100000 5"
bx001 g
bx001 h
b1010111000000100010001101000100 7
b1010111000000100010001101000100 n
b11111110 F
b11111110 G
bx ?
bx I
bx D
bx M
bx B
bx L
b10x1010 E
b10x1010 H
b1101110111x1100101011010 ;
b1101110111x1100101011010 N
b11011110110 -
b11011110110 `"
b110x000100 5
b110x000100 ""
bx001x00010 9
bx001x00010 `
b11111110010x1010 =
b11111110010x1010 >
b101 (
b111111011011111000100100111110100010010001101101000001100010000010101110000001000100011010001000010001101110111110101011010111111100101010 #
b111111011011111000100100111110100010010001101101000001100010000010101110000001000100011010001000010001101110111110101011010111111100101010 *
b10011000111111000110001111110110 $
0"
#13000
b111 &
1"
#14000
b1110001 :
b1110001 O
1Q
1R
0S
0T
b100111010000000111100010000000001100111 <
b100111010000000111100010000000001100111 C
b0 A
b0 K
b1100111 @
b1100111 J
b1001110 ?
b1001110 I
b10000000 D
b10000000 M
b11110001 B
b11110001 L
b111 .
b111 ^"
0Z"
0X"
1["
1Y"
b0 W"
b0 _"
b0 /
b0 V"
b0 2
b0 6"
b0 ;"
b0 ="
b0 E"
b11000 F"
b0 D"
b10011000 H"
b1100 $"
b1100 3"
b100100000000011000000110000111010000000000000000101110110000011101110011010101001111001100010001100100010010101011100010100111010000000111100010000000001100111 !
b100100000000011000000110000111010000000000000000101110110000011101110011010101001111001100010001100100010010101011100010100111010000000111100010000000001100111 +
b1000000 0
b1000000 M"
b0 <"
b111001101010100111100110 6
b111001101010100111100110 q
b100 K"
b100 U"
b0 J"
b0 T"
b10111011000001110 4
b10111011000001110 &"
b11111100 B"
b10001100100010010101 8
b10001100100010010101 c
b11100110 s
b11100110 }
b10101001 t
b10101001 ~
b11100110 u
b11100110 !"
b100100000000011000000110 ,
b100100000000011000000110 d"
b1000000 P"
b1000000 Q"
b10000001 O"
b10000001 R"
b11 N"
b11 S"
b1 ("
b1 0"
b10 -"
b10 /"
b1110 '"
b1110 1"
1+"
1)"
b10010011 :"
b10010011 >"
b110 G"
b101 9"
b101 ?"
b11111001 8"
b11111001 @"
b10000000 C"
b111 7"
b111 A"
b100010 a
b100010 k
b100011 d
b100011 m
b10101 b
b10101 l
b11100110 x
b11100110 y
b1101000 w
b1101000 z
b10101001 v
b10101001 {
b1111000 r
b1111000 |
1p
b100110 [
b100110 \
b10000000 Z
b10000000 ]
b1111 V
b1111 _
b110010 e"
b110010 g"
b10010000 b"
b10010000 j"
b110 a"
b110 i"
b110 f"
b110 k"
b11 c"
b11 h"
b1000000100000010011 1
b1000000100000010011 I"
b1110 %"
b1110 2"
b10 #"
b10 4"
0*"
1."
1,"
b100100110000010111111001111 3
b100100110000010111111001111 5"
b10 g
b10 h
b11 f
b11 i
b1 e
b1 j
b1110011001101000101010010111100010 7
b1110011001101000101010010111100010 n
b1100111 F
b1100111 G
b11100111 E
b11100111 H
b1001101000000001011111 ;
b1001101000000001011111 N
b110010011 -
b110010011 `"
b1110001011 5
b1110001011 ""
b10001101 9
b10001101 `
b110011111100111 =
b110011111100111 >
b110 (
b1001001101000000100000101100100110000010111110011111110101111100110011010001010100101111000100100110010011010000001011111011001111110111 #
b1001001101000000100000101100100110000010111110011111110101111100110011010001010100101111000100100110010011010000001011111011001111110111 *
b101101101000011001100010010011 $
0"
#15000
b1000 &
1"
