rewiring/dual_bug_hunt_1/cycle_0000/tb_top.vcd
$date
	Mon Sep 22 02:29:12 2025
$end
$version
	Icarus Verilog
$end
$timescale
	1ps
$end
$scope module tb_top $end
$var wire 159 ! out_flat [158:0] $end
$var reg 1 " clk $end
$var reg 137 # in_flat [136:0] $end
$var reg 32 $ rng_state [31:0] $end
$var reg 1 % rst_n $end
$var integer 32 & cyc [31:0] $end
$var integer 32 ' cycles [31:0] $end
$var integer 32 ( i [31:0] $end
$var integer 32 ) seed [31:0] $end
$scope module dut $end
$var wire 1 " clk $end
$var wire 137 * in_flat [136:0] $end
$var wire 1 % rst_n $end
$var wire 159 + out_flat [158:0] $end
$var wire 24 , const_shift_wrapper_out_flat [23:0] $end
$var wire 11 - const_shift_wrapper_in_flat [10:0] $end
$var wire 6 . const_reduce_wrapper_out_flat [5:0] $end
$var wire 4 / const_reduce_wrapper_in_flat [3:0] $end
$var wire 8 0 const_partselect_wrapper_out_flat [7:0] $end
$var wire 20 1 const_partselect_wrapper_in_flat [19:0] $end
$var wire 8 2 const_nested_wrapper_out_flat [7:0] $end
$var wire 27 3 const_nested_wrapper_in_flat [26:0] $end
$var wire 19 4 const_logic_wrapper_out_flat [18:0] $end
$var wire 10 5 const_logic_wrapper_in_flat [9:0] $end
$var wire 24 6 const_conditional_wrapper_out_flat [23:0] $end
$var wire 34 7 const_conditional_wrapper_in_flat [33:0] $end
$var wire 22 8 const_concat_repl_wrapper_out_flat [21:0] $end
$var wire 10 9 const_concat_repl_wrapper_in_flat [9:0] $end
$var wire 8 : const_compare_wrapper_out_flat [7:0] $end
$var wire 24 ; const_compare_wrapper_in_flat [23:0] $end
$var wire 40 < const_arith_wrapper_out_flat [39:0] $end
$var wire 16 = const_arith_wrapper_in_flat [15:0] $end
$scope module u_const_arith_wrapper $end
$var wire 16 > in_flat [15:0] $end
$var wire 8 ? sum_c [7:0] $end
$var wire 8 @ rem_c [7:0] $end
$var wire 8 A quot_c [7:0] $end
$var wire 8 B prod_c [7:0] $end
$var wire 40 C out_flat [39:0] $end
$var wire 8 D diff_c [7:0] $end
$var wire 8 E b [7:0] $end
$var wire 8 F a [7:0] $end
$scope module u_const_arith $end
$var wire 8 G a [7:0] $end
$var wire 8 H b [7:0] $end
$var wire 8 I sum_c [7:0] $end
$var wire 8 J rem_c [7:0] $end
$var wire 8 K quot_c [7:0] $end
$var wire 8 L prod_c [7:0] $end
$var wire 8 M diff_c [7:0] $end
$upscope $end
$upscope $end
$scope module u_const_compare_wrapper $end
$var wire 24 N in_flat [23:0] $end
$var wire 8 O out_flat [7:0] $end
$var wire 1 P neq_c $end
$var wire 1 Q lt_c $end
$var wire 1 R le_c $end
$var wire 1 S gt_c $end
$var wire 1 T ge_c $end
$var wire 1 U eq_c $end
$var wire 4 V d [3:0] $end
$var wire 1 W case_neq_c $end
$var wire 1 X case_eq_c $end
$var wire 4 Y c [3:0] $end
$var wire 8 Z b [7:0] $end
$var wire 8 [ a [7:0] $end
$scope module u_const_compare $end
$var wire 8 \ a [7:0] $end
$var wire 8 ] b [7:0] $end
$var wire 4 ^ c [3:0] $end
$var wire 4 _ d [3:0] $end
$var wire 1 P neq_c $end
$var wire 1 Q lt_c $end
$var wire 1 R le_c $end
$var wire 1 S gt_c $end
$var wire 1 T ge_c $end
$var wire 1 U eq_c $end
$var wire 1 W case_neq_c $end
$var wire 1 X case_eq_c $end
$upscope $end
$upscope $end
$scope module u_const_concat_repl_wrapper $end
$var wire 10 ` in_flat [9:0] $end
$var wire 8 a rep_c [7:0] $end
$var wire 6 b rep2_c [5:0] $end
$var wire 22 c out_flat [21:0] $end
$var wire 8 d cat_c [7:0] $end
$var wire 2 e c [1:0] $end
$var wire 4 f b [3:0] $end
$var wire 4 g a [3:0] $end
$scope module u_const_concat_repl $end
$var wire 4 h a [3:0] $end
$var wire 4 i b [3:0] $end
$var wire 2 j c [1:0] $end
$var wire 8 k rep_c [7:0] $end
$var wire 6 l rep2_c [5:0] $end
$var wire 8 m cat_c [7:0] $end
$upscope $end
$upscope $end
$scope module u_const_conditional_wrapper $end
$var wire 34 n in_flat [33:0] $end
$var wire 1 o sel2 $end
$var wire 1 p sel1 $end
$var wire 24 q out_flat [23:0] $end
$var wire 8 r d [7:0] $end
$var wire 8 s cond3_c [7:0] $end
$var wire 8 t cond2_c [7:0] $end
$var wire 8 u cond1_c [7:0] $end
$var wire 8 v c [7:0] $end
$var wire 8 w b [7:0] $end
$var wire 8 x a [7:0] $end
$scope module u_const_conditional $end
$var wire 8 y a [7:0] $end
$var wire 8 z b [7:0] $end
$var wire 8 { c [7:0] $end
$var wire 8 | d [7:0] $end
$var wire 1 p sel1 $end
$var wire 1 o sel2 $end
$var wire 8 } cond3_c [7:0] $end
$var wire 8 ~ cond2_c [7:0] $end
$var wire 8 !" cond1_c [7:0] $end
$upscope $end
$upscope $end
$scope module u_const_logic_wrapper $end
$var wire 10 "" in_flat [9:0] $end
$var wire 4 #" y [3:0] $end
$var wire 4 $" xor_c [3:0] $end
$var wire 4 %" x [3:0] $end
$var wire 19 &" out_flat [18:0] $end
$var wire 4 '" or_c [3:0] $end
$var wire 4 (" not_c [3:0] $end
$var wire 1 )" lor_c $end
$var wire 1 *" lnot_c $end
$var wire 1 +" land_c $end
$var wire 1 ," b $end
$var wire 4 -" and_c [3:0] $end
$var wire 1 ." a $end
$scope module u_const_logic $end
$var wire 1 ." a $end
$var wire 4 /" and_c [3:0] $end
$var wire 1 ," b $end
$var wire 1 +" land_c $end
$var wire 1 )" lor_c $end
$var wire 4 0" not_c [3:0] $end
$var wire 4 1" or_c [3:0] $end
$var wire 4 2" x [3:0] $end
$var wire 4 3" xor_c [3:0] $end
$var wire 4 4" y [3:0] $end
$var wire 1 *" lnot_c $end
$upscope $end
$upscope $end
$scope module u_const_nested_wrapper $end
$var wire 27 5" in_flat [26:0] $end
$var wire 8 6" out_flat [7:0] $end
$var wire 3 7" s [2:0] $end
$var wire 8 8" r [7:0] $end
$var wire 8 9" q [7:0] $end
$var wire 8 :" p [7:0] $end
$var wire 8 ;" nested_c [7:0] $end
$scope module u_const_nested $end
$var wire 8 <" and_part [7:0] $end
$var wire 8 =" nested_c [7:0] $end
$var wire 8 >" p [7:0] $end
$var wire 8 ?" q [7:0] $end
$var wire 8 @" r [7:0] $end
$var wire 3 A" s [2:0] $end
$var wire 8 B" xor_qr [7:0] $end
$var wire 8 C" shl_rs [7:0] $end
$var wire 8 D" mul_part [7:0] $end
$var wire 8 E" mod_part [7:0] $end
$var wire 8 F" div_part [7:0] $end
$var wire 8 G" denom [7:0] $end
$var wire 8 H" add_pq [7:0] $end
$upscope $end
$upscope $end
$scope module u_const_partselect_wrapper $end
$var wire 20 I" in_flat [19:0] $end
$var wire 3 J" sel2_c [2:0] $end
$var wire 4 K" sel1_c [3:0] $end
$var wire 1 L" ovf_range $end
$var wire 8 M" out_flat [7:0] $end
$var wire 4 N" idx [3:0] $end
$var wire 8 O" data2 [7:0] $end
$var wire 8 P" data1 [7:0] $end
$scope module u_const_partselect $end
$var wire 8 Q" data1 [7:0] $end
$var wire 8 R" data2 [7:0] $end
$var wire 4 S" idx [3:0] $end
$var wire 3 T" sel2_c [2:0] $end
$var wire 4 U" sel1_c [3:0] $end
$var wire 1 L" ovf_range $end
$upscope $end
$upscope $end
$scope module u_const_reduce_wrapper $end
$var wire 4 V" in_flat [3:0] $end
$var wire 4 W" in_vec [3:0] $end
$var wire 1 X" red_xor_c $end
$var wire 1 Y" red_xnor_c $end
$var wire 1 Z" red_or_c $end
$var wire 1 [" red_nor_c $end
$var wire 1 \" red_nand_c $end
$var wire 1 ]" red_and_c $end
$var wire 6 ^" out_flat [5:0] $end
$scope module u_const_reduce $end
$var wire 4 _" in_vec [3:0] $end
$var wire 1 X" red_xor_c $end
$var wire 1 Y" red_xnor_c $end
$var wire 1 Z" red_or_c $end
$var wire 1 [" red_nor_c $end
$var wire 1 \" red_nand_c $end
$var wire 1 ]" red_and_c $end
$upscope $end
$upscope $end
$scope module u_const_shift_wrapper $end
$var wire 11 `" in_flat [10:0] $end
$var wire 8 a" shr_c [7:0] $end
$var wire 8 b" shl_c [7:0] $end
$var wire 3 c" shift_amt [2:0] $end
$var wire 24 d" out_flat [23:0] $end
$var wire 8 e" data_in [7:0] $end
$var wire 8 f" ashr_c [7:0] $end
$scope module u_const_shift $end
$var wire 8 g" data_in [7:0] $end
$var wire 3 h" shift_amt [2:0] $end
$var wire 8 i" shr_c [7:0] $end
$var wire 8 j" shl_c [7:0] $end
$var wire 8 k" ashr_c [7:0] $end
$upscope $end
$upscope $end
$upscope $end
$upscope $end
$enddefinitions $end
$comment Show the parameter values. $end
$dumpall
$end
#0
$dumpvars
b1 k"
b0 j"
b1 i"
b101 h"
b101000 g"
b1 f"
b101000 e"
b100000001 d"
b101 c"
b0 b"
b1 a"
b101000101 `"
b1 _"
b11100 ^"
0]"
1\"
0["
1Z"
0Y"
1X"
b1 W"
b1 V"
b10 U"
b111 T"
b101 S"
b11110010 R"
b101101 Q"
b101101 P"
b11110010 O"
b101 N"
b101110 M"
0L"
b10 K"
b111 J"
b101101111100100101 I"
b10111111 H"
b111011 G"
b10 F"
b10 E"
b10000000 D"
b10000000 C"
b110001 B"
b111 A"
b1011 @"
b111010 ?"
b10000101 >"
b10 ="
b0 <"
b10 ;"
b10000101 :"
b111010 9"
b1011 8"
b111 7"
b10 6"
b100001010011101000001011111 5"
b0 4"
b10 3"
b10 2"
b10 1"
b1101 0"
b0 /"
0."
b0 -"
0,"
0+"
1*"
0)"
b1101 ("
b10 '"
b1000101101001 &"
b10 %"
b10 $"
b0 #"
b10000000 ""
b110010 !"
b11111110 ~
b110010 }
b1100111 |
b11111110 {
b11010001 z
b110010 y
b110010 x
b11010001 w
b11111110 v
b110010 u
b11111110 t
b110010 s
b1100111 r
b1100101111111000110010 q
1p
0o
b11001011010001111111100110011110 n
b1011100 m
b0 l
b1010101 k
b0 j
b1100 i
b101 h
b101 g
b1100 f
b0 e
b1011100 d
b101110001010101000000 c
b0 b
b1010101 a
b101110000 `
b100 _
b1100 ^
b10101001 ]
b1111111 \
b1111111 [
b10101001 Z
b1100 Y
0X
1W
b100 V
0U
0T
0S
1R
1Q
1P
b1110001 O
b11111111010100111000100 N
b10110101 M
b101010 L
b0 K
b1000011 J
b11010001 I
b10001110 H
b1000011 G
b1000011 F
b10001110 E
b10110101 D
b1101000110110101001010100000000001000011 C
b101010 B
b0 A
b1000011 @
b11010001 ?
b100001110001110 >
b100001110001110 =
b1101000110110101001010100000000001000011 <
b11111111010100111000100 ;
b1110001 :
b101110000 9
b101110001010101000000 8
b11001011010001111111100110011110 7
b1100101111111000110010 6
b10000000 5
b1000101101001 4
b100001010011101000001011111 3
b10 2
b101101111100100101 1
b101110 0
b1 /
b11100 .
b101000101 -
b100000001 ,
b100000001011100001011100000001000000010001011010010011001011111110001100100101110001010101000000011100011101000110110101001010100000000001000011 +
b101001001001011011111000111000011011101000001011110000000001100101101000111111110011001111001011000011111111010011100010010000111000110 *
b100001001100001011101110100001 )
bx (
b11001000 '
b0 &
0%
b1110110010011011001010001010010 $
b101001001001011011111000111000011011101000001011110000000001100101101000111111110011001111001011000011111111010011100010010000111000110 #
0"
b100000001011100001011100000001000000010001011010010011001011111110001100100101110001010101000000011100011101000110110101001010100000000001000011 !
$end
#1000
b1 &
1"
#2000
b0 (
0"
#3000
b10 &
1"
#4000
b1110000000000001000000011100011001xxx000000000000011x011x001x10010110010000010011111101110000000000000000101010011100011110101101100001101111100000001000011100 !
b1110000000000001000000011100011001xxx000000000000011x011x001x10010110010000010011111101110000000000000000101010011100011110101101100001101111100000001000011100 +
b110001 .
b110001 ^"
1]"
0X"
0\"
1Y"
b1001xxx0 0
b1001xxx0 M"
b11x011x001x1001 4
b11x011x001x1001 &"
b0 2
b0 6"
b0 ;"
b0 ="
b0 <"
b11001000001001111110111 6
b11001000001001111110111 q
b1001 K"
b1001 U"
bx J"
bx T"
b0 E"
b0 F"
b11100 B"
b101010 8
b101010 c
b11110111 s
b11110111 }
b10011 t
b10011 ~
b1100100 u
b1100100 !"
b1110101101100001101111100000001000011100 <
b1110101101100001101111100000001000011100 C
b111000000000000100000001 ,
b111000000000000100000001 d"
b10010000 P"
b10010000 Q"
b110000 O"
b110000 R"
b1001 N"
b1001 S"
b1x1 ("
b1x1 0"
b11x0 '"
b11x0 1"
b11x0 $"
b11x0 3"
b11110 :"
b11110 >"
b10011011 H"
b1111110 G"
b1111101 9"
b1111101 ?"
b1100001 8"
b1100001 @"
b11000000 D"
b1000000 C"
b110 7"
b110 A"
b0 a
b0 k
b0 d
b0 m
b101010 b
b101010 l
b11110111 x
b11110111 y
b1100100 w
b1100100 z
b10011 v
b10011 {
b101101 r
b101101 |
0p
b10 A
b10 K
b11100 @
b11100 J
b1000 [
b1000 \
b10100110 Z
b10100110 ]
b1001 Y
b1001 ^
b11100000 b"
b11100000 j"
b111111 e"
b111111 g"
b10010000001100001001 1
b10010000001100001001 I"
b10x0 %"
b10x0 2"
b100 #"
b100 4"
b111100111110101100001110 3
b111100111110101100001110 5"
b0 g
b0 h
b0 f
b0 i
b10 e
b10 j
b1111011101100100000100110010110100 7
b1111011101100100000100110010110100 n
b10100110 F
b10100110 G
b11101011 ?
b11101011 I
b1100001 D
b1100001 M
b10111110 B
b10111110 L
b1000101 E
b1000101 H
b10001010011010010100 ;
b10001010011010010100 N
b111111101 -
b111111101 `"
b10x0010000 5
b10x0010000 ""
b10 9
b10 `
b1010011001000101 =
b1010011001000101 >
b1111 W"
b1111 _"
b1111 /
b1111 V"
b1 (
b111111111100100000011001010001110011110101100001101010000111101110110010000010011001011010000000010000010001011101001010101001100100011 #
b111111111100100000011001010001110011110101100001101010000111101110110010000010011001011010000000010000010001011101001010101001100100011 *
b10011101011011111111111001111111 $
0"
1%
#5000
b11 &
1"
#6000
b0 2
b0 6"
b0 ;"
b0 ="
b0 <"
b100000000000001011111110011100100001000000000000111011100001000111010100010101000101010001110110011101110010101011100010001010011100100101000000000000001111100 !
b100000000000001011111110011100100001000000000000111011100001000111010100010101000101010001110110011101110010101011100010001010011100100101000000000000001111100 +
b11100 :"
b11100 >"
b10000100 0
b10000100 M"
b11101110000100011 4
b11101110000100011 &"
b101010001010100010101000 6
b101010001010100010101000 q
b1000 K"
b1000 U"
b10 J"
b10 T"
b10000011 B"
b1110110011101110010101 8
b1110110011101110010101 c
b10101000 u
b10101000 !"
b10101000 s
b10101000 }
b10101000 t
b10101000 ~
b1010011100100101000000000000001111100 <
b1010011100100101000000000000001111100 C
b100000000000001011111110 ,
b100000000000001011111110 d"
b10001100 P"
b10001100 Q"
b1001000 O"
b1001000 R"
b10 N"
b10 S"
b100 ("
b100 0"
b11 -"
b11 /"
b1011 '"
b1011 1"
b1000 $"
b1000 3"
1)"
b10010011 H"
b1111000 G"
b1110111 9"
b1110111 ?"
b11110100 8"
b11110100 @"
b11100 D"
b11110100 C"
b0 7"
b0 A"
b11101110 a
b11101110 k
b11101100 d
b11101100 m
b10101 b
b10101 l
b1101110 x
b1101110 y
b10101000 w
b10101000 z
b1000001 v
b1000001 {
b111 r
b111 |
1o
b0 A
b0 K
b1111100 @
b1111100 J
b1010011 [
b1010011 \
b11000101 Z
b11000101 ]
b1101 Y
b1101 ^
b0 V
b0 _
b11100 .
b11100 ^"
b10011010 e"
b10011010 g"
b10000000 b"
b10000000 j"
b10 a"
b10 i"
b11111110 f"
b11111110 k"
b110 c"
b110 h"
b10001100010010000010 1
b10001100010010000010 I"
b1011 %"
b1011 2"
b11 #"
b11 4"
1,"
b111000111011111110100000 3
b111000111011111110100000 5"
b1110 g
b1110 h
b1100 f
b1100 i
b1 e
b1 j
b110111010101000010000010000011101 7
b110111010101000010000010000011101 n
b1111100 F
b1111100 G
b10100 ?
b10100 I
b11100100 D
b11100100 M
b10100000 B
b10100000 L
b10011000 E
b10011000 H
b10100111100010111010000 ;
b10100111100010111010000 N
b10011010110 -
b10011010110 `"
b1011001101 5
b1011001101 ""
b1110110001 9
b1110110001 `
b111110010011000 =
b111110010011000 >
0]"
1X"
1\"
0Y"
b1011 W"
b1011 _"
b1011 /
b1011 V"
b10 (
b10011100011100011000100000000001110011011111110100001101101011011101010100001000001000001110111101001010100111101011101000011111001001100 #
b10011100011100011000100000000001110011011111110100001101101011011101010100001000001000001110111101001010100111101011101000011111001001100 *
b10110011110011001111001100111000 $
0"
#7000
b100 &
1"
#8000
0X
1W
b110000000000001011111110010101110101100100100000000011001111010011101110011011010110111001000000110001000111111010011011011111101111101010111100000010000011010 !
b110000000000001011111110010101110101100100100000000011001111010011101110011011010110111001000000110001000111111010011011011111101111101010111100000010000011010 +
b11010110 0
b11010110 M"
b1100111101001 4
b1100111101001 &"
b1001000 2
b1001000 6"
b1001000 ;"
b1001000 ="
b110111001101101011011100 6
b110111001101101011011100 q
b1001101 :
b1001101 O
b1101 K"
b1101 U"
b11 J"
b11 T"
b11011111 B"
b1001000 <"
b1000000110001000111111 8
b1000000110001000111111 c
b11011100 u
b11011100 !"
b11011100 s
b11011100 }
b11011010 t
b11011010 ~
b1011111101111101010111100000010000011010 <
b1011111101111101010111100000010000011010 C
b110000000000001011111110 ,
b110000000000001011111110 d"
b11011011 P"
b11011011 Q"
b11101100 O"
b11101100 R"
b1101 ("
b1101 0"
b0 -"
b0 /"
b11 '"
b11 1"
b11 $"
b11 3"
0)"
b1010111 :"
b1010111 >"
b11111 H"
b11001001 G"
b11001000 9"
b11001000 ?"
b10111 8"
b10111 @"
b1001000 D"
b10111000 C"
b11 7"
b11 A"
b10001000 a
b10001000 k
b10000001 d
b10000001 m
b111111 b
b111111 l
b11111001 x
b11111001 y
b11011100 w
b11011100 z
b11011010 v
b11011010 {
b10101110 r
b10101110 |
0o
b100 A
b100 K
b11010 @
b11010 J
b1100101 [
b1100101 \
0Q
0R
1S
1T
b1001110 Z
b1001110 ]
b1011 Y
b1011 ^
b1010 V
b1010 _
b11000000 b"
b11000000 j"
b10100111 e"
b10100111 g"
b11011011111011000010 1
b11011011111011000010 I"
b10101 .
b10101 ^"
b10 %"
b10 2"
b1 #"
b1 4"
0,"
b10101111100100000010111011 3
b10101111100100000010111011 5"
b1000 g
b1000 h
b1 f
b1 i
b11 e
b11 j
b1111100111011100110110101010111000 7
b1111100111011100110110101010111000 n
b10011110 F
b10011110 G
b10111111 ?
b10111111 I
b1111101 D
b1111101 M
b1011110 B
b1011110 L
b100001 E
b100001 H
b11001010100111010111010 ;
b11001010100111010111010 N
b10100111110 -
b10100111110 `"
b10000100 5
b10000100 ""
b1000000111 9
b1000000111 `
b1001111000100001 =
b1001111000100001 >
0X"
1Y"
b1100 W"
b1100 _"
b1100 /
b1100 V"
b11 (
b10100110100110110111110100000101011100100000010111110000100111110011101110011011010101011100010000111011001010101101011101100111100010001 #
b10100110100110110111110100000101011100100000010111110000100111110011101110011011010101011100010000111011001010101101011101100111100010001 *
b11101000001000000100101101001101 $
0"
#9000
b101 &
1"
#10000
0X
1W
b100000000000000000000000010101011110000001000000001111111101101100100000111011100010000011011001010111011010101011100010111000001101000101100000001101100000000 !
b100000000000000000000000010101011110000001000000001111111101101100100000111011100010000011011001010111011010101011100010111000001101000101100000001101100000000 +
b1111000 0
b1111000 M"
b10000 2
b10000 6"
b10000 ;"
b10000 ="
b10000011101110001000001 6
b10000011101110001000001 q
b1110001 :
b1110001 O
b111 K"
b111 U"
b100 J"
b100 T"
b111111110110110 4
b111111110110110 &"
b0 E"
b110 F"
b10010000 B"
b10000 <"
b1011001010111011010101 8
b1011001010111011010101 c
b1000001 u
b1000001 !"
b1000001 s
b1000001 }
b11011100 t
b11011100 ~
b111000001101000101100000001101100000000 <
b111000001101000101100000001101100000000 C
b100000000000000000000000 ,
b100000000000000000000000 d"
b1111110 P"
b1111110 Q"
b11001101 O"
b11001101 R"
b100 N"
b100 S"
b110 ("
b110 0"
b0 -"
b0 /"
b1111 '"
b1111 1"
b1111 $"
b1111 3"
1+"
1)"
b1111011 :"
b1111011 >"
b10001110 H"
b10100 G"
b10011 9"
b10011 ?"
b10000011 8"
b10000011 @"
b1010100 D"
b110 C"
b1 7"
b1 A"
b10111011 a
b10111011 k
b10110010 d
b10110010 m
b10101 b
b10101 l
b11000101 x
b11000101 y
b1000001 w
b1000001 z
b11011100 v
b11011100 {
b10000101 r
b10000101 |
b11011 A
b11011 K
b0 @
b0 J
b110111 [
b110111 \
1Q
1R
0S
0T
b1100100 Z
b1100100 ]
b1111 Y
b1111 ^
b1110 V
b1110 _
b100111 e"
b100111 g"
b10000000 b"
b10000000 j"
b0 a"
b0 i"
b0 f"
b0 k"
b111 c"
b111 h"
b1111110110011010100 1
b1111110110011010100 I"
b1001 %"
b1001 2"
b110 #"
b110 4"
0*"
1."
1,"
b11110110001001110000011001 3
b11110110001001110000011001 5"
b1011 g
b1011 h
b10 f
b10 i
b1 e
b1 j
b1100010101000001110111001000010100 7
b1100010101000001110111001000010100 n
b1101100 F
b1101100 G
b1110000 ?
b1110000 I
b1101000 D
b1101000 M
b10110000 B
b10110000 L
b100 E
b100 H
b1101110110010011111110 ;
b1101110110010011111110 N
b100111111 -
b100111111 `"
b1001011011 5
b1001011011 ""
b1011001001 9
b1011001001 `
b110110000000100 =
b110110000000100 >
b1010 W"
b1010 _"
b1010 /
b1010 V"
b100 (
b100111010011111101100110100111101001001110000011011111011110001010100000111011100100001010010110001001101110111001111111011011000000010 #
b100111010011111101100110100111101001001110000011011111011110001010100000111011100100001010010110001001101110111001111111011011000000010 *
b1111100111101110011000001001110 $
0"
#11000
b110 &
1"
#12000
b1110 V
b1110 _
b1 J"
b1 T"
b101 c"
b101 h"
b110000000000011011111110010101101000100000100000001001100101100100001010100010101000101010010000100100010111111010011011110011100101101101000100000000000001010 !
b110000000000011011111110010101101000100000100000001001100101100100001010100010101000101010010000100100010111111010011011110011100101101101000100000000000001010 +
b10100010 0
b10100010 M"
b100110010110010 4
b100110010110010 &"
b1000 2
b1000 6"
b1000 ;"
b1000 ="
b101010001010100010101 6
b101010001010100010101 q
b1001101 :
b1001101 O
b1010 K"
b1010 U"
b0 F"
b1001010 B"
b1000 <"
b10000100100010111111 8
b10000100100010111111 c
b10101 u
b10101 !"
b10101 s
b10101 }
b10101 t
b10101 ~
b1110011100101101101000100000000000001010 <
b1110011100101101101000100000000000001010 C
b110000000000011011111110 ,
b110000000000011011111110 d"
b10100110 P"
b10100110 Q"
b1100100 O"
b1100100 R"
b10 N"
b10 S"
b1001 '"
b1001 1"
b1001 $"
b1001 3"
0+"
b11011 :"
b11011 >"
b10001111 H"
b1110101 G"
b1110100 9"
b1110100 ?"
b111110 8"
b111110 @"
b10001000 D"
b11111000 C"
b10 7"
b10 A"
b100010 a
b100010 k
b100001 d
b100001 m
b111111 b
b111111 l
b1011100 x
b1011100 y
b10101 w
b10101 z
b11010110 v
b11010110 {
b10100111 r
b10100111 |
1o
b0 A
b0 K
b1010 @
b1010 J
b11001011 [
b11001011 \
0Q
0R
1S
1T
b1 Z
b1 ]
b10 Y
b10 ^
b11000000 b"
b11000000 j"
b110 a"
b110 i"
b11111110 f"
b11111110 k"
b11000110 e"
b11000110 g"
b10100110011001000010 1
b10100110011001000010 I"
b10101 .
b10101 ^"
b0 #"
b0 4"
0,"
b110110111010000111110010 3
b110110111010000111110010 5"
b10 g
b10 h
b1 f
b1 i
b11 e
b11 j
b101110000010101110101101010011101 7
b101110000010101110101101010011101 n
b1010 F
b1010 G
b11100111 ?
b11100111 I
b101101 D
b101101 M
b10100010 B
b10100010 L
b11011101 E
b11011101 H
b110010110000000100101110 ;
b110010110000000100101110 N
b11000110101 -
b11000110101 `"
b1001000010 5
b1001000010 ""
b10000111 9
b10000111 `
b101011011101 =
b101011011101 >
0X"
1Y"
b101 W"
b101 _"
b101 /
b101 V"
b101 (
b11000101101101001100110100000001101011010000111110101100010010111000001010111010110101001110100100111110010110000010010111000010101101111 #
b11000101101101001100110100000001101011010000111110101100010010111000001010111010110101001110100100111110010110000010010111000010101101111 *
b1010101001101010000100110001011 $
0"
#13000
b111 &
1"
#14000
b100 -"
b100 /"
b1 E"
b1 F"
1X
0W
b1111 V
b1111 _
b100000000000010111111100101010000xxx010000001010001x000x010x11101001100010011000111011001110100011101110000000011100100000010001100100010000000000000000110100 !
b100000000000010111111100101010000xxx010000001010001x000x010x11101001100010011000111011001110100011101110000000011100100000010001100100010000000000000000110100 +
b0xxx0 0
b0xxx0 M"
b10001x000x010x1110 4
b10001x000x010x1110 &"
b10000001 2
b10000001 6"
b10000001 ;"
b10000001 ="
b10011000 t
b10011000 ~
b100110001001100011101100 6
b100110001001100011101100 q
b1110010 :
b1110010 O
b0 K"
b0 U"
bx J"
bx T"
b10001100 B"
b10000000 <"
b1110100011101110000000 8
b1110100011101110000000 c
b10011000 u
b10011000 !"
b11101100 s
b11101100 }
b10001100100010000000000000000110100 <
b10001100100010000000000000000110100 C
b10000000000001011111110 ,
b10000000000001011111110 d"
b111 P"
b111 Q"
b10101000 O"
b10101000 R"
b1011 N"
b1011 S"
b10x1 ("
b10x1 0"
b1x0 '"
b1x0 1"
b0x0 $"
b0x0 3"
1+"
b10011011 :"
b10011011 >"
b101001 H"
b10001111 G"
b10001110 9"
b10001110 ?"
b10 8"
b10 @"
b10010000 D"
b10000 C"
b11 7"
b11 A"
b11101110 a
b11101110 k
b11101000 d
b11101000 m
b0 b
b0 l
b11101100 x
b11101100 y
b10011000 w
b10011000 z
b111001 v
b111001 {
b1000010 r
b1000010 |
b110100 @
b110100 J
1Q
1R
0S
0T
b10001 [
b10001 \
b11001011 Z
b11001011 ]
b1111 Y
b1111 ^
b10101 .
b10101 ^"
b10001001 e"
b10001001 g"
b1000000 b"
b1000000 j"
b10 a"
b10 i"
b11111110 f"
b11111110 k"
b110 c"
b110 h"
b111101010001011 1
b111101010001011 I"
b1x0 %"
b1x0 2"
b100 #"
b100 4"
1,"
b100110111000111000000010011 3
b100110111000111000000010011 5"
b1110 g
b1110 h
b1000 f
b1000 i
b0 e
b0 j
b1110110010011000001110010100001001 7
b1110110010011000001110010100001001 n
b110100 F
b110100 G
b100 ?
b100 I
b1100100 D
b1100100 M
b1000000 B
b1000000 L
b11010000 E
b11010000 H
b100011100101111111111 ;
b100011100101111111111 N
b10001001110 -
b10001001110 `"
b1x0010011 5
b1x0010011 ""
b1110100000 9
b1110100000 `
b11010011010000 =
b11010011010000 >
0X"
1Y"
b1001 W"
b1001 _"
b1001 /
b1001 V"
b110 (
b10001010001000001111010001011001101100111000000010110010011111011001001100000111001010000100111101000000100011100111111111001101001101000 #
b10001010001000001111010001011001101100111000000010110010011111011001001100000111001010000100111101000000100011100111111111001101001101000 *
b11011111011001111111010100010100 $
0"
#15000
b1000 &
1"
#16000
b1110 V
b1110 _
b1001 ("
b1001 0"
b110 %"
b110 2"
b100 c"
b100 h"
b111000000000010100000101011100010111000000000100100111010110010010111110011110110011111000011110000110011111111011100011011110011001010101010110000000001000011 !
b111000000000010100000101011100010111000000000100100111010110010010111110011110110011111000011110000110011111111011100011011110011001010101010110000000001000011 +
b1100 f
b1100 i
b1011100 0
b1011100 M"
b1 2
b1 6"
b1 ;"
b1 ="
b0 <"
b11111001111011001111100 6
b11111001111011001111100 q
b1110001 :
b1110001 O
b101 K"
b101 U"
b110 J"
b110 T"
b10011101011001001 4
b10011101011001001 &"
b1 E"
b111010 F"
b111101 B"
b11110000110011111111 8
b11110000110011111111 c
b1111100 s
b1111100 }
b1111100 u
b1111100 !"
b11110110 t
b11110110 ~
b1011110011001010101010110000000001000011 <
b1011110011001010101010110000000001000011 C
b111000000000010100000101 ,
b111000000000010100000101 d"
b1010101 P"
b1010101 Q"
b1100011 O"
b1100011 R"
b100 N"
b100 S"
b10 -"
b10 /"
b111 '"
b111 1"
b101 $"
b101 3"
0+"
0)"
b1110100 :"
b1110100 >"
b1110101 H"
b10 G"
b1 9"
b1 ?"
b111100 8"
b111100 @"
b0 D"
b0 C"
b110 7"
b110 A"
b111100 d
b111100 m
b110011 a
b110011 k
b111111 b
b111111 l
b1111100 x
b1111100 y
b1100 w
b1100 z
b11110110 v
b11110110 {
b1010110 r
b1010110 |
1p
0o
b1000011 @
b1000011 J
b100110 [
b100110 \
b11001101 Z
b11001101 ]
0X
1W
b1001 Y
b1001 ^
b11100000 b"
b11100000 j"
b101 a"
b101 i"
b101 f"
b101 k"
b1011110 e"
b1011110 g"
b1010101011000110100 1
b1010101011000110100 I"
b11100 .
b11100 ^"
b11 #"
b11 4"
1*"
0."
0,"
b11101000000000100111100110 3
b11101000000000100111100110 5"
b11 g
b11 h
b11 e
b11 j
b111110000001100111101100101011010 7
b111110000001100111101100101011010 n
b1000011 F
b1000011 G
b10111100 ?
b10111100 I
b11001010 D
b11001010 M
b10101011 B
b10101011 L
b1111001 E
b1111001 H
b1001101100110110011110 ;
b1001101100110110011110 N
b1011110100 -
b1011110100 `"
b110001100 5
b110001100 ""
b11110011 9
b11110011 `
b100001101111001 =
b100001101111001 >
1X"
0Y"
b1110 W"
b1110 _"
b1110 /
b1110 V"
b111 (
b1011100110010101010110010100111010000000100111100100001100011111000000110011110110010101101000111011001001101101011001111010000110111101 #
b1011100110010101010110010100111010000000100111100100001100011111000000110011110110010101101000111011001001101101011001111010000110111101 *
b11111100011001110010111001 $
0"
#17000
b1001 &
1"
