rewiring/runs_tb/cycle_0001/sim.log
CYCLE=0 IN=000000000 OUT=00000000000
CYCLE=1 IN=110011100 OUT=00000000000
CYCLE=2 IN=100000010 OUT=00000100010
CYCLE=3 IN=011100100 OUT=00011000000
CYCLE=4 IN=101111000 OUT=00110001000
CYCLE=5 IN=010111100 OUT=00001011010
CYCLE=6 IN=010110110 OUT=00001100010
CYCLE=7 IN=111100100 OUT=01001011010
CYCLE=8 IN=110110111 OUT=00011001011
CYCLE=9 IN=101010011 OUT=00100011101
CYCLE=10 IN=100100001 OUT=00010100001
CYCLE=11 IN=111100001 OUT=01001000001
CYCLE=12 IN=111000101 OUT=00110000001
CYCLE=13 IN=110000010 OUT=00000001010
CYCLE=14 IN=101100010 OUT=00110000010
CYCLE=15 IN=000110101 OUT=00000000001
CYCLE=16 IN=100010010 OUT=00000011100
CYCLE=17 IN=101010110 OUT=00100100010
CYCLE=18 IN=111111101 OUT=01001011011
CYCLE=19 IN=111110100 OUT=01001100000
CYCLE=20 IN=100111011 OUT=00010011101
CYCLE=21 IN=101011000 OUT=00100101000
CYCLE=22 IN=010110010 OUT=00001011100
CYCLE=23 IN=001011100 OUT=00000100000
CYCLE=24 IN=100011110 OUT=00000100010
CYCLE=25 IN=110011110 OUT=00000100010
CYCLE=26 IN=110011110 OUT=00000100010
CYCLE=27 IN=011101110 OUT=00011100010
CYCLE=28 IN=100010000 OUT=00000010010
CYCLE=29 IN=101110110 OUT=00110010100
CYCLE=30 IN=101100011 OUT=00110101011
CYCLE=31 IN=011000000 OUT=00010000000
CYCLE=32 IN=100011101 OUT=00000000001
CYCLE=33 IN=100100010 OUT=00010100010
CYCLE=34 IN=100000110 OUT=00000000010
CYCLE=35 IN=110000001 OUT=00000001001
CYCLE=36 IN=001100011 OUT=00000000011
CYCLE=37 IN=001111000 OUT=00000000000
CYCLE=38 IN=001101111 OUT=00000011101
CYCLE=39 IN=011001110 OUT=00010100010
CYCLE=40 IN=011110111 OUT=00011010101
CYCLE=41 IN=011010001 OUT=00010101001
CYCLE=42 IN=110011110 OUT=00000010100
CYCLE=43 IN=001110111 OUT=00000110101
CYCLE=44 IN=101101110 OUT=00110101010
CYCLE=45 IN=010101000 OUT=00001010010
CYCLE=46 IN=101001111 OUT=00100001011
CYCLE=47 IN=010111011 OUT=00001010101
CYCLE=48 IN=110010100 OUT=00000101000
CYCLE=49 IN=011100010 OUT=00011011100
CYCLE=50 IN=101100110 OUT=00110010100
CYCLE=51 IN=100011111 OUT=00000011101
CYCLE=52 IN=100001001 OUT=00000110011
CYCLE=53 IN=011100011 OUT=00011001011
CYCLE=54 IN=000011111 OUT=00000000011
CYCLE=55 IN=110000100 OUT=00000100000
CYCLE=56 IN=011000101 OUT=00010001001
CYCLE=57 IN=000110011 OUT=00000001011
CYCLE=58 IN=001001011 OUT=00000010101
CYCLE=59 IN=010011100 OUT=00000011010
CYCLE=60 IN=011110011 OUT=00011100011
CYCLE=61 IN=011001001 OUT=00010010011
CYCLE=62 IN=011101101 OUT=00011001001
CYCLE=63 IN=111001010 OUT=00110010100
CYCLE=64 IN=101011101 OUT=00100011011
CYCLE=65 IN=001000111 OUT=00000100011
CYCLE=66 IN=100100100 OUT=00010001000
CYCLE=67 IN=011101111 OUT=00011001011
CYCLE=68 IN=010101001 OUT=00001010011
CYCLE=69 IN=101101101 OUT=00110001001
CYCLE=70 IN=100111001 OUT=00010010011
CYCLE=71 IN=001111000 OUT=00000011010
CYCLE=72 IN=011101010 OUT=00011011100
CYCLE=73 IN=011000010 OUT=00010011100
CYCLE=74 IN=101010100 OUT=00100010010
CYCLE=75 IN=101010100 OUT=00100011010
CYCLE=76 IN=100100011 OUT=00010011101
CYCLE=77 IN=110011101 OUT=00000010011
CYCLE=78 IN=110110011 OUT=00011100011
CYCLE=79 IN=110101101 OUT=00011010011
CYCLE=80 IN=011010101 OUT=00010010011
CYCLE=81 IN=100101110 OUT=00010011100
CYCLE=82 IN=011001111 OUT=00010100011
CYCLE=83 IN=100000101 OUT=00000010011
CYCLE=84 IN=111010111 OUT=00110001011
CYCLE=85 IN=010001001 OUT=00000011011
CYCLE=86 IN=011110110 OUT=00011001010
CYCLE=87 IN=110101111 OUT=00011011101
CYCLE=88 IN=111101111 OUT=01001100011
CYCLE=89 IN=110011101 OUT=00000010011
CYCLE=90 IN=100111111 OUT=00010100011
CYCLE=91 IN=011001111 OUT=00010100011
CYCLE=92 IN=100101010 OUT=00010010100
CYCLE=93 IN=101110111 OUT=00110011101
CYCLE=94 IN=010011010 OUT=00000101010
CYCLE=95 IN=100001011 OUT=00000011101
CYCLE=96 IN=101010011 OUT=00100011101
CYCLE=97 IN=010101111 OUT=00001100011
CYCLE=98 IN=110001100 OUT=00000010010
CYCLE=99 IN=100000010 OUT=00000010100
CYCLE=100 IN=111111011 OUT=01001010101
CYCLE=101 IN=111101000 OUT=01001101000
CYCLE=102 IN=111000010 OUT=00110001010
CYCLE=103 IN=111011101 OUT=00110000001
CYCLE=104 IN=111001000 OUT=00110100000
CYCLE=105 IN=001100100 OUT=00000001000
CYCLE=106 IN=001100001 OUT=00000001001
CYCLE=107 IN=011100101 OUT=00011000001
CYCLE=108 IN=100100001 OUT=00010001001
CYCLE=109 IN=111110011 OUT=01001000011
CYCLE=110 IN=001011001 OUT=00000010011
CYCLE=111 IN=011110101 OUT=00011011011
CYCLE=112 IN=010111101 OUT=00001011011
CYCLE=113 IN=101111110 OUT=00110100010
CYCLE=114 IN=001100010 OUT=00000100010
CYCLE=115 IN=111001010 OUT=00110000010
CYCLE=116 IN=010010000 OUT=00000001000
CYCLE=117 IN=101000101 OUT=00100010011
CYCLE=118 IN=001011000 OUT=00000001000
CYCLE=119 IN=100010000 OUT=00000011010
CYCLE=120 IN=001100000 OUT=00000010010
CYCLE=121 IN=101110011 OUT=00110000011
CYCLE=122 IN=011111100 OUT=00011010010
CYCLE=123 IN=100111101 OUT=00010100001
CYCLE=124 IN=001101100 OUT=00000100000
CYCLE=125 IN=100001110 OUT=00000010100
CYCLE=126 IN=011100111 OUT=00011100011
CYCLE=127 IN=000110111 OUT=00000001011
CYCLE=128 IN=001000111 OUT=00000011101
CYCLE=129 IN=101000000 OUT=00100011010
CYCLE=130 IN=000110011 OUT=00000000011
CYCLE=131 IN=100011100 OUT=00000010010
CYCLE=132 IN=010110110 OUT=00001100010
CYCLE=133 IN=011010111 OUT=00010011101
CYCLE=134 IN=100111010 OUT=00010101010
CYCLE=135 IN=001100111 OUT=00000011101
CYCLE=136 IN=001010011 OUT=00000011101
CYCLE=137 IN=010000100 OUT=00000100000
CYCLE=138 IN=011110100 OUT=00011001000
CYCLE=139 IN=011100100 OUT=00011011010
CYCLE=140 IN=100101000 OUT=00010001000
CYCLE=141 IN=101100111 OUT=00110001011
CYCLE=142 IN=010010101 OUT=00000001001
CYCLE=143 IN=100111100 OUT=00010011010
CYCLE=144 IN=101100100 OUT=00110100000
CYCLE=145 IN=110010101 OUT=00000001001
CYCLE=146 IN=110001010 OUT=00000011100
CYCLE=147 IN=100111101 OUT=00010011011
CYCLE=148 IN=001111111 OUT=00000100011
CYCLE=149 IN=101011011 OUT=00100100011
CYCLE=150 IN=011011100 OUT=00010011010
CYCLE=151 IN=111101100 OUT=01001100000
CYCLE=152 IN=011000110 OUT=00010010100
CYCLE=153 IN=001000110 OUT=00000011100
CYCLE=154 IN=001111001 OUT=00000011011
CYCLE=155 IN=100000100 OUT=00000011010
CYCLE=156 IN=011010100 OUT=00010001000
CYCLE=157 IN=100110100 OUT=00010011010
CYCLE=158 IN=010111101 OUT=00001011011
CYCLE=159 IN=100011011 OUT=00000100011
CYCLE=160 IN=100000010 OUT=00000011100
CYCLE=161 IN=101110001 OUT=00110010011
CYCLE=162 IN=001010011 OUT=00000010101
CYCLE=163 IN=001100011 OUT=00000100011
CYCLE=164 IN=011011110 OUT=00010000010
CYCLE=165 IN=011110000 OUT=00011100000
CYCLE=166 IN=000000100 OUT=00000010010
CYCLE=167 IN=001011111 OUT=00000001011
CYCLE=168 IN=011111000 OUT=00011100000
CYCLE=169 IN=000100011 OUT=00000011101
CYCLE=170 IN=110000000 OUT=00000010010
CYCLE=171 IN=101100001 OUT=00110000001
CYCLE=172 IN=101100001 OUT=00110000001
CYCLE=173 IN=001010111 OUT=00000000011
CYCLE=174 IN=011010010 OUT=00010011100
CYCLE=175 IN=011111100 OUT=00011100000
CYCLE=176 IN=010111100 OUT=00001100000
CYCLE=177 IN=001111011 OUT=00000100011
CYCLE=178 IN=100110001 OUT=00010011011
CYCLE=179 IN=101111110 OUT=00110010100
CYCLE=180 IN=011101101 OUT=00011110011
CYCLE=181 IN=101100100 OUT=00110010010
CYCLE=182 IN=111010100 OUT=00110001000
CYCLE=183 IN=110111101 OUT=00011011011
CYCLE=184 IN=100010100 OUT=00000100000
CYCLE=185 IN=011001011 OUT=00010011101
CYCLE=186 IN=011001011 OUT=00010011101
CYCLE=187 IN=011011011 OUT=00010011101
CYCLE=188 IN=111101001 OUT=01001101001
CYCLE=189 IN=101001110 OUT=00100001010
CYCLE=190 IN=000100100 OUT=00000010010
CYCLE=191 IN=101000010 OUT=00100001010
CYCLE=192 IN=000000111 OUT=00000000011
CYCLE=193 IN=100000000 OUT=00000001000
CYCLE=194 IN=111010110 OUT=00110000010
CYCLE=195 IN=100111111 OUT=00010011101
CYCLE=196 IN=100111001 OUT=00010110011
CYCLE=197 IN=011111001 OUT=00011011011
CYCLE=198 IN=011010111 OUT=00010011101
CYCLE=199 IN=101111010 OUT=00110101010
TB_SIM_OK cycles=200
- /module-fuzz/rewiring/runs_tb/cycle_0001/tb_top.sv:54: Verilog $finish
CYCLE=200 IN=001110110 OUT=00000011100
- S i m u l a t i o n   R e p o r t: Verilator 5.039 devel
- Verilator: $finish at 402ns; walltime 0.001 s; speed 342.237 us/s
- Verilator: cpu 0.001 s on 1 threads; alloced 94 MB
