rewiring/dual_bug_hunt_5/cycle_0001/tb_top.vcd
$date
	Mon Sep 22 02:30:19 2025
$end
$version
	Icarus Verilog
$end
$timescale
	1ps
$end
$scope module tb_top $end
$var wire 159 ! out_flat [158:0] $end
$var reg 1 " clk $end
$var reg 140 # in_flat [139:0] $end
$var reg 32 $ rng_state [31:0] $end
$var reg 1 % rst_n $end
$var integer 32 & cyc [31:0] $end
$var integer 32 ' cycles [31:0] $end
$var integer 32 ( i [31:0] $end
$var integer 32 ) seed [31:0] $end
$scope module dut $end
$var wire 1 " clk $end
$var wire 140 * in_flat [139:0] $end
$var wire 1 % rst_n $end
$var wire 159 + out_flat [158:0] $end
$var wire 24 , const_shift_wrapper_out_flat [23:0] $end
$var wire 11 - const_shift_wrapper_in_flat [10:0] $end
$var wire 6 . const_reduce_wrapper_out_flat [5:0] $end
$var wire 4 / const_reduce_wrapper_in_flat [3:0] $end
$var wire 8 0 const_partselect_wrapper_out_flat [7:0] $end
$var wire 20 1 const_partselect_wrapper_in_flat [19:0] $end
$var wire 8 2 const_nested_wrapper_out_flat [7:0] $end
$var wire 27 3 const_nested_wrapper_in_flat [26:0] $end
$var wire 19 4 const_logic_wrapper_out_flat [18:0] $end
$var wire 10 5 const_logic_wrapper_in_flat [9:0] $end
$var wire 24 6 const_conditional_wrapper_out_flat [23:0] $end
$var wire 34 7 const_conditional_wrapper_in_flat [33:0] $end
$var wire 22 8 const_concat_repl_wrapper_out_flat [21:0] $end
$var wire 10 9 const_concat_repl_wrapper_in_flat [9:0] $end
$var wire 8 : const_compare_wrapper_out_flat [7:0] $end
$var wire 24 ; const_compare_wrapper_in_flat [23:0] $end
$var wire 40 < const_arith_wrapper_out_flat [39:0] $end
$var wire 16 = const_arith_wrapper_in_flat [15:0] $end
$scope module u_const_arith_wrapper $end
$var wire 16 > in_flat [15:0] $end
$var wire 8 ? sum_c [7:0] $end
$var wire 8 @ rem_c [7:0] $end
$var wire 8 A quot_c [7:0] $end
$var wire 8 B prod_c [7:0] $end
$var wire 40 C out_flat [39:0] $end
$var wire 8 D diff_c [7:0] $end
$var wire 8 E b [7:0] $end
$var wire 8 F a [7:0] $end
$scope module u_const_arith $end
$var wire 8 G a [7:0] $end
$var wire 8 H b [7:0] $end
$var wire 8 I sum_c [7:0] $end
$var wire 8 J rem_c [7:0] $end
$var wire 8 K quot_c [7:0] $end
$var wire 8 L prod_c [7:0] $end
$var wire 8 M diff_c [7:0] $end
$upscope $end
$upscope $end
$scope module u_const_compare_wrapper $end
$var wire 24 N in_flat [23:0] $end
$var wire 8 O out_flat [7:0] $end
$var wire 1 P neq_c $end
$var wire 1 Q lt_c $end
$var wire 1 R le_c $end
$var wire 1 S gt_c $end
$var wire 1 T ge_c $end
$var wire 1 U eq_c $end
$var wire 4 V d [3:0] $end
$var wire 1 W case_neq_c $end
$var wire 1 X case_eq_c $end
$var wire 4 Y c [3:0] $end
$var wire 8 Z b [7:0] $end
$var wire 8 [ a [7:0] $end
$scope module u_const_compare $end
$var wire 8 \ a [7:0] $end
$var wire 8 ] b [7:0] $end
$var wire 4 ^ c [3:0] $end
$var wire 4 _ d [3:0] $end
$var wire 1 P neq_c $end
$var wire 1 Q lt_c $end
$var wire 1 R le_c $end
$var wire 1 S gt_c $end
$var wire 1 T ge_c $end
$var wire 1 U eq_c $end
$var wire 1 W case_neq_c $end
$var wire 1 X case_eq_c $end
$upscope $end
$upscope $end
$scope module u_const_concat_repl_wrapper $end
$var wire 10 ` in_flat [9:0] $end
$var wire 8 a rep_c [7:0] $end
$var wire 6 b rep2_c [5:0] $end
$var wire 22 c out_flat [21:0] $end
$var wire 8 d cat_c [7:0] $end
$var wire 2 e c [1:0] $end
$var wire 4 f b [3:0] $end
$var wire 4 g a [3:0] $end
$scope module u_const_concat_repl $end
$var wire 4 h a [3:0] $end
$var wire 4 i b [3:0] $end
$var wire 2 j c [1:0] $end
$var wire 8 k rep_c [7:0] $end
$var wire 6 l rep2_c [5:0] $end
$var wire 8 m cat_c [7:0] $end
$upscope $end
$upscope $end
$scope module u_const_conditional_wrapper $end
$var wire 34 n in_flat [33:0] $end
$var wire 1 o sel2 $end
$var wire 1 p sel1 $end
$var wire 24 q out_flat [23:0] $end
$var wire 8 r d [7:0] $end
$var wire 8 s cond3_c [7:0] $end
$var wire 8 t cond2_c [7:0] $end
$var wire 8 u cond1_c [7:0] $end
$var wire 8 v c [7:0] $end
$var wire 8 w b [7:0] $end
$var wire 8 x a [7:0] $end
$scope module u_const_conditional $end
$var wire 8 y a [7:0] $end
$var wire 8 z b [7:0] $end
$var wire 8 { c [7:0] $end
$var wire 8 | d [7:0] $end
$var wire 1 p sel1 $end
$var wire 1 o sel2 $end
$var wire 8 } cond3_c [7:0] $end
$var wire 8 ~ cond2_c [7:0] $end
$var wire 8 !" cond1_c [7:0] $end
$upscope $end
$upscope $end
$scope module u_const_logic_wrapper $end
$var wire 10 "" in_flat [9:0] $end
$var wire 4 #" y [3:0] $end
$var wire 4 $" xor_c [3:0] $end
$var wire 4 %" x [3:0] $end
$var wire 19 &" out_flat [18:0] $end
$var wire 4 '" or_c [3:0] $end
$var wire 4 (" not_c [3:0] $end
$var wire 1 )" lor_c $end
$var wire 1 *" lnot_c $end
$var wire 1 +" land_c $end
$var wire 1 ," b $end
$var wire 4 -" and_c [3:0] $end
$var wire 1 ." a $end
$scope module u_const_logic $end
$var wire 1 ." a $end
$var wire 4 /" and_c [3:0] $end
$var wire 1 ," b $end
$var wire 1 +" land_c $end
$var wire 1 )" lor_c $end
$var wire 4 0" not_c [3:0] $end
$var wire 4 1" or_c [3:0] $end
$var wire 4 2" x [3:0] $end
$var wire 4 3" xor_c [3:0] $end
$var wire 4 4" y [3:0] $end
$var wire 1 *" lnot_c $end
$upscope $end
$upscope $end
$scope module u_const_nested_wrapper $end
$var wire 27 5" in_flat [26:0] $end
$var wire 8 6" out_flat [7:0] $end
$var wire 3 7" s [2:0] $end
$var wire 8 8" r [7:0] $end
$var wire 8 9" q [7:0] $end
$var wire 8 :" p [7:0] $end
$var wire 8 ;" nested_c [7:0] $end
$scope module u_const_nested $end
$var wire 8 <" and_part [7:0] $end
$var wire 8 =" nested_c [7:0] $end
$var wire 8 >" p [7:0] $end
$var wire 8 ?" q [7:0] $end
$var wire 8 @" r [7:0] $end
$var wire 3 A" s [2:0] $end
$var wire 8 B" xor_qr [7:0] $end
$var wire 8 C" shl_rs [7:0] $end
$var wire 8 D" mul_part [7:0] $end
$var wire 8 E" mod_part [7:0] $end
$var wire 8 F" div_part [7:0] $end
$var wire 8 G" denom [7:0] $end
$var wire 8 H" add_pq [7:0] $end
$upscope $end
$upscope $end
$scope module u_const_partselect_wrapper $end
$var wire 20 I" in_flat [19:0] $end
$var wire 3 J" sel2_c [2:0] $end
$var wire 4 K" sel1_c [3:0] $end
$var wire 1 L" ovf_range $end
$var wire 8 M" out_flat [7:0] $end
$var wire 4 N" idx [3:0] $end
$var wire 8 O" data2 [7:0] $end
$var wire 8 P" data1 [7:0] $end
$scope module u_const_partselect $end
$var wire 8 Q" data1 [7:0] $end
$var wire 8 R" data2 [7:0] $end
$var wire 4 S" idx [3:0] $end
$var wire 3 T" sel2_c [2:0] $end
$var wire 4 U" sel1_c [3:0] $end
$var wire 1 L" ovf_range $end
$upscope $end
$upscope $end
$scope module u_const_reduce_wrapper $end
$var wire 4 V" in_flat [3:0] $end
$var wire 4 W" in_vec [3:0] $end
$var wire 1 X" red_xor_c $end
$var wire 1 Y" red_xnor_c $end
$var wire 1 Z" red_or_c $end
$var wire 1 [" red_nor_c $end
$var wire 1 \" red_nand_c $end
$var wire 1 ]" red_and_c $end
$var wire 6 ^" out_flat [5:0] $end
$scope module u_const_reduce $end
$var wire 4 _" in_vec [3:0] $end
$var wire 1 X" red_xor_c $end
$var wire 1 Y" red_xnor_c $end
$var wire 1 Z" red_or_c $end
$var wire 1 [" red_nor_c $end
$var wire 1 \" red_nand_c $end
$var wire 1 ]" red_and_c $end
$upscope $end
$upscope $end
$scope module u_const_shift_wrapper $end
$var wire 11 `" in_flat [10:0] $end
$var wire 8 a" shr_c [7:0] $end
$var wire 8 b" shl_c [7:0] $end
$var wire 3 c" shift_amt [2:0] $end
$var wire 24 d" out_flat [23:0] $end
$var wire 8 e" data_in [7:0] $end
$var wire 8 f" ashr_c [7:0] $end
$scope module u_const_shift $end
$var wire 8 g" data_in [7:0] $end
$var wire 3 h" shift_amt [2:0] $end
$var wire 8 i" shr_c [7:0] $end
$var wire 8 j" shl_c [7:0] $end
$var wire 8 k" ashr_c [7:0] $end
$upscope $end
$upscope $end
$upscope $end
$upscope $end
$enddefinitions $end
$comment Show the parameter values. $end
$dumpall
$end
#0
$dumpvars
b0 k"
b100000 j"
b0 i"
b100 h"
b10 g"
b0 f"
b10 e"
b1000000000000000000000 d"
b100 c"
b100000 b"
b0 a"
b10100 `"
b1110 _"
b11100 ^"
0]"
1\"
0["
1Z"
0Y"
1X"
b1110 W"
b1110 V"
b1000 U"
b0 T"
b100 S"
b0 R"
b10000011 Q"
b10000011 P"
b0 O"
b100 N"
b10000000 M"
0L"
b1000 K"
b0 J"
b10000011000000000100 I"
b11000001 H"
b10111010 G"
b0 F"
b0 E"
b1100 D"
b1100 C"
b111010 B"
b10 A"
b10000011 @"
b10111001 ?"
b1000 >"
b1000 ="
b1000 <"
b1000 ;"
b1000 :"
b10111001 9"
b10000011 8"
b10 7"
b1000 6"
b10001011100110000011010 5"
b1111 4"
b1001 3"
b110 2"
b1111 1"
b1001 0"
b110 /"
0."
b110 -"
0,"
0+"
1*"
0)"
b1001 ("
b1111 '"
b110111110011001001 &"
b110 %"
b1001 $"
b1111 #"
b110111100 ""
b1111010 !"
b101111 ~
b10000011 }
b10000 |
b101111 {
b10000011 z
b1111010 y
b1111010 x
b10000011 w
b101111 v
b1111010 u
b101111 t
b10000011 s
b10000 r
b11110100010111110000011 q
1p
0o
b111101010000011001011110001000010 n
b11111000 m
b0 l
b11111111 k
b0 j
b1000 i
b1111 h
b1111 g
b1000 f
b0 e
b11111000 d
b1111100011111111000000 c
b0 b
b11111111 a
b1111100000 `
b1110 _
b11 ^
b100 ]
b10100001 \
b10100001 [
b100 Z
b11 Y
0X
1W
b1110 V
0U
1T
1S
0R
0Q
1P
b1001101 O
b101000010000010000111110 N
b1111 M
b1011110 L
b1 K
b1111 J
b10100101 I
b1001011 H
b1011010 G
b1011010 F
b1001011 E
b1111 D
b1010010100001111010111100000000100001111 C
b1011110 B
b1 A
b1111 @
b10100101 ?
b101101001001011 >
b101101001001011 =
b1010010100001111010111100000000100001111 <
b101000010000010000111110 ;
b1001101 :
b1111100000 9
b1111100011111111000000 8
b111101010000011001011110001000010 7
b11110100010111110000011 6
b110111100 5
b110111110011001001 4
b10001011100110000011010 3
b1000 2
b10000011000000000100 1
b10000000 0
b1110 /
b11100 .
b10100 -
b1000000000000000000000 ,
b1000000000000000000000011100100000000000100001101111100110010010111101000101111100000111111100011111111000000010011011010010100001111010111100000000100001111 +
b10011100001000000010000001001011100110000011010011011000111101010000011010111100010001011111000010100000000100001111100101101001001011 *
b11100000001001110001111100011010 )
bx (
b11001000 '
b0 &
0%
b11100101000101100101000000100111 $
b10011100001000000010000001001011100110000011010011011000111101010000011010111100010001011111000010100000000100001111100101101001001011 #
0"
b1000000000000000000000011100100000000000100001101111100110010010111101000101111100000111111100011111111000000010011011010010100001111010111100000000100001111 !
$end
#1000
b1 &
1"
#2000
b0 (
0"
#3000
b10 &
1"
#4000
b100001101000011010000110111000001x1000001000000101111110110010011110010001111100111001001101100011011101010101010011010000011001011110011010000000000000110010 !
b100001101000011010000110111000001x1000001000000101111110110010011110010001111100111001001101100011011101010101010011010000011001011110011010000000000000110010 +
b1x100 0
b1x100 M"
b10111111011001001 4
b10111111011001001 &"
b10000 2
b10000 6"
b10000 ;"
b10000 ="
b111001000111110011100100 6
b111001000111110011100100 q
b1 K"
b1 U"
bx10 J"
bx10 T"
b11001 B"
b10000 <"
b1101100011011101010101 8
b1101100011011101010101 c
b11100100 s
b11100100 }
b1111100 t
b1111100 ~
b11100100 u
b11100100 !"
b11001011110011010000000000000110010 <
b11001011110011010000000000000110010 C
b10000110100001101000011 ,
b10000110100001101000011 d"
b10001 P"
b10001 Q"
b10010100 O"
b10010100 R"
b110 N"
b110 S"
b10 -"
b10 /"
b1101 $"
b1101 3"
b11100010 :"
b11100010 >"
b11010010 H"
b11110001 G"
b11110000 9"
b11110000 ?"
b11101001 8"
b11101001 @"
b10000 D"
b1001000 C"
b11 7"
b11 A"
b11011000 d
b11011000 m
b11011101 a
b11011101 k
b10101 b
b10101 l
b11101110 x
b11101110 y
b11100100 w
b11100100 z
b1111100 v
b1111100 {
b11100100 r
b11100100 |
0p
b0 A
b0 K
b110010 @
b110010 J
b11110101 [
b11110101 \
b1011100 Z
b1011100 ]
b1 Y
b1 ^
b110 V
b110 _
b1000011 e"
b1000011 g"
b1000011 b"
b1000011 j"
b1000011 a"
b1000011 i"
b1000011 f"
b1000011 k"
b0 c"
b0 h"
b10001100101000110 1
b10001100101000110 I"
b1011 #"
b1011 4"
b111000101111000011101001011 3
b111000101111000011101001011 5"
b1101 g
b1101 h
b1 e
b1 j
b1110111011100100011111001110010000 7
b1110111011100100011111001110010000 n
b110010 F
b110010 G
b110 ?
b110 I
b1011110 D
b1011110 M
b1101000 B
b1101000 L
b11010100 E
b11010100 H
b111101010101110000010110 ;
b111101010101110000010110 N
b1000011000 -
b1000011000 `"
b110101100 5
b110101100 ""
b1101100001 9
b1101100001 `
b11001011010100 =
b11001011010100 >
b100 W"
b100 _"
b100 /
b100 V"
b1 (
b10000100000001000001100011011100011111000011101001011011001001110111011100100111110011101000011011000111110100111100000101100011001011010100 #
b10000100000001000001100011011100011111000011101001011011001001110111011100100111110011101000011011000111110100111100000101100011001011010100 *
b100000000011011010100001000000 $
0"
1%
#5000
b11 &
1"
#6000
b1001 #"
b1001 4"
b1111111111011100100011000000000110011111011000000100011111000111110001111100011000000110011101010010011011100110011011010001110110000000001010011 !
b1111111111011100100011000000000110011111011000000100011111000111110001111100011000000110011101010010011011100110011011010001110110000000001010011 +
b10001100 0
b10001100 M"
b1 2
b1 6"
b1 ;"
b1 ="
b1111100011111000111110 6
b1111100011111000111110 q
b1000 K"
b1000 U"
b110 J"
b110 T"
b1001111101100000010 4
b1001111101100000010 &"
b1 E"
b100 F"
b100 B"
b0 <"
b11000000110011101010 8
b11000000110011101010 c
b111110 u
b111110 !"
b111110 s
b111110 }
b111110 t
b111110 ~
b1100110011011010001110110000000001010011 <
b1100110011011010001110110000000001010011 C
b1111111111 ,
b1111111111 d"
b10001010 P"
b10001010 Q"
b11111010 O"
b11111010 R"
b10 N"
b10 S"
b1001 -"
b1001 /"
b110 $"
b110 3"
b0 ("
b0 0"
1)"
b10000100 :"
b10000100 >"
b10011111 H"
b11100 G"
b11011 9"
b11011 ?"
b11111 8"
b11111 @"
b1000000 D"
b11000000 C"
b110 7"
b110 A"
b110011 a
b110011 k
b110000 d
b110000 m
b101010 b
b101010 l
b111010 x
b111010 y
b111110 w
b111110 z
b101001 v
b101001 {
b100110 r
b100110 |
1o
b1010011 @
b1010011 J
b11111000 [
b11111000 \
b1010000 Z
b1010000 ]
b1001 Y
b1001 ^
b100 V
b100 _
b11100 .
b11100 ^"
b11110000 e"
b11110000 g"
b0 b"
b0 j"
b11 a"
b11 i"
b11111111 f"
b11111111 k"
b110 c"
b110 h"
b10001010111110100010 1
b10001010111110100010 I"
b1111 %"
b1111 2"
0*"
1."
b100001000001101100011111110 3
b100001000001101100011111110 5"
b11 g
b11 h
b0 f
b0 i
b10 e
b10 j
b11101000111110001010010010011001 7
b11101000111110001010010010011001 n
b1010011 F
b1010011 G
b11001100 ?
b11001100 I
b11011010 D
b11011010 M
b111011 B
b111011 L
b1111001 E
b1111001 H
b111110000101000010010100 ;
b111110000101000010010100 N
b11110000110 -
b11110000110 `"
b1111100110 5
b1111100110 ""
b11000010 9
b11000010 `
b101001101111001 =
b101001101111001 >
1X"
0Y"
b1000 W"
b1000 _"
b1000 /
b1000 V"
b10 (
b11100011010100101111010001010000100001101100011111110111101100011101000111110010100100101100100110001011111000110000100101000101001101111001 #
b11100011010100101111010001010000100001101100011111110111101100011101000111110010100100101100100110001011111000110000100101000101001101111001 *
b11000011111011010111000110101 $
0"
#7000
b100 &
1"
#8000
b1110000000001100000011011100000011100000001000101110110010010011011000111100001101100011101100011011101000000010011010100110010111000100101000000000010000010 !
b1110000000001100000011011100000011100000001000101110110010010011011000111100001101100011101100011011101000000010011010100110010111000100101000000000010000010 +
b1110 0
b1110 M"
b10 2
b10 6"
b10 ;"
b10 ="
b101100011110000110110001 6
b101100011110000110110001 q
b0 K"
b0 U"
b111 J"
b111 T"
b10111011001001001 4
b10111011001001001 &"
b10 E"
b101 F"
b1011000 B"
b1101100011011101000000 8
b1101100011011101000000 c
b10110001 u
b10110001 !"
b10110001 s
b10110001 }
b11100001 t
b11100001 ~
b100110010111000100101000000000010000010 <
b100110010111000100101000000000010000010 C
b1110000000001100000011 ,
b1110000000001100000011 d"
b1011 P"
b1011 Q"
b10111011 O"
b10111011 R"
b11 N"
b11 S"
b1001 ("
b1001 0"
b10 -"
b10 /"
b1110 '"
b1110 1"
b1100 $"
b1100 3"
0)"
b11111100 :"
b11111100 >"
b101000 H"
b101101 G"
b101100 9"
b101100 ?"
b1110100 8"
b1110100 @"
b0 D"
b0 C"
b111 7"
b111 A"
b11011101 a
b11011101 k
b11011000 d
b11011000 m
b0 b
b0 l
b1111110 x
b1111110 y
b10110001 w
b10110001 z
b11100001 v
b11100001 {
b10110111 r
b10110111 |
0o
b10000010 @
b10000010 J
b11101111 [
b11101111 \
b11101010 Z
b11101010 ]
b101 V
b101 _
b11100 .
b11100 ^"
b1110 e"
b1110 g"
b111000 b"
b111000 j"
b11 a"
b11 i"
b11 f"
b11 k"
b10 c"
b10 h"
b1011101110110011 1
b1011101110110011 I"
b110 %"
b110 2"
b1010 #"
b1010 4"
1*"
0."
b111111000010110001110100111 3
b111111000010110001110100111 5"
b1101 g
b1101 h
b1000 f
b1000 i
b0 e
b0 j
b111111010110001111000011011011100 7
b111111010110001111000011011011100 n
b10000010 F
b10000010 G
b1001100 ?
b1001100 I
b10111000 D
b10111000 M
b10010100 B
b10010100 L
b11001010 E
b11001010 H
b111011111110101010010101 ;
b111011111110101010010101 N
b1110010 -
b1110010 `"
b110101000 5
b110101000 ""
b1101100000 9
b1101100000 `
b1000001011001010 =
b1000001011001010 >
1X"
0Y"
b1110 W"
b1110 _"
b1110 /
b1110 V"
b11 (
b11001011000101011011001111111100010110001110100111011000000111111010110001110000110111110011011000011101111101010100101011000001011001010 #
b11001011000101011011001111111100010110001110100111011000000111111010110001110000110111110011011000011101111101010100101011000001011001010 *
b1110010111100010000000110010110 $
0"
#9000
b101 &
1"
#10000
b1000000000000000000000000111001010xxx00000001000001011101101010011101110111011101110110111111001011111111000000011100011010100001111010000001110000011000000111 !
b1000000000000000000000000111001010xxx00000001000001011101101010011101110111011101110110111111001011111111000000011100011010100001111010000001110000011000000111 +
b1010xxx0 0
b1010xxx0 M"
b101110110101001 4
b101110110101001 &"
b110111011101110111011011 6
b110111011101110111011011 q
b1110001 :
b1110001 O
b1010 K"
b1010 U"
bx J"
bx T"
b10 F"
b11100011 B"
b1111001011111111000000 8
b1111001011111111000000 c
b11011011 s
b11011011 }
b11011101 u
b11011101 !"
b11011101 t
b11011101 ~
b1010100001111010000001110000011000000111 <
b1010100001111010000001110000011000000111 C
b100000000000000000000000 ,
b100000000000000000000000 d"
b10100000 P"
b10100000 Q"
b1010101 O"
b1010101 R"
b1001 N"
b1001 S"
b101 ("
b101 0"
b0 -"
b0 /"
b1011 '"
b1011 1"
b1011 $"
b1011 3"
b11010000 :"
b11010000 >"
b0 D"
b11000 H"
b1001001 G"
b1001000 9"
b1001000 ?"
b10101011 8"
b10101011 @"
b1100000 C"
b101 7"
b101 A"
b11111111 a
b11111111 k
b11110010 d
b11110010 m
b11011101 x
b11011101 y
b11011011 w
b11011011 z
b100000 v
b100000 {
b10010010 r
b10010010 |
1p
1o
b110 A
b110 K
b111 @
b111 J
1Q
1R
0S
0T
b10010 [
b10010 \
b1101111 Z
b1101111 ]
b1 Y
b1 ^
b1101 V
b1101 _
b11100 .
b11100 ^"
b111110 e"
b111110 g"
b10000000 b"
b10000000 j"
b0 a"
b0 i"
b0 f"
b0 k"
b110 c"
b110 h"
b10100000010101011001 1
b10100000010101011001 I"
b1010 %"
b1010 2"
b1 #"
b1 4"
b110100000100100010101011101 3
b110100000100100010101011101 5"
b1111 g
b1111 h
b10 f
b10 i
b1101110111011011001000001001001011 7
b1101110111011011001000001001001011 n
b10010001 F
b10010001 G
b10101000 ?
b10101000 I
b1111010 D
b1111010 M
b111 B
b111 L
b10111 E
b10111 H
b100100110111100011101 ;
b100100110111100011101 N
b111110110 -
b111110110 `"
b1010000100 5
b1010000100 ""
b1111001000 9
b1111001000 `
b1001000100010111 =
b1001000100010111 >
1X"
0Y"
b10 W"
b10 _"
b10 /
b10 V"
b100 (
b1111011001110000101101100111010000100100010101011101101001001101110111011011010000010010101111110010000010010101111000111011001000100010111 #
b1111011001110000101101100111010000100100010101011101101001001101110111011011010000010010101111110010000010010101111000111011001000100010111 *
b11101010111000000010011110110011 $
0"
#11000
b110 &
1"
#12000
b1000000001010011110100011100001100100100000100010111011011100111101110101000110110111010001100000010001111111011100010001000100110001011100000000000100110001 !
b1000000001010011110100011100001100100100000100010111011011100111101110101000110110111010001100000010001111111011100010001000100110001011100000000000100110001 +
b110010 0
b110010 M"
b1011101101110011 4
b1011101101110011 &"
b1000001 2
b1000001 6"
b1000001 ;"
b1000001 ="
b110111010100011011011101 6
b110111010100011011011101 q
b11 K"
b11 U"
b1 J"
b1 T"
b1000000 <"
b1 E"
b110001 F"
b11001110 B"
b1100000010001111111 8
b1100000010001111111 c
b11011101 s
b11011101 }
b1000110 t
b1000110 ~
b1000100110001011100000000000100110001 <
b1000100110001011100000000000100110001 C
b1000000001010011110100 ,
b1000000001010011110100 d"
b111111 P"
b111111 Q"
b110001 O"
b110001 R"
b101 N"
b101 S"
b1110 ("
b1110 0"
b1 -"
b1 /"
b111 '"
b111 1"
b110 $"
b110 3"
1)"
b11000110 :"
b11000110 >"
b1000000 D"
b11001001 H"
b100 G"
b11 9"
b11 ?"
b11001101 8"
b11001101 @"
b1000000 C"
b110 7"
b110 A"
b10001 a
b10001 k
b11000 d
b11000 m
b111111 b
b111111 l
b1011010 x
b1011010 y
b11011101 w
b11011101 z
b1000110 v
b1000110 {
b11110010 r
b11110010 |
0p
0o
b1 A
b1 K
b110001 @
b110001 J
b10100101 [
b10100101 \
b11110100 Z
b11110100 ]
b1111 Y
b1111 ^
b1011 V
b1011 _
b10100100 e"
b10100100 g"
b100000 b"
b100000 j"
b10100 a"
b10100 i"
b11110100 f"
b11110100 k"
b11 c"
b11 h"
b111111001100010101 1
b111111001100010101 I"
b1 %"
b1 2"
b111 #"
b111 4"
1,"
b110001100000001111001101110 3
b110001100000001111001101110 5"
b1 g
b1 h
b1000 f
b1000 i
b11 e
b11 j
b101101011011101010001101111001000 7
b101101011011101010001101111001000 n
b10100001 F
b10100001 G
b10001 ?
b10001 I
b110001 D
b110001 M
b1110000 B
b1110000 L
b1110000 E
b1110000 H
b101001011111010011111011 ;
b101001011111010011111011 N
b10100100011 -
b10100100011 `"
b1011101 5
b1011101 ""
b1100011 9
b1100011 `
b1010000101110000 =
b1010000101110000 >
b1000 W"
b1000 _"
b1000 /
b1000 V"
b101 (
b1001001110011111011001010111000110000001111001101110000111010101101011011101100011011110100000011001110100101110100111110111010000101110000 #
b1001001110011111011001010111000110000001111001101110000111010101101011011101100011011110100000011001110100101110100111110111010000101110000 *
b1011000110100010110010010011100 $
0"
#13000
b111 &
1"
#14000
b101 #"
b101 4"
b111100000011001000000010111011011000110101011010011010101101000110010001100110010101010011100011001111101001100001100000000010001110 !
b111100000011001000000010111011011000110101011010011010101101000110010001100110010101010011100011001111101001100001100000000010001110 +
b1011101101100011 4
b1011101101100011 &"
b10010000 2
b10010000 6"
b10010000 ;"
b10010000 ="
b10010000 <"
b10101101001101010110100 6
b10101101001101010110100 q
b1001110 :
b1001110 O
b1000 K"
b1000 U"
b0 J"
b0 T"
b10000001 0
b10000001 M"
b0 E"
b0 F"
b10110100 B"
b110010001100110010101 8
b110010001100110010101 c
b1010110 u
b1010110 !"
b10110100 s
b10110100 }
b10011010 t
b10011010 ~
b11001111101001100001100000000010001110 <
b11001111101001100001100000000010001110 C
b0 ,
b0 d"
b10000000 P"
b10000000 Q"
b10000110 O"
b10000110 R"
1L"
b1111 N"
b1111 S"
b1 -"
b1 /"
b110 $"
b110 3"
b1100 ("
b1100 0"
b10111 :"
b10111 >"
b10111001 H"
b10100011 G"
b10100010 9"
b10100010 ?"
b10110 8"
b10110 @"
b10011000 D"
b1011000 C"
b10 7"
b10 A"
b1100110 a
b1100110 k
b1100100 d
b1100100 m
b10101 b
b10101 l
b10110100 x
b10110100 y
b1010110 w
b1010110 z
b10011010 v
b10011010 {
b11111110 r
b11111110 |
b0 A
b0 K
b10001110 @
b10001110 J
b11101000 [
b11101000 \
0Q
0R
1S
1T
b1010 Z
b1010 ]
1X
0W
b111 Y
b111 ^
b111 V
b111 _
b111 .
b111 ^"
b0 e"
b0 g"
b0 b"
b0 j"
b0 a"
b0 i"
b0 f"
b0 k"
b100 c"
b100 h"
b10000000100001101111 1
b10000000100001101111 I"
b11 %"
b11 2"
b101111010001000010110010 3
b101111010001000010110010 5"
b110 g
b110 h
b100 f
b100 i
b1 e
b1 j
b1011010001010110100110101111111000 7
b1011010001010110100110101111111000 n
b10001110 F
b10001110 G
b110011 ?
b110011 I
b11101001 D
b11101001 M
b10000110 B
b10000110 L
b10100101 E
b10100101 H
b111010000000101001110111 ;
b111010000000101001110111 N
b100 -
b100 `"
b11010101 5
b11010101 ""
b110010001 9
b110010001 `
b1000111010100101 =
b1000111010100101 >
0Z"
0X"
1["
1Y"
b0 W"
b0 _"
b0 /
b0 V"
b110 (
b10000100000000110111100010111010001000010110010001111011011010001010110001101011111100001100100111101000001010011101111000111010100101 #
b10000100000000110111100010111010001000010110010001111011011010001010110001101011111100001100100111101000001010011101111000111010100101 *
b10010101111101110111000000100001 $
0"
#15000
b1000 &
1"
#16000
b1101110000001101000011010111000011xxx00001011000011111111000101100110100001101000010101101101110011011101000000011100010100001010110110111010000000001100101010 !
b1101110000001101000011010111000011xxx00001011000011111111000101100110100001101000010101101101110011011101000000011100010100001010110110111010000000001100101010 +
b10110 2
b10110 6"
b10110 ;"
b10110 ="
b11010000110100001010110 6
b11010000110100001010110 q
b1110001 :
b1110001 O
b11 K"
b11 U"
bx J"
bx T"
b11xxx0 0
b11xxx0 M"
b1111111100010110 4
b1111111100010110 &"
b10 E"
b10 F"
b111110 B"
b10100 <"
b1101110011011101000000 8
b1101110011011101000000 c
b1010110 s
b1010110 }
b1101000 u
b1101000 !"
b1101000 t
b1101000 ~
b100001010110110111010000000001100101010 <
b100001010110110111010000000001100101010 C
b110111000000110100001101 ,
b110111000000110100001101 d"
b110111 P"
b110111 Q"
b111001 O"
b111001 R"
0L"
b1100 N"
b1100 S"
b10 ("
b10 0"
b1111 '"
b1111 1"
b1110 $"
b1110 3"
1+"
b11110110 :"
b11110110 >"
b1001101 H"
b1011000 G"
b1010111 9"
b1010111 ?"
b1010100 D"
b10100100 C"
b1101001 8"
b1101001 @"
b11011101 a
b11011101 k
b11011100 d
b11011100 m
b0 b
b0 l
b1010110 x
b1010110 y
b1101000 w
b1101000 z
b10100110 v
b10100110 {
b10100111 r
b10100111 |
1o
b11 A
b11 K
b101010 @
b101010 J
1Q
1R
0S
0T
b11101 [
b11101 \
b10011001 Z
b10011001 ]
b0 Y
b0 ^
0X
1W
b1010 V
b1010 _
b11100 .
b11100 ^"
b11011100 b"
b11011100 j"
b1101 a"
b1101 i"
b1101 f"
b1101 k"
b110111 e"
b110111 g"
b10 c"
b10 h"
b110111001110011100 1
b110111001110011100 I"
b1101 %"
b1101 2"
b11 #"
b11 4"
0*"
1."
b111101100101011101101001010 3
b111101100101011101101001010 5"
b1101 g
b1101 h
b1100 f
b1100 i
b0 e
b0 j
b101011001101000101001101010011101 7
b101011001101000101001101010011101 n
b11111100 F
b11111100 G
b1000010 ?
b1000010 I
b10110110 D
b10110110 M
b11101000 B
b11101000 L
b1000110 E
b1000110 H
b111011001100100001010 ;
b111011001100100001010 N
b110111010 -
b110111010 `"
b1101001111 5
b1101001111 ""
b1101110000 9
b1101110000 `
b1111110001000110 =
b1111110001000110 >
1Z"
1X"
0["
0Y"
b10 W"
b10 _"
b10 /
b10 V"
b111 (
b1101101001011011011001110011110110101011101101001010110101110101011001101000010011010101110111011100000011101011001000010101111110001000110 #
b1101101001011011011001110011110110101011101101001010110101110101011001101000010011010101110111011100000011101011001000010101111110001000110 *
b110000111010101001011011010010 $
0"
#17000
b1001 &
1"
