rewiring/large_test_100m/cycle_0031/tb_top.vcd
$date
	Tue Nov  4 01:14:56 2025
$end
$version
	Icarus Verilog
$end
$timescale
	1ps
$end
$scope module tb_top $end
$var wire 159 ! out_flat [158:0] $end
$var reg 1 " clk $end
$var reg 137 # in_flat [136:0] $end
$var reg 32 $ rng_state [31:0] $end
$var reg 1 % rst_n $end
$var integer 32 & cyc [31:0] $end
$var integer 32 ' cycles [31:0] $end
$var integer 32 ( i [31:0] $end
$var integer 32 ) seed [31:0] $end
$scope module dut $end
$var wire 1 " clk $end
$var wire 137 * in_flat [136:0] $end
$var wire 1 % rst_n $end
$var wire 159 + out_flat [158:0] $end
$var wire 24 , const_shift_wrapper_out_flat [23:0] $end
$var wire 11 - const_shift_wrapper_in_flat [10:0] $end
$var wire 6 . const_reduce_wrapper_out_flat [5:0] $end
$var wire 4 / const_reduce_wrapper_in_flat [3:0] $end
$var wire 8 0 const_partselect_wrapper_out_flat [7:0] $end
$var wire 20 1 const_partselect_wrapper_in_flat [19:0] $end
$var wire 8 2 const_nested_wrapper_out_flat [7:0] $end
$var wire 27 3 const_nested_wrapper_in_flat [26:0] $end
$var wire 19 4 const_logic_wrapper_out_flat [18:0] $end
$var wire 10 5 const_logic_wrapper_in_flat [9:0] $end
$var wire 24 6 const_conditional_wrapper_out_flat [23:0] $end
$var wire 34 7 const_conditional_wrapper_in_flat [33:0] $end
$var wire 22 8 const_concat_repl_wrapper_out_flat [21:0] $end
$var wire 10 9 const_concat_repl_wrapper_in_flat [9:0] $end
$var wire 8 : const_compare_wrapper_out_flat [7:0] $end
$var wire 24 ; const_compare_wrapper_in_flat [23:0] $end
$var wire 40 < const_arith_wrapper_out_flat [39:0] $end
$var wire 16 = const_arith_wrapper_in_flat [15:0] $end
$scope module u_const_arith_wrapper $end
$var wire 16 > in_flat [15:0] $end
$var wire 8 ? sum_c [7:0] $end
$var wire 8 @ rem_c [7:0] $end
$var wire 8 A quot_c [7:0] $end
$var wire 8 B prod_c [7:0] $end
$var wire 40 C out_flat [39:0] $end
$var wire 8 D diff_c [7:0] $end
$var wire 8 E b [7:0] $end
$var wire 8 F a [7:0] $end
$scope module u_const_arith $end
$var wire 8 G a [7:0] $end
$var wire 8 H b [7:0] $end
$var wire 8 I sum_c [7:0] $end
$var wire 8 J rem_c [7:0] $end
$var wire 8 K quot_c [7:0] $end
$var wire 8 L prod_c [7:0] $end
$var wire 8 M diff_c [7:0] $end
$upscope $end
$upscope $end
$scope module u_const_compare_wrapper $end
$var wire 24 N in_flat [23:0] $end
$var wire 8 O out_flat [7:0] $end
$var wire 1 P neq_c $end
$var wire 1 Q lt_c $end
$var wire 1 R le_c $end
$var wire 1 S gt_c $end
$var wire 1 T ge_c $end
$var wire 1 U eq_c $end
$var wire 4 V d [3:0] $end
$var wire 1 W case_neq_c $end
$var wire 1 X case_eq_c $end
$var wire 4 Y c [3:0] $end
$var wire 8 Z b [7:0] $end
$var wire 8 [ a [7:0] $end
$scope module u_const_compare $end
$var wire 8 \ a [7:0] $end
$var wire 8 ] b [7:0] $end
$var wire 4 ^ c [3:0] $end
$var wire 4 _ d [3:0] $end
$var wire 1 P neq_c $end
$var wire 1 Q lt_c $end
$var wire 1 R le_c $end
$var wire 1 S gt_c $end
$var wire 1 T ge_c $end
$var wire 1 U eq_c $end
$var wire 1 W case_neq_c $end
$var wire 1 X case_eq_c $end
$upscope $end
$upscope $end
$scope module u_const_concat_repl_wrapper $end
$var wire 10 ` in_flat [9:0] $end
$var wire 8 a rep_c [7:0] $end
$var wire 6 b rep2_c [5:0] $end
$var wire 22 c out_flat [21:0] $end
$var wire 8 d cat_c [7:0] $end
$var wire 2 e c [1:0] $end
$var wire 4 f b [3:0] $end
$var wire 4 g a [3:0] $end
$scope module u_const_concat_repl $end
$var wire 4 h a [3:0] $end
$var wire 4 i b [3:0] $end
$var wire 2 j c [1:0] $end
$var wire 8 k rep_c [7:0] $end
$var wire 6 l rep2_c [5:0] $end
$var wire 8 m cat_c [7:0] $end
$upscope $end
$upscope $end
$scope module u_const_conditional_wrapper $end
$var wire 34 n in_flat [33:0] $end
$var wire 1 o sel2 $end
$var wire 1 p sel1 $end
$var wire 24 q out_flat [23:0] $end
$var wire 8 r d [7:0] $end
$var wire 8 s cond3_c [7:0] $end
$var wire 8 t cond2_c [7:0] $end
$var wire 8 u cond1_c [7:0] $end
$var wire 8 v c [7:0] $end
$var wire 8 w b [7:0] $end
$var wire 8 x a [7:0] $end
$scope module u_const_conditional $end
$var wire 8 y a [7:0] $end
$var wire 8 z b [7:0] $end
$var wire 8 { c [7:0] $end
$var wire 8 | d [7:0] $end
$var wire 1 p sel1 $end
$var wire 1 o sel2 $end
$var wire 8 } cond3_c [7:0] $end
$var wire 8 ~ cond2_c [7:0] $end
$var wire 8 !" cond1_c [7:0] $end
$upscope $end
$upscope $end
$scope module u_const_logic_wrapper $end
$var wire 10 "" in_flat [9:0] $end
$var wire 4 #" y [3:0] $end
$var wire 4 $" xor_c [3:0] $end
$var wire 4 %" x [3:0] $end
$var wire 19 &" out_flat [18:0] $end
$var wire 4 '" or_c [3:0] $end
$var wire 4 (" not_c [3:0] $end
$var wire 1 )" lor_c $end
$var wire 1 *" lnot_c $end
$var wire 1 +" land_c $end
$var wire 1 ," b $end
$var wire 4 -" and_c [3:0] $end
$var wire 1 ." a $end
$scope module u_const_logic $end
$var wire 1 ." a $end
$var wire 4 /" and_c [3:0] $end
$var wire 1 ," b $end
$var wire 1 +" land_c $end
$var wire 1 )" lor_c $end
$var wire 4 0" not_c [3:0] $end
$var wire 4 1" or_c [3:0] $end
$var wire 4 2" x [3:0] $end
$var wire 4 3" xor_c [3:0] $end
$var wire 4 4" y [3:0] $end
$var wire 1 *" lnot_c $end
$upscope $end
$upscope $end
$scope module u_const_nested_wrapper $end
$var wire 27 5" in_flat [26:0] $end
$var wire 8 6" out_flat [7:0] $end
$var wire 3 7" s [2:0] $end
$var wire 8 8" r [7:0] $end
$var wire 8 9" q [7:0] $end
$var wire 8 :" p [7:0] $end
$var wire 8 ;" nested_c [7:0] $end
$scope module u_const_nested $end
$var wire 8 <" and_part [7:0] $end
$var wire 8 =" nested_c [7:0] $end
$var wire 8 >" p [7:0] $end
$var wire 8 ?" q [7:0] $end
$var wire 8 @" r [7:0] $end
$var wire 3 A" s [2:0] $end
$var wire 8 B" xor_qr [7:0] $end
$var wire 8 C" shl_rs [7:0] $end
$var wire 8 D" mul_part [7:0] $end
$var wire 8 E" mod_part [7:0] $end
$var wire 8 F" div_part [7:0] $end
$var wire 8 G" denom [7:0] $end
$var wire 8 H" add_pq [7:0] $end
$upscope $end
$upscope $end
$scope module u_const_partselect_wrapper $end
$var wire 20 I" in_flat [19:0] $end
$var wire 3 J" sel2_c [2:0] $end
$var wire 4 K" sel1_c [3:0] $end
$var wire 1 L" ovf_range $end
$var wire 8 M" out_flat [7:0] $end
$var wire 4 N" idx [3:0] $end
$var wire 8 O" data2 [7:0] $end
$var wire 8 P" data1 [7:0] $end
$scope module u_const_partselect $end
$var wire 8 Q" data1 [7:0] $end
$var wire 8 R" data2 [7:0] $end
$var wire 4 S" idx [3:0] $end
$var wire 3 T" sel2_c [2:0] $end
$var wire 4 U" sel1_c [3:0] $end
$var wire 1 L" ovf_range $end
$upscope $end
$upscope $end
$scope module u_const_reduce_wrapper $end
$var wire 4 V" in_flat [3:0] $end
$var wire 4 W" in_vec [3:0] $end
$var wire 1 X" red_xor_c $end
$var wire 1 Y" red_xnor_c $end
$var wire 1 Z" red_or_c $end
$var wire 1 [" red_nor_c $end
$var wire 1 \" red_nand_c $end
$var wire 1 ]" red_and_c $end
$var wire 6 ^" out_flat [5:0] $end
$scope module u_const_reduce $end
$var wire 4 _" in_vec [3:0] $end
$var wire 1 X" red_xor_c $end
$var wire 1 Y" red_xnor_c $end
$var wire 1 Z" red_or_c $end
$var wire 1 [" red_nor_c $end
$var wire 1 \" red_nand_c $end
$var wire 1 ]" red_and_c $end
$upscope $end
$upscope $end
$scope module u_const_shift_wrapper $end
$var wire 11 `" in_flat [10:0] $end
$var wire 8 a" shr_c [7:0] $end
$var wire 8 b" shl_c [7:0] $end
$var wire 3 c" shift_amt [2:0] $end
$var wire 24 d" out_flat [23:0] $end
$var wire 8 e" data_in [7:0] $end
$var wire 8 f" ashr_c [7:0] $end
$scope module u_const_shift $end
$var wire 8 g" data_in [7:0] $end
$var wire 3 h" shift_amt [2:0] $end
$var wire 8 i" shr_c [7:0] $end
$var wire 8 j" shl_c [7:0] $end
$var wire 8 k" ashr_c [7:0] $end
$upscope $end
$upscope $end
$upscope $end
$upscope $end
$enddefinitions $end
$comment Show the parameter values. $end
$dumpall
$end
#0
$dumpvars
b11 k"
b11100000 j"
b11 i"
b11 h"
b11100 g"
b11 f"
b11100 e"
b111000000000001100000011 d"
b11 c"
b11100000 b"
b11 a"
b11100011 `"
b0 _"
b111 ^"
0]"
1\"
1["
0Z"
1Y"
0X"
b0 W"
b0 V"
b100 U"
bx T"
b1000 S"
b1100010 R"
b1001000 Q"
b1001000 P"
b1100010 O"
b1000 N"
b100xxx0 M"
0L"
b100 K"
bx J"
b1001000011000101000 I"
b10101 H"
b10001011 G"
b1 F"
b1 E"
bx D"
bx C"
b1010100 B"
b0x0 A"
b11011110 @"
b10001010 ?"
b10001011 >"
b0x0x0x01 ="
b0x0x0x00 <"
b0x0x0x01 ;"
b10001011 :"
b10001010 9"
b11011110 8"
b0x0 7"
b0x0x0x01 6"
b1000101110001010110111100x0 5"
b11 4"
b1101 3"
b1110 2"
b1111 1"
b1 0"
b10 /"
0."
b10 -"
1,"
0+"
1*"
1)"
b1 ("
b1111 '"
b10111111010001011 &"
b1110 %"
b1101 $"
b11 #"
b1110001101 ""
b1011010 !"
b1011010 ~
b10111111 }
b1010110 |
b11010100 {
b1011010 z
b10111111 y
b10111111 x
b1011010 w
b11010100 v
b1011010 u
b1011010 t
b10111111 s
b1010110 r
b10110100101101010111111 q
0p
1o
b1011111101011010110101000101011001 n
b110100 m
b111111 l
b110011 k
b11 j
b100 i
b11 h
b11 g
b100 f
b11 e
b110100 d
b11010000110011111111 c
b111111 b
b110011 a
b11010011 `
b0 _
b100 ^
b100 ]
b100100 \
b100100 [
b100 Z
b100 Y
0X
1W
b0 V
0U
1T
1S
0R
0Q
1P
b1001101 O
b1001000000010001000000 N
b1100 M
b10100101 L
b1 K
b1100 J
b10111010 I
b11010111 H
b11100011 G
b11100011 F
b11010111 E
b1100 D
b1011101000001100101001010000000100001100 C
b10100101 B
b1 A
b1100 @
b10111010 ?
b1110001111010111 >
b1110001111010111 =
b1011101000001100101001010000000100001100 <
b1001000000010001000000 ;
b1001101 :
b11010011 9
b11010000110011111111 8
b1011111101011010110101000101011001 7
b10110100101101010111111 6
b1110001101 5
b10111111010001011 4
b1000101110001010110111100x0 3
b0x0x0x01 2
b1001000011000101000 1
b100xxx0 0
b0 /
b111 .
b11100011 -
b111000000000001100000011 ,
b1110000000000011000000110001110100xxx00x0x0x0100101111110100010110101101001011010101111110011010000110011111111010011011011101000001100101001010000000100001100 +
b111001100010000001100100010001011100010101101111001011011011111101011010110010001010110101101001100010000000100010000001110001111010111 *
b11000011100101101110011101010110 )
bx (
b11001000 '
b0 &
0%
b10001000110001011110011001110011 $
b111001100010000001100100010001011100010101101111001011011011111101011010110010001010110101101001100010000000100010000001110001111010111 #
0"
b1110000000000011000000110001110100xxx00x0x0x0100101111110100010110101101001011010101111110011010000110011111111010011011011101000001100101001010000000100001100 !
$end
#1000
b1 &
1"
#2000
b0 (
0"
#3000
b10 &
1"
#4000
b1000000 D"
b1000000 C"
b110 7"
b110 A"
b111 J"
b111 T"
b111 '"
b111 1"
b1001 ("
b1001 0"
1p
b110 %"
b110 2"
b1101110011011100110111011100101011100100000000000111011110011100001011000010110000101101100100111001100101010011100011000100100101001101100000000000100101001 !
b1101110011011100110111011100101011100100000000000111011110011100001011000010110000101101100100111001100101010011100011000100100101001101100000000000100101001 +
b10101110 0
b10101110 M"
b1000000 2
b1000000 6"
b1000000 ;"
b1000000 ="
b1000000 <"
b10110 t
b10110 ~
b101100001011000010110 6
b101100001011000010110 q
b1110001 :
b1110001 O
b1010 K"
b1010 U"
b11101111001110 4
b11101111001110 &"
b0 E"
b11 F"
b11100111 B"
b1100100111001100101010 8
b1100100111001100101010 c
b10110 s
b10110 }
b10110 u
b10110 !"
b1000100100101001101100000000000100101001 <
b1000100100101001101100000000000100101001 C
b1101110011011100110111 ,
b1101110011011100110111 d"
b10100011 P"
b10100011 Q"
b11111 O"
b11111 R"
b1 N"
b1 S"
b0 -"
b0 /"
b111 $"
b111 3"
1+"
b11011011 :"
b11011011 >"
b11001 H"
b111111 G"
b111110 9"
b111110 ?"
b11011001 8"
b11011001 @"
b11001100 a
b11001100 k
b11001001 d
b11001001 m
b101010 b
b101010 l
b10110 x
b10110 y
b1011101 w
b1011101 z
b11100100 v
b11100100 {
b1101110 r
b1101110 |
b101001 @
b101001 J
b10110001 [
b10110001 \
1Q
1R
0S
0T
b11111000 Z
b11111000 ]
b110 Y
b110 ^
b1100 V
b1100 _
b110111 e"
b110111 g"
b110111 b"
b110111 j"
b110111 a"
b110111 i"
b110111 f"
b110111 k"
b0 c"
b0 h"
b10100011000111110001 1
b10100011000111110001 I"
b11100 .
b11100 ^"
b1 #"
b1 4"
0*"
1."
b110110110011111011011001110 3
b110110110011111011011001110 5"
b1100 g
b1100 h
b1001 f
b1001 i
b10 e
b10 j
b1011001011101111001000110111011 7
b1011001011101111001000110111011 n
b1011001 F
b1011001 G
b10001001 ?
b10001001 I
b101001 D
b101001 M
b10110000 B
b10110000 L
b110000 E
b110000 H
b101100011111100001101100 ;
b101100011111100001101100 N
b110111000 -
b110111000 `"
b110000111 5
b110000111 ""
b1100100110 9
b1100100110 `
b101100100110000 =
b101100100110000 >
1Z"
1X"
0["
0Y"
b10 W"
b10 _"
b10 /
b10 V"
b1 (
b101110001101001100011100111011011001111101101100101001110001011001011101111010001101110110010011010100111111000011011000101100100110000 #
b101110001101001100011100111011011001111101101100101001110001011001011101111010001101110110010011010100111111000011011000101100100110000 *
b11001100111101011101100001011100 $
0"
1%
#5000
b11 &
1"
#6000
0p
b111 J"
b111 T"
b1000000010000111000011100000000000101010100011011101101011011011011011000010110110001100110000000011100011011110011110010010100110000000001010111 !
b1000000010000111000011100000000000101010100011011101101011011011011011000010110110001100110000000011100011011110011110010010100110000000001010111 +
b1110 0
b1110 M"
b10101010001101110 4
b10101010001101110 &"
b0 2
b0 6"
b0 ;"
b0 ="
b110101101101101101100001 6
b110101101101101101100001 q
b1110001 :
b1110001 O
b0 K"
b0 U"
b100001 B"
b0 <"
b110110001100110000000 8
b110110001100110000000 c
b11010110 u
b11010110 !"
b1100001 s
b1100001 }
b11011011 t
b11011011 ~
b1011110011110010010100110000000001010111 <
b1011110011110010010100110000000001010111 C
b1000000010 ,
b1000000010 d"
b1110 P"
b1110 Q"
b1101111 O"
b1101111 R"
b0 N"
b0 S"
b1101 ("
b1101 0"
b10 -"
b10 /"
b1010 '"
b1010 1"
b1000 $"
b1000 3"
b1111001 :"
b1111001 >"
b10011100 H"
b100100 G"
b100011 9"
b100011 ?"
b10 8"
b10 @"
b0 D"
b0 C"
b111 7"
b111 A"
b1100110 a
b1100110 k
b1101100 d
b1101100 m
b0 b
b0 l
b1100001 x
b1100001 y
b11010110 w
b11010110 z
b11011011 v
b11011011 {
b10001 r
b10001 |
0o
b0 A
b0 K
b1010111 @
b1010111 J
1Q
1R
0S
0T
b11010010 [
b11010010 \
b11011111 Z
b11011111 ]
b1100 Y
b1100 ^
b1 V
b1 _
b1011000 e"
b1011000 g"
b0 b"
b0 j"
b10 a"
b10 i"
b10 f"
b10 k"
b101 c"
b101 h"
b1110011011110000 1
b1110011011110000 I"
b111 .
b111 ^"
b10 %"
b10 2"
b1010 #"
b1010 4"
b11110010010001100000010111 3
b11110010010001100000010111 5"
b110 g
b110 h
b1100 f
b1100 i
b0 e
b0 j
b110000111010110110110110001000100 7
b110000111010110110110110001000100 n
b1010111 F
b1010111 G
b10111100 ?
b10111100 I
b11110010 D
b11110010 M
b1010011 B
b1010011 L
b1100101 E
b1100101 H
b110100101101111111000001 ;
b110100101101111111000001 N
b1011000101 -
b1011000101 `"
b10101011 5
b10101011 ""
b110110000 9
b110110000 `
b101011101100101 =
b101011101100101 >
0Z"
0X"
1["
1Y"
b0 W"
b0 _"
b0 /
b0 V"
b10 (
b1110000100000011001101100001111001001000110000001010010110110000111010110110101100010001001011000011101011011111110000010101011101100101 #
b1110000100000011001101100001111001001000110000001010010110110000111010110110101100010001001011000011101011011111110000010101011101100101 *
b10001110111101010000010011100001 $
0"
#7000
b100 &
1"
#8000
b1000 2
b1000 6"
b1000 ;"
b1000 ="
b1000 <"
1p
b10001000 D"
b1011100 C"
b1 7"
b1 A"
b100100000001100100011001000111101110000000100000001101110100110111010110111110011111010001011000010111011111111011100011101100011001100111011000010001100000000 !
b100100000001100100011001000111101110000000100000001101110100110111010110111110011111010001011000010111011111111011100011101100011001100111011000010001100000000 +
b10010000 b"
b10010000 j"
b10111000 0
b10111000 M"
b101011011111001111101000 6
b101011011111001111101000 q
b1011 K"
b1011 U"
b100 J"
b100 T"
b110111010011011 4
b110111010011011 &"
b0 F"
b1011000 B"
b1011000010111011111111 8
b1011000010111011111111 c
b10101101 u
b10101101 !"
b11110011 t
b11110011 ~
b11101000 s
b11101000 }
b1101100011001100111011000010001100000000 <
b1101100011001100111011000010001100000000 C
b100100000001100100011001 ,
b100100000001100100011001 d"
b10110010 P"
b10110010 Q"
b10110100 O"
b10110100 R"
b11 ("
b11 0"
b0 -"
b0 /"
b1101 '"
b1101 1"
b1101 $"
b1101 3"
0+"
b111000 :"
b111000 >"
b10101110 H"
b1110111 G"
b1110110 9"
b1110110 ?"
b101110 8"
b101110 @"
b10111011 a
b10111011 k
b10110000 d
b10110000 m
b111111 b
b111111 l
b10101101 x
b10101101 y
b11101000 w
b11101000 z
b11110011 v
b11110011 {
b10101100 r
b10101100 |
b100011 A
b100011 K
b0 @
b0 J
b1111 [
b1111 \
1Q
1R
0S
0T
b1101100 Z
b1101100 ]
b1101 Y
b1101 ^
b101 V
b101 _
b1100100 e"
b1100100 g"
b11001 a"
b11001 i"
b11001 f"
b11001 k"
b10 c"
b10 h"
b10110010101101000000 1
b10110010101101000000 I"
b1100 %"
b1100 2"
b1 #"
b1 4"
1*"
0."
b1110000111011000101110001 3
b1110000111011000101110001 5"
b1011 g
b1011 h
b0 f
b0 i
b11 e
b11 j
b1010110111101000111100111010110010 7
b1010110111101000111100111010110010 n
b11010010 F
b11010010 G
b11011000 ?
b11011000 I
b11001100 D
b11001100 M
b11101100 B
b11101100 L
b110 E
b110 H
b11110110110011010101 ;
b11110110110011010101 N
b1100100010 -
b1100100010 `"
b1100000101 5
b1100000101 ""
b1011000011 9
b1011000011 `
b1101001000000110 =
b1101001000000110 >
b11 (
b1001001000101101010111000000111000011101100010111011001011010110111101000111001110101100011100001100011101101100110101011101001000000110 #
b1001001000101101010111000000111000011101100010111011001011010110111101000111001110101100011100001100011101101100110101011101001000000110 *
b10100011111011010000100010010010 $
0"
#9000
b101 &
1"
#10000
b101 7"
b101 A"
0p
b100000000000000111111111000111111100100000000000001111111110000010011001101110111001100111110111011101110010101011100011011010111101111101101100000000001010010 !
b100000000000000111111111000111111100100000000000001111111110000010011001101110111001100111110111011101110010101011100011011010111101111101101100000000001010010 +
b1000 ("
b1000 0"
b111 %"
b111 2"
b11110010 0
b11110010 M"
b111111111000001 4
b111111111000001 &"
b0 2
b0 6"
b0 ;"
b0 ="
b1100110111011100110011 6
b1100110111011100110011 q
b1111 K"
b1111 U"
b1 J"
b1 T"
b1000111 B"
b0 <"
b1110111011101110010101 8
b1110111011101110010101 c
b110011 u
b110011 !"
b110011 s
b110011 }
b1110111 t
b1110111 ~
b1011010111101111101101100000000001010010 <
b1011010111101111101101100000000001010010 C
b100000000000000111111111 ,
b100000000000000111111111 d"
b11110111 P"
b11110111 Q"
b10011110 O"
b10011110 R"
b100 N"
b100 S"
b1111 '"
b1111 1"
b1111 $"
b1111 3"
0)"
b1101111 :"
b1101111 >"
b11101010 H"
b1111100 G"
b1111011 9"
b1111011 ?"
b0 D"
b10000000 C"
b111100 8"
b111100 @"
b11101110 a
b11101110 k
b11101110 d
b11101110 m
b10101 b
b10101 l
b11011110 x
b11011110 y
b110011 w
b110011 z
b1110111 v
b1110111 {
b10100000 r
b10100000 |
b0 A
b0 K
b1010010 @
b1010010 J
b10100000 [
b10100000 \
b10110111 Z
b10110111 ]
b111 Y
b111 ^
b11101111 e"
b11101111 g"
b10000000 b"
b10000000 j"
b1 a"
b1 i"
b11111111 f"
b11111111 k"
b111 c"
b111 h"
b11110111100111100100 1
b11110111100111100100 I"
b1000 #"
b1000 4"
0,"
b11011110111101100111100101 3
b11011110111101100111100101 5"
b1110 g
b1110 h
b1110 f
b1110 i
b1 e
b1 j
b1101111000110011011101111010000000 7
b1101111000110011011101111010000000 n
b1010010 F
b1010010 G
b10110101 ?
b10110101 I
b11101111 D
b11101111 M
b10110110 B
b10110110 L
b1100011 E
b1100011 H
b101000001011011101110101 ;
b101000001011011101110101 N
b11101111111 -
b11101111111 `"
b111100000 5
b111100000 ""
b1110111001 9
b1110111001 `
b101001001100011 =
b101001001100011 >
b100 (
b11011111100111111110011110001101111011110110011110011000001101111000110011011011110100000011011100110000010110111011101010101001001100011 #
b11011111100111111110011110001101111011110110011110011000001101111000110011011011110100000011011100110000010110111011101010101001001100011 *
b110001011000001011000110111111 $
0"
#11000
b110 &
1"
#12000
b1110001 :
b1110001 O
b0 <"
b0 D"
1p
b1110 '"
b1110 1"
b10000000 C"
b101 7"
b101 A"
b10101010 a
b10101010 k
b1010 g
b1010 h
b101111101011111010111110010101010010000000000100101110110011010100010111100101111001011111010001110101010111111011100011001110010000100110000000000000000010000 !
b101111101011111010111110010101010010000000000100101110110011010100010111100101111001011111010001110101010111111011100011001110010000100110000000000000000010000 +
b1001000 0
b1001000 M"
b1 2
b1 6"
b1 ;"
b1 ="
b1011110010111100101111 6
b1011110010111100101111 q
b100 K"
b100 U"
b100 J"
b100 T"
b10111011001101010 4
b10111011001101010 &"
b1 E"
b1 F"
b11011 B"
b1010001110101010111111 8
b1010001110101010111111 c
b101111 u
b101111 !"
b101111 s
b101111 }
b101111 t
b101111 ~
b1001110010000100110000000000000000010000 <
b1001110010000100110000000000000000010000 C
b101111101011111010111110 ,
b101111101011111010111110 d"
b1001100 P"
b1001100 Q"
b11110000 O"
b11110000 R"
b10 N"
b10 S"
b1101 ("
b1101 0"
b10 -"
b10 /"
b1100 $"
b1100 3"
1)"
b10101011 :"
b10101011 >"
b11010 H"
b1110000 G"
b1101111 9"
b1101111 ?"
b1110100 8"
b1110100 @"
b10100011 d
b10100011 m
b111111 b
b111111 l
b101111 x
b101111 y
b11010100 w
b11010100 z
b11111000 v
b11111000 {
b1001111 r
b1001111 |
1o
b10000 @
b10000 J
b1100101 [
b1100101 \
1Q
1R
0S
0T
b1110101 Z
b1110101 ]
b0 Y
b0 ^
b1110 V
b1110 _
b10111110 e"
b10111110 g"
b10111110 b"
b10111110 j"
b10111110 a"
b10111110 i"
b10111110 f"
b10111110 k"
b0 c"
b0 h"
b1001100111100000010 1
b1001100111100000010 I"
b10101 .
b10101 ^"
b10 %"
b10 2"
b1110 #"
b1110 4"
0*"
1."
b101010110110111101110100101 3
b101010110110111101110100101 5"
b11 f
b11 i
b11 e
b11 j
b10111111010100111110000100111111 7
b10111111010100111110000100111111 n
b10000 F
b10000 G
b10011100 ?
b10011100 I
b10000100 D
b10000100 M
b11000000 B
b11000000 L
b10001100 E
b10001100 H
b11001010111010100001110 ;
b11001010111010100001110 N
b10111110000 -
b10111110000 `"
b10111010 5
b10111010 ""
b1010001111 9
b1010001111 `
b1000010001100 =
b1000010001100 >
1Z"
0["
b110 W"
b110 _"
b110 /
b110 V"
b101 (
b10111100011010010011110001010101011011011110111010010110100010111111010100111100001001111111000111101010101110101000011100001000010001100 #
b10111100011010010011110001010101011011011110111010010110100010111111010100111100001001111111000111101010101110101000011100001000010001100 *
b100001110100011010100101111000 $
0"
#13000
b111 &
1"
#14000
b10011001001101010 4
b10011001001101010 &"
b110 '"
b110 1"
b100 $"
b100 3"
1L"
0p
b110 #"
b110 4"
b11000000000001100000011011100100000010001000100100110010011010100110111001101110011011101000100010001000101010010011010011100110010111011010000000001001000110 !
b11000000000001100000011011100100000010001000100100110010011010100110111001101110011011101000100010001000101010010011010011100110010111011010000000001001000110 +
b10011010 5
b10011010 ""
b10000001 0
b10000001 M"
b10001 2
b10001 6"
b10001 ;"
b10001 ="
b1101110 t
b1101110 ~
b11011100110111001101110 6
b11011100110111001101110 q
b1001101 :
b1001101 O
b1000 K"
b1000 U"
b0 J"
b0 T"
b10110000 B"
b10000 <"
b1000100010001000101010 8
b1000100010001000101010 c
b1101110 u
b1101110 !"
b1101110 s
b1101110 }
b11100110010111011010000000001001000110 <
b11100110010111011010000000001001000110 C
b11000000000001100000011 ,
b11000000000001100000011 d"
b10001010 P"
b10001010 Q"
b1100010 O"
b1100010 R"
b1111 N"
b1111 S"
b10010100 :"
b10010100 >"
b100101 H"
b10010010 G"
b10010001 9"
b10010001 ?"
b100001 8"
b100001 @"
b1010000 D"
b10000 C"
b100 7"
b100 A"
b10001000 a
b10001000 k
b10001000 d
b10001000 m
b101010 b
b101010 l
b110011 x
b110011 y
b1101110 w
b1101110 z
b0 v
b0 {
b10111100 r
b10111100 |
b10 A
b10 K
b1000110 @
b1000110 J
0Q
0R
1S
1T
b11100110 [
b11100110 \
b11010010 Z
b11010010 ]
b1011 Y
b1011 ^
b111 V
b111 _
b1100011 e"
b1100011 g"
b1100000 b"
b1100000 j"
b11 a"
b11 i"
b11 f"
b11 k"
b101 c"
b101 h"
b10001010011000101111 1
b10001010011000101111 I"
b11100 .
b11100 ^"
b100101001001000100100001100 3
b100101001001000100100001100 5"
b1000 g
b1000 h
b1000 f
b1000 i
b10 e
b10 j
b11001101101110000000001011110001 7
b11001101101110000000001011110001 n
b11101000 F
b11101000 G
b111001 ?
b111001 I
b10010111 D
b10010111 M
b1101000 B
b1101000 L
b1010001 E
b1010001 H
b111001101101001010110111 ;
b111001101101001010110111 N
b1100011101 -
b1100011101 `"
b1000100010 9
b1000100010 `
b1110100001010001 =
b1110100001010001 >
1X"
0Y"
b100 W"
b100 _"
b100 /
b100 V"
b110 (
b1000110110100001001100111110010100100100010010000100110100011001101101110000000010111100110010001011011011010010101101111110100001010001 #
b1000110110100001001100111110010100100100010010000100110100011001101101110000000010111100110010001011011011010010101101111110100001010001 *
b11010000110000011011100010001101 $
0"
#15000
b1000 &
1"
#16000
bx C"
b0x0 7"
b0x0 A"
b1110 '"
b1110 1"
b1000011 e"
b1000011 g"
b1110 #"
b1110 4"
b1100000000000001000000010001111101xxx0x0x00x0111001110001000110010010000100100001001000010101101001010101010101011100011111110001111000111101000000001000110110 !
b1100000000000001000000010001111101xxx0x0x00x0111001110001000110010010000100100001001000010101101001010101010101011100011111110001111000111101000000001000110110 +
bx0x00x01 2
bx0x00x01 6"
bx0x00x01 ;"
bx0x00x01 ="
b100001 t
b100001 ~
b1000010010000100100001 6
b1000010010000100100001 q
b1110001 :
b1110001 O
b1101 K"
b1101 U"
bx J"
bx T"
b1101xxx0 0
b1101xxx0 M"
b1100111000100011001 4
b1100111000100011001 &"
bx0x00x0x <"
b10100101 B"
b101101001010101010101 8
b101101001010101010101 c
b100001 u
b100001 !"
b100001 s
b100001 }
b1111110001111000111101000000001000110110 <
b1111110001111000111101000000001000110110 C
b110000000000000100000001 ,
b110000000000000100000001 d"
b11010110 P"
b11010110 Q"
b111110 O"
b111110 R"
0L"
b1001 N"
b1001 S"
b1100 -"
b1100 /"
b10 $"
b10 3"
b11 ("
b11 0"
0)"
b1000010 :"
b1000010 >"
bx D"
b1100110 H"
b100101 G"
b100100 9"
b100100 ?"
b10000001 8"
b10000001 @"
b1010101 a
b1010101 k
b1011010 d
b1011010 m
b10101 b
b10101 l
b1011111 x
b1011111 y
b100001 w
b100001 z
b101111 v
b101111 {
b10001111 r
b10001111 |
b110110 @
b110110 J
1Q
1R
0S
0T
b1000011 [
b1000011 \
b1110010 Z
b1110010 ]
b1100 Y
b1100 ^
b100 V
b100 _
b11000000 b"
b11000000 j"
b1 a"
b1 i"
b1 f"
b1 k"
b110 c"
b110 h"
b11010110001111101001 1
b11010110001111101001 I"
b111 .
b111 ^"
b1100 %"
b1100 2"
1*"
0."
b100001000100100100000010x0 3
b100001000100100100000010x0 5"
b101 g
b101 h
b1010 f
b1010 i
b1 e
b1 j
b101111100100001001011111000111101 7
b101111100100001001011111000111101 n
b10111010 F
b10111010 G
b11111100 ?
b11111100 I
b1111000 D
b1111000 M
b11110100 B
b11110100 L
b1000010 E
b1000010 H
b10000110111001011000100 ;
b10000110111001011000100 N
b1000011110 -
b1000011110 `"
b1100111000 5
b1100111000 ""
b101101001 9
b101101001 `
b1011101001000010 =
b1011101001000010 >
0Z"
0X"
1["
1Y"
b0 W"
b0 _"
b0 /
b0 V"
b111 (
b1000111000110111000111100101000010001001001000000101110000101111100100001001111110001111100110100101001101110010110001001011101001000010 #
b1000111000110111000111100101000010001001001000000101110000101111100100001001111110001111100110100101001101110010110001001011101001000010 *
b11000111011010000011100010001110 $
0"
#17000
b1001 &
1"
