rewiring/runs_tb/cycle_0002/sim.log
CYCLE=0 IN=0000000000 OUT=00000000000
CYCLE=1 IN=0110011100 OUT=00011011010
CYCLE=2 IN=0100000010 OUT=00000000010
CYCLE=3 IN=0011100100 OUT=00001011010
CYCLE=4 IN=1101111000 OUT=00110110001
CYCLE=5 IN=1010111100 OUT=00010100010
CYCLE=6 IN=1010110110 OUT=00011011100
CYCLE=7 IN=1111100100 OUT=01001011010
CYCLE=8 IN=1110110111 OUT=01001011101
CYCLE=9 IN=0101010011 OUT=00000100011
CYCLE=10 IN=1100100001 OUT=00100001010
CYCLE=11 IN=0111100001 OUT=00011011001
CYCLE=12 IN=1111000101 OUT=01001010011
CYCLE=13 IN=1110000010 OUT=00110000011
CYCLE=14 IN=1101100010 OUT=00110011011
CYCLE=15 IN=1000110101 OUT=00000011011
CYCLE=16 IN=0100010010 OUT=00010010010
CYCLE=17 IN=1101010110 OUT=00100100101
CYCLE=18 IN=1111111101 OUT=01001110011
CYCLE=19 IN=0111110100 OUT=00000101010
CYCLE=20 IN=0100111011 OUT=00000100011
CYCLE=21 IN=0101011000 OUT=00000101000
CYCLE=22 IN=0010110010 OUT=00001011010
CYCLE=23 IN=0001011100 OUT=00000101010
CYCLE=24 IN=0100011110 OUT=00010011100
CYCLE=25 IN=0110011110 OUT=00011011100
CYCLE=26 IN=0110011110 OUT=00011011100
CYCLE=27 IN=0011101110 OUT=00000100100
CYCLE=28 IN=1100010000 OUT=00110010001
CYCLE=29 IN=1101110110 OUT=00100101101
CYCLE=30 IN=0101100011 OUT=00010011011
CYCLE=31 IN=1011000000 OUT=00011010000
CYCLE=32 IN=1100011101 OUT=00110011100
CYCLE=33 IN=1100100010 OUT=00100001011
CYCLE=34 IN=1100000110 OUT=00100000101
CYCLE=35 IN=1110000001 OUT=00110000010
CYCLE=36 IN=1001100011 OUT=00000011011
CYCLE=37 IN=1001111000 OUT=00000110000
CYCLE=38 IN=1001101111 OUT=00000100101
CYCLE=39 IN=1011001110 OUT=00011011100
CYCLE=40 IN=1011110111 OUT=00010101101
CYCLE=41 IN=1011010001 OUT=00010100001
CYCLE=42 IN=1110011110 OUT=01001011100
CYCLE=43 IN=0001110111 OUT=00000101101
CYCLE=44 IN=0101101110 OUT=00000100100
CYCLE=45 IN=0010101000 OUT=00001010000
CYCLE=46 IN=1101001111 OUT=00110011110
CYCLE=47 IN=0010111011 OUT=00000100011
CYCLE=48 IN=0110010100 OUT=00011010010
CYCLE=49 IN=1011100010 OUT=00011011010
CYCLE=50 IN=0101100110 OUT=00010011100
CYCLE=51 IN=1100011111 OUT=00110011110
CYCLE=52 IN=1100001001 OUT=00100001010
CYCLE=53 IN=0011100011 OUT=00001011011
CYCLE=54 IN=1000011111 OUT=00000011101
CYCLE=55 IN=1110000100 OUT=00110000011
CYCLE=56 IN=1011000101 OUT=00011010011
CYCLE=57 IN=1000110011 OUT=00000011011
CYCLE=58 IN=1001001011 OUT=00000011011
CYCLE=59 IN=1010011100 OUT=00011011010
CYCLE=60 IN=0011110011 OUT=00000101011
CYCLE=61 IN=0011001001 OUT=00001011001
CYCLE=62 IN=1011101101 OUT=00010100011
CYCLE=63 IN=0111001010 OUT=00011011010
CYCLE=64 IN=0101011101 OUT=00000101011
CYCLE=65 IN=0001000111 OUT=00000010101
CYCLE=66 IN=0100100100 OUT=00000001010
CYCLE=67 IN=1011101111 OUT=00010100101
CYCLE=68 IN=0010101001 OUT=00001010001
CYCLE=69 IN=0101101101 OUT=00000100011
CYCLE=70 IN=1100111001 OUT=00100100010
CYCLE=71 IN=1001111000 OUT=00000110000
CYCLE=72 IN=0011101010 OUT=00000100010
CYCLE=73 IN=0011000010 OUT=00001010010
CYCLE=74 IN=0101010100 OUT=00000100010
CYCLE=75 IN=0101010100 OUT=00000100010
CYCLE=76 IN=1100100011 OUT=00100001100
CYCLE=77 IN=0110011101 OUT=00011011011
CYCLE=78 IN=1110110011 OUT=01001011011
CYCLE=79 IN=1110101101 OUT=01001010011
CYCLE=80 IN=0011010101 OUT=00000100011
CYCLE=81 IN=1100101110 OUT=00110010101
CYCLE=82 IN=0011001111 OUT=00001011101
CYCLE=83 IN=1100000101 OUT=00100000100
CYCLE=84 IN=0111010111 OUT=00000100101
CYCLE=85 IN=0010001001 OUT=00000001001
CYCLE=86 IN=1011110110 OUT=00010101100
CYCLE=87 IN=1110101111 OUT=01001010101
CYCLE=88 IN=0111101111 OUT=00000100101
CYCLE=89 IN=1110011101 OUT=01001011011
CYCLE=90 IN=1100111111 OUT=00100100110
CYCLE=91 IN=1011001111 OUT=00011011101
CYCLE=92 IN=1100101010 OUT=00110010011
CYCLE=93 IN=1101110111 OUT=00100101110
CYCLE=94 IN=1010011010 OUT=00011011010
CYCLE=95 IN=1100001011 OUT=00100001100
CYCLE=96 IN=1101010011 OUT=00100100100
CYCLE=97 IN=1010101111 OUT=00011010101
CYCLE=98 IN=0110001100 OUT=00000001010
CYCLE=99 IN=1100000010 OUT=00100000011
CYCLE=100 IN=1111111011 OUT=01001110011
CYCLE=101 IN=0111101000 OUT=00000100000
CYCLE=102 IN=0111000010 OUT=00011010010
CYCLE=103 IN=0111011101 OUT=00000101011
CYCLE=104 IN=0111001000 OUT=00011011000
CYCLE=105 IN=0001100100 OUT=00000011010
CYCLE=106 IN=1001100001 OUT=00000011001
CYCLE=107 IN=1011100101 OUT=00011011011
CYCLE=108 IN=0100100001 OUT=00000001001
CYCLE=109 IN=1111110011 OUT=00110101100
CYCLE=110 IN=0001011001 OUT=00000101001
CYCLE=111 IN=0011110101 OUT=00000101011
CYCLE=112 IN=1010111101 OUT=00010100011
CYCLE=113 IN=1101111110 OUT=00110110101
CYCLE=114 IN=1001100010 OUT=00000011010
CYCLE=115 IN=1111001010 OUT=01001011010
CYCLE=116 IN=1010010000 OUT=00011010000
CYCLE=117 IN=1101000101 OUT=00110010100
CYCLE=118 IN=0001011000 OUT=00000101000
CYCLE=119 IN=1100010000 OUT=00110010001
CYCLE=120 IN=1001100000 OUT=00000011000
CYCLE=121 IN=1101110011 OUT=00100101100
CYCLE=122 IN=0011111100 OUT=00001110010
CYCLE=123 IN=0100111101 OUT=00000100011
CYCLE=124 IN=0001101100 OUT=00000100010
CYCLE=125 IN=1100001110 OUT=00100001101
CYCLE=126 IN=1011100111 OUT=00011011101
CYCLE=127 IN=1000110111 OUT=00000011101
CYCLE=128 IN=1001000111 OUT=00000010101
CYCLE=129 IN=1101000000 OUT=00110010001
CYCLE=130 IN=0000110011 OUT=00000011011
CYCLE=131 IN=1100011100 OUT=00110011011
CYCLE=132 IN=1010110110 OUT=00011011100
CYCLE=133 IN=1011010111 OUT=00010100101
CYCLE=134 IN=0100111010 OUT=00000100010
CYCLE=135 IN=1001100111 OUT=00000011101
CYCLE=136 IN=1001010011 OUT=00000100011
CYCLE=137 IN=1010000100 OUT=00010000010
CYCLE=138 IN=0011110100 OUT=00000101010
CYCLE=139 IN=1011100100 OUT=00011011010
CYCLE=140 IN=1100101000 OUT=00110010001
CYCLE=141 IN=1101100111 OUT=00110011110
CYCLE=142 IN=0010010101 OUT=00001010011
CYCLE=143 IN=1100111100 OUT=00100100011
CYCLE=144 IN=1101100100 OUT=00110011011
CYCLE=145 IN=0110010101 OUT=00011010011
CYCLE=146 IN=1110001010 OUT=00110001011
CYCLE=147 IN=1100111101 OUT=00100100100
CYCLE=148 IN=0001111111 OUT=00000110101
CYCLE=149 IN=0101011011 OUT=00000101011
CYCLE=150 IN=0011011100 OUT=00000101010
CYCLE=151 IN=1111101100 OUT=00110100011
CYCLE=152 IN=1011000110 OUT=00011010100
CYCLE=153 IN=0001000110 OUT=00000010100
CYCLE=154 IN=0001111001 OUT=00000110001
CYCLE=155 IN=0100000100 OUT=00000000010
CYCLE=156 IN=0011010100 OUT=00000100010
CYCLE=157 IN=0100110100 OUT=00010011010
CYCLE=158 IN=1010111101 OUT=00010100011
CYCLE=159 IN=1100011011 OUT=00110011100
CYCLE=160 IN=1100000010 OUT=00100000011
CYCLE=161 IN=0101110001 OUT=00000101001
CYCLE=162 IN=1001010011 OUT=00000100011
CYCLE=163 IN=0001100011 OUT=00000011011
CYCLE=164 IN=0011011110 OUT=00000101100
CYCLE=165 IN=0011110000 OUT=00000101000
CYCLE=166 IN=0000000100 OUT=00000000010
CYCLE=167 IN=1001011111 OUT=00000101101
CYCLE=168 IN=0011111000 OUT=00001110000
CYCLE=169 IN=0000100011 OUT=00000001011
CYCLE=170 IN=1110000000 OUT=00110000001
CYCLE=171 IN=0101100001 OUT=00010011001
CYCLE=172 IN=1101100001 OUT=00110011010
CYCLE=173 IN=1001010111 OUT=00000100101
CYCLE=174 IN=0011010010 OUT=00000100010
CYCLE=175 IN=1011111100 OUT=00011110010
CYCLE=176 IN=1010111100 OUT=00010100010
CYCLE=177 IN=1001111011 OUT=00000110011
CYCLE=178 IN=1100110001 OUT=00110011010
CYCLE=179 IN=1101111110 OUT=00110110101
CYCLE=180 IN=1011101101 OUT=00010100011
CYCLE=181 IN=0101100100 OUT=00010011010
CYCLE=182 IN=1111010100 OUT=00110100011
CYCLE=183 IN=0110111101 OUT=00000100011
CYCLE=184 IN=0100010100 OUT=00010010010
CYCLE=185 IN=0011001011 OUT=00001011011
CYCLE=186 IN=1011001011 OUT=00011011011
CYCLE=187 IN=1011011011 OUT=00010101011
CYCLE=188 IN=1111101001 OUT=00110100010
CYCLE=189 IN=0101001110 OUT=00010011100
CYCLE=190 IN=1000100100 OUT=00000001010
CYCLE=191 IN=1101000010 OUT=00110010011
CYCLE=192 IN=0000000111 OUT=00000000101
CYCLE=193 IN=0100000000 OUT=00000000000
CYCLE=194 IN=0111010110 OUT=00000100100
CYCLE=195 IN=0100111111 OUT=00000100101
CYCLE=196 IN=0100111001 OUT=00000100001
CYCLE=197 IN=0011111001 OUT=00001110001
CYCLE=198 IN=0011010111 OUT=00000100101
CYCLE=199 IN=1101111010 OUT=00110110011
TB_SIM_OK cycles=200
- /module-fuzz/rewiring/runs_tb/cycle_0002/tb_top.sv:54: Verilog $finish
CYCLE=200 IN=1001110110 OUT=00000101100
- S i m u l a t i o n   R e p o r t: Verilator 5.039 devel
- Verilator: $finish at 402ns; walltime 0.001 s; speed 580.541 us/s
- Verilator: cpu 0.001 s on 1 threads; alloced 94 MB
