rewiring/runs_tb/cycle_0002/sim.log
CYCLE=0 IN=00000000000000000000000000000000000000000000000000000000000000000000000000000000000000000000000000000000000000000000000000000000000000000000000000000000000 OUT=000000000000111100100000000000000000000000000000000000000000000000001111001011000000000000000000000000000000000000000000000000000000000000000000000000000000000
CYCLE=1 IN=01111010101100011101011110010010010000101111000001101111000010010001100001011100000111001001001111011111101110101010000001000001011000111100101110110011100 OUT=001011111101100001011000111110001110101111000000110000000001111110101010111000100111000000100101100000000000001000000011111100111000001101011000000000001011101
CYCLE=2 IN=11110011110000101110010000111111100110001000111000101010011011111010110111111110011101101110010101000010100111111111110010011001010101001001001111010110110 OUT=001111111100000011010010000111111100000101111100010111011101010100101010100110111100100001011000100000000000101000001010101010011101000010101000000000010011110
CYCLE=3 IN=01101011000000101100011010110100100010100011111111101100010000100100101001111110011100000101101111110001100101011111100010110001010100110100111110111100001 OUT=001011111101100100100001011000010110000101111111110111111111111110111000111000111100001001010000100110000010100000101000101111010011100110111010000000001111101
CYCLE=4 IN=11010101101111101010011101111011100011010110100000111110100101101000011001000111011111111010110001011111001101010110101011010101101111110111100100100010010 OUT=010111011000001001011111010111011101111101010000011100010001111110101010100110111110110110000011111100000010111111101111101101110110111001000100000101100000011
CYCLE=5 IN=10100011111010001011001111001011010000110111000010100011110010101101101000100001000010111001110100111001111000001001011001011000110011011010100110101011000 OUT=001010111001010111010100010101000101100111100001010000000000000001100010111000100011100110110001010000000000110111111101010010111110101011110000000000001001101
CYCLE=6 IN=01001010000111011010110001101000000111110110111111101110110100110000011101101101011000100000111101100110011000111001110111000111101111110001001100110011110 OUT=000011101110101100101110110101000000111011011111110111111111111110111000100110111000010000000011011111110111111101111110011011111111011011011100000000010011001
CYCLE=7 IN=10111101110010110111000000111101111100100111000111100000110110000010001101100001111001000100000000111001000101110110001110101011001100111111010001011000000 OUT=100111110110010011000101101001011011100000000011110000100010000000101010111000111000010000100001000000000000000000000000110001011100010100000000000000010100010
CYCLE=8 IN=01110000011111111101111011101100011010101001101101011001110011000000110001010111110011011111100010001010100110000100111100001111001001011010011001001100011 OUT=000001110111100001101111011011110110111101110110101101110111010100111000111000110010000000000101010000000000001000000011001010111001111010101100000000000110010
CYCLE=9 IN=00110101000000011001010100011101100010110001100000101101110100111000100001111011000011101110011110011011001101100111001111010010011011110010001101011010001 OUT=000101110110110000101010100010101000101010010000010100010001111110111000100110100010010001000001101111000110111001101111110101101001001001110100000000000011010
CYCLE=10 IN=01001111111111100010110011010111101000010110010111011100010000110011011001010001001100101000111000111110010100100001011101110100100101110001110001101001111 OUT=010011111011101111011111000010111101011001101011101010101011111110111000111000101100100100000001001011110010111100101110011001010010100000011010000001001000101
CYCLE=11 IN=00110101101101011111000010001010111101100001111011000011111111111111001110010111100111000111011110101010100101100110000100111101111111111000001101100011111 OUT=000101110110110001011000010110000101100001011101100111011100000001100010100110100111110010000001111000000001111111111110011101011111100010001010000000000011011
CYCLE=12 IN=11011001000101010001111001111101110010000100001111010011100110111110111001011101010010010110111100100100001101001100011001101011111000100000011011011000101 OUT=100111010100001000101111001111101110101010000111101001100110000000111000111000110011010000100001110001011100010111000101111101101110001100011100000000000110110
CYCLE=13 IN=11001100001001101000100011101111100010010011101010101011101000110111011100101100101110010101001001111011101011111101110110111001110101100110010110011001001 OUT=110011000000001100110011010100110101001101010101010101010101010100111000111000101110001000000001011000000011010111110101111010101100011100011000000000000101100
CYCLE=14 IN=11000001000001101110011100111011011111010001101100101101101010111010101010010110100101010011100001101001001101100101110111101000011111001011110110100100100 OUT=000011011101001100110011100100111000001101110110010101110111111110101010100110100100001011001001000000000000011000000110001000111001001010101000000011000010101
CYCLE=15 IN=01010101010010010010101010011011011011100110000000101010100011111011110011100111000110000100000101010000111111010001110101001001110111100101001101001111000 OUT=010101010000101001100100100011011011010101000000010000000001010100101010111000100110000000000000111100000110111111101110001001000100010001100000000000100100010
CYCLE=16 IN=10011101001010100001101010100111001101111000111111110101101001001110000100001000011101100111110100001100011110100011001110101101000101000001100101100100011 OUT=100111010100011000101101010100111001010100011111111111111110101010101010100110111101010001000100001010000010100000101001110111010101000110000010000010100011100
CYCLE=17 IN=11111011010000001001000100100100000101110001001010111010111000111111111111110110011000001010000101010000111101110001100111111001110101110010111101100101110 OUT=101111110100000001101000100010001000000001000101011001000101010100111000111000111000000010111001010111001101011111010111010100101001101000110100000001000011111
CYCLE=18 IN=10011111110010000110011111101011011111000000010011110011101100000001111100111110101111011111000011001011000100111111010111111011010110010000100001011110110 OUT=100111110110011011010011111101011010010000101001111010001000000000111000100110101110000000000000101100101011001010110010011100001001100011011000000000001000010
CYCLE=19 IN=00100000110100001110000101101001011100101001001101010011010000010010001010011100011011101110000111101110101111000110010101011011011000111001100111011001111 OUT=000000100010110111010000101100001010100001100110101001100110000000111000111000111010001000000010011000000000110000001101001110111111111100100100000000011001110
CYCLE=20 IN=01010010111001010111111101100010001110110101011001100000010100010001111001110111001100011000001101101111000010000101010111100100100100011000001111101010011 OUT=000001110111101011011111101111111011001010101100110011001100000000111000111000101100001000000100001000000001001111110010111001011001100000011010000000000011111
CYCLE=21 IN=01101101000110110000110010001000011011010000100000111001000011011100110110111001101110111011001000000001111110110011100001010011111001000000001010111101000 OUT=010011111011100100100110010001000010011001010000011100010001010100111000100110101111000011000001110010011100100111001001111110100101101000010000000000000010101
CYCLE=22 IN=10101110001000001000101100110010000110000000010011111110011000001011110100111011101001000011010000110010001001110101110010100001001011101101010011001100001 OUT=101011100100010100100101100110010001000001001001111010001001111110101010111000101000010010110001000000000000000000000000000011101000101111001100000000101000101
CYCLE=23 IN=10101110110100111111100101001010111101010100010011001100010010000001011010000011011011111101001110000010000000101101011110100000010011010010001100011110101 OUT=101011100100010111011100101001010111110010101001100010001001111110111000111000111011110100010001001101000100110001001100000110100100011111110000000000000011000
CYCLE=24 IN=11111001111110111100110000011101100100010110001101100010000011000110111000111100000010110000001110010010000110001110100010100000111101110100001111010010000 OUT=100111110110000011011101111011101100011000000110110001100110000000111000111000100010010000000101101110000111101111111011010111010001110111000000000000000011110
CYCLE=25 IN=00011001101010100110000111010010101110011111010010001101100000100110101000111000001001111011001001101101111100011001111110010001101101110000000001101110011 OUT=000110011000111001010101001101010011000011101001000010001001111110101010111000101000001100000001011011110110111101101110111011010010000010110010000000000000011
CYCLE=26 IN=11100000101010010000011001100111101110001111001001101000000000110001110011110101110010001110100000000111010010100100011011101010110010100111001101011100111 OUT=000011101110000101010100100101001001010010000100110001000101010100001110111000110010000000101000101000000011001111110011000000110110011111101100000000010011010
CYCLE=27 IN=10000000011010010100110011101000001011101001110010100111010111011011100000111100010110101111101101011000111000110101011011011100000011000010001001100011100 OUT=000010001000011101100110011001100111010010111001010110011000101010111000111000110111100001000000001100000000110000001100010111111110111000101000000000000010011
CYCLE=28 IN=00001100100011110110010100001011110111011101000011011100100001110000110110111101000111101001100000100001111101111101000010001001101010001011111011001010011 OUT=000011001100111101010010100100101000011110100001101000000001111110111000111000100110110011000000000000000000101111111010100100110100011110000100000001001010000
CYCLE=29 IN=11011011100010000011001010111010100101110010001101101100100101001100000010010100111001111001000110100111111110110001001010111010010111111010100001101100111 OUT=100111110110001001000100000111010100010000000110110001100111111110111000100110111000100000101101110000000000010000000101010101011011100111101010000000001000011
CYCLE=30 IN=00011101010101010001101110010011011100110000011100101011011000001001100011001110000011111111001000110101111010001110011110100010101100110101001011110001010 OUT=000111011100111001101101110010011010110111001110010011101111010100111000100110100011110010000001100110000101100111011000010000100001101011001100000000100001101
CYCLE=31 IN=01111100111110110010000010000011001000101101111000001111001000010010001111100000000010001101101011101001010110101101100011010000000010110101100101111101100 OUT=010011111011100011010000010100000101000001011100000111011101111110101010111000100010001000000000010110000000010000000101011011111011111001001000000000011001011
CYCLE=32 IN=01011011101000100110000001010110111101000100101101100011011001000001100110101110110101111010111110100000010110010010011010011110011100000000100100011010100 OUT=000111111110101001010000001010110111000000110110110101110110000000111000100110110101010010000000111000001110000011100000001110001110100101000000000000001001000
CYCLE=33 IN=00000101001001010001111000001011011000010110110010011011110100011011101000010110000011000110111111001000010110011100101001100011010011111110111100101110001 OUT=000001010101111100110010100001011010111100011001001110011001010101100010111000100011110000000001000000000000000000000001110101000001000011010010000000100001000
CYCLE=34 IN=11100111011101010111000000001001110100010001010110000100011100100100110000110010100111110000000101011100001010111100101111110001110111000001011000000000100 OUT=011011111001000101111000000110000001101010101011000010101010101010111000100110100110000000000011101110011011100110111001011010010101100110000000010110000000000
CYCLE=35 IN=11111110000011010101111110001110111010011001001000011010010111000101110010011000010010101110010111001010011111111110110000100111010000110000111100101100001 OUT=111011110001000000101111110011111100111111000100001001000101010100101010111000110011010000000000100001101000011010000111101101000011000110110010000000100011000
CYCLE=36 IN=11101110001010110101110110110011011101101100001101101111110110100100111010100011011001100011111000111010011101101100111101100010110000010110111011010111100 OUT=111011100000000100101110110110011011010110100110110001100111111111100010100110111000000000100000000100000011000111110000011001010111010101010000000000001110110
CYCLE=37 IN=10101101100110110001100101100010110010110101100000100010100101010101110100101010101101111010100000010001010011000111101010010111110011010011111100101100100 OUT=100011110111010101001100101011001010110110010000010100010000000000101010111000101101000000000001001101001100110111001100101110110010101010001000000001000110001
CYCLE=38 IN=10000000100011101100010010000010010000110010000010101001110110111101011011100110011111010010101001001011010001100101101101100110101000100000000101011001011 OUT=000010001000011101000111011000010010011101100001010000000001010100111000100110111110100000000001010001010100010101000101101010100111111111011100000000000001010
CYCLE=39 IN=01110011100111001010011111111010101110100110011000111010110110110000000101001110101000000001010111000100101001011000000011110000111011011110111011101000010 OUT=001101110100100001001110010111010101001111101100011011001101010100111000100110101000110101010001000000000000001111111111011100100110101101011100000000100110101
CYCLE=40 IN=01001100000000110100111011011011111001101111101111101111010101110101000011010000100110101111110001010101110110111001111100111000100001000000111110100111001 OUT=010011001000101100100001101000011010011101110111110101110111111110111000100110100111100100000011000010010000100100001001011011001000100110101010000001000001011
CYCLE=41 IN=01110000101011101100010101110011111000101111110010001110110000000111001111100111010101011101111000101010101011100000100001010110101001110001111011001111100 OUT=000001110111100001010111011101110110001010111001000110011001111110111000111000110101010000000001010011110100111101001110111001001111010001010000000000101111010
CYCLE=42 IN=00010111000000001010000100110100101010010100110001100000110100101011011110100011110101000100011010000111111011101011101001000110011100000010100000100100111 OUT=000101110110111000110000100110100101000010011000110110011000000000101010111000110101010000000011110000000111000001110000110100000011010111001110000000100011010
CYCLE=43 IN=01111010000110110110111100100010000100001100110010101011001100000100011000101010010111001000101001001001111010100011101110000110010000110101000101000001111 OUT=001011111101100000110111100100010000110110111001010110011001010100101010100110110110100000000000000110000010000000100001001100101111011000101100000100100000011
CYCLE=44 IN=11011110111100000101000110111110011010010101001000011101010001111100010001101000101111101110010001000001100100110101000000010111000010001100110101010101100 OUT=110011110011001011001000110010001100100011000100001001000101111110101010100110101110000000000000000000000000000000000000001011010111110001110000000000001101010
CYCLE=45 IN=11111100011010110011100011000100101001001101001001111001010000011110110100100111111000100000100101111110010111110001000100101100110001100100101011110101111 OUT=110011110011000001111100011111000111110001100100111001000101010100101010111000111000001000000000001100000110001111100010000011010101000011110010000000001010111
CYCLE=46 IN=01101011001111010100101101011001011101111011100100111110111111111001000110001101001010011001010010101101000111010100111100011101101011001000111000010101011 OUT=001011111101100100111110101111101010010110110010011100110011111110111000100110101010010000000001100000000001010111110100001101111000101110100000000000001110000
CYCLE=47 IN=10101010000011111100001000001001101111110011000110100101001110011110110100011000011110010010011101010110111111111000001000111010101100010011100100001010100 OUT=101010100000010100100111111001111110000100000011010000100010101010111000100110111110110101001000110001001011000110110000001110001110100101000000000001000100000
CYCLE=48 IN=00101000110101001001000110010001101101000001100111100110001000000100011111100010110001010101011101100011011011110010111000100110101111111001010001100010100 OUT=000010101010110111001000110010001100100011010011110100110010101010111000100110110000100000000001111000000001011111110111011011110001111101111000000100000000011
CYCLE=49 IN=10011100111010010001101100101000110101011000111010001101110011011011110101011111000100001101100110100101000010111011000001001000110010010000011000111100110 OUT=100011010101011011001101100101000111010010011101000111011101111110111000111000100100110010011111100100111001001110010010001011101001011000001100000000000110001
CYCLE=50 IN=11001001101100001001000110111110101010010000110000001010100111010101011010110000000101110001110001101101001010101111000110101110100001101011100100101101110 OUT=100011010101001101001000110111110100100011011000000110011001010100101010100110100100001010000011100000000000100111111000011011101011011010111100000000101011011
CYCLE=51 IN=00101110110000100101011001001110100010100100011101101100101100010011011111001011110011011101001001111010101110110101101011011110101110111001010101001101001 OUT=001011101100110111001011001001110100101100101110110011101111111110111000111000110010001000000001011000000001011111110110001001101000001101110100000000101000001
CYCLE=52 IN=01111011100110011111010100100010101000001101111110010011001010111001001010011100110011001001011100110010000010110100100111001001010100001101001110001010111 OUT=001111111100100001011010100110101001101010011111001111111110000000101010100110110011000000100000000000000000001000000011111001101000101000001000000000101000101
CYCLE=53 IN=00101100111110000111110011111101100111010101001101111110110110100010110011110111110101010101010001101110011111001110100001111000000000110000110010101000000 OUT=000011101110110111011110011111100111110000100110111001100111111110111000111000110100001000100010000001100000011000000111010010100100101010000000000000100100101
CYCLE=54 IN=00101010111001000010000111011000010100001001101101010000110101010000010000101000001010100111000000011100010101111000010001011101110010011110001110111010111 OUT=001010101000110111010000111100001111000011110110101101110110000000101010100110101011000010000001000000000000001111111111111010001000110010110110000000000011101
CYCLE=55 IN=11001101110000000011111001110000011111001000001100001001001111010110100001001001100010000000100100110111110011101101100100111101110111000010001111111100100 OUT=110011010001001111011111001110000010000000000110000001100111010100111000100111000010000100000011011100001101110111011100000001100111011100111000000000000011111
CYCLE=56 IN=01010000101010101100001000010010000111100111101100110010110001001110111000011101110010110110111011000100101010000001111100010101001100001100111110000001001 OUT=000001010101101001010101011101010111010101110110011101110110000000111000111000110011010000000010000000000000000000000001000010101110011010111000000110100000111
CYCLE=57 IN=10010001101011011111000000010011111111000000010110000011011100011001111111110010000110111101101000010011011011010010110110110111101011011000010111110000010 OUT=000110011000011001011000000010011111100000001011000010101010000000111000100110100111010000000001101000000001010111110101011000110101101110111100000000000101111
CYCLE=58 IN=00011110010111011100000101010010100100010001111100010011111110111100101010100001101011110100101001000111011001101010011101110011101100001001011110111011101 OUT=000011111111111001100000101000001010000010111110001111111110000001100010100110101011000000000010000000000001011111110111001101011100000001010010000000010111101
CYCLE=59 IN=11101111001110100000100100111100001101111001111100010110100011100111101010101000000110100110010110101100110111011101001110000001000000111110100111110111000 OUT=111011110001000100100100100001001000010010011110001111111110101010101010111000100111100010000001000000000000000000000000000011110010111110010000000000001001111
CYCLE=60 IN=00110100111101101110001111111110100011000010110011101010110000110110101011100011000111010011100111000110101001100111101110011111000001110111100001110000011 OUT=000001110111110011011011011111110101101101111001110110011001010100111000111000100110110100000010011100000000000000000000100011001000000110010010000000101000000
CYCLE=61 IN=10101110111101100111110110100101010001011001110001011011000100010000101010101010011100011000110101100000101100111010110010110100001000011011100101101011111 OUT=101011100100010111011110110111101101101100111000101110011001010100101010100110111100010001000000010000000000001000000010010101001101100010101010000001000001101
CYCLE=62 IN=11100111100111111110110011111011100010000100110110011000101100011011000001101111011001111001001101011100100110001000001100111011001010100010001100101101000 OUT=011011111001000101010110011111011100111111111011001110111011010100111000100110111001000001000100101010000010101000101011000000110110001001010000000000000011001
CYCLE=63 IN=11001010000001111010100001110000110010010010001101110000100111100011001001100011001000000011011100001110101100100011011111111110100101101100000001000100011 OUT=100011100110001100100011110110000110001111000110111001100110000000111000111000101001110000000001000000000000010111111100010010111011111010001100000000000000010
CYCLE=64 IN=10010010101011010101110100011111110111011000100011101000111100011001100111110101010000110110010001001101111000000010010001111001111011010110000100110010011 OUT=000010111011011001001110100011111110111010010001110100010001010100101010100110110001000100000010110100000011101111111011001110001110110001010110000000000001001
CYCLE=65 IN=10100001000101110100100111001011010110001111101000010011010010001110000011000000111011110011010011011001101011000110110101001001010001000000101000010101001 OUT=000010111011010100101011101010111010101110110100001101010100000000111000111001011011010001001000100010001000100010001001111100110100111110100000000000001010000
CYCLE=66 IN=01110101101001011101000000000111101010100100011110111110001000000100111110100101001001010010000011010101001000111100010111101100101110101011110001111110011 OUT=010101110010100001001000000000111100100000001111011011101111111110111000100110101000000110000010100000000000101111111011101011011110000011110010000000011100011
CYCLE=67 IN=11110000011110100110101010111101110100110000100100001100001100011011111010010110011100100010100000100110011000011101010100111011101101000111111101001100110 OUT=000011111111000001110101010111101111110100110010000100110011111110001110111000111101010000100001010000000010110111101100110000010010100100111000000001000101110
CYCLE=68 IN=01000000000110000001110011111010001000000110111010011001110100100010001011111110110100001100001001001110100100011000000010010100101000100011110000111100010 OUT=000001000100101100101100000111010000111001111101001111011101010100111000111000110100100000000010100010001010001110100011100001111111111101000100000000011100001
CYCLE=69 IN=10110101000110110101001100001001100110011011111110101111110101010100001000110000010010011001101110101111000011100001001101100001011101101011010100011010001 OUT=000111111110010000101101101011011010110110111111010111111111111111100010100110110010010100010011100000000000011000000110111100111010111001010000000000010101000
CYCLE=70 IN=10010000000101101010011011110010110100110001010111000100000100011001001011111100101100001000011110100100101000010100011000111011011010000001111010001101101 OUT=000010011001011000110011011100110110101101001011100010101010101010001110111000101100000001000000110100001101000011010000110000110000111111001000000001000011010
CYCLE=71 IN=00111100100111101101010110011110011111101110011110011010111110101111011100011101011110011110110101011101100101110010000101100110110110000001001100111010001 OUT=000011111111110001001111011011110010101011001111001011101111010100111000100110111110110000000001101100011011000110110000110101011001000111010010000000010011001
CYCLE=72 IN=01001110010110010001101110010000100011101100011111011000010011101111000111001111010110010001000010101001011110100110100110111011000111111101010111100100000 OUT=010011101010101101101101110010000100110111001111101011101111010100111000111000110110010001000001100000000000000000000001100111110001111111000000000010100001111
CYCLE=73 IN=01111100001101000010000001110010010010110001000110111000110001111001001111000110011101101001110101100001001010000101011101010111111011110110111011010101011 OUT=010011111011100000110000001100000011101000000011011000100011010100101010111000111100110000000000111100000011101111111010010000111001011110100100000000001110110
CYCLE=74 IN=10000000000100101000100100110011001011000101111001010101011001010000000000111101001010011101001111100100010010000101101111010000110101011001111010100010100 OUT=000010001000011100100100100001001000010010011100101111011100101010101010100110101010100000000100101000000001101111111010000100111100001001001000000110000000101
CYCLE=75 IN=10100000110011011110000011101010000101110010100111111000101111011000001101001101001100100011100000101100111011100100010110010111000110100010010010000010110 OUT=000010101010010111000110111101010000011011110011111100110011010100111000100110101100110000000000011010000001101000011010011101000001110000110000000000100001110
CYCLE=76 IN=11101010001001111101000000011010001011001000100001100100100111001001110001010100110100101101010111000000010001100010001011001101010111110001000111010011000 OUT=101011100100000100101000000011010000100000010000110100010000101010111000100110110100110100000000101111101011111010111110010011011110110010100000000000010001110
CYCLE=77 IN=10101110100100110011100000011110001001111100011111101110010101010011010001001110100010010010110011001011101000101111111110001111000110100111100011111101100 OUT=101011100100010101011100000011110001110000001111110011101111111110101010111000100011000100000011101000000000011000000111011001111011011011101000000000011000111
CYCLE=78 IN=00011010111101001011000110111010001100001100010100000011111011001101011100110110011000101010011010101100100110110010011110001100110110110101011001010110100 OUT=000010111011111011011000110111010001100011001010000010101010000001100010100111011000100000100010110110000110110111101100110011011111110001010000000000010110010
CYCLE=79 IN=10101010111111100110101011011100001111111110110010110000101111011100100111110101000010001001011100011010011010100000111010010010110010101110101101011000011 OUT=101010100000010111011111001011100001010101111001011110011000000000111000100110100011010100100010000000000000001111111110001110110010111100011100000000001011010
CYCLE=80 IN=01010000100011011011011101100111011010011001001110010100100100011010100001001101010111010100111101101110001110110111001000111110000111100101001101111001011 OUT=000001010101101001011011101110111010011011000111001001100110101010111000111000110110001000000010111100000000111000001110110011011010000111010010000000010011011
CYCLE=81 IN=01100110000001011001111101000010100101100110000011010010010000010101000101101001100010000010100000100110011010000000000010110110111101010110101000110010111 OUT=011001100000100100100010110000010100001011000001101000000000000000101010111000100011010000000011010100000011110111111101110100010111010110001110000000001010001
CYCLE=82 IN=00111001000101001001101110111010111000100100011000110010000111100001111100100100111111000010100100000110000010010000111000110000000010001010111011000010100 OUT=000110111010110000101101110111010110110111001100011011001100000000111000111000111110100110001100000000000000000000000001000101001100010001110000000010100010010
CYCLE=83 IN=10001101111101110111100001001010010100110100001111011011111011011101011010111010011011111110001101111100010111010101011110000101100101110000000110001011010 OUT=100011010101011111011100001001010011101110100111101001100111010101100010100110111010001000000001001011110010111100101110110011010110010001110000000000000001100
CYCLE=84 IN=01101101110101001100111110111110101111111010100100101100000011101111111110000001111000010001001001011100010010100101110010011011010001010010001001110110010 OUT=010011111011100111001010011111110100101001110010010100110011111110001110111000111001000110000011000101000100010001000101100010101100001001101100000000000010011
CYCLE=85 IN=10010110000111010010001011111001000001000001010111001001011110001111010111100111101101011001101101110110010001001101101000110010010110100011001010010000100 OUT=000011111111011000110001011100010110111010001011100010101011010100101010100110101100001010010011011010000101101001011010001100000010000010100000000000100010000
CYCLE=86 IN=00010010100010110101010100101011111111100010010011001111001111011101001110011110100100010010111110001000111001101001110011011011011001010001100100110000100 OUT=000000110011111001000101101101011110010110101001100010001001111110101010100110100101110000010000110010101100101011001010100110101000101101001000000000101000101
CYCLE=87 IN=11000000000001000001101010011111100000111100110001101011011001011000001000101010011010101101110000100101101001100100000011100110111111101000011100100001000 OUT=000011001100001100101101010011111100110101011000110110011001010100111000100110111010110000000001110000000001111111111110100000100110001110010000000011100000001
CYCLE=88 IN=10110011000100011111010110110111111010111110111110111110000100110010111110100100001101011001100001010011011011011011000111110100010011010100000101101001100 OUT=001110111000010000101000111110111111101011011111011111111111111110111000111000101101000100000000011010000010011000100110101011110111111010001000000000000001011
CYCLE=89 IN=11010010000000100110000111001000101101001000010000000001100001001000000010110100111001110001101111001001011111110011100101111001111101011001110110111101110 OUT=000011111111001000110000111001000101000011101000000010001000000000101010100110111000110000000000101000000001111111111111101101111111111010101100000000011101101
CYCLE=90 IN=11010001111101111001000010010010101111011111101001010111110001101101000001011001101010001011111011000111101111110101000000100011100111100010001001110101011 OUT=000111011100001011011011110110111100100001010100101101010100101011100010111000101011010001000010011110001001111110011111011111001101000101100010000000000010011
CYCLE=91 IN=00100100000001101110001111101101101000111100110001110110011101010000011011000111110111010010110111101111111111111011100110111011111111011101000000101100010 OUT=000001100110110100110001111101101101000111111000111110011000101010101010100110110110001110000010100000000000011111111111110001100011111011000100000000100011111
CYCLE=92 IN=10111010101000010001111101010010010111101111010011001100010000001001101100011001110111001101100111001111000011010110010000010001100101010110001010000100010 OUT=101010110001010001010000100100001001000010001001100010001001111110111000111000110110010001001011010100000010010111100100011011011110010101010000000000000010100
CYCLE=93 IN=10110010001101011101000010111110100010110101001111011010110111101101001011011011101110111101100001100100010111011001010011101110111111110010011101101101110 OUT=001010111001010000101000010010000101101011100111101001100111010100111000100111001110110000000001111111001111111111111111010100111001101010110100000000000111011
CYCLE=94 IN=00010111110100111011001110001010110110110000010101010111001101001101010010011000110010110110100111110011001011001101010010111101110111001100100011110100011 OUT=000101110110111011011001110001010110100111001010101010101010101010101010100110110010001000000000000000000000011111111111110101010100100001101010000000001000111
CYCLE=95 IN=10110110011011100000110010100101010011110110001001001011001010010011000000001010101011011100001110100111110110101010111100011111100111001111001000101110001 OUT=001011111101010001110111000100101011011100000100100001000101010100101010111000101010000000000100000000000000001111111110000001000100000000000010000000100100000
CYCLE=96 IN=00111011011101101110111011100010111100000001110011110000110101111110111010111001011110110101100110101101111111010100110010101110111111011011001111101110001 OUT=001110111000110001110111011101110111101101111001111110011000000000101010111000111111010000000011010000000000111111111110001000000101110001011110000000100101110
CYCLE=97 IN=01011101110011111110010010010000011010011001001000111001011001110010100100001110000010100001110001000000101001110010011011110111111110111101111100101011000 OUT=010111011000101011010010010100100101001001000100011001000101010100101010111000100010000000000001100000000000011111111110101000110100001100110000000001001001001
CYCLE=98 IN=00100111110110101111010001000110011111101111101011011101100111001010001101000010111100010110101011000101111111011000000111110100111100111100100100001101100 OUT=001001110101110111001101011011010111101000110101101101010101111110101010111000111101010000000011100000000000011111111111011010011011100011000000000000001001000
CYCLE=99 IN=00100110101101010001101101101111000011101100010001100110111100101011010010110011101010111100010111011100001100011101101100111101100010110111000010101100110 OUT=001001100100110101001101101101111001101010001000110010001000101010111000111000101010010010000100101100000010001111100011110101100011111111111100000000100011111
CYCLE=100 IN=01101110011000001110101111010000100011110001111010100111100001001100101000110111101010101010010000001000111100110010110110001000100011010110110110101111010 OUT=011011101000100101110101111101011111010111111101010111011100101010111000111000101011000100100000110100000010001111100011110011111110011111100100000000001101101
CYCLE=101 IN=01101111010110100010100111001000111110010111101110101100011100000111001111100100000000000010100010010001011010111101101101001010111011001001010101110001001 OUT=011011111001100101101101000011010001010011110111010101110111111110111000111001000001000000000001100000000001110111111100011010000100010100000110000000100100010
CYCLE=102 IN=01100010010001010110001111111101000101100101001001100010010100010101011000101100100110110101000111011111011011010011100110010111101101110101100011110011011 OUT=001001100100100101110001111100011110001010100100110001000100000000101010111000100111000000000011101110000101101111011010110001000101100011111010000000100101100
CYCLE=103 IN=01100001001101111011100001010011011101011111001010110010100000011010000100000110001001100100100001010011111011100011001000100100010100000011100011010010000 OUT=000001110111100100111011110110111101110000100101011001000100000000101010111000101001000100000001010000000101000001010000101011000110110011000000000000100110110
CYCLE=104 IN=01110010110000110100001110110010101101010110011001110101000100100010010110011111100111011001010000100101001110000100111001101011011110111111000111011000101 OUT=001001110101100011000001101110010100000110101100111011001100101010111000111000100110100100000011000000000000000000000000101001111001001010001100000000010001110
CYCLE=105 IN=10101001101000100100101110000101001000110101101110000000011001111110011101011101100101011010000101101110001000101001010100100101101011101000110101100010001 OUT=100010110011010101000101110001011100010111010111000101110110000000111000100110100100001000000101110000000001010111110100111110001011010000110110000011000000101
CYCLE=106 IN=00100000000111001111111000000101010011111011110010100011010010110001011010011100010010111101001111001011001101100110101100011101001000110101010101000001000 OUT=000000100010110100101110011011100110111001111001010110011000000000111000111000110010110001000001000110000001000000010001011001010100010010100000001010100000010
CYCLE=107 IN=00010001100011011111011100011000010101011010011001000010101100010011111111101101110100010111000000111101011110010110010011101011101011111000000110000000100 OUT=000100010000111001000110111011000011101110001100100011001100000000101010111000110101010001100001111000000001010111110100001000000001000001100000000001100000000
CYCLE=108 IN=00000111100101000101100110111010001011000001010100100001001011111001100110100110101101111100100110010000000111101000101100011110011110011101001001000001110 OUT=000001110111111101001100110011001100110011001010010010101010000000111000100110101101000000000000100000000000001000000011010000010000100111111000000101000000110
CYCLE=109 IN=11101001110100100011000011110110100011000110011011010011010010100110101010001000111001100001111011010101101111111100100011001011111101000111100011011000000 OUT=100011110111000111001001000110110100100100001101101011001100000000111000111000111001110100000001010000000011110111111101000011000000110100000000000000100000110
CYCLE=110 IN=00101100001011101101101111011101010010101010111111000011111000011001100100100001111110011010001001011111100110111111100001000010100110001001011011001001010 OUT=000011101110110100110111011011101010110111111111100111111110000001100010100110111110000010000011000000000001001111110010000000001101100100111000000001000100010
CYCLE=111 IN=11001010101101000001011111111110000000111011101111011111111001011000111010001110100100010000001100011100010011100011001100101101010100000101011110011110010 OUT=100011100110001101011010000110100001101000010111101101110111111111100010100110100100000001000000100000000010100000101001010111011001010101110000000000010111100
CYCLE=112 IN=11011011101001100000101000000001010111111000011111100010111000110000001010001101110001111000100110010001101011110110011111010101011001100101101110011101010 OUT=100111110110001001000101000000001011001100001111110011101110000000111000100110110001000000000001001100000011001000110011100011011110010000110000000000011011100
CYCLE=113 IN=11101011001011111111000101000011000010110110100000000101000111100111011000000111010110111001100100110110110110011001111111110101111110100011011011110001010 OUT=101011110101000100110111111000011001011111110000000100010000101010111000111000110111000100000011111010001111101111111010100000100101101101001100000000100101101
CYCLE=114 IN=10000010000000111011001001101101111010001101111110000011111001010011000111001101010001111001110101110011011110011000110111001000000010100101100000111011000 OUT=000010101010011100111001001110010011100100111111000111111110000001100010111000110000001100000100010100000000010000000101001100111101001110110000000000011000001
CYCLE=115 IN=11100100100011001101001101111011111110001001100011010110101101010010011110111101111010110010011111101001111000010010101110001111010010001001100010101011010 OUT=010011101010000101001001101010011010100110110001101100010000101010101010100110111010001000000011000000000000100000001000001111101101011010000100000001000010001
CYCLE=116 IN=11010110011011010000101110101100101011000001110010111001000101110111101011101000111110011101010100001010101010001111111100011111000010000010000011111001100 OUT=010011111011001001100101110001011100010111011001011110011001010100111000111000111111010000000100001000000000100000001001101001100111011100101000000000000000111
CYCLE=117 IN=00100000110001010011011000011011011010101101010001001101000111010010111000101001010101100011001101011111000000111110110100001011101011001000011001000100101 OUT=000000100010110111011011000110110001101100001000100010001001111110111000111000110101000110010011100000000001010111110100101011100001101001110100000000100001101
CYCLE=118 IN=10110001011100010101000111001101000111110101100111100000110010001100000001000000101001000010010010101001111110100111011000101101000100110110111011110000111 OUT=000110111010010001101000111010001111100010110011110100110010000000101010100110101000100000000001001100000000010000000101111111011110000110000010000000001110111
CYCLE=119 IN=00101110001001001011111111111001100001000001000000000100010010111100111100100001010001110001110001001011100110100001101100111010111010001000010101101101011 OUT=001011101100110100111111111111111111001001000000000000000000101010111000111000110001000001000011000000000001110111111101001011011000000111110010000000000101011
CYCLE=120 IN=00110010110110010010001011110100110011110001101011101011111111011011001101100000011110111101010110011010101001011011100001011111110010001010101111111010010 OUT=001000110001110011010001011100010110110010010101110101010101010101100010100110111111010100000000000000000000110111111100011000110001101111011100000000001011111
CYCLE=121 IN=00101010100000000001100001000110000100100111100000101000000101010010110001101110101011011011000000011111101010111101001101001010000101111001111111100101011 OUT=001010101000110101000000000000000000000000010000010100010001010100001110111000101011000000100010111000000000001000000010010101011010100110101010000010100101000
