rewiring/runs_tb/cycle_0002/sim.log
CYCLE=0 IN=0000000000000000000000000000000000000000000000000000000000000000000000000000000000000000000000000000000000000000000000000000000000000000000000000000000000 OUT=000000000000111100100000000000000000000000000000000000000000000000001111001011000000000000000000000000000000000000000000000000000000000000000000000000000000000
CYCLE=1 IN=1111010101100011101011110010010010000101111000001101111000010010001100001011100000111001001001111011111101110101010000001000001011000111100101110110011100 OUT=010111111010000001110001110100100101000111000001101000000001111110111000111000111100010100000010111000000001100111111001111011101111111110101000000001100000111
CYCLE=2 IN=1110011110000101110010000111111100110001000111000101010011011111010110111111110011101101110010101000010100111111111110010011001010101001001001111010110110 OUT=011011111001000101000100001001000010010000111000101110011000101010101010100110110111010100100000101001001010100110101001001001111100111011111100000000000111101
CYCLE=3 IN=1101011000000101100011010110100100010100011111111101100010000100100101001111110011100000101101111110001100101011111100010110001010100110100111110111100001 OUT=010011111011001000100010110000101100001011011111101111111111010100111000111000110001100000100000110000000001010111110101011110000111010001110110000000100111010
CYCLE=4 IN=1010101101111101010011101111011100011010110100000111110100101101000011001000111011111111010110001011111001101010110101011010101101111110111100100100010010 OUT=101010110001010101100111011001110111111010100000111000000001111110111000100110111110000100010100000000000000000000000001010010010000000010001000000100000000010
CYCLE=5 IN=0100011111010001011001111001011010000110111000010100011110010101101101000100001000010111001110100111001111000001001011001011000110011011010100110101011000 OUT=010001110011101111001000101010110101001111000010100000100010101010111000111000101010001101100000110110000100110111001100011001000000010011100000000000100000010
CYCLE=6 IN=1001010000111011010110001101000000111110110111111101110110100110000011101101101011000100000111101100110011000111001110111000111101111110001001100110011110 OUT=000011011101011000101100011011000110110001111111101111111111111110101010100110100011100100000001111110000111111001111110101000100010101111110100000000100010101
CYCLE=7 IN=0111101110010110111000000111101111100100111000111100000110110000010001101100001111001000100000000111001000101110110001110101011001100111111010001011000000 OUT=001111111100100001001011011111011111000000100111100001100110000000101010100110100100001000000001000000000000000000000001110010110100101001000000000000001000101
CYCLE=8 IN=1110000011111111101111011101100011010101001101101011001110011000000110001010111110011011111100010001010100110000100111100001111001001011010011001001100011 OUT=000011101110000111011111110111111101111011101101011011001100000000111000111000101100000110000100010110000010010000100100010011110100001001011000000000001100100
CYCLE=9 IN=0110101000000011001010100011101100010110001100000101101110100111000100001111011000011101110011110011011001101100111001111010010011011110010001101011010001 OUT=001011101100100100100001100000011000000110000000101000000001010100111000100110101110100010000010111100000110111111101111100011010100100000001010000000000110101
CYCLE=10 IN=1001111111111100010110011010111101000010110010111011100010000110011011001010001001100101000111000111110010100100001011101110100100101110001110001101001111 OUT=100111110110011011001100110101111011111000110111011101110111010100111000111000110010001000010010101110000010111000101110111010100010111010110100000000100010111
CYCLE=11 IN=0110101101101011111000010001010111101100001111011000011111111111111001110010111100111000111011110101010100101100110000100111101111111111000001101100011111 OUT=001011111101100101110101111101011111000010011011000110111010101011100010100110111101110100100011111111111111111111111110101010100010111100010100000000100010111
CYCLE=12 IN=1011001000101010001111001111101110010000100001111010011100110111110111001011101010010010110111100100100001101001100011001101011111000100000011011011000101 OUT=001010111001010000111110011111011101010100001111010011101110101010101010100110101001100000000001100010011000100110001001111001011101000101000010000000001101101
CYCLE=13 IN=1001100001001101000100011101111100010010011101010101011101000110111011100101100101110010101001001111011101011111101110110111001110101100110010110011001001 OUT=100010010001011001100110100001101000100011101010101010101010101010111000111000111000001100000000000000000000010111111101110001011010000101000010000000001011001
CYCLE=14 IN=1000001000001101110011100111011011111010001101100101101101010111010101010010110100101010011100001101001001101100101110111101000011111001011110110100100100 OUT=000010101010011100100110111001101110011011101100101011001101010100111000100110110100000101010001100100000011111111111110001111010010110111010000000001100001110
CYCLE=15 IN=1010101010010010010101010011011011011100110000000101010100011111011110011100111000110000100000101010000111111010001110101001001110111100101001101001111000 OUT=101010100000010101001010100110110110100100100000101000000000101010111000111000111000000000000001000000000000101111111010000110001011100111000000000000000110100
CYCLE=16 IN=0011101001010100001101010100111001101111000111111110101101001001110000100001000011101100111110100001100011110100011001110101101000101000001100101100100011 OUT=001010111001110001111010101110101011101010111111110111111111010100111000100110110111100001000000101000000010100000101001101100101010011010000100000001000010000
CYCLE=17 IN=1111011010000001001000100100100000101110001001010111010111000111111111111110110011000001010000101010000111101110001100111111001110101110010111101100101110 OUT=011011111001000001000000100001000001000100101010111010101010101010111000111000100000000100100001011100000101011111010110100010010101000111101000000001100001100
CYCLE=18 IN=0011111110010000110011111101011011111000000010011110011101100000001111100111110101111011111000011001011000100111111010111111011010110010000100001011110110 OUT=001111111100110001000111111010110110011111110011110100110010101010111000111000111100000100000001011001010110010101100100111101110001111110011100000000010000101
CYCLE=19 IN=0100000110100001110000101101001011100101001001101010011010000010010001010011100011011101110000111101110101111000110010101011011011000111001100111011001111 OUT=000001010101101101010000111010010110000101101101010011001100101010101010111000101110000000000001000111001100011111000110010110000001110101100110000000100001110
CYCLE=20 IN=1010010111001010111111101100010001110110101011001100000010100010001111001110111001100011000001101101111000010000101010111100100100100011000001111101010011 OUT=000011111111010111000101011000100011111101111001100110011000000000111000111000110000010001011100010001100100011001000111101000110101011100110100000000000111110
CYCLE=21 IN=1101101000110110000110010001000011011010000100000111001000011011100110110111001101110111011001000000001111110110011100001010011111001000000001010111101000 OUT=100011110111001000101100100011001001101100000000111000000000000000111000100110111010000000000001100100011001000110010001111001101100011100110000000000000101011
CYCLE=22 IN=0101110001000001000101100110010000110000000010011111110011000001011110100111011101001000011010000110010001001110101110010100001001011101101010011001100001 OUT=010011011001101001101011001100100000000010010011111100110011111110101010111001000101010000000001010000000000010000000100000110110001011010011000000000001001100
CYCLE=23 IN=0101110110100111111100101001010111101010100010011001100010010000001011010000011011011111101001110000010000000101101011110100000010011010010001100011110101 OUT=010111011000101001011001010010101111100101010011001100110011010100111000111000101111100000010000110100000100110111001100010011000111100111001010000000000110001
CYCLE=24 IN=1111001111110111100110000011101100100010110001101100010000011000110111000111100000010110000001110010010000110001110100010100000111101110100001111010010000 OUT=001111111100000011001100000111011000110000001101100011001100101010001110111000101010000000000101110000000001110111111100110110100001101011100000000000100001101
CYCLE=25 IN=0011001101010100110000111010010101110011111010010001101100000100110101000111000001001111011001001101101111100011001111110010001101101110000000001101110011 OUT=001100110000110001101010011100101010101001110010001100110011010100101010111000100110010000000010110111001101110011011101111100100010011101100100000000000000110
CYCLE=26 IN=1100000101010010000011001100111101110001111001001101000000000110001110011110101110010001110100000000111010010100100011011101010110010100111001101011100111 OUT=000011011101001101101001000001111010011001101001101010001000000000001110111000101000000000000010000000000000001111111111111110001101110001100110000000000110101
CYCLE=27 IN=0000000011010010100110011101000001011101001110010100111010111011011100000111100010110101111101101011000111000110101011011011100000011000010001001100011100 OUT=000000000000111111001001010010010100100101010010100100110011111110101010100110111010110010000100110000000000110000001100100001000001010001010000000000100001010
CYCLE=28 IN=0001100100011110110010100001011110111011101000011011100100001110000110110111101000111101001100000100001111101111101000010001001101010001011111011001010011 OUT=000110011000111000101111011010111100010100000011011000100011010100111000111000111110000000100001000100000001010000010101001111100111001000001000000000100111001
CYCLE=29 IN=1011011100010000011001010111010100101110010001101101100100101001100000010010100111001111001000110100111111110110001001010111010010111111010100001101100111 OUT=001111111100010000110010101110101001001010101101101011001101010100111000100110100110110010000011111110000101111111011110110110110011111111010100000000010000110
CYCLE=30 IN=0011101010101010001101110010011011100110000011100101011011000001001100011001110000011111111001000110101111010001110011110100010101100110101001011110001010 OUT=001010111001110001011011100100110111101110011100101111011100101010111000111000101110001000000101100000000000011000000110011100100100101110101100000010000000111
CYCLE=31 IN=1111100111110110010000010000011001000101101111000001111001000010010001111100000000010001101101011101001010110101101100011010000000010110101100101111101100 OUT=100111110110000011011011001110110010000010011000001110011001111110101010111001001000100000000001100000000000000000000001000001110101011001101000000000010010111
CYCLE=32 IN=1011011101000100110000001010110111101000100101101100011011001000001100110101110110101111010111110100000010110010010011010011110011100000000100100011010100 OUT=001111111100010001100000010000000100000001001101100011001100101010111000111000110111100100000001110000011100000111000000100010111011101111101000000000010010001
CYCLE=33 IN=0000101001001010001111000001011011000010110110010011011110100011011101000010110000011000110111111001000010110011100101001100011010011111110111100101110001 OUT=000010101010111101111110000111100001111000010010011100110010101010111000111000101101110000000001100000000000010111111101100001100100001100100100000000100100001
CYCLE=34 IN=1100111011101010111000000001001110100010001010110000100011100100100110000110010100111110000000101011100001010111100101111110001110111000001011000000000100 OUT=110011100010001111010101011010011101000000010110000101110111010100101010100110111110010000000000111000001011100110111000110010001011100100000000001100000000000
CYCLE=35 IN=1111110000011010101111110001110111010011001001000011010010111000101110010011000010010101110010111001010011111111110110000100111010000110000111100101100001 OUT=110011110011000000101101010011101111111110001000011010001000101010111000111000101011010100000001000011010000110100001101011001100110001011100100000000100110001
CYCLE=36 IN=1101110001010110101110110110011011101101100001101101111110110100100111010100011011001100011111000111010011101101100111101100010110000010110111011010111100 OUT=110011010001001001111101101100110110101101001101101011001101111110111000100110100110001000000001000000000000010111111100100100110010001001011000000001000110101
CYCLE=37 IN=0101101100110110001100101100010110010110101100000100010100101010101110100101010101101111010100000010001010011000111101010010111110011010011111100101100100 OUT=000111111110101000111011000110110001101100000000100000000000101010111000111001010110100100000101101000000010011111100111101011000001110100010000000000100001110
CYCLE=38 IN=0000000100011101100010010000010010000110010000010101001110110111101011011100110011111010010101001001011010001100101101101100110101000100000000101011001011 OUT=000000010001111100100100100000100100111011000010101000100010000000111000100111011100100010000010100010001000100010001001010000010001010011001110000000000010101
CYCLE=39 IN=1110011100111001010011111111010101110100110011000111010110110110000000101001110101000000001010111000100101001011000000011110000111011011110111011101000010 OUT=011011111001000100100111111110101010011111111000111110011000101010101010100110100000110000110001100000000000011111111110111000001101100110111000000000101101100
CYCLE=40 IN=1001100000000110100111011011011111001101111101111101111010101110101000011010000100110101111110001010101110110111001111100111000100001000000111110100111001 OUT=100010010001011000100011010000110100001101001111101011101111111110101010100110111011110001010000000100000001000000010000101001110100001111010100000001001001000
CYCLE=41 IN=1110000101011101100010101110011111000101111110010001110110000000111001111100111010101011101111000101010101011100000100001010110101001110001111011001111100 OUT=000011111111000101101110110011101100111011010010001100110011111110101010111000110101100000000011001110000100111001001111100100000010000110100000000000100010000
CYCLE=42 IN=0010111000000001010000100110100101010010100110001100000110100101011011110100011110101000100011010000111111011101011101001000110011100000010100000100100111 OUT=001011101100110100100001001000010010000010110001100100010000000000101010111000110101010000100011000000000111000111110001100100100111011000011100000000100111011
CYCLE=43 IN=1111010000110110110111100100010000100001100110010101011001100000100011000101010010111001000101001001001111010100011101110000110010000110101000101000001111 OUT=010011111011000000101111001011110010111100110010101100110010101010101010100110111100100000000001100000000000100111111000010001100000101001011000000000100000101
CYCLE=44 IN=1011110111100000101000110111110011010010101001000011101010001111100010001101000101111101110010001000001100100110101000000010111000010001100110101010101100 OUT=100111110110010011010000010111100111000001001000011010001001010100101010100110111110010000000000001000000000001000000010100000101101001110111000000000101101001
CYCLE=45 IN=1111100011010110011100011000100101001001101001001111001010000011110110100100111111000100000100101111110010111110001000100101100110001100100101011110101111 OUT=100011110111000011001011001001001010101100101001111010001000000000101010111000100010001000000101100000000001000111110001111111001100000000000010000001000010001
CYCLE=46 IN=1101011001111010100101101011001011101111011100100111110111111111001000110001101001010011001010010101101000111010100111100011101101011001000111000010101011 OUT=010011111011001001111101010111010100101101000100111001000101111110111000100110101000100100100000101100101011001010110010010110010010110111010110000001100000000
CYCLE=47 IN=0101010000011111100001000001001101111110011000110100101001110011110110100011000011110010010011101010110111111111000001000111010101100010011100100001010100 OUT=010001010001101000101111110010011010001000000110100001100111010100101010100110111000000010000000001000000001100000011000010010011111100010000000000000010010000
CYCLE=48 IN=0101000110101001001000110010001101101000001100111100110001000000100011111100010110001010101011101100011011011110010111000100110101111111001010001100010100 OUT=000101010100101001010100100101001001010010000111100001100111111110111000111000100101010010000011111111000111111001111110111101000010010001110000000000100010010
CYCLE=49 IN=0011100111010010001101100101000110101011000111010001101110011011011110101011111000100001101100110100101000010111011000001001000110010010000011000111100110 OUT=000110111010110011011011001110110011101100111010001110111011010100111000111000110000110011110001001001010010010100100100100100101111101111100100000000001100011
CYCLE=50 IN=1001001101100001001000110111110101010010000110000001010100111010101011010110000000101110001110001101101001010101111000110101110100001101011100100101101110 OUT=000110111010011001110001101100011011000010010000001100010000101010111000100110110111100010000000110100000000001000000011000000010100100101111000000000010010010
CYCLE=51 IN=0101110110000100101011001001110100010100100011101101100101100010011011111001011110011011101001001111010101110110101101011011110101110111001010101001101001 OUT=010111011000101001010110010011101001011001011101101111011101010100101010111000101100001000000001110111000111011001110110011110101101011011101000000000001010100
CYCLE=52 IN=1111011100110011111010100100010101000001101111110010011001010111001001010011100110011001001011100110010000010110100100111001001010100001101001110001010111 OUT=011111111000000000111001111110011111010100111110010111111110101010101010111000101101010101000000010000000000101111111011110111110000001000010000000000000111000
CYCLE=53 IN=0101100111110000111110011111101100111010101001101111110110110100010110011110111110101010101010001101110011111001110100001111000000000110000110010101000000 OUT=000111011100101011011000011111011001110011101101111011001101111110101010100110110100100001001100000011000000110000001100110101000101010010000000000000100101010
CYCLE=54 IN=0101010111001000010000111011000010100001001101101010000110101010000010000101000001010100111000000011100010101111000010001011101110010011110001110111010111 OUT=010101010000101011000100001001000010000111001101010011001100000000101010100110101010010110100001100000000000010111111101111001010000100001011010000000000111011
CYCLE=55 IN=1001101110000000011111001110000011111001000001100001001001111010110100001001001100010000000100100110111110011101101100100111101110111000010001111111100100 OUT=100110110010011001011110011100000110000000101100001011001100000000101010100110101000001001110011110000000101110111011100010001101011011000111000000000000111111
CYCLE=56 IN=1010000101010101100001000010010000111100111101100110010110001001110111000011101110010110110111011000100101010000001111100010101001100001100111110000001001 OUT=000010111011010101101010110010101100101011001100110011001100101010101010111001001011010110000100001000000000110000001100000000111101111101110000001101100000101
CYCLE=57 IN=0010001101011011111000000010011111111000000010110000011011100011001111111110010000110111101101000010011011011010010110110110111101011011000010111110000010 OUT=001000110001110101110000000100111110110111110110000101110110101010111000111000111011100000000100101101101011011010110110110000101011101101111100010111100000001
CYCLE=58 IN=0011110010111011100000101010010100100010001111100010011111110111100101010100001101011110100101001000111011001101010011101110011101100001001011110111011101 OUT=000011111111110001011101110111011100000101011100010111011100101011100010100110101111000000000011100001000110000001100000001100011011110011011110000000001111011
CYCLE=59 IN=1101111001110100000100100111100001101111001111100010110100011100111101010101000000110100110010110101100110111011101001110000001000000111110100111110111000 OUT=110011110011001001111010000110100000100100111100010111011101111110111000111000111010100100000001100000000000000000000001111011101000111101010000000000101000111
CYCLE=60 IN=0110100111101101110001111111110100011000010110011101010110000110110101011100011000111010011100111000110101001100111101110011111000001110111100001110000011 OUT=000011111111100111000011111000111111011011110011101100110010101010101010111000111100110010000010000000000000000000000001000101010000100100101010010110100000000
CYCLE=61 IN=0101110111101100111110110100101010001011001110001011011000100010000101010101010011100011000110101100000101100111010110010110100001000011011100101101011111 OUT=010111011000101011010110011101100111011001110001011100010000101010111000100110110001010000000100001100000001000000010000101010111010111111010100000000010010110
CYCLE=62 IN=1100111100111111110110011111011100010000100110110011000101100011011000001101111011001111001001101011100100110001000001100111011001010100010001100101101000 OUT=110011110011001100101100111011001111111111110110011101110110000000101010100110100110010000000010101000000010101000101011111101001101010000100000000000000110010
CYCLE=63 IN=1001010000001111010100001110000110010010010001101110000100111100011001001100011001000000011011100001110101100100011011111111110100101101100000001000100011 OUT=000011011101011000101000011100001100011110101101110011001100000000111000100110100000110011000011101000000000010000000100100011111000001000011000000000000000100
CYCLE=64 IN=0010010101011010101110100011111110111011000100011101000111100011001100111110101010000110110010001001101111000000010010001111001111011010110000100110010011 OUT=000001110111110101111101000111010001110100000011101000100010000000111000111001000010100000100001000000000000011111111110010011000000000011010010000000100000000
CYCLE=65 IN=0100001000101110100100111001011010110001111101000010011010010001110000011000000111011110011010011011001101011000110110101001001010001000000101000010101001 OUT=000001100110101100110111010101110100100111001000010010001000101010101010100110101110110000000001000100010001000100010001110101001011000111010010000001000001111
CYCLE=66 IN=1110101101001011101000000000111101010100100011110111110001000000100111110100101001001010010000011010101001000111100010111101100101110101011110001111110011 OUT=101011110101000101110000000001111010010111011110111111111111111110111000111000100100000100000101010100000001110000011101001101011110100000001010000000011000111
CYCLE=67 IN=1110000011110100110101010111101110100110000100100001100001100011011111010010110011100100010100000100110011000011101010100111011101101000111111101001100110 OUT=000011101110000111001010101010101010101010100100001001000101010100111000111000110010000000000010000000000000000000000001011101000101110101110000000000100101110
CYCLE=68 IN=1000000000110000001110011111010001000000110111010011001110100100010001011111110110100001100001001001110100100011000000010010100101000100011110000111100010 OUT=000010001000011100111100111111001111100000011010011110111010000000111000100110110000010000000010010000000001000000010001000010100000001110001100000000100000001
CYCLE=69 IN=0110101000110110101001100001001100110011011111110101111110101010100001000110000010010011001101110101111000011100001001101100001011101101011010100011010001 OUT=001011101100100100111011010110110101001100011110101111111111111110111000100110101001010000000010110100000011101111111011110001011000000111000010000000001010001
CYCLE=70 IN=0010000000101101010011011110010110100110001010111000100000100011001001011111100101100001000011110100100101000010100011000111011011010000001111010001101101 OUT=000000100010110100110110101100101101011010110111000101110111010100001110111000110001110100000001010000001101000111010001011010100011011110010000000000100011011
CYCLE=71 IN=0111100100111101101010110011110011111101110011110011010111110101111011100011101011110011110110101011101100101110010000101100110110110000001001100111010001 OUT=000111111110100000110101100111100111111011011110011111111110101010111000100110111000010100000000110000001011000110110001110010010000010010000110000000000110011
CYCLE=72 IN=1001110010110010001101110010000100011101100011111011000010011101111000111001111010110010001000010101001011110100110100110111011000111111101010111100100000 OUT=100011010101011001011011100100001001100100011111011111111110000000111000111000111000000000000001110000000000001000000011001111000011110100000000000000100011110
CYCLE=73 IN=1111100001101000010000001110010010010110001000110111000110001111001001111000110011101101001110101100001001010000101011101010111111011110110111011010101011 OUT=100011110111000001110100001100100101010000100110111001100110000000101010111001010111010100000001000000000000011111111110011100010100010011011110000001100001100
CYCLE=74 IN=0000000000100101000100100110011001011000101111001010101011001010000000000111101001010011101001111100100010010000101101111010000110101011001111010100010100 OUT=000000000000111100110010100100101001001010011001010110011001010100111000100110101001110010000000101011001010101110101011111111011010110010010000000101100001110
CYCLE=75 IN=0100000110011011110000011101010000101110010100111111000101111011000001101001101001100100011100000101100111011100100010110010111000110100010010010000010110 OUT=000001010101101101000000111000001110000011100111111001100110000000101010100110110011000000000001101000000001101000011010101111000110010001100000000001100000110
CYCLE=76 IN=1101010001001111101000000011010001011001000100001100100100111001001110001010100110100101101010111000000010001100010001011001101010111110001000111010011000 OUT=010011011001001001110000000100000000011111000001100000000001010100111000100110110011110001010000111110001011111110111110011010100000101101110000000000100000101
CYCLE=77 IN=0101110100100110011100000011110001001111100011111101110010101010011010001001110100010010010110011001011101000101111111110001111000110100111100011111101100 OUT=010111011000101000111000000111100011001100111111101111111111111110111000100110101001000010000010000000000000000000000000111101110100011110101000000000010001111
CYCLE=78 IN=0011010111101001011000110111010001100001100010100000011111011001101011100110110011000101010011010101100100110110010011110001100110110110101011001010110100 OUT=000101110110110011010001101110100011000110110100000101010100101011100010111000100010110000010101100000000000101111111011101100111110001110001000000000001100101
CYCLE=79 IN=0101010111111100110101011011100001111111110110010110000101111011100100111110101000010001001011100011010011010100000111010010010110010101110101101011000011 OUT=010101010000101011001010110010101101111001110010110100110010000000101010100110101000110000000010100000000000010111111100101100000010010001111110000000100010010
CYCLE=80 IN=1010000100011011011011101100111011010011001001110010100100100011010100001001101010111010100111101101110001110110111001000111110000111100101001101111001011 OUT=000010111011010100101101101001110110110110101110010011101111010100111000100110111101110010000001000000000000001000000011100001010101100110111010000000000110111
CYCLE=81 IN=1100110000001011001111101000010100101100110000011010010010000010101000101101001100010000010100000100110011010000000000010110110111101010110101000110010111 OUT=110011000000001100111111010000101001111101000011010000100010101010111000111000101000000000000011000000000000011111111111011101010001100101001010000011100000010
CYCLE=82 IN=0111001000101001001101110111010111000100100011000110010000111100001111100100100111111000010100100000110000010010000111000110000000010001010111011000010100 OUT=001001110101100000111011101110101111010010011000110110011000101010001110111000111100100100011010100010000000100000001000000000011011000011100000000101100010000
CYCLE=83 IN=0001101111101110111100001001010010100110100001111011011111011011101011010111010011011111110001101111100010111010101011110000101100101110000000110001011010 OUT=000110111010111011011000010010100101100001001111011011101110101011100010111000101110001001000000010111000101110001011101101001001011110011100000000000000011000
CYCLE=84 IN=1101101110101001100111110111110101111111010100100101100000011101111111110000001111000010001001001011100010010100101110010011011010001010010001001110110010 OUT=100111110110001001001111101011111011010011000100101001000101010100001110111000100000000100000000010100000100010111000101001100110110101010111100000000000100111
CYCLE=85 IN=0010110000111010010001011111001000001000001010111001001011110001111010111100111101101011001101101110110010001001101101000110010010110100011001010010000100 OUT=000011101110110100111101001110010001110100110111001101110110000000111000100110110100001000000101010000000010110111101100010110100100101101001000000101000000001
CYCLE=86 IN=0010010100010110101010100101011111111100010010011001111001111011101001110011110100100010010111110001000111001101001110011011011011001010001100100110000100 OUT=000001110111110100110101001010111111010100110011001100110011111110101010100110110001110000000001001010001100101111001011001011110001111010011000010010000000011
CYCLE=87 IN=1000000000001000001101010011111100000111100110001101011011001011000001000101010011010101101110000100101101001100100000011100110111111101000011100100001000 OUT=000010001000011100111010100110101000010000010001101100010000101010111000100110101010000001000001111110111111101111111010111101001101010100100000000111000000010
CYCLE=88 IN=0110011000100011111010110110111111010111110111110111110000100110010111110100100001101011001100001010011011011011011000111110100010011010100000101101001100 OUT=011001100000100100110101101101011011000111111110111111111111111110001110100110110101100000000111010000000001001111110011010001010001010000010000000000000010110
CYCLE=89 IN=1010010000000100110000111001000101101001000010000000001100001001000000010110100111001110001101111001001011111110011100101111001111101011001110110111101110 OUT=000011101110010100100001110010001010000111010000000100010000000000101010100110100110110000100001101011001110101111101011010100100001101001110100000000100001101
CYCLE=90 IN=1010001111101111001000010010010101111011111101001010111110001101101000001011001101010001011111011000111101111110101000000100011100111100010001001110101011 OUT=001010111001010111010111100101111001011110001001010010001001111110111000111000101001010000000011111000000001111000011110111001011011100011011010000000000100111
CYCLE=91 IN=0100100000001101110001111101101101000111100110001110110011101010000011011000111110111010010110111101111111111111011100110111011111111011101000000101100010 OUT=000011001100101100100011111000111110001111110001110100010001111110101010100110111101100000000010110000000000111111111111100010001000000100001000000000000000010
CYCLE=92 IN=0111010101000010001111101010010010111101111010011001100010000001001101100011001110111001101100111001111000011010110010000010001100101010110001010000100010 OUT=010101110010100001100001000100100100000100010011001100110011010100111000111000111101000000000101000000000000000000000001000101011000110010100000000000000101000
CYCLE=93 IN=0110010001101011101000010111110100010110101001111011010110111101101001011011011101110111101100001100100010111011001010011101110111111110010011101101101110 OUT=010001100010100101110101110111101001010111001111011011101110101010101010100111011010000000000001111100000111111111111110100010010101000111101000000000001110110
CYCLE=94 IN=0010111110100111011001110001010110110110000010101010111001101001101010010011000110010110110100111110011001011001101010010111101110111001100100011110100011 OUT=001011111101110101010011100010101101001110010101010101010101111110101010100110101010100000000001001000000001011111110111101001001001100011011010000001000001001
CYCLE=95 IN=0110110011011100000110010100101010011110110001001001011001010010011000000001010101011011100001110100111110110101010111100011111100111001111001000101110001 OUT=010011101010100111001100101001010100111000001001001010001000101010101010111001001101110000000011000000000000000000000001111001101010001110000100000000000100010
CYCLE=96 IN=0111011011101101110111011100010111100000001110011110000110101111110111010111001011110110101100110101101111111010100110010101110111111011011001111101110001 OUT=011001110001100011010110111101101110111011110011110100110010000000101010100110111011000010000011101100000011111111111110000111101101101100111100000000000111110
CYCLE=97 IN=1011101110011111110010010010000011010011001001000111001011001110010100100001110000010100001110001000000101001110010011011110111111110111101111100101011000 OUT=101110110000010001001111111100000110111111101000111010001000000000111000111000101010010000000001110000000000111111111111010101000111010111100000000000100111010
CYCLE=98 IN=0100111110110101111010001000110011111101111101011011101100111001010001101000010111100010110101011000101111111011000000111110100111100111100100100001101100 OUT=010011111011101101011010111110101111010001001011011010101011010100101010100110110001010000001010111000000001110111111100101110011000100110000000000000010010000
CYCLE=99 IN=0100110101101010001101101101111000011101100010001100110111100101011010010110011101010111100010111011100001100011101101100111101100010110111000010101100110 OUT=010011011001101101111011011011110001101101110001100100010001111110111000111000101010010101100000000000000000000000000001101000001000100101111000000000000001010
CYCLE=100 IN=1101110011000001110101111010000100011110001111010100111100001001100101000110111101010101010010000001000111100110010110110001000100011010110110110101111010 OUT=110011010001001011000000111000001110000011111010100110111011111110101010111000101011000000010001000000000000000000000001011010000000000101001000000000100000000
CYCLE=101 IN=1101111010110100010100111001000111110010111101110101100011100000111001111100100000000000010100010010001011010111101101101001010111011001001010101110001001 OUT=110011110011001001011010001110100010100111001110101011101111010100101010111000100000100000000001011001001101100111011000110000001001110000011110000100100000110
CYCLE=102 IN=1100010010001010110001111111101000101100101001001100010010100010101011000101100100110110101000111011111011011010011100110010111101101110101100011110011011 OUT=010011001000001101000101011111010000001111101001100010001000101010111000111000111010000000000101100000000000011000000111010101001110100000101010000010100001000
CYCLE=103 IN=1100001001101111011100001010011011101011111001010110010100000011010000100000110001001100100100001010011111011100011001000100100010100000011100011010010000 OUT=000011101110001101110111101100110111011110101010110010101010101010111000100110100110100000001010000000000010100111101001001110101111101110100000000100000001101
CYCLE=104 IN=1110010110000110100001110110010101101010110011001110101000100100010010110011111100111011001010000100101001110000100111001101011011110111111000111011000101 OUT=010011111011000101000011101100101010001101011001110110011001010100111000100110111100000100000001000000000000001111111111010001010011000000100010000000000011101
CYCLE=105 IN=0101001101000100100101110000101001000110101101110000000011001111110011101011101100101011010000101101110001000101001010100100101101011101000110101100010001 OUT=000101110110101001100010010000100100101110001110000011101110000000101010100110110100000101010000101110101011101010111010000011110100101111101100000010000010010
CYCLE=106 IN=0100000000111001111111000000101010011111011110010100011010010110001011010011100010010111101001111001011001101100110101100011101001000110101010101000001000 OUT=000001000100101100111100111111001111110011110010100100110010101010101010111000101010110010001011100000000000010000000100101110001001100101000000000101000000100
CYCLE=107 IN=0010001100011011111011100011000010101011010011001000010101100010011111111101101110100010111000000111101011110010110010011101011101011111000000110000000100 OUT=001000110001110100110111000110000101011100011001000110011000101010101010111000110000001000000010101111101011111010111110001110000010100011000000000011000000000
CYCLE=108 IN=0000111100101000101100110111010001011000001010100100001001011111001100110100110101101111100100110010000000111101000101100011110011110011101001001000001110 OUT=000011111111111100110100010110100011010001010100100101010100000000101010111000110110100011000000110000000000111111111110011001000010110111110000000001000001000
CYCLE=109 IN=1101001110100100011000011110110100011000110011011010011010010100110101010001000111001100001111011010101101111111100100011001011111101000111100011011000000 OUT=000111111110001001010000111101101001001000111011010110111010101010101010111000100110110000000000000000000000001111111110010110111101101001000000000000010001101
CYCLE=110 IN=0101100001011101101101111011101010010101010111111000011111000011001100100100001111110011010001001011111100110111111100001000010100110001001011011001001010 OUT=000011011101101001111011110110111100111011011111000111111110101011100010111000111000010000000000110001000011000000110001111011011100010001110000000000001101100
CYCLE=111 IN=1001010101101000001011111111110000000111011101111011111111001011000111010001110100100010000001100011100010011100011001100101101010100000101011110011110010 OUT=000111011100011001110100000101000001010000001111011011101111111111100010111000110000010010001000000000000000101111111010110101110000111011000100000000001111001
CYCLE=112 IN=1011011101001100000101000000001010111111000011111100010111000110000001010001101110001111000100110010001101011110110011111010101011001100101101110011101010 OUT=001111111100010001101010000000010100101000011111100111111110101010111000100110100110100000000001000000000000110111111101010001111001111000110100000000010111001
CYCLE=113 IN=1101011001011111111000101000011000010110110100000000101000111100111011000000111010110111001100100110110110110011001111111110101111110100011011011110001010 OUT=010011111011001001110001010100010100111111100000000000000001010100111000100110111010001000010011010000000011110111111100111100101100101010101100000101100000001
CYCLE=114 IN=0000010000000111011001001101101111010001101111110000011111001010011000111001101010001111001110101110011011110011000110111001000000010100101100000111011000 OUT=000001000100111100100011101000111011001001111110000111111110101011100010111000100111110000100101000000000000000000000000001101111101011110010000000000010000011
CYCLE=115 IN=1100100100011001101001101111011111110001001100011010110101101010010011110111101111010110010011111101001111000010010101110001111010010001001100010101011010 OUT=100011010101001100101100110011001101001101100011010000100011111110101010100110101011110100000010010001001001000110010000010010011110000000001000000000010001010
CYCLE=116 IN=1010110011011010000101110101100101011000001110010111001000101110111101011101000111110011101010100001010101010001111111100011111000010000010000011111001100 OUT=100011100110010111001101000011010000101110110010111100110010000000111000111000111001010110000100100000000000100000001001001101110000011001101000000000000001111
CYCLE=117 IN=0100000110001010011011000011011011010101101010001001101000111010010111000101001010101100011001101011111000000111110110100001011101011001000011001000100101 OUT=000001010101101101000101001110110110010100110001001100010001010100111000100110110110000000000000101100101011001010110011010100100011111111101000000000100011111
CYCLE=118 IN=0110001011100010101000111001101000111110101100111100000110010001100000001000000101001000010010010101001111110100111011000101101000100110110111011110000111 OUT=001001100100100111010001010100010101000111000111100001100110000000101010100110100101000000001001000000000000000000000001111011011101000100010010010001000000001
CYCLE=119 IN=0101110001001001011111111111001100001000001000000000100010010111100111100100001010001110001110001001011100110100001101100111010111010001000010101101101011 OUT=010011011001101001100100101110011000010010100000000000000001010100111000111000100111000000000011101000111010001110100010010000110001011001100100000000001010110
CYCLE=120 IN=0110010110110010010001011110100110011110001101011101011111111011011001101100000011110111101010110011010101001011011100001011111110010001010101111111010010 OUT=010001110011100101011001001110010011100100101011101010101010101011100010100110111010110000000010100010000100100111001000101000100101101111011100000000100101101
CYCLE=121 IN=0101010100000000001100001000110000100100111100000101000000101010010110001101110101011011011000000011111101010111101001101001010000101111001111111100101011 OUT=010101010000101000100000000000000001100001000000101000000000000000001110100110101100010000000000101111000010111000101110110100110010011001010100000001000101000
