rewiring/runs_tb/cycle_0002/tb_top.vcd
$version Generated by VerilatedVcd $end
$timescale 1ps $end
 $scope module tb_top $end
  $var wire 1 .! clk $end
  $var wire 154 # in_flat [153:0] $end
  $var wire 159 u out_flat [158:0] $end
  $var wire 32 /! cyc [31:0] $end
  $var wire 32 0! cycles [31:0] $end
  $var wire 32 1! seed [31:0] $end
  $var wire 32 ( i [31:0] $end
  $scope module dut $end
   $var wire 1 .! clk $end
   $var wire 154 # in_flat [153:0] $end
   $var wire 159 u out_flat [158:0] $end
   $var wire 16 )! const_arith_wrapper_in_flat [15:0] $end
   $var wire 40 z const_arith_wrapper_out_flat [39:0] $end
   $var wire 24 ) const_compare_wrapper_in_flat [23:0] $end
   $var wire 8 * const_compare_wrapper_out_flat [7:0] $end
   $var wire 10 + const_concat_repl_wrapper_in_flat [9:0] $end
   $var wire 22 , const_concat_repl_wrapper_out_flat [21:0] $end
   $var wire 34 - const_conditional_wrapper_in_flat [33:0] $end
   $var wire 24 | const_conditional_wrapper_out_flat [23:0] $end
   $var wire 10 / const_logic_wrapper_in_flat [9:0] $end
   $var wire 19 } const_logic_wrapper_out_flat [18:0] $end
   $var wire 27 0 const_nested_wrapper_in_flat [26:0] $end
   $var wire 8 1 const_nested_wrapper_out_flat [7:0] $end
   $var wire 20 ~ const_partselect_wrapper_in_flat [19:0] $end
   $var wire 8 !! const_partselect_wrapper_out_flat [7:0] $end
   $var wire 4 2 const_reduce_wrapper_in_flat [3:0] $end
   $var wire 6 3 const_reduce_wrapper_out_flat [5:0] $end
   $var wire 11 4 const_shift_wrapper_in_flat [10:0] $end
   $var wire 24 5 const_shift_wrapper_out_flat [23:0] $end
   $scope module u_const_arith_wrapper $end
    $var wire 16 )! in_flat [15:0] $end
    $var wire 40 z out_flat [39:0] $end
    $var wire 8 6 a [7:0] $end
    $var wire 8 *! b [7:0] $end
    $var wire 8 +! sum_c [7:0] $end
    $var wire 8 "! diff_c [7:0] $end
    $var wire 8 #! prod_c [7:0] $end
    $var wire 8 $! quot_c [7:0] $end
    $var wire 8 %! rem_c [7:0] $end
    $scope module u_const_arith $end
     $var wire 8 6 a [7:0] $end
     $var wire 8 *! b [7:0] $end
     $var wire 8 +! sum_c [7:0] $end
     $var wire 8 "! diff_c [7:0] $end
     $var wire 8 #! prod_c [7:0] $end
     $var wire 8 $! quot_c [7:0] $end
     $var wire 8 %! rem_c [7:0] $end
    $upscope $end
   $upscope $end
   $scope module u_const_compare_wrapper $end
    $var wire 24 ) in_flat [23:0] $end
    $var wire 8 * out_flat [7:0] $end
    $var wire 8 7 a [7:0] $end
    $var wire 8 8 b [7:0] $end
    $var wire 4 9 c [3:0] $end
    $var wire 4 : d [3:0] $end
    $var wire 1 ; eq_c $end
    $var wire 1 < neq_c $end
    $var wire 1 = lt_c $end
    $var wire 1 > le_c $end
    $var wire 1 ? gt_c $end
    $var wire 1 @ ge_c $end
    $var wire 1 A case_eq_c $end
    $var wire 1 B case_neq_c $end
    $scope module u_const_compare $end
     $var wire 8 7 a [7:0] $end
     $var wire 8 8 b [7:0] $end
     $var wire 4 9 c [3:0] $end
     $var wire 4 : d [3:0] $end
     $var wire 1 ; eq_c $end
     $var wire 1 < neq_c $end
     $var wire 1 = lt_c $end
     $var wire 1 > le_c $end
     $var wire 1 ? gt_c $end
     $var wire 1 @ ge_c $end
     $var wire 1 A case_eq_c $end
     $var wire 1 B case_neq_c $end
    $upscope $end
   $upscope $end
   $scope module u_const_concat_repl_wrapper $end
    $var wire 10 + in_flat [9:0] $end
    $var wire 22 , out_flat [21:0] $end
    $var wire 4 C a [3:0] $end
    $var wire 4 D b [3:0] $end
    $var wire 2 E c [1:0] $end
    $var wire 8 F cat_c [7:0] $end
    $var wire 8 G rep_c [7:0] $end
    $var wire 6 H rep2_c [5:0] $end
    $scope module u_const_concat_repl $end
     $var wire 4 C a [3:0] $end
     $var wire 4 D b [3:0] $end
     $var wire 2 E c [1:0] $end
     $var wire 8 F cat_c [7:0] $end
     $var wire 8 G rep_c [7:0] $end
     $var wire 6 H rep2_c [5:0] $end
    $upscope $end
   $upscope $end
   $scope module u_const_conditional_wrapper $end
    $var wire 34 - in_flat [33:0] $end
    $var wire 24 | out_flat [23:0] $end
    $var wire 8 I a [7:0] $end
    $var wire 8 J b [7:0] $end
    $var wire 8 K c [7:0] $end
    $var wire 8 L d [7:0] $end
    $var wire 1 M sel1 $end
    $var wire 1 N sel2 $end
    $var wire 8 ,! cond1_c [7:0] $end
    $var wire 8 &! cond2_c [7:0] $end
    $var wire 8 O cond3_c [7:0] $end
    $scope module u_const_conditional $end
     $var wire 8 I a [7:0] $end
     $var wire 8 J b [7:0] $end
     $var wire 8 K c [7:0] $end
     $var wire 8 L d [7:0] $end
     $var wire 1 M sel1 $end
     $var wire 1 N sel2 $end
     $var wire 8 ,! cond1_c [7:0] $end
     $var wire 8 &! cond2_c [7:0] $end
     $var wire 8 O cond3_c [7:0] $end
    $upscope $end
   $upscope $end
   $scope module u_const_logic_wrapper $end
    $var wire 10 / in_flat [9:0] $end
    $var wire 19 } out_flat [18:0] $end
    $var wire 4 P x [3:0] $end
    $var wire 4 Q y [3:0] $end
    $var wire 1 R a $end
    $var wire 1 S b $end
    $var wire 4 -! and_c [3:0] $end
    $var wire 4 T or_c [3:0] $end
    $var wire 4 U xor_c [3:0] $end
    $var wire 4 V not_c [3:0] $end
    $var wire 1 W land_c $end
    $var wire 1 X lor_c $end
    $var wire 1 Y lnot_c $end
    $scope module u_const_logic $end
     $var wire 4 P x [3:0] $end
     $var wire 4 Q y [3:0] $end
     $var wire 1 R a $end
     $var wire 1 S b $end
     $var wire 4 -! and_c [3:0] $end
     $var wire 4 T or_c [3:0] $end
     $var wire 4 U xor_c [3:0] $end
     $var wire 4 V not_c [3:0] $end
     $var wire 1 W land_c $end
     $var wire 1 X lor_c $end
     $var wire 1 Y lnot_c $end
    $upscope $end
   $upscope $end
   $scope module u_const_nested_wrapper $end
    $var wire 27 0 in_flat [26:0] $end
    $var wire 8 1 out_flat [7:0] $end
    $var wire 8 Z p [7:0] $end
    $var wire 8 [ q [7:0] $end
    $var wire 8 \ r [7:0] $end
    $var wire 3 ] s [2:0] $end
    $var wire 8 1 nested_c [7:0] $end
    $scope module u_const_nested $end
     $var wire 8 Z p [7:0] $end
     $var wire 8 [ q [7:0] $end
     $var wire 8 \ r [7:0] $end
     $var wire 3 ] s [2:0] $end
     $var wire 8 1 nested_c [7:0] $end
     $var wire 8 ^ add_pq [7:0] $end
     $var wire 8 _ shl_rs [7:0] $end
     $var wire 8 ` mul_part [7:0] $end
     $var wire 8 a xor_qr [7:0] $end
     $var wire 8 b and_part [7:0] $end
     $var wire 8 c denom [7:0] $end
     $var wire 8 d div_part [7:0] $end
     $var wire 8 e mod_part [7:0] $end
    $upscope $end
   $upscope $end
   $scope module u_const_partselect_wrapper $end
    $var wire 20 ~ in_flat [19:0] $end
    $var wire 8 !! out_flat [7:0] $end
    $var wire 8 f data1 [7:0] $end
    $var wire 8 '! data2 [7:0] $end
    $var wire 4 g idx [3:0] $end
    $var wire 4 h sel1_c [3:0] $end
    $var wire 3 (! sel2_c [2:0] $end
    $var wire 1 i ovf_range $end
    $scope module u_const_partselect $end
     $var wire 8 f data1 [7:0] $end
     $var wire 8 '! data2 [7:0] $end
     $var wire 4 g idx [3:0] $end
     $var wire 4 h sel1_c [3:0] $end
     $var wire 3 (! sel2_c [2:0] $end
     $var wire 1 i ovf_range $end
    $upscope $end
   $upscope $end
   $scope module u_const_reduce_wrapper $end
    $var wire 4 2 in_flat [3:0] $end
    $var wire 6 3 out_flat [5:0] $end
    $var wire 4 2 in_vec [3:0] $end
    $var wire 1 j red_and_c $end
    $var wire 1 k red_or_c $end
    $var wire 1 l red_xor_c $end
    $var wire 1 m red_nand_c $end
    $var wire 1 n red_nor_c $end
    $var wire 1 o red_xnor_c $end
    $scope module u_const_reduce $end
     $var wire 4 2 in_vec [3:0] $end
     $var wire 1 j red_and_c $end
     $var wire 1 k red_or_c $end
     $var wire 1 l red_xor_c $end
     $var wire 1 m red_nand_c $end
     $var wire 1 n red_nor_c $end
     $var wire 1 o red_xnor_c $end
    $upscope $end
   $upscope $end
   $scope module u_const_shift_wrapper $end
    $var wire 11 4 in_flat [10:0] $end
    $var wire 24 5 out_flat [23:0] $end
    $var wire 8 p data_in [7:0] $end
    $var wire 3 q shift_amt [2:0] $end
    $var wire 8 r shl_c [7:0] $end
    $var wire 8 s shr_c [7:0] $end
    $var wire 8 t ashr_c [7:0] $end
    $scope module u_const_shift $end
     $var wire 8 p data_in [7:0] $end
     $var wire 3 q shift_amt [2:0] $end
     $var wire 8 r shl_c [7:0] $end
     $var wire 8 s shr_c [7:0] $end
     $var wire 8 t ashr_c [7:0] $end
    $upscope $end
   $upscope $end
  $upscope $end
  $scope module unnamedblk1 $end
   $var wire 32 2! i [31:0] $end
  $upscope $end
  $scope module unnamedblk2 $end
   $var wire 32 3! j [31:0] $end
  $upscope $end
 $upscope $end
$enddefinitions $end


#0
b0000000000000000000000000000000000000000000000000000000000000000000000000000000000000000000000000000000000000000000000000000000000000000000000000000000000 #
b00000000000000000000000000000000 (
b000000000000000000000000 )
b10010110 *
b0000000000 +
b0000000000000000000000 ,
b0000000000000000000000000000000000 -
b0000000000 /
b000000000000000000000000000 0
b00000000 1
b0000 2
b000111 3
b00000000000 4
b000000000000000000000000 5
b00000000 6
b00000000 7
b00000000 8
b0000 9
b0000 :
1;
0<
0=
1>
0?
1@
1A
0B
b0000 C
b0000 D
b00 E
b00000000 F
b00000000 G
b000000 H
b00000000 I
b00000000 J
b00000000 K
b00000000 L
0M
0N
b00000000 O
b0000 P
b0000 Q
0R
0S
b0000 T
b0000 U
b1111 V
0W
0X
1Y
b00000000 Z
b00000000 [
b00000000 \
b000 ]
b00000000 ^
b00000000 _
b00000000 `
b00000000 a
b00000000 b
b00000001 c
b00000000 d
b00000000 e
b00000000 f
b0000 g
b0000 h
0i
0j
0k
0l
1m
1n
1o
b00000000 p
b000 q
b00000000 r
b00000000 s
b00000000 t
b000000000000111100100000000000000000000000000000000000000000000000001111001011000000000000000000000000000000000000000000000000000000000000000000000000000000000 u
b0000000000000000000000000000000000000000 z
b000000000000000000000000 |
b0000000000001111001 }
b00000000000000000000 ~
b00000000 !!
b00000000 "!
b00000000 #!
b00000000 $!
b00000000 %!
b00000000 &!
b00000000 '!
b000 (!
b0000000000000000 )!
b00000000 *!
b00000000 +!
b00000000 ,!
b0000 -!
0.!
b00000000000000000000000000000000 /!
b00000000000000000000000011001000 0!
b00000000000000000000000000000000 1!
b00000000000000000000000000000000 2!
b00000000000000000000000000000000 3!
#1000
1.!
b00000000000000000000000000000001 /!
b11111111111111111111111111111111 2!
b11111111111111111111111111111111 3!
#2000
0.!
#3000
b1111010101100011101011110010010010000101111000001101111000010010001100001011100000111001001001111011111101110101010000001000001011000111100101110110011100 #
b00000000000000000000000000000001 (
b010010001100001011100000 )
b01110001 *
b0000110111 +
b0000110100000000111111 ,
b1000111010111100100100100001011110 -
b1111010101 /
b111011101010100000010000010 0
b10000001 1
b1000 2
b011100 3
b11000111100 4
b011100000000110011111100 5
b10111011 6
b01001000 7
b11000010 8
b1110 9
0;
1<
1=
0@
0A
1B
b1101 D
b11 E
b00001101 F
b111111 H
b10001110 I
b10111100 J
b10010010 K
b00010111 L
1M
b10001110 O
b1111 P
b0101 Q
1S
b1111 T
b1010 U
b0000 V
1X
b11101110 Z
b10101000 [
b00010000 \
b010 ]
b10010110 ^
b01000000 _
b10000000 `
b10111000 a
b10000000 b
b10101001 c
b00000001 d
b00000001 e
b11100100 f
b0111 g
b1110 h
1k
1l
0n
0o
b11000111 p
b100 q
b01110000 r
b00001100 s
b11111100 t
b010111111010000001110001110100100101000111000001101000000001111110111000111000111100010100000010111000000001100111111001111011101111111110101000000001100000111 u
b1111011101111111110101000000001100000111 z
b100011101001001010001110 |
b0101111110100000011 }
b11100100110011110111 ~
b11100010 !!
b01111111 "!
b11010100 #!
b00000011 $!
b00000111 %!
b10010010 &!
b11001111 '!
b001 (!
b1011101100111100 )!
b00111100 *!
b11110111 +!
b10001110 ,!
b0101 -!
1.!
b00000000000000000000000000000010 /!
#4000
0.!
#5000
b1110011110000101110010000111111100110001000111000101010011011111010110111111110011101101110010101000010100111111111110010011001010101001001001111010110110 #
b00000000000000000000000000000010 (
b011111010110111111110011 )
b01001101 *
b1100010101 +
b1100010111001100010101 ,
b0001011100100001111111001100010001 -
b1110011110 /
b101001111111111100100110010 0
b10010000 1
b0011 2
b010101 3
b10101001001 4
b010100100101010011010100 5
b00111101 6
b01111101 7
b01101111 8
b1111 9
b0011 :
0=
0>
1?
1@
b1100 C
b0101 D
b01 E
b11000101 F
b11001100 G
b010101 H
b00010111 I
b00100001 J
b11111100 K
b11000100 L
0M
1N
b00100001 O
b1110 P
b0111 Q
1R
0S
b1001 U
b0001 V
0Y
b10100111 Z
b11111111 [
b00100110 \
b10100110 ^
b10011000 _
b10010000 `
b11011001 a
b10010000 b
b00000000 c
b00000000 d
b00000000 e
b10110111 f
b0000 g
b1011 h
0l
1o
b10101001 p
b001 q
b01010010 r
b01010100 s
b11010100 t
b011011111001000101000100001001000010010000111000101110011000101010101010100110110111010100100000101001001010100110101001001001111100111011111100000000000111101 u
b1001001111100111011111100000000000111101 z
b001000010010000100100001 |
b0110111110010001010 }
b10110111000101010000 ~
b10111010 !!
b11100111 "!
b01111110 #!
b00000000 $!
b00111101 %!
b00100001 &!
b00010101 '!
b101 (!
b0011110101010110 )!
b01010110 *!
b10010011 +!
b00100001 ,!
b0110 -!
1.!
b00000000000000000000000000000011 /!
#6000
0.!
#7000
b1101011000000101100011010110100100010100011111111101100010000100100101001111110011100000101101111110001100101011111100010110001010100110100111110111100001 #
b00000000000000000000000000000011 (
b000100100101001111110011 )
b01110001 *
b1111110110 +
b1111110111111111101010 ,
b0001011000110101101001000101000111 -
b1101011000 /
b011001010111111000101100010 0
b00010000 1
b0010 2
b011100 3
b10100110100 4
b011000000000101011111010 5
b11111011 6
b00010010 7
b01010011 8
1=
1>
0?
0@
b1111 C
b1101 D
b10 E
b11111101 F
b11111111 G
b101010 H
b00010110 I
b00110101 J
b10100100 K
b01010001 L
1M
b00010110 O
b1101 P
b0110 Q
0R
b1011 U
b0010 V
0X
1Y
b01100101 Z
b01111110 [
b00101100 \
b11100011 ^
b10110000 _
b00010000 `
b01010010 a
b00010000 b
b01111111 c
b10000010 f
b1100 g
b1000 h
1l
0o
b10100110 p
b100 q
b01100000 r
b00001010 s
b11111010 t
b010011111011001000100010110000101100001011011111101111111111010100111000111000110001100000100000110000000001010111110101011110000111010001110110000000100111010 u
b1011110000111010001110110000000100111010 z
b000101100001011000010110 |
b0100111110110010001 }
b10000010011011111100 ~
b10001100 !!
b00111010 "!
b00111011 #!
b00000001 $!
b00111010 %!
b00010110 &!
b01101111 '!
b110 (!
b1111101111000001 )!
b11000001 *!
b10111100 +!
b00010110 ,!
b0100 -!
1.!
b00000000000000000000000000000100 /!
#8000
0.!
#9000
b1010101101111101010011101111011100011010110100000111110100101101000011001000111011111111010110001011111001101010110101011010101101111110111100100100010010 #
b00000000000000000000000000000100 (
b101101000011001000111011 )
b01001101 *
b0000011111 +
b0000011100000000111111 ,
b1111010100111011110111000110101101 -
b1010101101 /
b110011010101101010110101011 0
b10001010 1
b0100 2
b01111110111 4
b000000000000000000000000 5
b10010010 6
b10110100 7
b00110010 8
b0011 9
b1011 :
0=
0>
1?
1@
b0000 C
b0111 D
b11 E
b00000111 F
b00000000 G
b111111 H
b11110101 I
b00111011 J
b11011100 K
b01101011 L
0M
b11110101 O
b1010 P
b1011 Q
1S
b1011 T
b0001 U
b0101 V
1X
b11001101 Z
b01011010 [
b10110101 \
b011 ]
b00100111 ^
b10101000 _
b10011000 `
b11101111 a
b10001000 b
b01011011 c
b00000010 d
b00000010 e
b11111101 f
b0111 g
b1111 h
b01111110 p
b111 q
b00000000 r
b00000000 s
b00000000 t
b101010110001010101100111011001110111111010100000111000000001111110111000100110111110000100010100000000000000000000000001010010010000000010001000000100000000010 u
b1010010010000000010001000000100000000010 z
b001110110011101111110101 |
b1010101100010101011 }
b11111101001100010111 ~
b11110000 !!
b10000000 "!
b01000100 #!
b00001000 $!
b00000010 %!
b00111011 &!
b00110001 '!
b000 (!
b1001001000010010 )!
b00010010 *!
b10100100 +!
b00111011 ,!
b1010 -!
1.!
b00000000000000000000000000000101 /!
#10000
0.!
#11000
b0100011111010001011001111001011010000110111000010100011110010101101101000100001000010111001110100111001111000001001011001011000110011011010100110101011000 #
b00000000000000000000000000000101 (
b010101101101000100001000 )
b01110001 *
b0001010001 +
b0001010000010001010101 ,
b0100010110011110010110100001101110 -
b0100011111 /
b011110000010010110010110001 0
b10110000 1
b1110 2
b10011011010 4
b011011000010011011100110 5
b10011010 6
b01010110 7
b11010001 8
b0000 9
b1000 :
1=
1>
0?
0@
b0001 C
b0100 D
b01 E
b00010100 F
b00010001 G
b010101 H
b01000101 I
b10011110 J
b01011010 K
b00011011 L
1M
0N
b10011110 O
b0100 P
b0111 Q
1R
b0111 T
b0011 U
b1011 V
1W
0Y
b01111000 Z
b00100101 [
b10010110 \
b001 ]
b10011101 ^
b00101100 _
b11111100 `
b10110011 a
b10110000 b
b00100110 c
b00000011 d
b00000000 e
b01011100 f
b1110 g
b0101 h
1i
b10011011 p
b010 q
b01101100 r
b00100110 s
b11100110 t
b010001110011101111001000101010110101001111000010100000100010101010111000111000101010001101100000110110000100110111001100011001000000010011100000000000100000010 u
b0011001000000010011100000000000100000010 z
b010001010101101010011110 |
b0100011100111011110 }
b01011100011101001110 ~
b01010001 !!
b00000010 "!
b01110000 #!
b00000001 $!
b01011010 &!
b01110100 '!
b1001101010011000 )!
b10011000 *!
b00110010 +!
b01000101 ,!
b0100 -!
1.!
b00000000000000000000000000000110 /!
#12000
0.!
#13000
b1001010000111011010110001101000000111110110111111101110110100110000011101101101011000100000111101100110011000111001110111000111101111110001001100110011110 #
b00000000000000000000000000000110 (
b100110000011101101101011 )
b01001101 *
b1111110111 +
b1111110111111111111111 ,
b1110110101100011010000001111101101 -
b1001010000 /
b100110001110011101110001111 0
b10000000 1
b0110 2
b010101 3
b01111110001 4
b111111000011111100111111 5
b00110011 6
b10011000 7
b00111011 8
b0110 9
b1011 :
0=
0>
1?
1@
b1111 C
b1101 D
b11 E
b11111101 F
b11111111 G
b111111 H
b11101101 I
b01100011 J
b01000000 K
b11111011 L
0M
1N
b01100011 O
b1001 P
b0100 Q
0R
0S
b1101 T
b1101 U
b0110 V
0W
0X
1Y
b10011000 Z
b11100111 [
b01110001 \
b111 ]
b01111111 ^
b10000000 _
b10000000 `
b10010110 a
b10000000 b
b11101000 c
b00000000 d
b00010000 f
b1001 g
b0001 h
0i
0l
1o
b01111110 p
b001 q
b11111100 r
b00111111 s
b00111111 t
b000011011101011000101100011011000110110001111111101111111111111110101010100110100011100100000001111110000111111001111110101000100010101111110100000000100010101 u
b0101000100010101111110100000000100010101 z
b011000110110001101100011 |
b0000110111010110001 }
b00010000101111011001 ~
b00011100 !!
b00010101 "!
b11111010 #!
b00010101 %!
b01100011 &!
b10111101 '!
b110 (!
b0011001100011110 )!
b00011110 *!
b01010001 +!
b01100011 ,!
b0000 -!
1.!
b00000000000000000000000000000111 /!
#14000
0.!
#15000
b0111101110010110111000000111101111100100111000111100000110110000010001101100001111001000100000000111001000101110110001110101011001100111111010001011000000 #
b00000000000000000000000000000111 (
b110000010001101100001111 )
b0011110000 +
b0011110000110011000000 ,
b0101101110000001111011111001001110 -
b0111101110 /
b010001011101100011101010110 0
b00000000 1
b01100111111 4
b100000000000000000000000 5
b01000101 6
b11000001 7
b00011011 8
b0000 9
b1111 :
b0011 C
b1100 D
b00 E
b00111100 F
b00110011 G
b000000 H
b01011011 I
b10000001 J
b11101111 K
b10010011 L
1M
0N
b10000001 O
b0111 P
b1011 Q
1R
b1111 T
b1100 U
b1000 V
1X
0Y
b01000101 Z
b11011000 [
b11101010 \
b110 ]
b00011101 ^
b00110010 a
b00000000 b
b11011001 c
b00100010 f
b1110 g
b0010 h
1i
b01100111 p
b111 q
b10000000 r
b00000000 s
b00000000 t
b001111111100100001001011011111011111000000100111100001100110000000101010100110100100001000000001000000000000000000000001110010110100101001000000000000001000101 u
b1110010110100101001000000000000001000101 z
b010110111110111110000001 |
b0011111111001000010 }
b00100010100000001110 ~
b00100001 !!
b10100101 "!
b00100000 #!
b00000000 $!
b01000101 %!
b11101111 &!
b10000000 '!
b000 (!
b0100010110100000 )!
b10100000 *!
b11100101 +!
b01011011 ,!
b0011 -!
1.!
b00000000000000000000000000001000 /!
#16000
0.!
#17000
b1110000011111111101111011101100011010101001101101011001110011000000110001010111110011011111100010001010100110000100111100001111001001011010011001001100011 #
b00000000000000000000000000001000 (
b011000000110001010111110 )
b01110001 *
b0110101100 +
b0110101101100110000000 ,
b1111111011110111011000110101010011 -
b1110000011 /
b101001100001001111000011110 0
b11000010 1
b1110 2
b011100 3
b01001011010 4
b001011000001001000010010 5
b01100100 6
b01100000 7
b01100010 8
b1011 9
b1110 :
1=
1>
0?
0@
b0110 C
b1011 D
b01101011 F
b01100110 G
b11111110 I
b11110111 J
b01100011 K
b01010100 L
1N
b11110111 O
b1110 P
b0000 Q
1S
b1110 T
b1110 U
b0001 V
1W
b10100110 Z
b00010011 [
b11000011 \
b10111001 ^
b11000000 _
b11000000 `
b11010000 a
b11000000 b
b00010100 c
b00001000 d
b00000010 e
b01101111 f
b0010 g
b0110 h
0i
1l
0o
b01001011 p
b010 q
b00101100 r
b00010010 s
b00010010 t
b000011101110000111011111110111111101111011101101011011001100000000111000111000101100000110000100010110000010010000100100010011110100001001011000000000001100100 u
b0010011110100001001011000000000001100100 z
b111111101111111011110111 |
b0000111011100001110 }
b01101111011000100010 ~
b01100000 !!
b10100001 "!
b00101100 #!
b01100100 %!
b11111110 &!
b01100010 '!
b0110010011000011 )!
b11000011 *!
b00100111 +!
b11111110 ,!
b0000 -!
1.!
b00000000000000000000000000001001 /!
#18000
0.!
#19000
b0110101000000011001010100011101100010110001100000101101110100111000100001111011000011101110011110011011001101100111001111010010011011110010001101011010001 #
b00000000000000000000000000001001 (
b100111000100001111011000 )
b01001101 *
b0000010110 +
b0000010100000000101010 ,
b0000110010101000111011000101100011 -
b0110101000 /
b110011011001110011110100100 0
b01000001 1
b11011110010 4
b011110000011011111110111 5
b00110101 6
b10011100 7
b01000011 8
b1101 9
b1000 :
0=
0>
1?
1@
b0000 C
b0101 D
b10 E
b00000101 F
b00000000 G
b101010 H
b00001100 I
b10101000 J
b11101100 K
b01011000 L
b00001100 O
b0110 P
b1010 Q
0R
0S
b1100 U
b1001 V
0W
0X
1Y
b11001101 Z
b10011100 [
b11110100 \
b100 ]
b01101001 ^
b01000000 _
b01000000 `
b01101000 a
b01000000 b
b10011101 c
b00000001 d
b00000001 e
b01110111 f
b0110 g
b0111 h
b11011110 p
b01111000 r
b00110111 s
b11110111 t
b001011101100100100100001100000011000000110000000101000000001010100111000100110101110100010000010111100000110111111101111100011010100100000001010000000000110101 u
b1100011010100100000001010000000000110101 z
b000011000000110000001100 |
b0010111011001001001 }
b01110111100111100110 ~
b01110100 !!
b10100100 "!
b00000101 #!
b00110101 %!
b00001100 &!
b10011110 '!
b010 (!
b0011010110010001 )!
b10010001 *!
b11000110 +!
b00001100 ,!
b0010 -!
1.!
b00000000000000000000000000001010 /!
#20000
0.!
#21000
b1001111111111100010110011010111101000010110010111011100010000110011011001010001001100101000111000111110010100100001011101110100100101110001110001101001111 #
b00000000000000000000000000001010 (
b000110011011001010001001 )
b01110001 *
b1011101110 +
b1011101110111011101010 ,
b1111000101100110101111010000101100 -
b1001111111 /
b100101001000010111011101001 0
b00001001 1
b0010 2
b00101110001 4
b010111000001011100010111 5
b11000110 6
b00011001 7
b10110010 8
b1000 9
b1001 :
1=
1>
0?
0@
b1011 C
b1011 D
b10111011 F
b10111011 G
b11110001 I
b01100110 J
b10111101 K
b00001011 L
0M
0N
b11110001 O
b1001 P
b1111 Q
1R
1S
b1111 T
b0110 U
b0110 V
1W
1X
0Y
b10010100 Z
b10000101 [
b11011101 \
b001 ]
b00011001 ^
b10111010 _
b00101010 `
b01011000 a
b00001000 b
b10000110 c
b10010100 f
b1111 g
b1001 h
1i
b00101110 p
b001 q
b01011100 r
b00010111 s
b00010111 t
b100111110110011011001100110101111011111000110111011101110111010100111000111000110010001000010010101110000010111000101110111010100010111010110100000000100010111 u
b0111010100010111010110100000000100010111 z
b011001101011110111110001 |
b1001111101100110110 }
b10010100101110001111 ~
b10010001 !!
b00010111 "!
b01011010 #!
b00000001 $!
b00010111 %!
b10111101 &!
b10111000 '!
b000 (!
b1100011010101111 )!
b10101111 *!
b01110101 +!
b01100110 ,!
b1001 -!
1.!
b00000000000000000000000000001011 /!
#22000
0.!
#23000
b0110101101101011111000010001010111101100001111011000011111111111111001110010111100111000111011110101010100101100110000100111101111111111000001101100011111 #
b00000000000000000000000000001011 (
b111111111001110010111100 )
b01001101 *
b1101100001 +
b1101100011011101010101 ,
b1010111110000100010101111011000011 -
b0110101101 /
b101001011001100001001111011 0
b10010001 1
b1111 2
b110001 3
b11111111000 4
b111111111111111111111111 5
b00110110 6
b11111111 7
b10011100 8
b1011 9
b1100 :
0=
0>
1?
1@
b1101 C
b1000 D
b01 E
b11011000 F
b11011101 G
b010101 H
b10101111 I
b10000100 J
b01010111 K
b10110000 L
1M
1N
b10000100 O
b0110 P
b1011 Q
0R
b1101 U
b1001 V
0W
1Y
b10100101 Z
b10011000 [
b01001111 \
b011 ]
b00111101 ^
b01111000 _
b10011000 `
b11010111 a
b10010000 b
b10011001 c
b11100011 f
b1010 g
b1110 h
0i
1j
0l
0m
1o
b11111111 p
b000 q
b11111111 r
b11111111 s
b11111111 t
b001011111101100101110101111101011111000010011011000110111010101011100010100110111101110100100011111111111111111111111110101010100010111100010100000000100010111 u
b0101010100010111100010100000000100010111 z
b101011111010111110000100 |
b0010111111011001011 }
b11100011110111101010 ~
b11101110 !!
b10001010 #!
b10101111 &!
b11011110 '!
b111 (!
b0011011000011111 )!
b00011111 *!
b01010101 +!
b10101111 ,!
b0010 -!
1.!
b00000000000000000000000000001100 /!
#24000
0.!
#25000
b1011001000101010001111001111101110010000100001111010011100110111110111001011101010010010110111100100100001101001100011001101011111000100000011011011000101 #
b00000000000000000000000000001100 (
b110111110111001011101010 )
b0111101001 +
b0111101001110111010101 ,
b1010100011110011111011100100001000 -
b1011001000 /
b000011010011000110011010111 0
b00000000 1
b1100 2
b010101 3
b11000100000 4
b110001001100010011000100 5
b01101101 6
b11011111 7
b01110010 8
b1110 9
b1010 :
b0111 C
b1010 D
b01111010 F
b01110111 G
b10101000 I
b11110011 J
b11101110 K
b01000010 L
0M
0N
b10101000 O
b1011 P
b0010 Q
0S
b1011 T
b1001 U
b0100 V
0X
b00001101 Z
b00110001 [
b10011010 \
b111 ]
b00111110 ^
b00000000 _
b00000000 `
b10101011 a
b00000000 b
b00110010 c
b00000000 d
b00000000 e
b01001011 f
b1001 g
b0100 h
0j
1m
b11000100 p
b11000100 r
b11000100 s
b11000100 t
b001010111001010000111110011111011101010100001111010011101110101010101010100110101001100000000001100010011000100110001001111001011101000101000010000000001101101 u
b1111001011101000101000010000000001101101 z
b111100111110111010101000 |
b0010101110010100001 }
b01001011101111001001 ~
b01001100 !!
b11101000 "!
b10100001 #!
b00000000 $!
b01101101 %!
b11101110 &!
b10111100 '!
b110 (!
b0110110110000101 )!
b10000101 *!
b11110010 +!
b11110011 ,!
1.!
b00000000000000000000000000001101 /!
#26000
0.!
#27000
b1001100001001101000100011101111100010010011101010101011101000110111011100101100101110010101001001111011101011111101110110111001110101100110010110011001001 #
b00000000000000000000000000001101 (
b000110111011100101100101 )
b01110001 *
b0101010101 +
b0101010101010101010101 ,
b0011010001000111011111000100100111 -
b1001100001 /
b111010111111011101101110011 0
b10000000 1
b1101 2
b011100 3
b10101100110 4
b000000000000001011111110 5
b01011001 6
b00011011 7
b10111001 8
b0110 9
b0101 :
1=
1>
0?
0@
b0101 C
b0101 D
b01010101 F
b01010101 G
b00110100 I
b01000111 J
b01111100 K
b01001001 L
1M
1N
b01000111 O
b1001 P
b1000 Q
1S
b1001 T
b0001 U
b0110 V
1X
b11101011 Z
b11110111 [
b01101110 \
b011 ]
b11100010 ^
b01110000 _
b11100000 `
b10011001 a
b10000000 b
b11111000 c
b11001010 f
b1110 g
b1100 h
1i
1l
0o
b10101100 p
b110 q
b00000000 r
b00000010 s
b11111110 t
b100010010001011001100110100001101000100011101010101010101010101010111000111000111000001100000000000000000000010111111101110001011010000101000010000000001011001 u
b1110001011010000101000010000000001011001 z
b001101000011010001000111 |
b1000100100010110011 }
b11001010110010011110 ~
b11000001 !!
b11010000 "!
b01011001 %!
b00110100 &!
b11001001 '!
b000 (!
b0101100110001001 )!
b10001001 *!
b11100010 +!
b00110100 ,!
b1000 -!
1.!
b00000000000000000000000000001110 /!
#28000
0.!
