rewiring/large_test_seed0_50mut/cycle_0002/tb_top.vcd
$date
	Tue Nov  4 00:12:48 2025
$end
$version
	Icarus Verilog
$end
$timescale
	1ps
$end
$scope module tb_top $end
$var wire 159 ! out_flat [158:0] $end
$var reg 1 " clk $end
$var reg 134 # in_flat [133:0] $end
$var reg 32 $ rng_state [31:0] $end
$var reg 1 % rst_n $end
$var integer 32 & cyc [31:0] $end
$var integer 32 ' cycles [31:0] $end
$var integer 32 ( i [31:0] $end
$var integer 32 ) seed [31:0] $end
$scope module dut $end
$var wire 1 " clk $end
$var wire 134 * in_flat [133:0] $end
$var wire 1 % rst_n $end
$var wire 159 + out_flat [158:0] $end
$var wire 24 , const_shift_wrapper_out_flat [23:0] $end
$var wire 11 - const_shift_wrapper_in_flat [10:0] $end
$var wire 6 . const_reduce_wrapper_out_flat [5:0] $end
$var wire 4 / const_reduce_wrapper_in_flat [3:0] $end
$var wire 8 0 const_partselect_wrapper_out_flat [7:0] $end
$var wire 20 1 const_partselect_wrapper_in_flat [19:0] $end
$var wire 8 2 const_nested_wrapper_out_flat [7:0] $end
$var wire 27 3 const_nested_wrapper_in_flat [26:0] $end
$var wire 19 4 const_logic_wrapper_out_flat [18:0] $end
$var wire 10 5 const_logic_wrapper_in_flat [9:0] $end
$var wire 24 6 const_conditional_wrapper_out_flat [23:0] $end
$var wire 34 7 const_conditional_wrapper_in_flat [33:0] $end
$var wire 22 8 const_concat_repl_wrapper_out_flat [21:0] $end
$var wire 10 9 const_concat_repl_wrapper_in_flat [9:0] $end
$var wire 8 : const_compare_wrapper_out_flat [7:0] $end
$var wire 24 ; const_compare_wrapper_in_flat [23:0] $end
$var wire 40 < const_arith_wrapper_out_flat [39:0] $end
$var wire 16 = const_arith_wrapper_in_flat [15:0] $end
$scope module u_const_arith_wrapper $end
$var wire 16 > in_flat [15:0] $end
$var wire 8 ? sum_c [7:0] $end
$var wire 8 @ rem_c [7:0] $end
$var wire 8 A quot_c [7:0] $end
$var wire 8 B prod_c [7:0] $end
$var wire 40 C out_flat [39:0] $end
$var wire 8 D diff_c [7:0] $end
$var wire 8 E b [7:0] $end
$var wire 8 F a [7:0] $end
$scope module u_const_arith $end
$var wire 8 G a [7:0] $end
$var wire 8 H b [7:0] $end
$var wire 8 I sum_c [7:0] $end
$var wire 8 J rem_c [7:0] $end
$var wire 8 K quot_c [7:0] $end
$var wire 8 L prod_c [7:0] $end
$var wire 8 M diff_c [7:0] $end
$upscope $end
$upscope $end
$scope module u_const_compare_wrapper $end
$var wire 24 N in_flat [23:0] $end
$var wire 8 O out_flat [7:0] $end
$var wire 1 P neq_c $end
$var wire 1 Q lt_c $end
$var wire 1 R le_c $end
$var wire 1 S gt_c $end
$var wire 1 T ge_c $end
$var wire 1 U eq_c $end
$var wire 4 V d [3:0] $end
$var wire 1 W case_neq_c $end
$var wire 1 X case_eq_c $end
$var wire 4 Y c [3:0] $end
$var wire 8 Z b [7:0] $end
$var wire 8 [ a [7:0] $end
$scope module u_const_compare $end
$var wire 8 \ a [7:0] $end
$var wire 8 ] b [7:0] $end
$var wire 4 ^ c [3:0] $end
$var wire 4 _ d [3:0] $end
$var wire 1 P neq_c $end
$var wire 1 Q lt_c $end
$var wire 1 R le_c $end
$var wire 1 S gt_c $end
$var wire 1 T ge_c $end
$var wire 1 U eq_c $end
$var wire 1 W case_neq_c $end
$var wire 1 X case_eq_c $end
$upscope $end
$upscope $end
$scope module u_const_concat_repl_wrapper $end
$var wire 10 ` in_flat [9:0] $end
$var wire 8 a rep_c [7:0] $end
$var wire 6 b rep2_c [5:0] $end
$var wire 22 c out_flat [21:0] $end
$var wire 8 d cat_c [7:0] $end
$var wire 2 e c [1:0] $end
$var wire 4 f b [3:0] $end
$var wire 4 g a [3:0] $end
$scope module u_const_concat_repl $end
$var wire 4 h a [3:0] $end
$var wire 4 i b [3:0] $end
$var wire 2 j c [1:0] $end
$var wire 8 k rep_c [7:0] $end
$var wire 6 l rep2_c [5:0] $end
$var wire 8 m cat_c [7:0] $end
$upscope $end
$upscope $end
$scope module u_const_conditional_wrapper $end
$var wire 34 n in_flat [33:0] $end
$var wire 1 o sel2 $end
$var wire 1 p sel1 $end
$var wire 24 q out_flat [23:0] $end
$var wire 8 r d [7:0] $end
$var wire 8 s cond3_c [7:0] $end
$var wire 8 t cond2_c [7:0] $end
$var wire 8 u cond1_c [7:0] $end
$var wire 8 v c [7:0] $end
$var wire 8 w b [7:0] $end
$var wire 8 x a [7:0] $end
$scope module u_const_conditional $end
$var wire 8 y a [7:0] $end
$var wire 8 z b [7:0] $end
$var wire 8 { c [7:0] $end
$var wire 8 | d [7:0] $end
$var wire 1 p sel1 $end
$var wire 1 o sel2 $end
$var wire 8 } cond3_c [7:0] $end
$var wire 8 ~ cond2_c [7:0] $end
$var wire 8 !" cond1_c [7:0] $end
$upscope $end
$upscope $end
$scope module u_const_logic_wrapper $end
$var wire 10 "" in_flat [9:0] $end
$var wire 4 #" y [3:0] $end
$var wire 4 $" xor_c [3:0] $end
$var wire 4 %" x [3:0] $end
$var wire 19 &" out_flat [18:0] $end
$var wire 4 '" or_c [3:0] $end
$var wire 4 (" not_c [3:0] $end
$var wire 1 )" lor_c $end
$var wire 1 *" lnot_c $end
$var wire 1 +" land_c $end
$var wire 1 ," b $end
$var wire 4 -" and_c [3:0] $end
$var wire 1 ." a $end
$scope module u_const_logic $end
$var wire 1 ." a $end
$var wire 4 /" and_c [3:0] $end
$var wire 1 ," b $end
$var wire 1 +" land_c $end
$var wire 1 )" lor_c $end
$var wire 4 0" not_c [3:0] $end
$var wire 4 1" or_c [3:0] $end
$var wire 4 2" x [3:0] $end
$var wire 4 3" xor_c [3:0] $end
$var wire 4 4" y [3:0] $end
$var wire 1 *" lnot_c $end
$upscope $end
$upscope $end
$scope module u_const_nested_wrapper $end
$var wire 27 5" in_flat [26:0] $end
$var wire 8 6" out_flat [7:0] $end
$var wire 3 7" s [2:0] $end
$var wire 8 8" r [7:0] $end
$var wire 8 9" q [7:0] $end
$var wire 8 :" p [7:0] $end
$var wire 8 ;" nested_c [7:0] $end
$scope module u_const_nested $end
$var wire 8 <" and_part [7:0] $end
$var wire 8 =" nested_c [7:0] $end
$var wire 8 >" p [7:0] $end
$var wire 8 ?" q [7:0] $end
$var wire 8 @" r [7:0] $end
$var wire 3 A" s [2:0] $end
$var wire 8 B" xor_qr [7:0] $end
$var wire 8 C" shl_rs [7:0] $end
$var wire 8 D" mul_part [7:0] $end
$var wire 8 E" mod_part [7:0] $end
$var wire 8 F" div_part [7:0] $end
$var wire 8 G" denom [7:0] $end
$var wire 8 H" add_pq [7:0] $end
$upscope $end
$upscope $end
$scope module u_const_partselect_wrapper $end
$var wire 20 I" in_flat [19:0] $end
$var wire 3 J" sel2_c [2:0] $end
$var wire 4 K" sel1_c [3:0] $end
$var wire 1 L" ovf_range $end
$var wire 8 M" out_flat [7:0] $end
$var wire 4 N" idx [3:0] $end
$var wire 8 O" data2 [7:0] $end
$var wire 8 P" data1 [7:0] $end
$scope module u_const_partselect $end
$var wire 8 Q" data1 [7:0] $end
$var wire 8 R" data2 [7:0] $end
$var wire 4 S" idx [3:0] $end
$var wire 3 T" sel2_c [2:0] $end
$var wire 4 U" sel1_c [3:0] $end
$var wire 1 L" ovf_range $end
$upscope $end
$upscope $end
$scope module u_const_reduce_wrapper $end
$var wire 4 V" in_flat [3:0] $end
$var wire 4 W" in_vec [3:0] $end
$var wire 1 X" red_xor_c $end
$var wire 1 Y" red_xnor_c $end
$var wire 1 Z" red_or_c $end
$var wire 1 [" red_nor_c $end
$var wire 1 \" red_nand_c $end
$var wire 1 ]" red_and_c $end
$var wire 6 ^" out_flat [5:0] $end
$scope module u_const_reduce $end
$var wire 4 _" in_vec [3:0] $end
$var wire 1 X" red_xor_c $end
$var wire 1 Y" red_xnor_c $end
$var wire 1 Z" red_or_c $end
$var wire 1 [" red_nor_c $end
$var wire 1 \" red_nand_c $end
$var wire 1 ]" red_and_c $end
$upscope $end
$upscope $end
$scope module u_const_shift_wrapper $end
$var wire 11 `" in_flat [10:0] $end
$var wire 8 a" shr_c [7:0] $end
$var wire 8 b" shl_c [7:0] $end
$var wire 3 c" shift_amt [2:0] $end
$var wire 24 d" out_flat [23:0] $end
$var wire 8 e" data_in [7:0] $end
$var wire 8 f" ashr_c [7:0] $end
$scope module u_const_shift $end
$var wire 8 g" data_in [7:0] $end
$var wire 3 h" shift_amt [2:0] $end
$var wire 8 i" shr_c [7:0] $end
$var wire 8 j" shl_c [7:0] $end
$var wire 8 k" ashr_c [7:0] $end
$upscope $end
$upscope $end
$upscope $end
$upscope $end
$enddefinitions $end
$comment Show the parameter values. $end
$dumpall
$end
#0
$dumpvars
b0 k"
b11000000 j"
b0 i"
b110 h"
b100111 g"
b0 f"
b100111 e"
b110000000000000000000000 d"
b110 c"
b11000000 b"
b0 a"
b100111110 `"
b101 _"
b10101 ^"
0]"
1\"
0["
1Z"
1Y"
0X"
b101 W"
b101 V"
b111 U"
b100 T"
b100 S"
b1000011 R"
b1110001 Q"
b1110001 P"
b1000011 O"
b100 N"
b1111000 M"
0L"
b111 K"
b100 J"
b1110001010000110100 I"
b11100101 H"
b1011000 G"
b1 F"
b1 E"
b10010000 D"
b1010000 C"
b1111111 B"
b1 A"
b101000 @"
b1010111 ?"
b10001110 >"
b10001 ="
b10000 <"
b10001 ;"
b10001110 :"
b1010111 9"
b101000 8"
b1 7"
b10001 6"
b100011100101011100101000001 5"
b1100 4"
b10 3"
b1110 2"
b1110 1"
b1 0"
b1100 /"
0."
b1100 -"
0,"
0+"
1*"
0)"
b1 ("
b1110 '"
b1100111000100001001 &"
b1110 %"
b10 $"
b1100 #"
b1110110000 ""
b1001000 !"
b1001000 ~
b1001000 }
b111100 |
b1111100 {
b1001000 z
b11001 y
b11001 x
b1001000 w
b1111100 v
b1001000 u
b1001000 t
b1001000 s
b111100 r
b10010000100100001001000 q
0p
1o
b1100101001000011111000011110001 n
b101 m
b101010 l
b0 k
b10 j
b101 i
b0 h
b0 g
b101 f
b10 e
b101 d
b10100000000101010 c
b101010 b
b0 a
b10110 `
b1000 _
b110 ^
b111010 ]
b1101 \
b1101 [
b111010 Z
b110 Y
0X
1W
b1000 V
0U
0T
0S
1R
1Q
1P
b1110001 O
b11010011101001101000 N
b1010000 M
b10011001 L
b0 K
b1000011 J
b110110 I
b11110011 H
b1000011 G
b1000011 F
b11110011 E
b1010000 D
b11011001010000100110010000000001000011 C
b10011001 B
b0 A
b1000011 @
b110110 ?
b100001111110011 >
b100001111110011 =
b11011001010000100110010000000001000011 <
b11010011101001101000 ;
b1110001 :
b10110 9
b10100000000101010 8
b1100101001000011111000011110001 7
b10010000100100001001000 6
b1110110000 5
b1100111000100001001 4
b100011100101011100101000001 3
b10001 2
b1110001010000110100 1
b1111000 0
b101 /
b10101 .
b100111110 -
b110000000000000000000000 ,
b110000000000000000000000010101011110000001000111001110001000010010100100001001000010010000000010100000000101010011100010011011001010000100110010000000001000011 +
b111110011010000011010000011010101110010100000111101100000011001010010000111110000111100010001011000011101110100110100010001111110011 *
b10000010111000101110011001100010 )
bx (
b1100100 '
b0 &
0%
b11101000001010010000110001001111 $
b111110011010000011010000011010101110010100000111101100000011001010010000111110000111100010001011000011101110100110100010001111110011 #
0"
b110000000000000000000000010101011110000001000111001110001000010010100100001001000010010000000010100000000101010011100010011011001010000100110010000000001000011 !
$end
#1000
b1 &
1"
#2000
b0 (
0"
#3000
b10 &
1"
#4000
b101 K"
b101 U"
b1010001 P"
b1010001 Q"
b10110000001011000010110010101010110100000000010011001000001100101101001111010011110100110000011100000000000000010011011101101100100011001001000000000100100011 !
b10110000001011000010110010101010110100000000010011001000001100101101001111010011110100110000011100000000000000010011011101101100100011001001000000000100100011 +
b11 W"
b11 _"
b11 /
b11 V"
b1011010 0
b1011010 M"
b0 2
b0 6"
b0 ;"
b0 ="
b11010011 t
b11010011 ~
b110100111101001111010011 6
b110100111101001111010011 q
b1001101 :
b1001101 O
b101 J"
b101 T"
b1001100100000110010 4
b1001100100000110010 &"
b0 E"
b11 F"
b10001100 B"
b0 <"
b11100000000000000 8
b11100000000000000 c
b11010011 u
b11010011 !"
b11010011 s
b11010011 }
b1101101100100011001001000000000100100011 <
b1101101100100011001001000000000100100011 C
b101 O"
b101 R"
b0 N"
b0 S"
b10110000001011000010110 ,
b10110000001011000010110 d"
b110 ("
b110 0"
b1001 -"
b1001 /"
b1001 '"
b1001 1"
b0 $"
b0 3"
1)"
b10111100 :"
b10111100 >"
b11110001 H"
b110110 G"
b110101 9"
b110101 ?"
b10111001 8"
b10111001 @"
b1000000 D"
b1000000 C"
b110 7"
b110 A"
b111 d
b111 m
b0 b
b0 l
b11111101 x
b11111101 y
b11010011 w
b11010011 z
b110000 v
b110000 {
b10111101 r
b10111101 |
b1 A
b1 K
b100011 @
b100011 J
0Q
0R
1S
1T
b10101101 [
b10101101 \
b111101 Z
b111101 ]
b101 Y
b101 ^
b0 V
b0 _
b1010001000001010000 1
b1010001000001010000 I"
b101100 e"
b101100 g"
b1011000 b"
b1011000 j"
b10110 a"
b10110 i"
b10110 f"
b10110 k"
b1 c"
b1 h"
b1001 %"
b1001 2"
b1001 #"
b1001 4"
0*"
1."
b101111000011010110111001110 3
b101111000011010110111001110 5"
b111 f
b111 i
b0 e
b0 j
b1111110111010011001100001011110101 7
b1111110111010011001100001011110101 n
b11111111 F
b11111111 G
b11011011 ?
b11011011 I
b100011 D
b100011 M
b100100 B
b100100 L
b11011100 E
b11011100 H
b101011010011110101010000 ;
b101011010011110101010000 N
b101100001 -
b101100001 `"
b1001100110 5
b1001100110 ""
b11100 9
b11100 `
b1111111111011100 =
b1111111111011100 >
b1 (
b100001011010000101000001111001101011011100111010011011011111101110100110011000010111101010001110010111101111010101000111111111011100 #
b100001011010000101000001111001101011011100111010011011011111101110100110011000010111101010001110010111101111010101000111111111011100 *
b101101100101111011110111001000 $
0"
1%
#5000
b11 &
1"
#6000
bx E"
bx F"
b1x10x .
b1x10x ^"
b10000000000000010000000101x10x0000xxx0xxxxxxxx00000101010110100111011001010110010001110111010110010101010000000010011010100111110001101001011100000001000101100 !
b10000000000000010000000101x10x0000xxx0xxxxxxxx00000101010110100111011001010110010001110111010110010101010000000010011010100111110001101001011100000001000101100 +
xX"
xY"
b1x W"
b1x _"
b1x /
b1x V"
b0xxx0 0
b0xxx0 M"
bx 2
bx 6"
bx ;"
bx ="
b10110010 t
b10110010 ~
b101100101011001000111011 6
b101100101011001000111011 q
b0 K"
b0 U"
bx J"
bx T"
b10101011010011 4
b10101011010011 &"
b11000100 B"
bx000x00 <"
b1010110010101010000000 8
b1010110010101010000000 c
b111011 s
b111011 }
b10110010 u
b10110010 !"
b100111110001101001011100000001000101100 <
b100111110001101001011100000001000101100 C
b1111 P"
b1111 Q"
b10010011 O"
b10010011 R"
b1011 N"
b1011 S"
b100000000000000100000001 ,
b100000000000000100000001 d"
b1010 ("
b1010 0"
b0 -"
b0 /"
b101 '"
b101 1"
b101 $"
b101 3"
bx1011100 :"
bx1011100 >"
bx H"
b10111011 G"
b10111010 9"
b10111010 ?"
b1111110 8"
b1111110 @"
bx D"
b11000000 C"
b101 7"
b101 A"
b10101010 a
b10101010 k
b10101100 d
b10101100 m
b10110010 x
b10110010 y
b111011 w
b111011 z
b10111110 v
b10111110 {
b10011001 r
b10011001 |
1p
b10 A
b10 K
b101100 @
b101100 J
b11010011 [
b11010011 \
b1011000 Z
b1011000 ]
b111 Y
b111 ^
b1011 V
b1011 _
b1111100100111011 1
b1111100100111011 I"
b1111010 e"
b1111010 g"
b10000000 b"
b10000000 j"
b1 a"
b1 i"
b1 f"
b1 k"
b110 c"
b110 h"
b101 %"
b101 2"
b0 #"
b0 4"
1*"
0."
1,"
bx10111001011101001111110101 3
bx10111001011101001111110101 5"
b1010 g
b1010 h
b1100 f
b1100 i
b1011001000111011101111101001100111 7
b1011001000111011101111101001100111 n
b11101110 F
b11101110 G
b1001111 ?
b1001111 I
b10001101 D
b10001101 M
b101110 B
b101110 L
b1100001 E
b1100001 H
b110100110101100001111011 ;
b110100110101100001111011 N
b1111010110 -
b1111010110 `"
b101000001 5
b101000001 ""
b1010110000 9
b1010110000 `
b1110111001100001 =
b1110111001100001 >
b10 (
b1110110000111010011101110111001110100111111010101010000110110010001110111011111010011001111011000011000110110000111101110111001100001 #
b1110110000111010011101110111001110100111111010101010000110110010001110111011111010011001111011000011000110110000111101110111001100001 *
b10001010111110110000111110011101 $
0"
#7000
b100 &
1"
#8000
b1110001 :
b1110001 O
1Q
1R
0S
0T
b10011000000011100000111001x10x1100xxx0xxxxxxxx10001011001101101100000010100000101000001011011111110111011000000011100010101111000111010010110000000010000000100 !
b10011000000011100000111001x10x1100xxx0xxxxxxxx10001011001101101100000010100000101000001011011111110111011000000011100010101111000111010010110000000010000000100 +
b10x W"
b10x _"
b10x /
b10x V"
b1100xxx0 0
b1100xxx0 M"
b0xxxx000 <"
b101 t
b101 ~
b1010000010100000101 6
b1010000010100000101 q
b1100 K"
b1100 U"
b1000101100110110110 4
b1000101100110110110 &"
b1111000 B"
b1011111110111011000000 8
b1011111110111011000000 c
b101 s
b101 }
b101 u
b101 !"
b101111000111010010110000000010000000100 <
b101111000111010010110000000010000000100 C
b11000010 P"
b11000010 Q"
b11011111 O"
b11011111 R"
b1000 N"
b1000 S"
b100110000000111000001110 ,
b100110000000111000001110 d"
b110 ("
b110 0"
b1000 -"
b1000 /"
b1011 '"
b1011 1"
b11 $"
b11 3"
1+"
bx0010000 :"
bx0010000 >"
b11001101 G"
b11001100 9"
b11001100 ?"
b10110100 8"
b10110100 @"
b0 C"
b110 7"
b110 A"
b10111011 a
b10111011 k
b10111111 d
b10111111 m
b11101111 x
b11101111 y
b101 w
b101 z
b10111100 v
b10111100 {
b10011111 r
b10011111 |
0p
b100 A
b100 K
b100 @
b100 J
b1111000 [
b1111000 \
b11110000 Z
b11110000 ]
b101 Y
b101 ^
0X
1W
b110 V
b110 _
b11000010110111111000 1
b11000010110111111000 I"
b1110011 e"
b1110011 g"
b10011000 b"
b10011000 j"
b1110 a"
b1110 i"
b1110 f"
b1110 k"
b11 c"
b11 h"
b1001 %"
b1001 2"
b1010 #"
b1010 4"
0*"
1."
bx00100001100110010110100110 3
bx00100001100110010110100110 5"
b1011 g
b1011 h
b1111 f
b1111 i
b1110111100000101101111001001111101 7
b1110111100000101101111001001111101 n
b1001100 F
b1001100 G
b1011110 ?
b1011110 I
b111010 D
b111010 M
b1011000 B
b1011000 L
b10010 E
b10010 H
b11110001111000001010110 ;
b11110001111000001010110 N
b1110011011 -
b1110011011 `"
b1001101011 5
b1001101011 ""
b1011111100 9
b1011111100 `
b100110000010010 =
b100110000010010 >
b11 (
b1111011110001011111100000100010011001011010011010011001111101111000001011011110010011111011111110001110011100000101011010110000010010 #
b1111011110001011111100000100010011001011010011010011001111101111000001011011110010011111011111110001110011100000101011010110000010010 *
b10111000100111100111011101011110 $
0"
#9000
b101 &
1"
#10000
b11x W"
b11x _"
b11x /
b11x V"
b1001101 :
b1001101 O
0Q
0R
1S
1T
b10000000000000000000000001x10x1000xxx0xxxxxxxx01110111000010000011010101010101010101011010000000000000000010101010011011010011000101000010110010000000100101000 !
b10000000000000000000000001x10x1000xxx0xxxxxxxx01110111000010000011010101010101010101011010000000000000000010101010011011010011000101000010110010000000100101000 +
b1000xxx0 0
b1000xxx0 M"
b0x0xxxx0 <"
b10101010 t
b10101010 ~
b101010101010101010101101 6
b101010101010101010101101 q
b1000 K"
b1000 U"
b111011100001000001 4
b111011100001000001 &"
b1011110 B"
b10101 8
b10101 c
b10101101 s
b10101101 }
b10101010 u
b10101010 !"
b1010011000101000010110010000000100101000 <
b1010011000101000010110010000000100101000 C
b100000000000000000000000 ,
b100000000000000000000000 d"
b10001011 P"
b10001011 Q"
b10101 O"
b10101 R"
b1010 N"
b1010 S"
b1000 ("
b1000 0"
b111 -"
b111 /"
b111 '"
b111 1"
b0 $"
b0 3"
0+"
0)"
bx1010101 :"
bx1010101 >"
b110110 G"
b110101 9"
b110101 ?"
b11000000 C"
b1101011 8"
b1101011 @"
b0 a
b0 k
b0 d
b0 m
b10101 b
b10101 l
b10101010 x
b10101010 y
b10101101 w
b10101101 z
b110001 v
b110001 {
b101100 r
b101100 |
1p
b1 A
b1 K
b101000 @
b101000 J
b10000000 [
b10000000 \
b1010010 Z
b1010010 ]
b10 Y
b10 ^
b1110 V
b1110 _
b1100001 e"
b1100001 g"
b10000000 b"
b10000000 j"
b0 a"
b0 i"
b0 f"
b0 k"
b111 c"
b111 h"
b10001011000101011010 1
b10001011000101011010 I"
b111 %"
b111 2"
b111 #"
b111 4"
1*"
0."
0,"
bx10101010011010101101011110 3
bx10101010011010101101011110 5"
b0 g
b0 h
b0 f
b0 i
b1 e
b1 j
b1010101010101101001100010010110011 7
b1010101010101101001100010010110011 n
b1100111 F
b1100111 G
b10100110 ?
b10100110 I
b101000 D
b101000 M
b1011001 B
b1011001 L
b111111 E
b111111 H
b100000000101001000101110 ;
b100000000101001000101110 N
b1100001111 -
b1100001111 `"
b111011100 5
b111011100 ""
b1 9
b1 `
b110011100111111 =
b110011100111111 >
b100 (
b1101111100110010101101010101101101010110101111001110110010101010101011010011000100101100110000000110000010100100010111010011100111111 #
b1101111100110010101101010101101101010110101111001110110010101010101011010011000100101100110000000110000010100100010111010011100111111 *
b11111001000111010111100001011011 $
0"
#11000
b110 &
1"
#12000
b1 2
b1 6"
b1 ;"
b1 ="
b1 E"
b1 F"
b0 D"
b10011010 H"
b10101 .
b10101 ^"
b1001000100100111001001010101101110000000000100001011101101000011010000111010111101000010000111000000000101010011100010100000001010000110000000000000001001000 !
b1001000100100111001001010101101110000000000100001011101101000011010000111010111101000010000111000000000101010011100010100000001010000110000000000000001001000 +
0X"
1Y"
b10111000 0
b10111000 M"
b1001 W"
b1001 _"
b1001 /
b1001 V"
b101110110100001 4
b101110110100001 &"
b0 <"
b101000011101011110100001 6
b101000011101011110100001 q
b1110001 :
b1110001 O
b1011 K"
b1011 U"
b100 J"
b100 T"
b1000011 B"
b111000000000101010 8
b111000000000101010 c
b10100001 u
b10100001 !"
b10100001 s
b10100001 }
b11010111 t
b11010111 ~
b100000001010000110000000000000001001000 <
b100000001010000110000000000000001001000 C
b10111100 P"
b10111100 Q"
b1001100 O"
b1001100 R"
b100 N"
b100 S"
b1001000100100111001001 ,
b1001000100100111001001 d"
b100 ("
b100 0"
b0 -"
b0 /"
b1011 '"
b1011 1"
b1011 $"
b1011 3"
b11111111 :"
b11111111 >"
b10011100 G"
b10011011 9"
b10011011 ?"
b0 C"
b11011000 8"
b11011000 @"
b1110 d
b1110 m
b101010 b
b101010 l
b10100001 x
b10100001 y
b10110110 w
b10110110 z
b11010111 v
b11010111 {
b1111001 r
b1111001 |
0o
b0 A
b0 K
b1001000 @
b1001000 J
1Q
1R
0S
0T
b100001 [
b100001 \
b1110110 Z
b1110110 ]
b110 Y
b110 ^
b1000 V
b1000 _
b10111100010011000100 1
b10111100010011000100 I"
b10010010 e"
b10010010 g"
b100100 b"
b100100 j"
b1001001 a"
b1001001 i"
b11001001 f"
b11001001 k"
b1 c"
b1 h"
b1011 %"
b1011 2"
b0 #"
b0 4"
b111111111001101111011000110 3
b111111111001101111011000110 5"
b1110 f
b1110 i
b10 e
b10 j
b1010000110110110110101110111100110 7
b1010000110110110110101110111100110 n
b1001000 F
b1001000 G
b1000000 ?
b1000000 I
b1010000 D
b1010000 M
b11000000 B
b11000000 L
b11111000 E
b11111000 H
b1000010111011001101000 ;
b1000010111011001101000 N
b10010010001 -
b10010010001 `"
b1011000000 5
b1011000000 ""
b111010 9
b111010 `
b100100011111000 =
b100100011111000 >
b101 (
b10010001101100001100010011111100110111101100011010110000010100001101101101101011101111001100011101000100111101100110100010100011111000 #
b10010001101100001100010011111100110111101100011010110000010100001101101101101011101111001100011101000100111101100110100010100011111000 *
b11101101110001001101110010100100 $
0"
#13000
b111 &
1"
#14000
b1 2
b1 6"
b1 ;"
b1 ="
b1 E"
b1 F"
b1001 K"
b1001 U"
b10101 .
b10101 ^"
b10101100111100000000100000111011110110011011111010111110100111011010111010101010000000011100010100011100101101111100100000010000000110 !
b10101100111100000000100000111011110110011011111010111110100111011010111010101010000000011100010100011100101101111100100000010000000110 +
b10011010 P"
b10011010 Q"
0X"
1Y"
b10011110 0
b10011110 M"
b101 W"
b101 _"
b101 /
b101 V"
b11101111011001 4
b11101111011001 &"
b101111101011111010011101 6
b101111101011111010011101 q
b1110001 :
b1110001 O
b111 J"
b111 T"
b10000000 B"
b1010111010101010000000 8
b1010111010101010000000 c
b10111110 u
b10111110 !"
b10011101 s
b10011101 }
b10111110 t
b10111110 ~
b100011100101101111100100000010000000110 <
b100011100101101111100100000010000000110 C
b11110001 O"
b11110001 R"
b0 ,
b0 d"
b1011 ("
b1011 0"
b111 '"
b111 1"
b111 $"
b111 3"
b10111101 :"
b10111101 >"
b1000101 H"
b10001001 G"
b10001000 9"
b10001000 ?"
b1000 8"
b1000 @"
b101 7"
b101 A"
b10101110 d
b10101110 m
b10101010 a
b10101010 k
b0 b
b0 l
b10111110 x
b10111110 y
b10011101 w
b10011101 z
b1110000 v
b1110000 {
b11101001 r
b11101001 |
1o
b100 A
b100 K
b110 @
b110 J
b1011010 [
b1011010 \
1Q
1R
0S
0T
b10001011 Z
b10001011 ]
b1001 Y
b1001 ^
b1 V
b1 _
b10011010111100010100 1
b10011010111100010100 I"
b111000 e"
b111000 g"
b0 b"
b0 j"
b0 a"
b0 i"
b0 f"
b0 k"
b111 c"
b111 h"
b100 %"
b100 2"
b11 #"
b11 4"
b101111011000100000001000101 3
b101111011000100000001000101 5"
b1010 g
b1010 h
b0 e
b0 j
b1011111010011101011100001110100111 7
b1011111010011101011100001110100111 n
b111010 F
b111010 G
b1000111 ?
b1000111 I
b101101 D
b101101 M
b11110010 B
b11110010 L
b1101 E
b1101 H
b10110101000101110010001 ;
b10110101000101110010001 N
b111000111 -
b111000111 `"
b100001100 5
b100001100 ""
b1010111000 9
b1010111000 `
b11101000001101 =
b11101000001101 >
b110 (
b100111101101110001010001111100010000000100010101000010010111110100111010111000011101001111011100001010000010111001000001101000001101 #
b100111101101110001010001111100010000000100010101000010010111110100111010111000011101001111011100001010000010111001000001101000001101 *
b1100010110001010100101000001001 $
0"
#15000
b1000 &
1"
#16000
b10 E"
b10 F"
b10 @
b10 J
b101 '"
b101 1"
b101 $"
b101 3"
b111010100011101000111010010101010100011100001000000101010111100011110000111100001111000011101000111011101010101010011011110001011000110100110000000111100000010 !
b111010100011101000111010010101010100011100001000000101010111100011110000111100001111000011101000111011101010101010011011110001011000110100110000000111100000010 +
b110 W"
b110 _"
b110 /
b110 V"
b10101011110001 4
b10101011110001 &"
b11000010 2
b11000010 6"
b11000010 ;"
b11000010 ="
b11100001 t
b11100001 ~
b111000011110000111100001 6
b111000011110000111100001 q
b1001101 :
b1001101 O
b101 K"
b101 U"
b0 J"
b0 T"
b1010001 0
b1010001 M"
b11100000 B"
b11000000 <"
b1101000111011101010101 8
b1101000111011101010101 c
b11100001 u
b11100001 !"
b11100001 s
b11100001 }
b1110001011000110100110000000111100000010 <
b1110001011000110100110000000111100000010 C
b1011001 P"
b1011001 Q"
b10011011 O"
b10011011 R"
1L"
b1101 N"
b1101 S"
b111010100011101000111010 ,
b111010100011101000111010 d"
b1110 ("
b1110 0"
b11111001 :"
b11111001 >"
b1011011 H"
b1100011 G"
b1100010 9"
b1100010 ?"
b11000000 D"
b1000000 C"
b10000010 8"
b10000010 @"
b11011101 a
b11011101 k
b11010001 d
b11010001 m
b10101 b
b10101 l
b11100001 x
b11100001 y
b11100101 w
b11100101 z
b10001000 v
b10001000 {
b10110 r
b10110 |
b1111 A
b1111 K
0Q
0R
1S
1T
b11101011 [
b11101011 \
b1011010 Z
b1011010 ]
b1 Y
b1 ^
b100 V
b100 _
b1011001100110111101 1
b1011001100110111101 I"
b1110101 e"
b1110101 g"
b11101010 b"
b11101010 j"
b111010 a"
b111010 i"
b111010 f"
b111010 k"
b1 c"
b1 h"
b1 %"
b1 2"
b100 #"
b100 4"
b111110010110001010000010101 3
b111110010110001010000010101 5"
b1101 g
b1101 h
b1 f
b1 i
b1 e
b1 j
b1110000111100101100010000001011011 7
b1110000111100101100010000001011011 n
b11010100 F
b11010100 G
b11100010 ?
b11100010 I
b11000110 D
b11000110 M
b10011000 B
b10011000 L
b1110 E
b1110 H
b111010110101101000010100 ;
b111010110101101000010100 N
b1110101001 -
b1110101001 `"
b1010000 5
b1010000 ""
b1101000101 9
b1101000101 `
b1101010000001110 =
b1101010000001110 >
b111 (
b1101001011111011011110111110111000101000001010100010100011100001111001011000100000010110111100010111110110110100001010111010000001110 #
b1101001011111011011110111110111000101000001010100010100011100001111001011000100000010110111100010111110110110100001010111010000001110 *
b11100110001010001100001100011010 $
0"
#17000
b1001 &
1"
