rewiring/large_test_100m/cycle_0042/tb_top.vcd
$date
	Tue Nov  4 01:16:08 2025
$end
$version
	Icarus Verilog
$end
$timescale
	1ps
$end
$scope module tb_top $end
$var wire 159 ! out_flat [158:0] $end
$var reg 1 " clk $end
$var reg 138 # in_flat [137:0] $end
$var reg 32 $ rng_state [31:0] $end
$var reg 1 % rst_n $end
$var integer 32 & cyc [31:0] $end
$var integer 32 ' cycles [31:0] $end
$var integer 32 ( i [31:0] $end
$var integer 32 ) seed [31:0] $end
$scope module dut $end
$var wire 1 " clk $end
$var wire 138 * in_flat [137:0] $end
$var wire 1 % rst_n $end
$var wire 159 + out_flat [158:0] $end
$var wire 24 , const_shift_wrapper_out_flat [23:0] $end
$var wire 11 - const_shift_wrapper_in_flat [10:0] $end
$var wire 6 . const_reduce_wrapper_out_flat [5:0] $end
$var wire 4 / const_reduce_wrapper_in_flat [3:0] $end
$var wire 8 0 const_partselect_wrapper_out_flat [7:0] $end
$var wire 20 1 const_partselect_wrapper_in_flat [19:0] $end
$var wire 8 2 const_nested_wrapper_out_flat [7:0] $end
$var wire 27 3 const_nested_wrapper_in_flat [26:0] $end
$var wire 19 4 const_logic_wrapper_out_flat [18:0] $end
$var wire 10 5 const_logic_wrapper_in_flat [9:0] $end
$var wire 24 6 const_conditional_wrapper_out_flat [23:0] $end
$var wire 34 7 const_conditional_wrapper_in_flat [33:0] $end
$var wire 22 8 const_concat_repl_wrapper_out_flat [21:0] $end
$var wire 10 9 const_concat_repl_wrapper_in_flat [9:0] $end
$var wire 8 : const_compare_wrapper_out_flat [7:0] $end
$var wire 24 ; const_compare_wrapper_in_flat [23:0] $end
$var wire 40 < const_arith_wrapper_out_flat [39:0] $end
$var wire 16 = const_arith_wrapper_in_flat [15:0] $end
$scope module u_const_arith_wrapper $end
$var wire 16 > in_flat [15:0] $end
$var wire 8 ? sum_c [7:0] $end
$var wire 8 @ rem_c [7:0] $end
$var wire 8 A quot_c [7:0] $end
$var wire 8 B prod_c [7:0] $end
$var wire 40 C out_flat [39:0] $end
$var wire 8 D diff_c [7:0] $end
$var wire 8 E b [7:0] $end
$var wire 8 F a [7:0] $end
$scope module u_const_arith $end
$var wire 8 G a [7:0] $end
$var wire 8 H b [7:0] $end
$var wire 8 I sum_c [7:0] $end
$var wire 8 J rem_c [7:0] $end
$var wire 8 K quot_c [7:0] $end
$var wire 8 L prod_c [7:0] $end
$var wire 8 M diff_c [7:0] $end
$upscope $end
$upscope $end
$scope module u_const_compare_wrapper $end
$var wire 24 N in_flat [23:0] $end
$var wire 8 O out_flat [7:0] $end
$var wire 1 P neq_c $end
$var wire 1 Q lt_c $end
$var wire 1 R le_c $end
$var wire 1 S gt_c $end
$var wire 1 T ge_c $end
$var wire 1 U eq_c $end
$var wire 4 V d [3:0] $end
$var wire 1 W case_neq_c $end
$var wire 1 X case_eq_c $end
$var wire 4 Y c [3:0] $end
$var wire 8 Z b [7:0] $end
$var wire 8 [ a [7:0] $end
$scope module u_const_compare $end
$var wire 8 \ a [7:0] $end
$var wire 8 ] b [7:0] $end
$var wire 4 ^ c [3:0] $end
$var wire 4 _ d [3:0] $end
$var wire 1 P neq_c $end
$var wire 1 Q lt_c $end
$var wire 1 R le_c $end
$var wire 1 S gt_c $end
$var wire 1 T ge_c $end
$var wire 1 U eq_c $end
$var wire 1 W case_neq_c $end
$var wire 1 X case_eq_c $end
$upscope $end
$upscope $end
$scope module u_const_concat_repl_wrapper $end
$var wire 10 ` in_flat [9:0] $end
$var wire 8 a rep_c [7:0] $end
$var wire 6 b rep2_c [5:0] $end
$var wire 22 c out_flat [21:0] $end
$var wire 8 d cat_c [7:0] $end
$var wire 2 e c [1:0] $end
$var wire 4 f b [3:0] $end
$var wire 4 g a [3:0] $end
$scope module u_const_concat_repl $end
$var wire 4 h a [3:0] $end
$var wire 4 i b [3:0] $end
$var wire 2 j c [1:0] $end
$var wire 8 k rep_c [7:0] $end
$var wire 6 l rep2_c [5:0] $end
$var wire 8 m cat_c [7:0] $end
$upscope $end
$upscope $end
$scope module u_const_conditional_wrapper $end
$var wire 34 n in_flat [33:0] $end
$var wire 1 o sel2 $end
$var wire 1 p sel1 $end
$var wire 24 q out_flat [23:0] $end
$var wire 8 r d [7:0] $end
$var wire 8 s cond3_c [7:0] $end
$var wire 8 t cond2_c [7:0] $end
$var wire 8 u cond1_c [7:0] $end
$var wire 8 v c [7:0] $end
$var wire 8 w b [7:0] $end
$var wire 8 x a [7:0] $end
$scope module u_const_conditional $end
$var wire 8 y a [7:0] $end
$var wire 8 z b [7:0] $end
$var wire 8 { c [7:0] $end
$var wire 8 | d [7:0] $end
$var wire 1 p sel1 $end
$var wire 1 o sel2 $end
$var wire 8 } cond3_c [7:0] $end
$var wire 8 ~ cond2_c [7:0] $end
$var wire 8 !" cond1_c [7:0] $end
$upscope $end
$upscope $end
$scope module u_const_logic_wrapper $end
$var wire 10 "" in_flat [9:0] $end
$var wire 4 #" y [3:0] $end
$var wire 4 $" xor_c [3:0] $end
$var wire 4 %" x [3:0] $end
$var wire 19 &" out_flat [18:0] $end
$var wire 4 '" or_c [3:0] $end
$var wire 4 (" not_c [3:0] $end
$var wire 1 )" lor_c $end
$var wire 1 *" lnot_c $end
$var wire 1 +" land_c $end
$var wire 1 ," b $end
$var wire 4 -" and_c [3:0] $end
$var wire 1 ." a $end
$scope module u_const_logic $end
$var wire 1 ." a $end
$var wire 4 /" and_c [3:0] $end
$var wire 1 ," b $end
$var wire 1 +" land_c $end
$var wire 1 )" lor_c $end
$var wire 4 0" not_c [3:0] $end
$var wire 4 1" or_c [3:0] $end
$var wire 4 2" x [3:0] $end
$var wire 4 3" xor_c [3:0] $end
$var wire 4 4" y [3:0] $end
$var wire 1 *" lnot_c $end
$upscope $end
$upscope $end
$scope module u_const_nested_wrapper $end
$var wire 27 5" in_flat [26:0] $end
$var wire 8 6" out_flat [7:0] $end
$var wire 3 7" s [2:0] $end
$var wire 8 8" r [7:0] $end
$var wire 8 9" q [7:0] $end
$var wire 8 :" p [7:0] $end
$var wire 8 ;" nested_c [7:0] $end
$scope module u_const_nested $end
$var wire 8 <" and_part [7:0] $end
$var wire 8 =" nested_c [7:0] $end
$var wire 8 >" p [7:0] $end
$var wire 8 ?" q [7:0] $end
$var wire 8 @" r [7:0] $end
$var wire 3 A" s [2:0] $end
$var wire 8 B" xor_qr [7:0] $end
$var wire 8 C" shl_rs [7:0] $end
$var wire 8 D" mul_part [7:0] $end
$var wire 8 E" mod_part [7:0] $end
$var wire 8 F" div_part [7:0] $end
$var wire 8 G" denom [7:0] $end
$var wire 8 H" add_pq [7:0] $end
$upscope $end
$upscope $end
$scope module u_const_partselect_wrapper $end
$var wire 20 I" in_flat [19:0] $end
$var wire 3 J" sel2_c [2:0] $end
$var wire 4 K" sel1_c [3:0] $end
$var wire 1 L" ovf_range $end
$var wire 8 M" out_flat [7:0] $end
$var wire 4 N" idx [3:0] $end
$var wire 8 O" data2 [7:0] $end
$var wire 8 P" data1 [7:0] $end
$scope module u_const_partselect $end
$var wire 8 Q" data1 [7:0] $end
$var wire 8 R" data2 [7:0] $end
$var wire 4 S" idx [3:0] $end
$var wire 3 T" sel2_c [2:0] $end
$var wire 4 U" sel1_c [3:0] $end
$var wire 1 L" ovf_range $end
$upscope $end
$upscope $end
$scope module u_const_reduce_wrapper $end
$var wire 4 V" in_flat [3:0] $end
$var wire 4 W" in_vec [3:0] $end
$var wire 1 X" red_xor_c $end
$var wire 1 Y" red_xnor_c $end
$var wire 1 Z" red_or_c $end
$var wire 1 [" red_nor_c $end
$var wire 1 \" red_nand_c $end
$var wire 1 ]" red_and_c $end
$var wire 6 ^" out_flat [5:0] $end
$scope module u_const_reduce $end
$var wire 4 _" in_vec [3:0] $end
$var wire 1 X" red_xor_c $end
$var wire 1 Y" red_xnor_c $end
$var wire 1 Z" red_or_c $end
$var wire 1 [" red_nor_c $end
$var wire 1 \" red_nand_c $end
$var wire 1 ]" red_and_c $end
$upscope $end
$upscope $end
$scope module u_const_shift_wrapper $end
$var wire 11 `" in_flat [10:0] $end
$var wire 8 a" shr_c [7:0] $end
$var wire 8 b" shl_c [7:0] $end
$var wire 3 c" shift_amt [2:0] $end
$var wire 24 d" out_flat [23:0] $end
$var wire 8 e" data_in [7:0] $end
$var wire 8 f" ashr_c [7:0] $end
$scope module u_const_shift $end
$var wire 8 g" data_in [7:0] $end
$var wire 3 h" shift_amt [2:0] $end
$var wire 8 i" shr_c [7:0] $end
$var wire 8 j" shl_c [7:0] $end
$var wire 8 k" ashr_c [7:0] $end
$upscope $end
$upscope $end
$upscope $end
$upscope $end
$enddefinitions $end
$comment Show the parameter values. $end
$dumpall
$end
#0
$dumpvars
b11111010 k"
b1100000 j"
b1010 i"
b100 h"
b10100110 g"
b11111010 f"
b10100110 e"
b11000000000101011111010 d"
b100 c"
b1100000 b"
b1010 a"
b10100110100 `"
b111 _"
b11100 ^"
0]"
1\"
0["
1Z"
0Y"
1X"
b111 W"
b111 V"
b1 U"
b0 T"
b0 S"
b1010000 R"
b10100 Q"
b10100 P"
b1010000 O"
b0 N"
b10000 M"
0L"
b1 K"
b0 J"
b10100010100000000 I"
b11010 H"
b11000011 G"
b0 F"
b0 E"
b0 D"
b0 C"
b10100010 B"
b101 A"
b1100000 @"
b11000010 ?"
b1011000 >"
b0 ="
b0 <"
b0 ;"
b1011000 :"
b11000010 9"
b1100000 8"
b101 7"
b0 6"
b10110001100001001100000101 5"
b1000 4"
b1110 3"
b110 2"
b1110 1"
b1001 0"
b0 /"
0."
b0 -"
1,"
0+"
1*"
1)"
b1001 ("
b1110 '"
b111011101001011 &"
b110 %"
b1110 $"
b1000 #"
b110100001 ""
b11011101 !"
b10101010 ~
b11001111 }
b10011100 |
b10101010 {
b11001111 z
b11011101 y
b11011101 x
b11001111 w
b10101010 v
b11011101 u
b10101010 t
b11001111 s
b10011100 r
b110111011010101011001111 q
1p
0o
b1101110111001111101010101001110010 n
b10111111 m
b0 l
b10111011 k
b0 j
b1111 i
b1011 h
b1011 g
b1111 f
b0 e
b10111111 d
b1011111110111011000000 c
b0 b
b10111011 a
b1011111100 `
b110 _
b1111 ^
b1111100 ]
b1010110 \
b1010110 [
b1111100 Z
b1111 Y
0X
1W
b110 V
0U
0T
0S
1R
1Q
1P
b1110001 O
b10101100111110011110110 N
b10001000 M
b1110100 L
b0 K
b100010 J
b10111100 I
b10011010 H
b100010 G
b100010 F
b10011010 E
b10001000 D
b1011110010001000011101000000000000100010 C
b1110100 B
b0 A
b100010 @
b10111100 ?
b10001010011010 >
b10001010011010 =
b1011110010001000011101000000000000100010 <
b10101100111110011110110 ;
b1110001 :
b1011111100 9
b1011111110111011000000 8
b1101110111001111101010101001110010 7
b110111011010101011001111 6
b110100001 5
b111011101001011 4
b10110001100001001100000101 3
b0 2
b10100010100000000 1
b10000 0
b111 /
b11100 .
b10100110100 -
b11000000000101011111010 ,
b11000000000101011111010011100000100000000000000001110111010010111101110110101010110011111011111110111011000000011100011011110010001000011101000000000000100010 +
b101010100110001010001000000001011000110000100110000010111001110111011100111110101010001110010101111110001011001111100111101100100010101101 *
b10000011010110001010000111000100 )
bx (
b11001000 '
b0 &
0%
b11101111100011000100001010101001 $
b101010100110001010001000000001011000110000100110000010111001110111011100111110101010001110010101111110001011001111100111101100100010101101 #
0"
b11000000000101011111010011100000100000000000000001110111010010111101110110101010110011111011111110111011000000011100011011110010001000011101000000000000100010 !
$end
#1000
b1 &
1"
#2000
b0 (
0"
#3000
b10 &
1"
#4000
b1 7"
b1 A"
b1 A
b1 K
b100 -"
b100 /"
b111 .
b111 ^"
b1110000000000010000000100001110000xxx01101100001000101000110100110111001011010101100101011011111010111011010101010011010101110100100011110000000000000100100011 !
b1110000000000010000000100001110000xxx01101100001000101000110100110111001011010101100101011011111010111011010101010011010101110100100011110000000000000100100011 +
0Z"
0X"
1["
1Y"
b0xxx0 0
b0xxx0 M"
b100010100011010011 4
b100010100011010011 &"
b11011000 2
b11011000 6"
b11011000 ;"
b11011000 ="
b11100101101010110010101 6
b11100101101010110010101 q
b1001101 :
b1001101 O
b0 K"
b0 U"
bx J"
bx T"
b11011101 B"
b11011000 <"
b1011111010111011010101 8
b1011111010111011010101 c
b11010101 t
b11010101 ~
b10010101 s
b10010101 }
b1110010 u
b1110010 !"
b101110100100011110000000000000100100011 <
b101110100100011110000000000000100100011 C
b111000000000001000000010 ,
b111000000000001000000010 d"
b1 P"
b1 Q"
b10011110 O"
b10011110 R"
b1011 N"
b1011 S"
b1010 ("
b1010 0"
b101 '"
b101 1"
b1 $"
b1 3"
b10000001 :"
b10000001 >"
b10101 H"
b10010101 G"
b10010100 9"
b10010100 ?"
b11111010 D"
b10010010 C"
b1001001 8"
b1001001 @"
b10111110 d
b10111110 m
b10101 b
b10101 l
b10010101 x
b10010101 y
b1110010 w
b1110010 z
b11010101 v
b11010101 {
b11011110 r
b11011110 |
0p
b100011 @
b100011 J
0Q
0R
1S
1T
b11001001 [
b11001001 \
b10010101 Z
b10010101 ]
b0 V
b0 _
b1001111 e"
b1001111 g"
b11100000 b"
b11100000 j"
b10 a"
b10 i"
b10 f"
b10 k"
b101 c"
b101 h"
b1100111101011 1
b1100111101011 I"
b101 %"
b101 2"
b100 #"
b100 4"
b100000011001010001001001001 3
b100000011001010001001001001 5"
b1110 f
b1110 i
b1 e
b1 j
b1001010101110010110101011101111000 7
b1001010101110010110101011101111000 n
b11000000 F
b11000000 G
b1011101 ?
b1011101 I
b100011 D
b100011 M
b11000000 B
b11000000 L
b10011101 E
b10011101 H
b110010011001010111110000 ;
b110010011001010111110000 N
b1001111101 -
b1001111101 `"
b101010001 5
b101010001 ""
b1011111001 9
b1011111001 `
b1100000010011101 =
b1100000010011101 >
b0 W"
b0 _"
b0 /
b0 V"
b1 (
b10011101000000001101111010110000001100101000100101010100001100101010111001011010101101111000101111100111100110010101111100001000000101110 #
b10011101000000001101111010110000001100101000100101010100001100101010111001011010101101111000101111100111100110010101111100001000000101110 *
b10100100000111110000000100111010 $
0"
1%
#5000
b11 &
1"
#6000
b101 -"
b101 /"
b0 $"
b0 3"
b100100000000111000001110011100001000010000001001010101000010100100111011101110111100001101101101011011101010101010011011101111010110000111000010000000001000111 !
b100100000000111000001110011100001000010000001001010101000010100100111011101110111100001101101101011011101010101010011011101111010110000111000010000000001000111 +
b101 #"
b101 4"
b10 2
b10 6"
b10 ;"
b10 ="
b11101110111011110000110 6
b11101110111011110000110 q
b1001101 :
b1001101 O
b10 K"
b10 U"
b0 J"
b0 T"
b100001 0
b100001 M"
b101010100001010010 4
b101010100001010010 &"
b10 E"
b1000 F"
b100010 B"
b0 <"
b1101101011011101010101 8
b1101101011011101010101 c
b10000110 s
b10000110 }
b1110111 u
b1110111 !"
b1110111 t
b1110111 ~
b1101111010110000111000010000000001000111 <
b1101111010110000111000010000000001000111 C
b100100000000111000001110 ,
b100100000000111000001110 d"
b100011 P"
b100011 Q"
b1110101 O"
b1110101 R"
1L"
b1101 N"
b1101 S"
b11011100 :"
b11011100 >"
b11110100 H"
b11001 G"
b11000 9"
b11000 ?"
b10010000 D"
b1110100 C"
b111010 8"
b111010 @"
b11011101 a
b11011101 k
b11011010 d
b11011010 m
b1110111 x
b1110111 y
b10000110 w
b10000110 z
b11000 v
b11000 {
b10001000 r
b10001000 |
1p
1o
b0 A
b0 K
b1000111 @
b1000111 J
0Q
0R
1S
1T
b10000 [
b10000 \
b11 Z
b11 ]
b111 Y
b111 ^
b1011 V
b1011 _
b11100 .
b11100 ^"
b1110010 e"
b1110010 g"
b10010000 b"
b10010000 j"
b1110 a"
b1110 i"
b1110 f"
b1110 k"
b11 c"
b11 h"
b100011011101011101 1
b100011011101011101 I"
0*"
1."
0,"
b110111000001100000111010001 3
b110111000001100000111010001 5"
b1101 g
b1101 h
b1010 f
b1010 i
b111011110000110000110001000100011 7
b111011110000110000110001000100011 n
b1000111 F
b1000111 G
b11011110 ?
b11011110 I
b10110000 D
b10110000 M
b11100001 B
b11100001 L
b10010111 E
b10010111 H
b100000000001101111011 ;
b100000000001101111011 N
b1110010011 -
b1110010011 `"
b101010110 5
b101010110 ""
b1101101001 9
b1101101001 `
b100011110010111 =
b100011110010111 >
1Z"
1X"
0["
0Y"
b10 W"
b10 _"
b10 /
b10 V"
b10 (
b11100011100010001011010111111011100000110000011110010100010011101111000011000011000000100011110110100100000000000011011110110000111101011 #
b11100011100010001011010111111011100000110000011110010100010011101111000011000011000000100011110110100100000000000011011110110000111101011 *
b11100100111000000011000111000111 $
0"
#7000
b100 &
1"
#8000
b110101101101011011010110011100110101000000000000000101010111110110100101101001011010010111011100010111011111111010011010001011110000111101110000000000001001111 !
b110101101101011011010110011100110101000000000000000101010111110110100101101001011010010111011100010111011111111010011010001011110000111101110000000000001001111 +
b0 2
b0 6"
b0 ;"
b0 ="
b1001011 t
b1001011 ~
b10010110100101101001011 6
b10010110100101101001011 q
b1101 K"
b1101 U"
b10 J"
b10 T"
b11010100 0
b11010100 M"
b10101011111011 4
b10101011111011 &"
b0 E"
b0 F"
b111111 B"
b1011100010111011111111 8
b1011100010111011111111 c
b1001011 s
b1001011 }
b1001011 u
b1001011 !"
b1011110000111101110000000000001001111 <
b1011110000111101110000000000001001111 C
b110101101101011011010110 ,
b110101101101011011010110 d"
b11011110 P"
b11011110 Q"
b10010010 O"
b10010010 R"
0L"
b0 N"
b0 S"
b0 -"
b0 /"
b101 $"
b101 3"
b1111 ("
b1111 0"
b10001101 :"
b10001101 >"
b11100 H"
b10010000 G"
b10001111 9"
b10001111 ?"
b10110000 8"
b10110000 @"
b0 D"
b11000000 C"
b10 7"
b10 A"
b10111011 a
b10111011 k
b10111000 d
b10111000 m
b111111 b
b111111 l
b11110110 x
b11110110 y
b1001011 w
b1001011 z
b1111110 v
b1111110 {
b11100000 r
b11100000 |
0p
b1001111 @
b1001111 J
b10011110 [
b10011110 \
0Q
0R
1S
1T
b1001100 Z
b1001100 ]
b101 Y
b101 ^
b0 V
b0 _
b11100 .
b11100 ^"
b11010110 e"
b11010110 g"
b11010110 b"
b11010110 j"
b11010110 a"
b11010110 i"
b11010110 f"
b11010110 k"
b0 c"
b0 h"
b11011110100100100000 1
b11011110100100100000 I"
b0 %"
b0 2"
1*"
0."
1,"
b100011011000111110110000010 3
b100011011000111110110000010 5"
b1011 g
b1011 h
b1000 f
b1000 i
b11 e
b11 j
b1111011001001011011111101110000001 7
b1111011001001011011111101110000001 n
b1001111 F
b1001111 G
b10111 ?
b10111 I
b10000111 D
b10000111 M
b10111000 B
b10111000 L
b11001000 E
b11001000 H
b100111100100110001010000 ;
b100111100100110001010000 N
b11010110000 -
b11010110000 `"
b10101 5
b10101 ""
b1011100011 9
b1011100011 `
b100111111001000 =
b100111111001000 >
1Z"
1X"
0["
0Y"
b100 W"
b100 _"
b100 /
b100 V"
b11 (
b110110000001101110101001000010001101100011111011000100000001111101100100101101111110110000001101110001110111001001100010100000001111110100 #
b110110000001101110101001000010001101100011111011000100000001111101100100101101111110110000001101110001110111001001100010100000001111110100 *
b10100000001111010110101101100000 $
0"
#9000
b101 &
1"
#10000
b10101 .
b10101 ^"
b110001000000110000001100010101011000011100001000001111111110110100100101001001010010010100000011000000000111111011100011011001000001110110000000000000100001110 !
b110001000000110000001100010101011000011100001000001111111110110100100101001001010010010100000011000000000111111011100011011001000001110110000000000000100001110 +
0X"
1Y"
b11000010 2
b11000010 6"
b11000010 ;"
b11000010 ="
b1001010 t
b1001010 ~
b10010100100101001001010 6
b10010100100101001001010 q
b1110001 :
b1110001 O
b110 K"
b110 U"
b0 J"
b0 T"
b1100001 0
b1100001 M"
b111111111011010 4
b111111111011010 &"
b10 E"
b10 F"
b11011011 B"
b11000000 <"
b11000000000111111 8
b11000000000111111 c
b1001010 s
b1001010 }
b1001010 u
b1001010 !"
b1011001000001110110000000000000100001110 <
b1011001000001110110000000000000100001110 C
b110001000000110000001100 ,
b110001000000110000001100 d"
b1101110 P"
b1101110 Q"
b11111110 O"
b11111110 R"
1L"
b1111 N"
b1111 S"
b1011 ("
b1011 0"
b0 -"
b0 /"
b1111 '"
b1111 1"
b1111 $"
b1111 3"
b1110110 :"
b1110110 >"
b10100111 H"
b110010 G"
b110001 9"
b110001 ?"
b11101010 8"
b11101010 @"
b11000000 D"
b1000000 C"
b101 7"
b101 A"
b0 a
b0 k
b110 d
b110 m
b1001010 x
b1001010 y
b11111100 w
b11111100 z
b11001001 v
b11001001 {
b1001001 r
b1001001 |
1p
b1 A
b1 K
b1110 @
b1110 J
b11010010 [
b11010010 \
1Q
1R
0S
0T
b11101000 Z
b11101000 ]
b1111 Y
b1111 ^
b1 V
b1 _
b110001 e"
b110001 g"
b11000100 b"
b11000100 j"
b1100 a"
b1100 i"
b1100 f"
b1100 k"
b10 c"
b10 h"
b1101110111111101111 1
b1101110111111101111 I"
b100 %"
b100 2"
b1011 #"
b1011 4"
0*"
1."
0,"
b11101100011000111101010101 3
b11101100011000111101010101 5"
b0 g
b0 h
b110 f
b110 i
b100101011111100110010010100100111 7
b100101011111100110010010100100111 n
b1100000 F
b1100000 G
b10110010 ?
b10110010 I
b1110 D
b1110 M
b11000000 B
b11000000 L
b1010010 E
b1010010 H
b110100101110100011110001 ;
b110100101110100011110001 N
b110001010 -
b110001010 `"
b100101110 5
b100101110 ""
b11011 9
b11011 `
b110000001010010 =
b110000001010010 >
b11 W"
b11 _"
b11 /
b11 V"
b100 (
b1101010110110110111111011101110110001100011110110010101110010010101111110011001001100100111000001101111001011101000111100010100000011001 #
b1101010110110110111111011101110110001100011110110010101110010010101111110011001001100100111000001101111001011101000111100010100000011001 *
b101001111000000010110011010101 $
0"
#11000
b110 &
1"
#12000
b1101 N"
b1101 S"
b1 -"
b1 /"
b11110000000110100001101011100110000010000000000011111111001100111110001010010010000110011101111011011101111111010011010010011110111111110111000000000001110011 !
b11110000000110100001101011100110000010000000000011111111001100111110001010010010000110011101111011011101111111010011010010011110111111110111000000000001110011 +
b11000001 0
b11000001 M"
b0 2
b0 6"
b0 ;"
b0 ="
b111000101001001000011001 6
b111000101001001000011001 q
b1001101 :
b1001101 O
b1100 K"
b1100 U"
b1111111100110011 4
b1111111100110011 &"
b0 E"
b0 F"
b1011111 B"
b0 <"
b1101111011011101111111 8
b1101111011011101111111 c
b11001 s
b11001 }
b11100010 u
b11100010 !"
b10010010 t
b10010010 ~
b10011110111111110111000000000001110011 <
b10011110111111110111000000000001110011 C
b11110000000110100001101 ,
b11110000000110100001101 d"
b11001111 P"
b11001111 Q"
b11000001 O"
b11000001 R"
b110 ("
b110 0"
b1111 '"
b1111 1"
b1110 $"
b1110 3"
b101 :"
b101 >"
b1001010 H"
b1000110 G"
b1000101 9"
b1000101 ?"
b11010 8"
b11010 @"
b0 D"
b0 C"
b111 7"
b111 A"
b11011101 a
b11011101 k
b11011110 d
b11011110 m
b11001 x
b11001 y
b11100010 w
b11100010 z
b10010010 v
b10010010 {
b10100001 r
b10100001 |
0p
0o
b0 A
b0 K
b1110011 @
b1110011 J
b1101111 [
b1101111 \
0Q
0R
1S
1T
b11110 Z
b11110 ]
b1101 Y
b1101 ^
b11100 .
b11100 ^"
b1101111 e"
b1101111 g"
b1111000 b"
b1111000 j"
b1101 a"
b1101 i"
b1101 f"
b1101 k"
b11 c"
b11 h"
b11001111110000011101 1
b11001111110000011101 I"
b1001 %"
b1001 2"
b111 #"
b111 4"
1*"
0."
1,"
b1010100010100011010111 3
b1010100010100011010111 5"
b1101 g
b1101 h
b1110 f
b1110 i
b1100111100010100100101010000100 7
b1100111100010100100101010000100 n
b1110011 F
b1110011 G
b100111 ?
b100111 I
b10111111 D
b10111111 M
b11011100 B
b11011100 L
b10110100 E
b10110100 H
b11011110001111011010001 ;
b11011110001111011010001 N
b1101111011 -
b1101111011 `"
b1001011101 5
b1001011101 ""
b1101111011 9
b1101111011 `
b111001110110100 =
b111001110110100 >
1X"
0Y"
b1 W"
b1 _"
b1 /
b1 V"
b101 (
b11011011011100111100000111100000101010001010001110111000101000110011110001010010010010000100110111101101111100011110110100010110011101010 #
b11011011011100111100000111100000101010001010001110111000101000110011110001010010010010000100110111101101111100011110110100010110011101010 *
b11001101101001100010110110110110 $
0"
#13000
b111 &
1"
#14000
b100000 2
b100000 6"
b100000 ;"
b100000 ="
b100000 <"
b110000 D"
b11 7"
b11 A"
b1011011001101101111011010111000110xxx00010000010011101010001100011000011011110110001101111001000110011001000000010011011011100100011011001101100000000100011011 !
b1011011001101101111011010111000110xxx00010000010011101010001100011000011011110110001101111001000110011001000000010011011011100100011011001101100000000100011011 +
b1 A
b1 K
b1001110101000110001 4
b1001110101000110001 &"
b100001101111011000110111 6
b100001101111011000110111 q
b110 K"
b110 U"
bx J"
bx T"
b110xxx0 0
b110xxx0 M"
b10010 F"
b10101000 B"
b1001000110011001000000 8
b1001000110011001000000 c
b11110110 t
b11110110 ~
b110111 s
b110111 }
b10000110 u
b10000110 !"
b1011100100011011001101100000000100011011 <
b1011100100011011001101100000000100011011 C
b101101100110110111101101 ,
b101101100110110111101101 d"
b1101001 P"
b1101001 Q"
b1101111 O"
b1101111 R"
0L"
b1001 N"
b1001 S"
b1001 -"
b1001 /"
b1101 '"
b1101 1"
b100 $"
b100 3"
0)"
b10111101 :"
b10111101 >"
b11000110 H"
b1010 G"
b1001 9"
b1001 ?"
b1000 C"
b10100001 8"
b10100001 @"
b10011001 a
b10011001 k
b10010001 d
b10010001 m
b0 b
b0 l
b10000110 x
b10000110 y
b110111 w
b110111 z
b11110110 v
b11110110 {
b11100000 r
b11100000 |
1p
b11011 @
b11011 J
b10010110 [
b10010110 \
b10011 Z
b10011 ]
b1001 Y
b1001 ^
b1000 V
b1000 _
b11011011 e"
b11011011 g"
b10110110 b"
b10110110 j"
b1101101 a"
b1101101 i"
b11101101 f"
b11101101 k"
b1 c"
b1 h"
b1101001011011111001 1
b1101001011011111001 I"
b1101 #"
b1101 4"
0,"
b101111010000100110100001011 3
b101111010000100110100001011 5"
b1001 g
b1001 h
b1 f
b1 i
b0 e
b0 j
b1000011000110111111101101110000010 7
b1000011000110111111101101110000010 n
b11101010 F
b11101010 G
b10111001 ?
b10111001 I
b11011 D
b11011 M
b110110 B
b110110 L
b11001111 E
b11001111 H
b100101100001001110011000 ;
b100101100001001110011000 N
b11011011001 -
b11011011001 `"
b1001110100 5
b1001110100 ""
b1001000100 9
b1001000100 `
b1110101011001111 =
b1110101011001111 >
b10 W"
b10 _"
b10 /
b10 V"
b110 (
b110101001100110101010111110110111101000010011010001111001000100001100011011111110110110000010100100010010011000010011100110001101010110111 #
b110101001100110101010111110110111101000010011010001111001000100001100011011111110110110000010100100010010011000010011100110001101010110111 *
b10011100100101001010101101010011 $
0"
#15000
b1000 &
1"
#16000
b111 7"
b111 A"
b10000000000000100000001011100010100100000000000001111111100100011111011000110001111101100100110001000100010101011100011011001000110010100000000000000100110010 !
b10000000000000100000001011100010100100000000000001111111100100011111011000110001111101100100110001000100010101011100011011001000110010100000000000000100110010 +
b1010010 0
b1010010 M"
b111111110010001 4
b111111110010001 &"
b0 2
b0 6"
b0 ;"
b0 ="
b111101100011000111110110 6
b111101100011000111110110 q
b1110001 :
b1110001 O
b101 K"
b101 U"
b1 J"
b1 T"
b0 F"
b1111100 B"
b0 <"
b100110001000100010101 8
b100110001000100010101 c
b11110110 u
b11110110 !"
b11110110 s
b11110110 }
b110001 t
b110001 ~
b1011001000110010100000000000000100110010 <
b1011001000110010100000000000000100110010 C
b10000000000000100000001 ,
b10000000000000100000001 d"
b1010111 P"
b1010111 Q"
b11010 O"
b11010 R"
b100 N"
b100 S"
b10 ("
b10 0"
b0 -"
b0 /"
b1111 '"
b1111 1"
b1111 $"
b1111 3"
b10100110 :"
b10100110 >"
b1100100 H"
b10111111 G"
b10111110 9"
b10111110 ?"
b0 D"
b0 C"
b11000010 8"
b11000010 @"
b1000100 a
b1000100 k
b1001100 d
b1001100 m
b10101 b
b10101 l
b11110110 x
b11110110 y
b111011 w
b111011 z
b110001 v
b110001 {
b1011000 r
b1011000 |
b110010 @
b110010 J
1Q
1R
0S
0T
b11100 [
b11100 \
b1100101 Z
b1100101 ]
b11 V
b11 _
b11100 .
b11100 ^"
b1101101 e"
b1101101 g"
b1000000 b"
b1000000 j"
b1 a"
b1 i"
b1 f"
b1 k"
b110 c"
b110 h"
b1010111000110100100 1
b1010111000110100100 I"
b1101 %"
b1101 2"
b10 #"
b10 4"
b101001101011111011000010111 3
b101001101011111011000010111 5"
b100 g
b100 h
b1100 f
b1100 i
b1 e
b1 j
b1111011000111011001100010101100010 7
b1111011000111011001100010101100010 n
b1110010 F
b1110010 G
b10110010 ?
b10110010 I
b110010 D
b110010 M
b10000000 B
b10000000 L
b1000000 E
b1000000 H
b111000110010110010011 ;
b111000110010110010011 N
b1101101110 -
b1101101110 `"
b1101001000 5
b1101001000 ""
b100110001 9
b100110001 `
b111001001000000 =
b111001001000000 >
1Z"
1X"
0["
0Y"
b100 W"
b100 _"
b100 /
b100 V"
b111 (
b11011110000101011001101001010100110101111101100010111100100111101100011101100110001101100010010011000100110001100101100100110110010010000 #
b11011110000101011001101001010100110101111101100010111100100111101100011101100110001101100010010011000100110001100101100100110110010010000 *
b11101011110011100000110111100 $
0"
#17000
b1001 &
1"
