rewiring/scripts/bugs/dual_sim_results_archive_20250923_192817/cycle_0009/tb_top.vcd
$date
	Tue Sep 23 19:22:23 2025
$end
$version
	Icarus Verilog
$end
$timescale
	1ps
$end
$scope module tb_top $end
$var wire 159 ! out_flat [158:0] $end
$var reg 1 " clk $end
$var reg 136 # in_flat [135:0] $end
$var reg 32 $ rng_state [31:0] $end
$var reg 1 % rst_n $end
$var integer 32 & cyc [31:0] $end
$var integer 32 ' cycles [31:0] $end
$var integer 32 ( i [31:0] $end
$var integer 32 ) seed [31:0] $end
$scope module dut $end
$var wire 1 " clk $end
$var wire 136 * in_flat [135:0] $end
$var wire 1 % rst_n $end
$var wire 159 + out_flat [158:0] $end
$var wire 24 , const_shift_wrapper_out_flat [23:0] $end
$var wire 11 - const_shift_wrapper_in_flat [10:0] $end
$var wire 6 . const_reduce_wrapper_out_flat [5:0] $end
$var wire 4 / const_reduce_wrapper_in_flat [3:0] $end
$var wire 8 0 const_partselect_wrapper_out_flat [7:0] $end
$var wire 20 1 const_partselect_wrapper_in_flat [19:0] $end
$var wire 8 2 const_nested_wrapper_out_flat [7:0] $end
$var wire 27 3 const_nested_wrapper_in_flat [26:0] $end
$var wire 19 4 const_logic_wrapper_out_flat [18:0] $end
$var wire 10 5 const_logic_wrapper_in_flat [9:0] $end
$var wire 24 6 const_conditional_wrapper_out_flat [23:0] $end
$var wire 34 7 const_conditional_wrapper_in_flat [33:0] $end
$var wire 22 8 const_concat_repl_wrapper_out_flat [21:0] $end
$var wire 10 9 const_concat_repl_wrapper_in_flat [9:0] $end
$var wire 8 : const_compare_wrapper_out_flat [7:0] $end
$var wire 24 ; const_compare_wrapper_in_flat [23:0] $end
$var wire 40 < const_arith_wrapper_out_flat [39:0] $end
$var wire 16 = const_arith_wrapper_in_flat [15:0] $end
$scope module u_const_arith_wrapper $end
$var wire 16 > in_flat [15:0] $end
$var wire 8 ? sum_c [7:0] $end
$var wire 8 @ rem_c [7:0] $end
$var wire 8 A quot_c [7:0] $end
$var wire 8 B prod_c [7:0] $end
$var wire 40 C out_flat [39:0] $end
$var wire 8 D diff_c [7:0] $end
$var wire 8 E b [7:0] $end
$var wire 8 F a [7:0] $end
$scope module u_const_arith $end
$var wire 8 G a [7:0] $end
$var wire 8 H b [7:0] $end
$var wire 8 I sum_c [7:0] $end
$var wire 8 J rem_c [7:0] $end
$var wire 8 K quot_c [7:0] $end
$var wire 8 L prod_c [7:0] $end
$var wire 8 M diff_c [7:0] $end
$upscope $end
$upscope $end
$scope module u_const_compare_wrapper $end
$var wire 24 N in_flat [23:0] $end
$var wire 8 O out_flat [7:0] $end
$var wire 1 P neq_c $end
$var wire 1 Q lt_c $end
$var wire 1 R le_c $end
$var wire 1 S gt_c $end
$var wire 1 T ge_c $end
$var wire 1 U eq_c $end
$var wire 4 V d [3:0] $end
$var wire 1 W case_neq_c $end
$var wire 1 X case_eq_c $end
$var wire 4 Y c [3:0] $end
$var wire 8 Z b [7:0] $end
$var wire 8 [ a [7:0] $end
$scope module u_const_compare $end
$var wire 8 \ a [7:0] $end
$var wire 8 ] b [7:0] $end
$var wire 4 ^ c [3:0] $end
$var wire 4 _ d [3:0] $end
$var wire 1 P neq_c $end
$var wire 1 Q lt_c $end
$var wire 1 R le_c $end
$var wire 1 S gt_c $end
$var wire 1 T ge_c $end
$var wire 1 U eq_c $end
$var wire 1 W case_neq_c $end
$var wire 1 X case_eq_c $end
$upscope $end
$upscope $end
$scope module u_const_concat_repl_wrapper $end
$var wire 10 ` in_flat [9:0] $end
$var wire 8 a rep_c [7:0] $end
$var wire 6 b rep2_c [5:0] $end
$var wire 22 c out_flat [21:0] $end
$var wire 8 d cat_c [7:0] $end
$var wire 2 e c [1:0] $end
$var wire 4 f b [3:0] $end
$var wire 4 g a [3:0] $end
$scope module u_const_concat_repl $end
$var wire 4 h a [3:0] $end
$var wire 4 i b [3:0] $end
$var wire 2 j c [1:0] $end
$var wire 8 k rep_c [7:0] $end
$var wire 6 l rep2_c [5:0] $end
$var wire 8 m cat_c [7:0] $end
$upscope $end
$upscope $end
$scope module u_const_conditional_wrapper $end
$var wire 34 n in_flat [33:0] $end
$var wire 1 o sel2 $end
$var wire 1 p sel1 $end
$var wire 24 q out_flat [23:0] $end
$var wire 8 r d [7:0] $end
$var wire 8 s cond3_c [7:0] $end
$var wire 8 t cond2_c [7:0] $end
$var wire 8 u cond1_c [7:0] $end
$var wire 8 v c [7:0] $end
$var wire 8 w b [7:0] $end
$var wire 8 x a [7:0] $end
$scope module u_const_conditional $end
$var wire 8 y a [7:0] $end
$var wire 8 z b [7:0] $end
$var wire 8 { c [7:0] $end
$var wire 8 | d [7:0] $end
$var wire 1 p sel1 $end
$var wire 1 o sel2 $end
$var wire 8 } cond3_c [7:0] $end
$var wire 8 ~ cond2_c [7:0] $end
$var wire 8 !" cond1_c [7:0] $end
$upscope $end
$upscope $end
$scope module u_const_logic_wrapper $end
$var wire 10 "" in_flat [9:0] $end
$var wire 4 #" y [3:0] $end
$var wire 4 $" xor_c [3:0] $end
$var wire 4 %" x [3:0] $end
$var wire 19 &" out_flat [18:0] $end
$var wire 4 '" or_c [3:0] $end
$var wire 4 (" not_c [3:0] $end
$var wire 1 )" lor_c $end
$var wire 1 *" lnot_c $end
$var wire 1 +" land_c $end
$var wire 1 ," b $end
$var wire 4 -" and_c [3:0] $end
$var wire 1 ." a $end
$scope module u_const_logic $end
$var wire 1 ." a $end
$var wire 4 /" and_c [3:0] $end
$var wire 1 ," b $end
$var wire 1 +" land_c $end
$var wire 1 )" lor_c $end
$var wire 4 0" not_c [3:0] $end
$var wire 4 1" or_c [3:0] $end
$var wire 4 2" x [3:0] $end
$var wire 4 3" xor_c [3:0] $end
$var wire 4 4" y [3:0] $end
$var wire 1 *" lnot_c $end
$upscope $end
$upscope $end
$scope module u_const_nested_wrapper $end
$var wire 27 5" in_flat [26:0] $end
$var wire 8 6" out_flat [7:0] $end
$var wire 3 7" s [2:0] $end
$var wire 8 8" r [7:0] $end
$var wire 8 9" q [7:0] $end
$var wire 8 :" p [7:0] $end
$var wire 8 ;" nested_c [7:0] $end
$scope module u_const_nested $end
$var wire 8 <" and_part [7:0] $end
$var wire 8 =" nested_c [7:0] $end
$var wire 8 >" p [7:0] $end
$var wire 8 ?" q [7:0] $end
$var wire 8 @" r [7:0] $end
$var wire 3 A" s [2:0] $end
$var wire 8 B" xor_qr [7:0] $end
$var wire 8 C" shl_rs [7:0] $end
$var wire 8 D" mul_part [7:0] $end
$var wire 8 E" mod_part [7:0] $end
$var wire 8 F" div_part [7:0] $end
$var wire 8 G" denom [7:0] $end
$var wire 8 H" add_pq [7:0] $end
$upscope $end
$upscope $end
$scope module u_const_partselect_wrapper $end
$var wire 20 I" in_flat [19:0] $end
$var wire 3 J" sel2_c [2:0] $end
$var wire 4 K" sel1_c [3:0] $end
$var wire 1 L" ovf_range $end
$var wire 8 M" out_flat [7:0] $end
$var wire 4 N" idx [3:0] $end
$var wire 8 O" data2 [7:0] $end
$var wire 8 P" data1 [7:0] $end
$scope module u_const_partselect $end
$var wire 8 Q" data1 [7:0] $end
$var wire 8 R" data2 [7:0] $end
$var wire 4 S" idx [3:0] $end
$var wire 3 T" sel2_c [2:0] $end
$var wire 4 U" sel1_c [3:0] $end
$var wire 1 L" ovf_range $end
$upscope $end
$upscope $end
$scope module u_const_reduce_wrapper $end
$var wire 4 V" in_flat [3:0] $end
$var wire 4 W" in_vec [3:0] $end
$var wire 1 X" red_xor_c $end
$var wire 1 Y" red_xnor_c $end
$var wire 1 Z" red_or_c $end
$var wire 1 [" red_nor_c $end
$var wire 1 \" red_nand_c $end
$var wire 1 ]" red_and_c $end
$var wire 6 ^" out_flat [5:0] $end
$scope module u_const_reduce $end
$var wire 4 _" in_vec [3:0] $end
$var wire 1 X" red_xor_c $end
$var wire 1 Y" red_xnor_c $end
$var wire 1 Z" red_or_c $end
$var wire 1 [" red_nor_c $end
$var wire 1 \" red_nand_c $end
$var wire 1 ]" red_and_c $end
$upscope $end
$upscope $end
$scope module u_const_shift_wrapper $end
$var wire 11 `" in_flat [10:0] $end
$var wire 8 a" shr_c [7:0] $end
$var wire 8 b" shl_c [7:0] $end
$var wire 3 c" shift_amt [2:0] $end
$var wire 24 d" out_flat [23:0] $end
$var wire 8 e" data_in [7:0] $end
$var wire 8 f" ashr_c [7:0] $end
$scope module u_const_shift $end
$var wire 8 g" data_in [7:0] $end
$var wire 3 h" shift_amt [2:0] $end
$var wire 8 i" shr_c [7:0] $end
$var wire 8 j" shl_c [7:0] $end
$var wire 8 k" ashr_c [7:0] $end
$upscope $end
$upscope $end
$upscope $end
$upscope $end
$enddefinitions $end
$comment Show the parameter values. $end
$dumpall
$end
#0
$dumpvars
b110 k"
b11100000 j"
b110 i"
b100 h"
b1101110 g"
b110 f"
b1101110 e"
b111000000000011000000110 d"
b100 c"
b11100000 b"
b110 a"
b1101110100 `"
b1010 _"
b10101 ^"
0]"
1\"
0["
1Z"
1Y"
0X"
b1010 W"
b1010 V"
b1001 U"
b0 T"
b1110 S"
b100 R"
b10010101 Q"
b10010101 P"
b100 O"
b1110 N"
b10010001 M"
1L"
b1001 K"
b0 J"
b10010101000001001110 I"
b10001101 H"
b10110 G"
b101 F"
b10 E"
b1110 D"
b11000110 C"
b1110110 B"
b1 A"
b1100011 @"
b10101 ?"
b1111000 >"
b110 ="
b110 <"
b110 ;"
b1111000 :"
b10101 9"
b1100011 8"
b1 7"
b110 6"
b11110000001010101100011001 5"
b1001 4"
b111 3"
b1110 2"
b1111 1"
b1 0"
b1000 /"
0."
b1000 -"
0,"
0+"
1*"
0)"
b1 ("
b1111 '"
b1000111101110001001 &"
b1110 %"
b111 $"
b1001 #"
b1110100100 ""
b10100010 !"
b11001000 ~
b10100010 }
b10111001 |
b11001000 {
b10100010 z
b10010111 y
b10010111 x
b10100010 w
b11001000 v
b10100010 u
b11001000 t
b10100010 s
b10111001 r
b101000101100100010100010 q
0p
0o
b1001011110100010110010001011100100 n
b1100010 m
b101010 l
b1100110 k
b10 j
b10 i
b110 h
b110 g
b10 f
b10 e
b1100010 d
b110001001100110101010 c
b101010 b
b1100110 a
b110001010 `
b1 _
b1010 ^
b1110100 ]
b11111110 \
b11111110 [
b1110100 Z
b1010 Y
0X
1W
b1 V
0U
1T
1S
0R
0Q
1P
b1001101 O
b111111100111010010100001 N
b10011101 M
b10011010 L
b11 K
b1 J
b111001 I
b1001110 H
b11101011 G
b11101011 F
b1001110 E
b10011101 D
b11100110011101100110100000001100000001 C
b10011010 B
b11 A
b1 @
b111001 ?
b1110101101001110 >
b1110101101001110 =
b11100110011101100110100000001100000001 <
b111111100111010010100001 ;
b1001101 :
b110001010 9
b110001001100110101010 8
b1001011110100010110010001011100100 7
b101000101100100010100010 6
b1110100100 5
b1000111101110001001 4
b11110000001010101100011001 3
b110 2
b10010101000001001110 1
b10010001 0
b1010 /
b10101 .
b1101110100 -
b111000000000011000000110 ,
b111000000000011000000110010101100100010000011010001111011100010011010001011001000101000100110001001100110101010010011010011100110011101100110100000001100000001 +
b101101001110110100000101100111000000101010110001100111010000101011111000101100100010111001001000110111111100111010000011110101101001110 *
b1001011110110000001011001001001 )
bx (
b10010110 '
b0 &
0%
b11101101010101010110111001011010 $
b101101001110110100000101100111000000101010110001100111010000101011111000101100100010111001001000110111111100111010000011110101101001110 #
0"
b111000000000011000000110010101100100010000011010001111011100010011010001011001000101000100110001001100110101010010011010011100110011101100110100000001100000001 !
$end
#1000
b1 &
1"
#2000
b0 (
0"
#3000
b10 &
1"
#4000
b1100110 a
b1100110 k
b110 g
b110 h
b1101 '"
b1101 1"
b10000000000000100000001010101111101000000000101001101100100100011001100010011000100110000110101001100110101010011100010010001100001101100010000000000100001101 !
b10000000000000100000001010101111101000000000101001101100100100011001100010011000100110000110101001100110101010011100010010001100001101100010000000000100001101 +
b100110110010010001 4
b100110110010010001 &"
b1 2
b1 6"
b1 ;"
b1 ="
b100110001001100010011000 6
b100110001001100010011000 q
b1110001 :
b1110001 O
b1111 K"
b1111 U"
b10 J"
b10 T"
b11110100 0
b11110100 M"
b1 E"
b1 F"
b11010101 B"
b0 <"
b110101001100110101010 8
b110101001100110101010 c
b10011000 s
b10011000 }
b10011000 u
b10011000 !"
b10011000 t
b10011000 ~
b10001100001101100010000000000100001101 <
b10001100001101100010000000000100001101 C
b10000000000000100000001 ,
b10000000000000100000001 d"
b11110001 P"
b11110001 Q"
b11011010 O"
b11011010 R"
0L"
b0 N"
b0 S"
b10 ("
b10 0"
b100 -"
b100 /"
b1001 $"
b1001 3"
b11011000 :"
b11011000 >"
b1110000 H"
b10011001 G"
b10011000 9"
b10011000 ?"
b1001101 8"
b1001101 @"
b0 D"
b11010000 C"
b100 7"
b100 A"
b1101010 d
b1101010 m
b10011000 x
b10011000 y
b1001100 w
b1001100 z
b11001001 v
b11001001 {
b11100011 r
b11100011 |
1p
1o
b1 A
b1 K
b1101 @
b1101 J
1Q
1R
0S
0T
b10000100 [
b10000100 \
b10001001 Z
b10001001 ]
b1100 Y
b1100 ^
b101 V
b101 _
b1110001 e"
b1110001 g"
b1000000 b"
b1000000 j"
b1 a"
b1 i"
b1 f"
b1 k"
b110 c"
b110 h"
b11110001110110100000 1
b11110001110110100000 I"
b10101 .
b10101 ^"
b1101 %"
b1101 2"
b100 #"
b100 4"
b110110001001100001001101100 3
b110110001001100001001101100 5"
b1010 f
b1010 i
b1001100001001100110010011110001111 7
b1001100001001100110010011110001111 n
b10011000 F
b10011000 G
b100011 ?
b100011 I
b1101 D
b1101 M
b10001000 B
b10001000 L
b10001011 E
b10001011 H
b100001001000100111000101 ;
b100001001000100111000101 N
b1110001110 -
b1110001110 `"
b1101010000 5
b1101010000 ""
b110101010 9
b110101010 `
b1001100010001011 =
b1001100010001011 >
0X"
1Y"
b11 W"
b11 _"
b11 /
b11 V"
b1 (
b110011100111100111011000001011000100110000100110110011101000101100000011001100100111100011111010110100001001000100110111001100010001011 #
b110011100111100111011000001011000100110000100110110011101000101100000011001100100111100011111010110100001001000100110111001100010001011 *
b10100110101010010011001001100111 $
0"
1%
#5000
b11 &
1"
#6000
b110 -"
b110 /"
b10000100001011000010010101010000100100000101100111000110000111100101111001011010101110010010000100010111111010011010001110011110100101000000000000000001000 !
b10000100001011000010010101010000100100000101100111000110000111100101111001011010101110010010000100010111111010011010001110011110100101000000000000000001000 +
b1000010 0
b1000010 M"
b110011100011000011 4
b110011100011000011 &"
b1000001 2
b1000001 6"
b1000001 ;"
b1000001 ="
b11001011 t
b11001011 ~
b110010111100101101010111 6
b110010111100101101010111 q
b1001101 :
b1001101 O
b100 K"
b100 U"
b1 J"
b1 T"
b1000000 <"
b111 F"
b1101000 B"
b10010000100010111111 8
b10010000100010111111 c
b11001011 u
b11001011 !"
b1010111 s
b1010111 }
b1110011110100101000000000000000001000 <
b1110011110100101000000000000000001000 C
b1000000 P"
b1000000 Q"
b11000 O"
b11000 R"
b100 N"
b100 S"
b10000100001011000010 ,
b10000100001011000010 d"
b1000 ("
b1000 0"
b111 '"
b111 1"
b1 $"
b1 3"
1)"
b1111000 :"
b1111000 >"
b1000000 D"
b10000111 H"
b10000 G"
b1111 9"
b1111 ?"
b1100111 8"
b1100111 @"
b11000000 C"
b110 7"
b110 A"
b100010 a
b100010 k
b100100 d
b100100 m
b111111 b
b111111 l
b11001011 x
b11001011 y
b1010111 w
b1010111 z
b1010110 v
b1010110 {
b1101 r
b1101 |
b0 A
b0 K
b1000 @
b1000 J
b11011010 [
b11011010 \
0Q
0R
1S
1T
b1100001 Z
b1100001 ]
b1000 Y
b1000 ^
b0 V
b0 _
b1000000000110000100 1
b1000000000110000100 I"
b10000100 e"
b10000100 g"
b1000 b"
b1000 j"
b1000010 a"
b1000010 i"
b11000010 f"
b11000010 k"
b1 c"
b1 h"
b111 %"
b111 2"
b110 #"
b110 4"
1,"
b11110000000111101100111110 3
b11110000000111101100111110 5"
b10 g
b10 h
b100 f
b100 i
b11 e
b11 j
b1100101101010111010101100000110111 7
b1100101101010111010101100000110111 n
b1000 F
b1000 G
b11100 ?
b11100 I
b11110100 D
b11110100 M
b10100000 B
b10100000 L
b10100 E
b10100 H
b110110100110000110000000 ;
b110110100110000110000000 N
b10000100001 -
b10000100001 `"
b111011001 5
b111011001 ""
b10010011 9
b10010011 `
b100000010100 =
b100000010100 >
b1001 W"
b1001 _"
b1001 /
b1001 V"
b10 (
b1000000011001000000011001000111000000011110110011111001101101110101100101110101011000001101110001011110110100110000100000000100000010100 #
b1000000011001000000011001000111000000011110110011111001101101110101100101110101011000001101110001011110110100110000100000000100000010100 *
b10011001111011111001000110000000 $
0"
#7000
b100 &
1"
#8000
b11 Y
b11 ^
b10101 .
b10101 ^"
b111001000000111000001110010101100011000100100000000010001011010011011100100111101101110010001111100010001111111010011011101110001101010010010110000000000100011 !
b111001000000111000001110010101100011000100100000000010001011010011011100100111101101110010001111100010001111111010011011101110001101010010010110000000000100011 +
0X"
1Y"
b1100 W"
b1100 _"
b1100 /
b1100 V"
b10001100 0
b10001100 M"
b1000101101001 4
b1000101101001 &"
b1001000 2
b1001000 6"
b1001000 ;"
b1001000 ="
b101110010011110110111001 6
b101110010011110110111001 q
b1000 K"
b1000 U"
b110 J"
b110 T"
b0 E"
b0 F"
b1101110 B"
b1001000 <"
b1111100010001111111 8
b1111100010001111111 c
b10111001 s
b10111001 }
b10111001 u
b10111001 !"
b111101 t
b111101 ~
b1101110001101010010010110000000000100011 <
b1101110001101010010010110000000000100011 C
b10001010 P"
b10001010 Q"
b11111000 O"
b11111000 R"
b10 N"
b10 S"
b111001000000111000001110 ,
b111001000000111000001110 d"
b1101 ("
b1101 0"
b0 -"
b0 /"
b10 '"
b10 1"
b10 $"
b10 3"
0)"
b10110 :"
b10110 >"
b11000111 H"
b10110010 G"
b10110001 9"
b10110001 ?"
b11011111 8"
b11011111 @"
b1011001 D"
b11011111 C"
b0 7"
b0 A"
b10001 a
b10001 k
b11111 d
b11111 m
b11010101 x
b11010101 y
b10111001 w
b10111001 z
b111101 v
b111101 {
b101110 r
b101110 |
0p
0o
b100011 @
b100011 J
b11101001 [
b11101001 \
b100101 Z
b100101 ]
b1100 V
b1100 _
b10001010111110000010 1
b10001010111110000010 I"
b111001 e"
b111001 g"
b11100100 b"
b11100100 j"
b1110 a"
b1110 i"
b1110 f"
b1110 k"
b10 c"
b10 h"
b10 %"
b10 2"
b0 #"
b0 4"
0,"
b101101011000111011111000 3
b101101011000111011111000 5"
b1 g
b1 h
b1111 f
b1111 i
b1101010110111001001111010010111000 7
b1101010110111001001111010010111000 n
b100011 F
b100011 G
b11011100 ?
b11011100 I
b1101010 D
b1101010 M
b1001011 B
b1001011 L
b10111001 E
b10111001 H
b111010010010010100111100 ;
b111010010010010100111100 N
b111001010 -
b111001010 `"
b10000000 5
b10000000 ""
b1111111 9
b1111111 `
b10001110111001 =
b10001110111001 >
b11 (
b111010101010001011111000100010110101100011101111100000000000111010111110010011110100101110000111111111010010010010101100010001110111001 #
b111010101010001011111000100010110101100011101111100000000000111010111110010011110100101110000111111111010010010010101100010001110111001 *
b11110001011000100001001110101 $
0"
#9000
b101 &
1"
#10000
b11100 .
b11100 ^"
1X"
0Y"
b10 Y
b10 ^
b100100000000111011111110011100000000100000000000001110111000010100000100100001001100001001001001010011001111111010011010010110000011000010101000000001100000100 !
b100100000000111011111110011100000000100000000000001110111000010100000100100001001100001001001001010011001111111010011010010110000011000010101000000001100000100 +
b10011001 a
b10011001 k
b1001 g
b1001 h
b10 0
b10 M"
b0 2
b0 6"
b0 ;"
b0 ="
b10010000100110000100 6
b10010000100110000100 q
b0 K"
b0 U"
b1 J"
b1 T"
b111011100001010 4
b111011100001010 &"
b101 B"
b0 <"
b1001001010011001111111 8
b1001001010011001111111 c
b10000100 s
b10000100 }
b1001 u
b1001 !"
b1001 t
b1001 ~
b10110000011000010101000000001100000100 <
b10110000011000010101000000001100000100 C
b100100000000111011111110 ,
b100100000000111011111110 d"
b1010 P"
b1010 Q"
b10101 O"
b10101 R"
b100 N"
b100 S"
b1110 '"
b1110 1"
b1110 $"
b1110 3"
b1 ("
b1 0"
1)"
b10000011 :"
b10000011 >"
b1001000 H"
b11000110 G"
b11000101 9"
b11000101 ?"
b11000000 8"
b11000000 @"
b0 D"
b0 C"
b111 7"
b111 A"
b10010010 d
b10010010 m
b1001 x
b1001 y
b10000100 w
b10000100 z
b1100000 v
b1100000 {
b111101 r
b111101 |
1p
1o
b11 A
b11 K
b100 @
b100 J
b10110111 [
b10110111 \
b1001 Z
b1001 ]
b11101001 e"
b11101001 g"
b10010000 b"
b10010000 j"
b1110 a"
b1110 i"
b11111110 f"
b11111110 k"
b100 c"
b100 h"
b1010000101010100 1
b1010000101010100 I"
b1110 %"
b1110 2"
0*"
1."
b100000111100010111000000111 3
b100000111100010111000000111 5"
b10 f
b10 i
b100110000100011000000011110111 7
b100110000100011000000011110111 n
b100010 F
b100010 G
b101100 ?
b101100 I
b11000 D
b11000 M
b1010100 B
b1010100 L
b1010 E
b1010 H
b101101110000100100101100 ;
b101101110000100100101100 N
b11101001100 -
b11101001100 `"
b1110000010 5
b1110000010 ""
b1001001011 9
b1001001011 `
b10001000001010 =
b10001000001010 >
b10 W"
b10 _"
b10 /
b10 V"
b100 (
b1101011000100001000010111001000011110001011100000011111000010000100110001000110000000111101110100111101101110000100101100010001000001010 #
b1101011000100001000010111001000011110001011100000011111000010000100110001000110000000111101110100111101101110000100101100010001000001010 *
b11100011011111000101010011010110 $
0"
#11000
b110 &
1"
#12000
b1111111110001111010xx100000000001001111101100000110101001001010010010100101111001011111111000000010011011101101000101100100001010000000100101100 !
b1111111110001111010xx100000000001001111101100000110101001001010010010100101111001011111111000000010011011101101000101100100001010000000100101100 +
b1010xx10 0
b1010xx10 M"
b1010010 t
b1010010 ~
b10100100101001001010010 6
b10100100101001001010010 q
b1010 K"
b1010 U"
bx1 J"
bx1 T"
b100111110110000011 4
b100111110110000011 &"
b1101010 B"
b1111001011111111000000 8
b1111001011111111000000 c
b1010010 u
b1010010 !"
b1010010 s
b1010010 }
b1101101000101100100001010000000100101100 <
b1101101000101100100001010000000100101100 C
b10101001 P"
b10101001 Q"
b10000000 O"
b10000000 R"
b111 N"
b111 S"
b111111111 ,
b111111111 d"
b0 ("
b0 0"
b100 -"
b100 /"
b1111 '"
b1111 1"
b1011 $"
b1011 3"
b1100001 :"
b1100001 >"
b10000000 D"
b11101001 H"
b10001001 G"
b10001000 9"
b10001000 ?"
b10000000 C"
b11100010 8"
b11100010 @"
b110 7"
b110 A"
b11110010 d
b11110010 m
b11111111 a
b11111111 k
b0 b
b0 l
b1010010 x
b1010010 y
b11101110 w
b11101110 z
b1000010 v
b1000010 {
b1111100 r
b1111100 |
b1 A
b1 K
b101100 @
b101100 J
b1001011 [
b1001011 \
b10100 Z
b10100 ]
b1110 Y
b1110 ^
b1001 V
b1001 _
b10101001100000000111 1
b10101001100000000111 I"
b111 .
b111 ^"
b11111100 e"
b11111100 g"
b0 b"
b0 j"
b1 a"
b1 i"
b11111111 f"
b11111111 k"
b111 c"
b111 h"
b1111 %"
b1111 2"
b100 #"
b100 4"
1*"
0."
1,"
b11000011000100011100010110 3
b11000011000100011100010110 5"
b1111 g
b1111 h
b0 e
b0 j
b101001011101110010000100111110011 7
b101001011101110010000100111110011 n
b10000011 F
b10000011 G
b11011010 ?
b11011010 I
b101100 D
b101100 M
b10000101 B
b10000101 L
b1010111 E
b1010111 H
b10010110001010011101001 ;
b10010110001010011101001 N
b11111100111 -
b11111100111 `"
b1111010001 5
b1111010001 ""
b1111001000 9
b1111001000 `
b1000001101010111 =
b1000001101010111 >
0Z"
0X"
1["
1Y"
b0 W"
b0 _"
b0 /
b0 V"
b101 (
b1111001110010000110000001110100001100010001110001011011101001011001011011100100001001111100111100100010010110001010011011000001101010111 #
b1111001110010000110000001110100001100010001110001011011101001011001011011100100001001111100111100100010010110001010011011000001101010111 *
b110101111001111110111110011 $
0"
#13000
b111 &
1"
#14000
1]"
0\"
b1100 Y
b1100 ^
0X"
1Y"
b10101100101010111010101110001011001101110100100100011000111000111011000110110001001010100110100101100110101010010011010000101010101010111000000000000001011010 !
b10101100101010111010101110001011001101110100100100011000111000111011000110110001001010100110100101100110101010010011010000101010101010111000000000000001011010 +
b1100110 0
b1100110 M"
b10001100011100011 4
b10001100011100011 &"
b11101001 2
b11101001 6"
b11101001 ;"
b11101001 ="
b10110001 t
b10110001 ~
b101100011011000100101010 6
b101100011011000100101010 q
b110 K"
b110 U"
b11 J"
b11 T"
b1 E"
b1 F"
b11101101 B"
b11101000 <"
b110100101100110101010 8
b110100101100110101010 c
b101010 s
b101010 }
b10110001 u
b10110001 !"
b101010101010111000000000000001011010 <
b101010101010111000000000000001011010 C
b10101100101010111010101 ,
b10101100101010111010101 d"
b1100001 P"
b1100001 Q"
b111101 O"
b111101 R"
b100 N"
b100 S"
b1100 ("
b1100 0"
b10 -"
b10 /"
b11 '"
b11 1"
b1 $"
b1 3"
b1011001 :"
b1011001 >"
b10010111 H"
b111111 G"
b111110 9"
b111110 ?"
b11010011 8"
b11010011 @"
b11101010 D"
b10100110 C"
b1 7"
b1 A"
b1100110 a
b1100110 k
b1101001 d
b1101001 m
b101010 b
b101010 l
b101010 x
b101010 y
b10110001 w
b10110001 z
b1111 v
b1111 {
b1010011 r
b1010011 |
0p
b0 A
b0 K
b1011010 @
b1011010 J
b10011001 [
b10011001 \
b1100 Z
b1100 ]
b100 V
b100 _
b10101011 e"
b10101011 g"
b1010110 b"
b1010110 j"
b1010101 a"
b1010101 i"
b11010101 f"
b11010101 k"
b1 c"
b1 h"
b1100001001111010100 1
b1100001001111010100 I"
b110001 .
b110001 ^"
b11 %"
b11 2"
b10 #"
b10 4"
b10110010011111011010011001 3
b10110010011111011010011001 5"
b110 g
b110 h
b1001 f
b1001 i
b10 e
b10 j
b10101010110001000011110101001101 7
b10101010110001000011110101001101 n
b1011010 F
b1011010 G
b1010 ?
b1010 I
b10101010 D
b10101010 M
b11100000 B
b11100000 L
b10110000 E
b10110000 H
b100110010000110011000100 ;
b100110010000110011000100 N
b10101011001 -
b10101011001 `"
b11001001 5
b11001001 ""
b110100110 9
b110100110 `
b101101010110000 =
b101101010110000 >
1Z"
0["
b1111 W"
b1111 _"
b1111 /
b1111 V"
b110 (
b1101110011101000100111111000011001001111101101001100100100101000101011100010000111101010011011010010100110010000110010100101101010110000 #
b1101110011101000100111111000011001001111101101001100100100101000101011100010000111101010011011010010100110010000110010100101101010110000 *
b10010110111100100111000111011100 $
0"
#15000
b1000 &
1"
#16000
b0 -"
b0 /"
b1101000000001101000011010111001011x0100000000100000010001011111101001101011011000000001100000110000000000111111010011011001011111001101001110100000000010110010 !
b1101000000001101000011010111001011x0100000000100000010001011111101001101011011000000001100000110000000000111111010011011001011111001101001110100000000010110010 +
b1011x010 0
b1011x010 M"
b1 2
b1 6"
b1 ;"
b1 ="
b100110101101100000000110 6
b100110101101100000000110 q
b1011 K"
b1011 U"
bx01 J"
bx01 T"
b1000101111110 4
b1000101111110 &"
b1 E"
b1 F"
b110001 B"
b0 <"
b110000000000111111 8
b110000000000111111 c
b110 s
b110 }
b10011010 u
b10011010 !"
b11011000 t
b11011000 ~
b1001011111001101001110100000000010110010 <
b1001011111001101001110100000000010110010 C
b10110100 P"
b10110100 Q"
b1000100 O"
b1000100 R"
b110 N"
b110 S"
b110100000000110100001101 ,
b110100000000110100001101 d"
b10 '"
b10 1"
b10 $"
b10 3"
b1111 ("
b1111 0"
1+"
b111111 :"
b111111 >"
b1011111 H"
b100001 G"
b100000 9"
b100000 ?"
b10001 8"
b10001 @"
b10000000 D"
b10000000 C"
b111 7"
b111 A"
b0 a
b0 k
b1100 d
b1100 m
b111111 b
b111111 l
b110 x
b110 y
b10011010 w
b10011010 z
b11011000 v
b11011000 {
b11001 r
b11001 |
0o
b10110010 @
b10110010 J
b10100001 [
b10100001 \
b1 Z
b1 ]
b10 Y
b10 ^
b111 V
b111 _
b10110100010001000110 1
b10110100010001000110 I"
b11100 .
b11100 ^"
b110100 e"
b110100 g"
b11010000 b"
b11010000 j"
b1101 a"
b1101 i"
b1101 f"
b1101 k"
b10 c"
b10 h"
b0 %"
b0 2"
0*"
1."
b1111110010000000010001111 3
b1111110010000000010001111 5"
b0 g
b0 h
b1100 f
b1100 i
b11 e
b11 j
b11010011010110110000001100100 7
b11010011010110110000001100100 n
b10110010 F
b10110010 G
b10010111 ?
b10010111 I
b11001101 D
b11001101 M
b111010 B
b111010 L
b11100101 E
b11100101 H
b101000010000000100100111 ;
b101000010000000100100111 N
b110100010 -
b110100010 `"
b1011 5
b1011 ""
b110011 9
b110011 `
b1011001011100101 =
b1011001011100101 >
0]"
1X"
1\"
0Y"
b1000 W"
b1000 _"
b1000 /
b1000 V"
b111 (
b110000101010110001000101100111111001000000001000111100000111000011010110101101100000011001000011011101000010000000100111011001011100101 #
b110000101010110001000101100111111001000000001000111100000111000011010110101101100000011001000011011101000010000000100111011001011100101 *
b11000100110100011001100001100001 $
0"
#17000
b1001 &
1"
