rewiring/large_test_seed0/cycle_0006/tb_top.vcd
$date
	Tue Nov  4 00:09:17 2025
$end
$version
	Icarus Verilog
$end
$timescale
	1ps
$end
$scope module tb_top $end
$var wire 159 ! out_flat [158:0] $end
$var reg 1 " clk $end
$var reg 138 # in_flat [137:0] $end
$var reg 32 $ rng_state [31:0] $end
$var reg 1 % rst_n $end
$var integer 32 & cyc [31:0] $end
$var integer 32 ' cycles [31:0] $end
$var integer 32 ( i [31:0] $end
$var integer 32 ) seed [31:0] $end
$scope module dut $end
$var wire 1 " clk $end
$var wire 138 * in_flat [137:0] $end
$var wire 1 % rst_n $end
$var wire 159 + out_flat [158:0] $end
$var wire 24 , const_shift_wrapper_out_flat [23:0] $end
$var wire 11 - const_shift_wrapper_in_flat [10:0] $end
$var wire 6 . const_reduce_wrapper_out_flat [5:0] $end
$var wire 4 / const_reduce_wrapper_in_flat [3:0] $end
$var wire 8 0 const_partselect_wrapper_out_flat [7:0] $end
$var wire 20 1 const_partselect_wrapper_in_flat [19:0] $end
$var wire 8 2 const_nested_wrapper_out_flat [7:0] $end
$var wire 27 3 const_nested_wrapper_in_flat [26:0] $end
$var wire 19 4 const_logic_wrapper_out_flat [18:0] $end
$var wire 10 5 const_logic_wrapper_in_flat [9:0] $end
$var wire 24 6 const_conditional_wrapper_out_flat [23:0] $end
$var wire 34 7 const_conditional_wrapper_in_flat [33:0] $end
$var wire 22 8 const_concat_repl_wrapper_out_flat [21:0] $end
$var wire 10 9 const_concat_repl_wrapper_in_flat [9:0] $end
$var wire 8 : const_compare_wrapper_out_flat [7:0] $end
$var wire 24 ; const_compare_wrapper_in_flat [23:0] $end
$var wire 40 < const_arith_wrapper_out_flat [39:0] $end
$var wire 16 = const_arith_wrapper_in_flat [15:0] $end
$scope module u_const_arith_wrapper $end
$var wire 16 > in_flat [15:0] $end
$var wire 8 ? sum_c [7:0] $end
$var wire 8 @ rem_c [7:0] $end
$var wire 8 A quot_c [7:0] $end
$var wire 8 B prod_c [7:0] $end
$var wire 40 C out_flat [39:0] $end
$var wire 8 D diff_c [7:0] $end
$var wire 8 E b [7:0] $end
$var wire 8 F a [7:0] $end
$scope module u_const_arith $end
$var wire 8 G a [7:0] $end
$var wire 8 H b [7:0] $end
$var wire 8 I sum_c [7:0] $end
$var wire 8 J rem_c [7:0] $end
$var wire 8 K quot_c [7:0] $end
$var wire 8 L prod_c [7:0] $end
$var wire 8 M diff_c [7:0] $end
$upscope $end
$upscope $end
$scope module u_const_compare_wrapper $end
$var wire 24 N in_flat [23:0] $end
$var wire 8 O out_flat [7:0] $end
$var wire 1 P neq_c $end
$var wire 1 Q lt_c $end
$var wire 1 R le_c $end
$var wire 1 S gt_c $end
$var wire 1 T ge_c $end
$var wire 1 U eq_c $end
$var wire 4 V d [3:0] $end
$var wire 1 W case_neq_c $end
$var wire 1 X case_eq_c $end
$var wire 4 Y c [3:0] $end
$var wire 8 Z b [7:0] $end
$var wire 8 [ a [7:0] $end
$scope module u_const_compare $end
$var wire 8 \ a [7:0] $end
$var wire 8 ] b [7:0] $end
$var wire 4 ^ c [3:0] $end
$var wire 4 _ d [3:0] $end
$var wire 1 P neq_c $end
$var wire 1 Q lt_c $end
$var wire 1 R le_c $end
$var wire 1 S gt_c $end
$var wire 1 T ge_c $end
$var wire 1 U eq_c $end
$var wire 1 W case_neq_c $end
$var wire 1 X case_eq_c $end
$upscope $end
$upscope $end
$scope module u_const_concat_repl_wrapper $end
$var wire 10 ` in_flat [9:0] $end
$var wire 8 a rep_c [7:0] $end
$var wire 6 b rep2_c [5:0] $end
$var wire 22 c out_flat [21:0] $end
$var wire 8 d cat_c [7:0] $end
$var wire 2 e c [1:0] $end
$var wire 4 f b [3:0] $end
$var wire 4 g a [3:0] $end
$scope module u_const_concat_repl $end
$var wire 4 h a [3:0] $end
$var wire 4 i b [3:0] $end
$var wire 2 j c [1:0] $end
$var wire 8 k rep_c [7:0] $end
$var wire 6 l rep2_c [5:0] $end
$var wire 8 m cat_c [7:0] $end
$upscope $end
$upscope $end
$scope module u_const_conditional_wrapper $end
$var wire 34 n in_flat [33:0] $end
$var wire 1 o sel2 $end
$var wire 1 p sel1 $end
$var wire 24 q out_flat [23:0] $end
$var wire 8 r d [7:0] $end
$var wire 8 s cond3_c [7:0] $end
$var wire 8 t cond2_c [7:0] $end
$var wire 8 u cond1_c [7:0] $end
$var wire 8 v c [7:0] $end
$var wire 8 w b [7:0] $end
$var wire 8 x a [7:0] $end
$scope module u_const_conditional $end
$var wire 8 y a [7:0] $end
$var wire 8 z b [7:0] $end
$var wire 8 { c [7:0] $end
$var wire 8 | d [7:0] $end
$var wire 1 p sel1 $end
$var wire 1 o sel2 $end
$var wire 8 } cond3_c [7:0] $end
$var wire 8 ~ cond2_c [7:0] $end
$var wire 8 !" cond1_c [7:0] $end
$upscope $end
$upscope $end
$scope module u_const_logic_wrapper $end
$var wire 10 "" in_flat [9:0] $end
$var wire 4 #" y [3:0] $end
$var wire 4 $" xor_c [3:0] $end
$var wire 4 %" x [3:0] $end
$var wire 19 &" out_flat [18:0] $end
$var wire 4 '" or_c [3:0] $end
$var wire 4 (" not_c [3:0] $end
$var wire 1 )" lor_c $end
$var wire 1 *" lnot_c $end
$var wire 1 +" land_c $end
$var wire 1 ," b $end
$var wire 4 -" and_c [3:0] $end
$var wire 1 ." a $end
$scope module u_const_logic $end
$var wire 1 ." a $end
$var wire 4 /" and_c [3:0] $end
$var wire 1 ," b $end
$var wire 1 +" land_c $end
$var wire 1 )" lor_c $end
$var wire 4 0" not_c [3:0] $end
$var wire 4 1" or_c [3:0] $end
$var wire 4 2" x [3:0] $end
$var wire 4 3" xor_c [3:0] $end
$var wire 4 4" y [3:0] $end
$var wire 1 *" lnot_c $end
$upscope $end
$upscope $end
$scope module u_const_nested_wrapper $end
$var wire 27 5" in_flat [26:0] $end
$var wire 8 6" out_flat [7:0] $end
$var wire 3 7" s [2:0] $end
$var wire 8 8" r [7:0] $end
$var wire 8 9" q [7:0] $end
$var wire 8 :" p [7:0] $end
$var wire 8 ;" nested_c [7:0] $end
$scope module u_const_nested $end
$var wire 8 <" and_part [7:0] $end
$var wire 8 =" nested_c [7:0] $end
$var wire 8 >" p [7:0] $end
$var wire 8 ?" q [7:0] $end
$var wire 8 @" r [7:0] $end
$var wire 3 A" s [2:0] $end
$var wire 8 B" xor_qr [7:0] $end
$var wire 8 C" shl_rs [7:0] $end
$var wire 8 D" mul_part [7:0] $end
$var wire 8 E" mod_part [7:0] $end
$var wire 8 F" div_part [7:0] $end
$var wire 8 G" denom [7:0] $end
$var wire 8 H" add_pq [7:0] $end
$upscope $end
$upscope $end
$scope module u_const_partselect_wrapper $end
$var wire 20 I" in_flat [19:0] $end
$var wire 3 J" sel2_c [2:0] $end
$var wire 4 K" sel1_c [3:0] $end
$var wire 1 L" ovf_range $end
$var wire 8 M" out_flat [7:0] $end
$var wire 4 N" idx [3:0] $end
$var wire 8 O" data2 [7:0] $end
$var wire 8 P" data1 [7:0] $end
$scope module u_const_partselect $end
$var wire 8 Q" data1 [7:0] $end
$var wire 8 R" data2 [7:0] $end
$var wire 4 S" idx [3:0] $end
$var wire 3 T" sel2_c [2:0] $end
$var wire 4 U" sel1_c [3:0] $end
$var wire 1 L" ovf_range $end
$upscope $end
$upscope $end
$scope module u_const_reduce_wrapper $end
$var wire 4 V" in_flat [3:0] $end
$var wire 4 W" in_vec [3:0] $end
$var wire 1 X" red_xor_c $end
$var wire 1 Y" red_xnor_c $end
$var wire 1 Z" red_or_c $end
$var wire 1 [" red_nor_c $end
$var wire 1 \" red_nand_c $end
$var wire 1 ]" red_and_c $end
$var wire 6 ^" out_flat [5:0] $end
$scope module u_const_reduce $end
$var wire 4 _" in_vec [3:0] $end
$var wire 1 X" red_xor_c $end
$var wire 1 Y" red_xnor_c $end
$var wire 1 Z" red_or_c $end
$var wire 1 [" red_nor_c $end
$var wire 1 \" red_nand_c $end
$var wire 1 ]" red_and_c $end
$upscope $end
$upscope $end
$scope module u_const_shift_wrapper $end
$var wire 11 `" in_flat [10:0] $end
$var wire 8 a" shr_c [7:0] $end
$var wire 8 b" shl_c [7:0] $end
$var wire 3 c" shift_amt [2:0] $end
$var wire 24 d" out_flat [23:0] $end
$var wire 8 e" data_in [7:0] $end
$var wire 8 f" ashr_c [7:0] $end
$scope module u_const_shift $end
$var wire 8 g" data_in [7:0] $end
$var wire 3 h" shift_amt [2:0] $end
$var wire 8 i" shr_c [7:0] $end
$var wire 8 j" shl_c [7:0] $end
$var wire 8 k" ashr_c [7:0] $end
$upscope $end
$upscope $end
$upscope $end
$upscope $end
$enddefinitions $end
$comment Show the parameter values. $end
$dumpall
$end
#0
$dumpvars
b1011 k"
b101110 j"
b1011 i"
b1 h"
b10111 g"
b1011 f"
b10111 e"
b1011100000101100001011 d"
b1 c"
b101110 b"
b1011 a"
b10111001 `"
b101 _"
b10101 ^"
0]"
1\"
0["
1Z"
1Y"
0X"
b101 W"
b101 V"
b1010 U"
b1 T"
b100 S"
b10110 R"
b10101111 Q"
b10101111 P"
b10110 O"
b100 N"
b10100010 M"
0L"
b1010 K"
b1 J"
b10101111000101100100 I"
b1011100 H"
b10110000 G"
b0 F"
b0 E"
b1101000 D"
b110110 C"
b10110100 B"
b1 A"
b11011 @"
b10101111 ?"
b10101101 >"
b100000 ="
b100000 <"
b100000 ;"
b10101101 :"
b10101111 9"
b11011 8"
b1 7"
b100000 6"
b101011011010111100011011001 5"
b1001 4"
b1000 3"
b1 2"
b1001 1"
b1110 0"
b1 /"
0."
b1 -"
1,"
0+"
1*"
1)"
b1110 ("
b1001 '"
b1100110001110011 &"
b1 %"
b1000 $"
b1001 #"
b1100101 ""
b1011000 !"
b1001101 ~
b10111011 }
b1000001 |
b1001101 {
b10111011 z
b1011000 y
b1011000 x
b10111011 w
b1001101 v
b1011000 u
b1001101 t
b10111011 s
b1000001 r
b10110000100110110111011 q
1p
0o
b101100010111011010011010100000110 n
b10011010 m
b101010 l
b10011001 k
b10 j
b1010 i
b1001 h
b1001 g
b1010 f
b10 e
b10011010 d
b1001101010011001101010 c
b101010 b
b10011001 a
b1001101010 `
b11 _
b1000 ^
b110100 ]
b1101001 \
b1101001 [
b110100 Z
b1000 Y
0X
1W
b11 V
0U
1T
1S
0R
0Q
1P
b1001101 O
b11010010011010010000011 N
b0 M
b10000 L
b1 K
b0 J
b11001000 I
b1100100 H
b1100100 G
b1100100 F
b1100100 E
b0 D
b1100100000000000000100000000000100000000 C
b10000 B
b1 A
b0 @
b11001000 ?
b110010001100100 >
b110010001100100 =
b1100100000000000000100000000000100000000 <
b11010010011010010000011 ;
b1001101 :
b1001101010 9
b1001101010011001101010 8
b101100010111011010011010100000110 7
b10110000100110110111011 6
b1100101 5
b1100110001110011 4
b101011011010111100011011001 3
b100000 2
b10101111000101100100 1
b10100010 0
b101 /
b10101 .
b10111001 -
b1011100000101100001011 ,
b1011100000101100001011010101101000100010000000011001100011100110101100001001101101110111001101010011001101010010011011100100000000000000100000000000100000000 +
b101110011001110010110010001011011001111000110110010010010101011001011101101001101010000011010011010100110100101010100000111100100110000 *
b1001000001001101000011001110011 )
bx (
b1100100 '
b0 &
0%
b110011111110111111100001011100 $
b101110011001110010110010001011011001111000110110010010010101011001011101101001101010000011010011010100110100101010100000111100100110000 #
0"
b1011100000101100001011010101101000100010000000011001100011100110101100001001101101110111001101010011001101010010011011100100000000000000100000000000100000000 !
$end
#1000
b1 &
1"
#2000
b0 (
0"
#3000
b10 &
1"
#4000
0]"
1\"
b1 A
b1 K
b10 c"
b10 h"
b1110000000001110000011100111000100xxx0xxxxxxxx01001110101000010101010111001101111101011101100001111001100101010011100011010011000010100100001010000000100010100 !
b1110000000001110000011100111000100xxx0xxxxxxxx01001110101000010101010111001101111101011101100001111001100101010011100011010011000010100100001010000000100010100 +
b100xxx0 0
b100xxx0 M"
bx 2
bx 6"
bx ;"
bx ="
b101011100110111110101110 6
b101011100110111110101110 q
b1110001 :
b1110001 O
b100 K"
b100 U"
bx J"
bx T"
b100111010100001010 4
b100111010100001010 &"
bx E"
bx F"
b111111 B"
b0xxxxxx <"
b1100001111001100101010 8
b1100001111001100101010 c
b1101111 t
b1101111 ~
b10101110 s
b10101110 }
b10101110 u
b10101110 !"
b1010011000010100100001010000000100010100 <
b1010011000010100100001010000000100010100 C
b111000000000111000001110 ,
b111000000000111000001110 d"
b1000010 P"
b1000010 Q"
b1011111 O"
b1011111 R"
b1000 N"
b1000 S"
b1 ("
b1 0"
b100 -"
b100 /"
b1110 '"
b1110 1"
b1010 $"
b1010 3"
bx1111100 :"
bx1111100 >"
bx H"
b10001001 G"
b10001000 9"
b10001000 ?"
b10110111 8"
b10110111 @"
bx D"
b10111000 C"
b11 7"
b11 A"
b11001100 a
b11001100 k
b11000011 d
b11000011 m
b10000111 x
b10000111 y
b10101110 w
b10101110 z
b1101111 v
b1101111 {
b1010001 r
b1010001 |
0p
b10100 @
b10100 J
b10010110 [
b10010110 \
1Q
1R
0S
0T
b10110000 Z
b10110000 ]
b1110 Y
b1110 ^
b111 V
b111 _
b11100 .
b11100 ^"
b11100000 b"
b11100000 j"
b1110 a"
b1110 i"
b1110 f"
b1110 k"
b111000 e"
b111000 g"
b1000010010111111000 1
b1000010010111111000 I"
b1110 %"
b1110 2"
b100 #"
b100 4"
0*"
1."
0,"
bx11111001000100010110111011 3
bx11111001000100010110111011 5"
b1100 g
b1100 h
b11 f
b11 i
b1000011110101110011011110101000100 7
b1000011110101110011011110101000100 n
b11011101 F
b11011101 G
b10100110 ?
b10100110 I
b10100 D
b10100 M
b10000101 B
b10000101 L
b11001001 E
b11001001 H
b100101101011000011100111 ;
b100101101011000011100111 N
b111000010 -
b111000010 `"
b1110010010 5
b1110010010 ""
b1100001110 9
b1100001110 `
b1101110111001001 =
b1101110111001001 >
1X"
0Y"
b1101 W"
b1101 _"
b1101 /
b1101 V"
b1 (
b1110000110100100011111100011111001001000101101110111101001010000111010111001101111010100010011000011101001011011000111001111011101100101 #
b1110000110100100011111100011111001001000101101110111101001010000111010111001101111010100010011000011101001011011000111001111011101100101 *
b11110100011010101010010011100001 $
0"
1%
#5000
b11 &
1"
#6000
b10000101 2
b10000101 6"
b10000101 ;"
b10000101 ="
b101 ("
b101 0"
b1 E"
b1 F"
b1010 %"
b1010 2"
b10000100 D"
b10011001 H"
b101 A
b101 K
b10000000000001000000010000111001000011000010110001011001101011101101000011010000110100000000110000000000010101010011010101011000111010111100000000010100000010 !
b10000000000001000000010000111001000011000010110001011001101011101101000011010000110100000000110000000000010101010011010101011000111010111100000000010100000010 +
b111 .
b111 ^"
0Z"
0X"
1["
1Y"
b1000101100110101110 4
b1000101100110101110 &"
b10000100 <"
b110100001101000011010000 6
b110100001101000011010000 q
b1001101 :
b1001101 O
b10 K"
b10 U"
b0 J"
b0 T"
b100001 0
b100001 M"
b11110100 B"
b110000000000010101 8
b110000000000010101 c
b11010000 u
b11010000 !"
b11010000 s
b11010000 }
b11010000 t
b11010000 ~
b101011000111010111100000000010100000010 <
b101011000111010111100000000010100000010 C
b10000000000001000000010 ,
b10000000000001000000010 d"
b100110 P"
b100110 Q"
b1100010 O"
b1100010 R"
1L"
b1110 N"
b1110 S"
b1000 -"
b1000 /"
b1011 '"
b1011 1"
b11 $"
b11 3"
1+"
b1011100 :"
b1011100 >"
b111110 G"
b111101 9"
b111101 ?"
b11001001 8"
b11001001 @"
b100100 C"
b10 7"
b10 A"
b0 a
b0 k
b1100 d
b1100 m
b10101 b
b10101 l
b10110101 x
b10110101 y
b11010000 w
b11010000 z
b1001100 v
b1001100 {
b10101100 r
b10101100 |
1o
b10 @
b10 J
0Q
0R
1S
1T
b11001101 [
b11001101 \
b10001001 Z
b10001001 ]
b101 Y
b101 ^
b100100 e"
b100100 g"
b1000000 b"
b1000000 j"
b10 a"
b10 i"
b10 f"
b10 k"
b100 c"
b100 h"
b100110011000101110 1
b100110011000101110 I"
b1001 #"
b1001 4"
1,"
b10111000011110111001001010 3
b10111000011110111001001010 5"
b0 g
b0 h
b1100 f
b1100 i
b1 e
b1 j
b1011010111010000010011001010110001 7
b1011010111010000010011001010110001 n
b1001000 F
b1001000 G
b1010110 ?
b1010110 I
b111010 D
b111010 M
b11110000 B
b11110000 L
b1110 E
b1110 H
b110011011000100101010111 ;
b110011011000100101010111 N
b100100100 -
b100100100 `"
b1010100111 5
b1010100111 ""
b110001 9
b110001 `
b100100000001110 =
b100100000001110 >
b0 W"
b0 _"
b0 /
b0 V"
b10 (
b1001001000000100100010111010111000011101110010010101110011110110111101000001001100101011000100001100011100110110101010101111001000000110 #
b1001001000000100100010111010111000011101110010010101110011110110111101000001001100101011000100001100011100110110101010101111001000000110 *
b10000101111101000010100010010010 $
0"
#7000
b100 &
1"
#8000
b0 K"
b0 U"
0]"
1\"
b1110001 :
b1110001 O
b1 ("
b1 0"
b110 @
b110 J
b110 c"
b110 h"
b1110 %"
b1110 2"
1Q
1R
0S
0T
b110000000000000100000001011100000001001010000001001110101000010010110011111010111011110101110011011101110000000011100011000110000000110000110110000000100000110 !
b110000000000000100000001011100000001001010000001001110101000010010110011111010111011110101110011011101110000000011100011000110000000110000110110000000100000110 +
1X"
0Y"
b10100000 2
b10100000 6"
b10100000 ;"
b10100000 ="
b11001111101011101111010 6
b11001111101011101111010 q
b10 J"
b10 T"
b100 0
b100 M"
b100111010100001001 4
b100111010100001001 &"
b0 E"
b0 F"
b11100111 B"
b10100000 <"
b1110011011101110000000 8
b1110011011101110000000 c
b1100111 u
b1100111 !"
b1111010 s
b1111010 }
b11010111 t
b11010111 ~
b1000110000000110000110110000000100000110 <
b1000110000000110000110110000000100000110 C
b110000000000000100000001 ,
b110000000000000100000001 d"
b1001 P"
b1001 Q"
b11001010 O"
b11001010 R"
0L"
b0 N"
b0 S"
b100 -"
b100 /"
b1110 '"
b1110 1"
b1010 $"
b1010 3"
0+"
0)"
b1110111 :"
b1110111 >"
b10101 H"
b10011111 G"
b10011110 9"
b10011110 ?"
b1111001 8"
b1111001 @"
b10100000 D"
b100000 C"
b101 7"
b101 A"
b11101110 a
b11101110 k
b11100110 d
b11100110 m
b0 b
b0 l
b1111010 x
b1111010 y
b1100111 w
b1100111 z
b11010111 v
b11010111 {
b110010 r
b110010 |
0o
b1 A
b1 K
b111000 [
b111000 \
b1100001 Z
b1100001 ]
b1110 Y
b1110 ^
b1111 V
b1111 _
b11000000 b"
b11000000 j"
b1 a"
b1 i"
b1 f"
b1 k"
b1101111 e"
b1101111 g"
b1001110010100000 1
b1001110010100000 I"
b11100 .
b11100 ^"
b100 #"
b100 4"
1*"
0."
0,"
b11101111001111001111001101 3
b11101111001111001111001101 5"
b1110 g
b1110 h
b110 f
b110 i
b0 e
b0 j
b111101001100111110101110011001000 7
b111101001100111110101110011001000 n
b11001001 F
b11001001 G
b10001100 ?
b10001100 I
b110 D
b110 M
b11011 B
b11011 L
b11000011 E
b11000011 H
b1110000110000111101111 ;
b1110000110000111101111 N
b1101111110 -
b1101111110 `"
b1110010000 5
b1110010000 ""
b1110011000 9
b1110011000 `
b1100100111000011 =
b1100100111000011 >
1Z"
0["
b1101 W"
b1101 _"
b1101 /
b1101 V"
b11 (
b11011111110001011001010000011101111011110011110011011101000001111000110011111010111001100100011100110000011100000001111011111001001100011 #
b11011111110001011001010000011101111011110011110011011101000001111000110011111010111001100100011100110000011100000001111011111001001100011 *
b101110000100110101000110111111 $
0"
#9000
b101 &
1"
#10000
b1110001 :
b1110001 O
b110 A
b110 K
1Q
1R
0S
0T
b111100000000101100001011010101111111100000000000001110111000010111010101101000111101111010011110100110011010101011100011101111010100110001110000000011000011010 !
b111100000000101100001011010101111111100000000000001110111000010111010101101000111101111010011110100110011010101011100011101111010100110001110000000011000011010 +
b11111110 0
b11111110 M"
b111011100001011 4
b111011100001011 &"
b0 2
b0 6"
b0 ;"
b0 ="
b101010110100011110111101 6
b101010110100011110111101 q
b1111 K"
b1111 U"
b111 J"
b111 T"
b1001111 B"
b0 <"
b11110100110011010101 8
b11110100110011010101 c
b10111101 s
b10111101 }
b10101011 u
b10101011 !"
b1000111 t
b1000111 ~
b1101111010100110001110000000011000011010 <
b1101111010100110001110000000011000011010 C
b111100000000101100001011 ,
b111100000000101100001011 d"
b11110011 P"
b11110011 Q"
b11101101 O"
b11101101 R"
b101 N"
b101 S"
b0 -"
b0 /"
b1110 $"
b1110 3"
1)"
b10010101 :"
b10010101 >"
b110000 H"
b10011100 G"
b10011011 9"
b10011011 ?"
b11010100 8"
b11010100 @"
b0 D"
b0 C"
b111 7"
b111 A"
b110011 a
b110011 k
b111101 d
b111101 m
b10101 b
b10101 l
b10111101 x
b10111101 y
b10101011 w
b10101011 z
b1000111 v
b1000111 {
b1001110 r
b1001110 |
b11010 @
b11010 J
b1001110 [
b1001110 \
b1111100 Z
b1111100 ]
b1 V
b1 _
b10101 .
b10101 ^"
b1011110 e"
b1011110 g"
b11110000 b"
b11110000 j"
b1011 a"
b1011 i"
b1011 f"
b1011 k"
b11 c"
b11 h"
b11110011111011010101 1
b11110011111011010101 I"
b0 #"
b0 4"
1,"
b100101011001101111010100111 3
b100101011001101111010100111 5"
b11 g
b11 h
b1101 f
b1101 i
b1 e
b1 j
b1011110110101011010001110100111000 7
b1011110110101011010001110100111000 n
b11000010 F
b11000010 G
b11011110 ?
b11011110 I
b10100110 D
b10100110 M
b111000 B
b111000 L
b11100 E
b11100 H
b10011100111110011100001 ;
b10011100111110011100001 N
b1011110011 -
b1011110011 `"
b1110000001 5
b1110000001 ""
b11110101 9
b11110101 `
b1100001000011100 =
b1100001000011100 >
0X"
1Y"
b110 W"
b110 _"
b110 /
b110 V"
b100 (
b10111100011110111101101010100101011011011110101001111100000110111111010101101000111010011100000111101010100111001110111000011000010001100 #
b10111100011110111101101010100101011011011110101001111100000110111111010101101000111010011100000111101010100111001110111000011000010001100 *
b110101011000011100100101111000 $
0"
#11000
b110 &
1"
#12000
b11100 .
b11100 ^"
1X"
0Y"
bx0000 <"
b10001100100011001000110111000100xxx0xxxxxxxx00011111111001100111100110011101000110011001000101110001000010101010011010100011011111100110001010000000010100001 !
b10001100100011001000110111000100xxx0xxxxxxxx00011111111001100111100110011101000110011001000101110001000010101010011010100011011111100110001010000000010100001 +
b0 c"
b0 h"
b100xxx0 0
b100xxx0 M"
b1111111100110011 4
b1111111100110011 &"
bx 2
bx 6"
bx ;"
bx ="
b110011001110100011001100 6
b110011001110100011001100 q
b1001101 :
b1001101 O
b100 K"
b100 U"
bx J"
bx T"
bx E"
bx F"
b11110000 B"
b1000101110001000010101 8
b1000101110001000010101 c
b11001100 s
b11001100 }
b11101000 t
b11101000 ~
b11001100 u
b11001100 !"
b100011011111100110001010000000010100001 <
b100011011111100110001010000000010100001 C
b1000110010001100100011 ,
b1000110010001100100011 d"
b1001110 P"
b1001110 Q"
b11101001 O"
b11101001 R"
b1000 N"
b1000 S"
b110 ("
b110 0"
b1 -"
b1 /"
b1111 '"
b1111 1"
b1110 $"
b1110 3"
bx0001010 :"
bx0001010 >"
bx D"
bx H"
b1100101 G"
b1100100 9"
b1100100 ?"
b10010100 8"
b10010100 @"
b10000000 C"
b101 7"
b101 A"
b10001000 a
b10001000 k
b10001011 d
b10001011 m
b11001100 x
b11001100 y
b11011111 w
b11011111 z
b11101000 v
b11101000 {
b1100111 r
b1100111 |
1p
b0 A
b0 K
b10100001 @
b10100001 J
0Q
0R
1S
1T
b10110100 [
b10110100 \
b1100 Z
b1100 ]
b1010 Y
b1010 ^
b1100 V
b1100 _
b100011 b"
b100011 j"
b100011 a"
b100011 i"
b100011 f"
b100011 k"
b100011 e"
b100011 g"
b1001110111010011000 1
b1001110111010011000 I"
b1001 %"
b1001 2"
b111 #"
b111 4"
bx00010100110010010010100101 3
bx00010100110010010010100101 5"
b1000 g
b1000 h
b1011 f
b1011 i
b1100110011011111111010000110011110 7
b1100110011011111111010000110011110 n
b10100001 F
b10100001 G
b1000110 ?
b1000110 I
b11111100 D
b11111100 M
b11000101 B
b11000101 L
b10100101 E
b10100101 H
b101101000000110010101100 ;
b101101000000110010101100 N
b100011000 -
b100011000 `"
b1001011101 5
b1001011101 ""
b1000101101 9
b1000101101 `
b1010000110100101 =
b1010000110100101 >
b1011 W"
b1011 _"
b1011 /
b1011 V"
b101 (
b1000110100101101101001100000010100100100100101001011001110111001101101111111101000011001111010001011011011010000110101011000100001010001 #
b1000110100101101101001100000010100100100100101001011001110111001101101111111101000011001111010001011011011010000110101011000100001010001 *
b100011000110010101100010001101 $
0"
#13000
b111 &
1"
#14000
b10000010 2
b10000010 6"
b10000010 ;"
b10000010 ="
b10 E"
b10 F"
b10000000 D"
b10001010 H"
b1100000000001000000010011100110000011000001000001000100001110100111110001111100010000011010010110101010000000010011011110101111100111010100100000000001101001 !
b1100000000001000000010011100110000011000001000001000100001110100111110001111100010000011010010110101010000000010011011110101111100111010100100000000001101001 +
b111 ("
b111 0"
b11100 .
b11100 ^"
b1000 %"
b1000 2"
1X"
0Y"
b10000000 <"
b11111000111110001000001 6
b11111000111110001000001 q
b1100 K"
b1100 U"
b0 J"
b0 T"
b11000001 0
b11000001 M"
b100010000111010 4
b100010000111010 &"
b11111000 B"
b1010010110101010000000 8
b1010010110101010000000 c
b1111100 u
b1111100 !"
b1000001 s
b1000001 }
b1111100 t
b1111100 ~
b1110101111100111010100100000000001101001 <
b1110101111100111010100100000000001101001 C
b1100000000001000000010 ,
b1100000000001000000010 d"
b11000111 P"
b11000111 Q"
b10010011 O"
b10010011 R"
1L"
b1111 N"
b1111 S"
b0 -"
b0 /"
b1000 '"
b1000 1"
b1000 $"
b1000 3"
b1100001 :"
b1100001 >"
b101010 G"
b101001 9"
b101001 ?"
b11010001 8"
b11010001 @"
b1000000 C"
b110 7"
b110 A"
b10101010 a
b10101010 k
b10100101 d
b10100101 m
b0 b
b0 l
b1111100 x
b1111100 y
b1000001 w
b1000001 z
b1101111 v
b1101111 {
b0 r
b0 |
1o
b0 A
b0 K
b1101001 @
b1101001 J
b11111101 [
b11111101 \
b1001 Y
b1001 ^
b1110 V
b1110 _
b110000 b"
b110000 j"
b10 a"
b10 i"
b10 f"
b10 k"
b100 c"
b100 h"
b11000111100100111111 1
b11000111100100111111 I"
b0 #"
b0 4"
0*"
1."
0,"
b11000010010100111010001110 3
b11000010010100111010001110 5"
b1010 g
b1010 h
b101 f
b101 i
b0 e
b0 j
b111110001000001011011110000000011 7
b111110001000001011011110000000011 n
b1101001 F
b1101001 G
b11101011 ?
b11101011 I
b11100111 D
b11100111 M
b1010010 B
b1010010 L
b10000010 E
b10000010 H
b111111010000110010011110 ;
b111111010000110010011110 N
b100011100 -
b100011100 `"
b1000000010 5
b1000000010 ""
b1010010100 9
b1010010100 `
b110100110000010 =
b110100110000010 >
b111 W"
b111 _"
b111 /
b111 V"
b110 (
b1000111011100111010011111111000010001001110100011101000001001111100100000101101111000000001110100101001111110100110100111101101001000010 #
b1000111011100111010011111111000010001001110100011101000001001111100100000101101111000000001110100101001111110100110100111101101001000010 *
b10101011010010010101100010001110 $
0"
#15000
b1000 &
1"
