rewiring/large_test_seed0_50mut/cycle_0015/tb_top.vcd
$date
	Tue Nov  4 01:01:52 2025
$end
$version
	Icarus Verilog
$end
$timescale
	1ps
$end
$scope module tb_top $end
$var wire 159 ! out_flat [158:0] $end
$var reg 1 " clk $end
$var reg 143 # in_flat [142:0] $end
$var reg 32 $ rng_state [31:0] $end
$var reg 1 % rst_n $end
$var integer 32 & cyc [31:0] $end
$var integer 32 ' cycles [31:0] $end
$var integer 32 ( i [31:0] $end
$var integer 32 ) seed [31:0] $end
$scope module dut $end
$var wire 1 " clk $end
$var wire 143 * in_flat [142:0] $end
$var wire 1 % rst_n $end
$var wire 159 + out_flat [158:0] $end
$var wire 24 , const_shift_wrapper_out_flat [23:0] $end
$var wire 11 - const_shift_wrapper_in_flat [10:0] $end
$var wire 6 . const_reduce_wrapper_out_flat [5:0] $end
$var wire 4 / const_reduce_wrapper_in_flat [3:0] $end
$var wire 8 0 const_partselect_wrapper_out_flat [7:0] $end
$var wire 20 1 const_partselect_wrapper_in_flat [19:0] $end
$var wire 8 2 const_nested_wrapper_out_flat [7:0] $end
$var wire 27 3 const_nested_wrapper_in_flat [26:0] $end
$var wire 19 4 const_logic_wrapper_out_flat [18:0] $end
$var wire 10 5 const_logic_wrapper_in_flat [9:0] $end
$var wire 24 6 const_conditional_wrapper_out_flat [23:0] $end
$var wire 34 7 const_conditional_wrapper_in_flat [33:0] $end
$var wire 22 8 const_concat_repl_wrapper_out_flat [21:0] $end
$var wire 10 9 const_concat_repl_wrapper_in_flat [9:0] $end
$var wire 8 : const_compare_wrapper_out_flat [7:0] $end
$var wire 24 ; const_compare_wrapper_in_flat [23:0] $end
$var wire 40 < const_arith_wrapper_out_flat [39:0] $end
$var wire 16 = const_arith_wrapper_in_flat [15:0] $end
$scope module u_const_arith_wrapper $end
$var wire 16 > in_flat [15:0] $end
$var wire 8 ? sum_c [7:0] $end
$var wire 8 @ rem_c [7:0] $end
$var wire 8 A quot_c [7:0] $end
$var wire 8 B prod_c [7:0] $end
$var wire 40 C out_flat [39:0] $end
$var wire 8 D diff_c [7:0] $end
$var wire 8 E b [7:0] $end
$var wire 8 F a [7:0] $end
$scope module u_const_arith $end
$var wire 8 G a [7:0] $end
$var wire 8 H b [7:0] $end
$var wire 8 I sum_c [7:0] $end
$var wire 8 J rem_c [7:0] $end
$var wire 8 K quot_c [7:0] $end
$var wire 8 L prod_c [7:0] $end
$var wire 8 M diff_c [7:0] $end
$upscope $end
$upscope $end
$scope module u_const_compare_wrapper $end
$var wire 24 N in_flat [23:0] $end
$var wire 8 O out_flat [7:0] $end
$var wire 1 P neq_c $end
$var wire 1 Q lt_c $end
$var wire 1 R le_c $end
$var wire 1 S gt_c $end
$var wire 1 T ge_c $end
$var wire 1 U eq_c $end
$var wire 4 V d [3:0] $end
$var wire 1 W case_neq_c $end
$var wire 1 X case_eq_c $end
$var wire 4 Y c [3:0] $end
$var wire 8 Z b [7:0] $end
$var wire 8 [ a [7:0] $end
$scope module u_const_compare $end
$var wire 8 \ a [7:0] $end
$var wire 8 ] b [7:0] $end
$var wire 4 ^ c [3:0] $end
$var wire 4 _ d [3:0] $end
$var wire 1 P neq_c $end
$var wire 1 Q lt_c $end
$var wire 1 R le_c $end
$var wire 1 S gt_c $end
$var wire 1 T ge_c $end
$var wire 1 U eq_c $end
$var wire 1 W case_neq_c $end
$var wire 1 X case_eq_c $end
$upscope $end
$upscope $end
$scope module u_const_concat_repl_wrapper $end
$var wire 10 ` in_flat [9:0] $end
$var wire 8 a rep_c [7:0] $end
$var wire 6 b rep2_c [5:0] $end
$var wire 22 c out_flat [21:0] $end
$var wire 8 d cat_c [7:0] $end
$var wire 2 e c [1:0] $end
$var wire 4 f b [3:0] $end
$var wire 4 g a [3:0] $end
$scope module u_const_concat_repl $end
$var wire 4 h a [3:0] $end
$var wire 4 i b [3:0] $end
$var wire 2 j c [1:0] $end
$var wire 8 k rep_c [7:0] $end
$var wire 6 l rep2_c [5:0] $end
$var wire 8 m cat_c [7:0] $end
$upscope $end
$upscope $end
$scope module u_const_conditional_wrapper $end
$var wire 34 n in_flat [33:0] $end
$var wire 1 o sel2 $end
$var wire 1 p sel1 $end
$var wire 24 q out_flat [23:0] $end
$var wire 8 r d [7:0] $end
$var wire 8 s cond3_c [7:0] $end
$var wire 8 t cond2_c [7:0] $end
$var wire 8 u cond1_c [7:0] $end
$var wire 8 v c [7:0] $end
$var wire 8 w b [7:0] $end
$var wire 8 x a [7:0] $end
$scope module u_const_conditional $end
$var wire 8 y a [7:0] $end
$var wire 8 z b [7:0] $end
$var wire 8 { c [7:0] $end
$var wire 8 | d [7:0] $end
$var wire 1 p sel1 $end
$var wire 1 o sel2 $end
$var wire 8 } cond3_c [7:0] $end
$var wire 8 ~ cond2_c [7:0] $end
$var wire 8 !" cond1_c [7:0] $end
$upscope $end
$upscope $end
$scope module u_const_logic_wrapper $end
$var wire 10 "" in_flat [9:0] $end
$var wire 4 #" y [3:0] $end
$var wire 4 $" xor_c [3:0] $end
$var wire 4 %" x [3:0] $end
$var wire 19 &" out_flat [18:0] $end
$var wire 4 '" or_c [3:0] $end
$var wire 4 (" not_c [3:0] $end
$var wire 1 )" lor_c $end
$var wire 1 *" lnot_c $end
$var wire 1 +" land_c $end
$var wire 1 ," b $end
$var wire 4 -" and_c [3:0] $end
$var wire 1 ." a $end
$scope module u_const_logic $end
$var wire 1 ." a $end
$var wire 4 /" and_c [3:0] $end
$var wire 1 ," b $end
$var wire 1 +" land_c $end
$var wire 1 )" lor_c $end
$var wire 4 0" not_c [3:0] $end
$var wire 4 1" or_c [3:0] $end
$var wire 4 2" x [3:0] $end
$var wire 4 3" xor_c [3:0] $end
$var wire 4 4" y [3:0] $end
$var wire 1 *" lnot_c $end
$upscope $end
$upscope $end
$scope module u_const_nested_wrapper $end
$var wire 27 5" in_flat [26:0] $end
$var wire 8 6" out_flat [7:0] $end
$var wire 3 7" s [2:0] $end
$var wire 8 8" r [7:0] $end
$var wire 8 9" q [7:0] $end
$var wire 8 :" p [7:0] $end
$var wire 8 ;" nested_c [7:0] $end
$scope module u_const_nested $end
$var wire 8 <" and_part [7:0] $end
$var wire 8 =" nested_c [7:0] $end
$var wire 8 >" p [7:0] $end
$var wire 8 ?" q [7:0] $end
$var wire 8 @" r [7:0] $end
$var wire 3 A" s [2:0] $end
$var wire 8 B" xor_qr [7:0] $end
$var wire 8 C" shl_rs [7:0] $end
$var wire 8 D" mul_part [7:0] $end
$var wire 8 E" mod_part [7:0] $end
$var wire 8 F" div_part [7:0] $end
$var wire 8 G" denom [7:0] $end
$var wire 8 H" add_pq [7:0] $end
$upscope $end
$upscope $end
$scope module u_const_partselect_wrapper $end
$var wire 20 I" in_flat [19:0] $end
$var wire 3 J" sel2_c [2:0] $end
$var wire 4 K" sel1_c [3:0] $end
$var wire 1 L" ovf_range $end
$var wire 8 M" out_flat [7:0] $end
$var wire 4 N" idx [3:0] $end
$var wire 8 O" data2 [7:0] $end
$var wire 8 P" data1 [7:0] $end
$scope module u_const_partselect $end
$var wire 8 Q" data1 [7:0] $end
$var wire 8 R" data2 [7:0] $end
$var wire 4 S" idx [3:0] $end
$var wire 3 T" sel2_c [2:0] $end
$var wire 4 U" sel1_c [3:0] $end
$var wire 1 L" ovf_range $end
$upscope $end
$upscope $end
$scope module u_const_reduce_wrapper $end
$var wire 4 V" in_flat [3:0] $end
$var wire 4 W" in_vec [3:0] $end
$var wire 1 X" red_xor_c $end
$var wire 1 Y" red_xnor_c $end
$var wire 1 Z" red_or_c $end
$var wire 1 [" red_nor_c $end
$var wire 1 \" red_nand_c $end
$var wire 1 ]" red_and_c $end
$var wire 6 ^" out_flat [5:0] $end
$scope module u_const_reduce $end
$var wire 4 _" in_vec [3:0] $end
$var wire 1 X" red_xor_c $end
$var wire 1 Y" red_xnor_c $end
$var wire 1 Z" red_or_c $end
$var wire 1 [" red_nor_c $end
$var wire 1 \" red_nand_c $end
$var wire 1 ]" red_and_c $end
$upscope $end
$upscope $end
$scope module u_const_shift_wrapper $end
$var wire 11 `" in_flat [10:0] $end
$var wire 8 a" shr_c [7:0] $end
$var wire 8 b" shl_c [7:0] $end
$var wire 3 c" shift_amt [2:0] $end
$var wire 24 d" out_flat [23:0] $end
$var wire 8 e" data_in [7:0] $end
$var wire 8 f" ashr_c [7:0] $end
$scope module u_const_shift $end
$var wire 8 g" data_in [7:0] $end
$var wire 3 h" shift_amt [2:0] $end
$var wire 8 i" shr_c [7:0] $end
$var wire 8 j" shl_c [7:0] $end
$var wire 8 k" ashr_c [7:0] $end
$upscope $end
$upscope $end
$upscope $end
$upscope $end
$enddefinitions $end
$comment Show the parameter values. $end
$dumpall
$end
#0
$dumpvars
b11110110 k"
b10000000 j"
b10110 i"
b11 h"
b10110000 g"
b11110110 f"
b10110000 e"
b100000000001011011110110 d"
b11 c"
b10000000 b"
b10110 a"
b10110000011 `"
b1100 _"
b10101 ^"
0]"
1\"
0["
1Z"
1Y"
0X"
b1100 W"
b1100 V"
b0 U"
bx T"
b1011 S"
b11000100 R"
b1111 Q"
b1111 P"
b11000100 O"
b1011 N"
b0xxx0 M"
0L"
b0 K"
bx J"
b1111110001001011 I"
b111101 H"
b10100101 G"
b0 F"
b0 E"
b0 D"
b0 C"
b1110110 B"
b111 A"
b11010010 @"
b10100100 ?"
b10011001 >"
b0 ="
b0 <"
b0 ;"
b10011001 :"
b10100100 9"
b11010010 8"
b111 7"
b0 6"
b100110011010010011010010111 5"
b0 4"
b111 3"
b111 2"
b111 1"
b1000 0"
b0 /"
1."
b0 -"
0,"
0+"
0*"
1)"
b1000 ("
b111 '"
b11101111000010 &"
b111 %"
b111 $"
b0 #"
b111000010 ""
b1110x !"
b1110x ~
b100100 }
b11101000 |
b11011101 {
b1110x z
b100100 y
b100100 x
b1110x w
b11011101 v
b1110x u
b1110x t
b100100 s
b11101000 r
b1110x0001110x00100100 q
0p
1o
b1001000001110x110111011110100001 n
b10000100 m
b111111 l
b10001000 k
b11 j
b100 i
b1000 h
b1000 g
b100 f
b11 e
b10000100 d
b1000010010001000111111 c
b111111 b
b10001000 a
b1000010011 `
b10 _
b0 ^
b1011111 ]
b11010001 \
b11010001 [
b1011111 Z
b0 Y
0X
1W
b10 V
0U
1T
1S
0R
0Q
1P
b1001101 O
b110100010101111100000010 N
b1001111 M
b11010 L
b0 K
b10110 J
b11011101 I
b11000111 H
b10110 G
b10110 F
b11000111 E
b1001111 D
b1101110101001111000110100000000000010110 C
b11010 B
b0 A
b10110 @
b11011101 ?
b1011011000111 >
b1011011000111 =
b1101110101001111000110100000000000010110 <
b110100010101111100000010 ;
b1001101 :
b1000010011 9
b1000010010001000111111 8
b1001000001110x110111011110100001 7
b1110x0001110x00100100 6
b111000010 5
b11101111000010 4
b100110011010010011010010111 3
b0 2
b1111110001001011 1
b0xxx0 0
b1100 /
b10101 .
b10110000011 -
b100000000001011011110110 ,
b1000000000010110111101100101010000xxx00000000000000111011110000100001110x0001110x001001001000010010001000111111010011011101110101001111000110100000000000010110 +
b10110000110001111110001001011100110011010010010100101110111000000100100000111011011101111010001100001001111010001010111100000010001011011000111 *
b1111010000111010101000000000110 )
bx (
b1100100 '
b0 &
0%
b111010111011100101100001100011 $
b10110000110001111110001001011100110011010010010100101110111000000100100000111011011101111010001100001001111010001010111100000010001011011000111 #
0"
b1000000000010110111101100101010000xxx00000000000000111011110000100001110x0001110x001001001000010010001000111111010011011101110101001111000110100000000000010110 !
$end
#1000
b1 &
1"
#2000
b0 (
0"
#3000
b10 &
1"
#4000
1+"
b1000000000000011111111110101010111xxx000000000100011000100001111001011001010110011101111x1110010111101110000000011100010101110010011100100000000000001000111100 !
b1000000000000011111111110101010111xxx000000000100011000100001111001011001010110011101111x1110010111101110000000011100010101110010011100100000000000001000111100 +
1,"
b111xxx0 0
b111xxx0 M"
b1000110001000011110 4
b1000110001000011110 &"
b1011001 t
b1011001 ~
b1011001010110011101111x 6
b1011001010110011101111x q
b1110001 :
b1110001 O
b111 K"
b111 U"
b1001111 B"
b1110010111101110000000 8
b1110010111101110000000 c
b1101111x s
b1101111x }
b1011001 u
b1011001 !"
b101110010011100100000000000001000111100 <
b101110010011100100000000000001000111100 C
b100000000000001111111111 ,
b100000000000001111111111 d"
b1110000 P"
b1110000 Q"
b1101001 O"
b1101001 R"
b1001 N"
b1001 S"
b11 ("
b11 0"
b1000 -"
b1000 /"
b1100 '"
b1100 1"
b100 $"
b100 3"
b101 :"
b101 >"
b11110100 H"
b11110000 G"
b11101111 9"
b11101111 ?"
b10100000 8"
b10100000 @"
b0 D"
b10000000 C"
b10 7"
b10 A"
b11101110 a
b11101110 k
b11100101 d
b11100101 m
b0 b
b0 l
b1011001 x
b1011001 y
b1101111x w
b1101111x z
b101010 v
b101010 {
b10110101 r
b10110101 |
1p
b10 A
b10 K
b111100 @
b111100 J
b1100100 [
b1100100 \
1Q
1R
0S
0T
b11010101 Z
b11010101 ]
b1111 Y
b1111 ^
b111 V
b111 _
b11110110 e"
b11110110 g"
b10000000 b"
b10000000 j"
b11 a"
b11 i"
b11111111 f"
b11111111 k"
b110 c"
b110 h"
b1110000011010011001 1
b1110000011010011001 I"
b1100 %"
b1100 2"
b1000 #"
b1000 4"
b1011110111110100000010 3
b1011110111110100000010 5"
b1110 g
b1110 h
b101 f
b101 i
b0 e
b0 j
b10110011101111x001010101011010111 7
b10110011101111x001010101011010111 n
b11111100 F
b11111100 G
b1011100 ?
b1011100 I
b10011100 D
b10011100 M
b10000000 B
b10000000 L
b1100000 E
b1100000 H
b11001001101010111110111 ;
b11001001101010111110111 N
b11110110110 -
b11110110110 `"
b1100100011 5
b1100100011 ""
b1110010100 9
b1110010100 `
b1111110001100000 =
b1111110001100000 >
b101 W"
b101 _"
b101 /
b101 V"
b1 (
b11111101000110000011010011001000001011110111111000000101100100001011001110111100101010101101111111001010001100100110101111110111111110001100000 #
b11111101000110000011010011001000001011110111111000000101100100001011001110111100101010101101111111001010001100100110101111110111111110001100000 *
b10011000100101000111111010001100 $
0"
1%
#5000
b11 &
1"
#6000
0+"
b101100000000011000000110011100100000001000000001001100100010110101101101011110100110110100011010100110011111111010011010100111010100100101011010000000001111001 !
b101100000000011000000110011100100000001000000001001100100010110101101101011110100110110100011010100110011111111010011010100111010100100101011010000000001111001 +
0,"
b11100 .
b11100 ^"
1X"
0Y"
b10000000 0
b10000000 M"
b100110010001011010 4
b100110010001011010 &"
b10000000 2
b10000000 6"
b10000000 ;"
b10000000 ="
b110110101111010011011010 6
b110110101111010011011010 q
b1001101 :
b1001101 O
b1000 K"
b1000 U"
b0 J"
b0 T"
b10000000 <"
b10010101 B"
b11010100110011111111 8
b11010100110011111111 c
b11011010 s
b11011010 }
b11011010 u
b11011010 !"
b11110100 t
b11110100 ~
b100111010100100101011010000000001111001 <
b100111010100100101011010000000001111001 C
b101100000000011000000110 ,
b101100000000011000000110 d"
b10000111 P"
b10000111 Q"
b1001 O"
b1001 R"
b100 N"
b100 S"
b1011 ("
b1011 0"
b100 -"
b100 /"
b1000 $"
b1000 3"
b111101 :"
b111101 >"
b10000000 D"
b11011 H"
b11011111 G"
b11011110 9"
b11011110 ?"
b1001011 8"
b1001011 @"
b10000000 C"
b111 7"
b111 A"
b110101 d
b110101 m
b110011 a
b110011 k
b111111 b
b111111 l
b1110000 x
b1110000 y
b11011010 w
b11011010 z
b11110100 v
b11110100 {
b10111101 r
b10111101 |
0p
0o
b0 A
b0 K
b1111001 @
b1111001 J
0Q
0R
1S
1T
b10101010 [
b10101010 \
b10001010 Z
b10001010 ]
b10 Y
b10 ^
b1 V
b1 _
b110110 e"
b110110 g"
b10110000 b"
b10110000 j"
b110 a"
b110 i"
b110 f"
b110 k"
b11 c"
b11 h"
b10000111000010010100 1
b10000111000010010100 I"
b100 %"
b100 2"
b1100 #"
b1100 4"
b1111011101111001001011111 3
b1111011101111001001011111 5"
b11 g
b11 h
b11 e
b11 j
b111000011011010111101001011110100 7
b111000011011010111101001011110100 n
b1111001 F
b1111001 G
b1001110 ?
b1001110 I
b10100100 D
b10100100 M
b10101101 B
b10101101 L
b11010101 E
b11010101 H
b101010101000101000100001 ;
b101010101000101000100001 N
b110110011 -
b110110011 `"
b100110010 5
b100110010 ""
b11010111 9
b11010111 `
b111100111010101 =
b111100111010101 >
b10 W"
b10 _"
b10 /
b10 V"
b10 (
b111100101000111000010010100001111011101111000010111110100110001110000110110111110100101111100001101011110101010100010000100001011100111010101 #
b111100101000111000010010100001111011101111000010111110100110001110000110110111110100101111100001101011110101010100010000100001011100111010101 *
b1000110101100000001111001010001 $
0"
#7000
b100 &
1"
#8000
b100000000000011000000110011100100011000000000100001111111110100100001001100010011001001010011111100110011101010010011010011110011010000010001000000000010000110 !
b100000000000011000000110011100100011000000000100001111111110100100001001100010011001001010011111100110011101010010011010011110011010000010001000000000010000110 +
b110 a"
b110 i"
b110 f"
b110 k"
b11 c"
b11 h"
b10001100 0
b10001100 M"
b111111111010010 4
b111111111010010 &"
b1 2
b1 6"
b1 ;"
b1 ="
b100110001001100100101 6
b100110001001100100101 q
b110 J"
b110 T"
b1 E"
b1 F"
b11001011 B"
b0 <"
b11111100110011101010 8
b11111100110011101010 c
b100101 s
b100101 }
b10011 u
b10011 !"
b10011 t
b10011 ~
b11110011010000010001000000000010000110 <
b11110011010000010001000000000010000110 C
b100000000000011000000110 ,
b100000000000011000000110 d"
b10001011 P"
b10001011 Q"
b10101100 O"
b10101100 R"
b1 N"
b1 S"
b1010 ("
b1010 0"
b0 -"
b0 /"
b1111 '"
b1111 1"
b1111 $"
b1111 3"
b11010011 :"
b11010011 >"
b1110110 H"
b10100100 G"
b10100011 9"
b10100011 ?"
b1101000 8"
b1101000 @"
b0 D"
b0 C"
b101 7"
b101 A"
b111111 d
b111111 m
b101010 b
b101010 l
b10011 x
b10011 y
b100101 w
b100101 z
b101010 v
b101010 {
b11001001 r
b11001001 |
1p
1o
b0 A
b0 K
b10000110 @
b10000110 J
b11011111 [
b11011111 \
b10111 Z
b10111 ]
b1011 Y
b1011 ^
b1111 V
b1111 _
b11100 .
b11100 ^"
b10000000 b"
b10000000 j"
b110000 e"
b110000 g"
b10001011101011000001 1
b10001011101011000001 I"
b101 %"
b101 2"
b1010 #"
b1010 4"
b110100111010001101101000101 3
b110100111010001101101000101 5"
b1111 f
b1111 i
b10 e
b10 j
b1001100100101001010101100100111 7
b1001100100101001010101100100111 n
b10000110 F
b10000110 G
b111100 ?
b111100 I
b11010000 D
b11010000 M
b1000100 B
b1000100 L
b10110110 E
b10110110 H
b110111110001011110111111 ;
b110111110001011110111111 N
b110000011 -
b110000011 `"
b101101010 5
b101101010 ""
b11111110 9
b11111110 `
b1000011010110110 =
b1000011010110110 >
1Z"
1X"
0["
0Y"
b100 W"
b100 _"
b100 /
b100 V"
b11 (
b110000100001011101011000001110100111010001101010001010101101000010011001001000101010110010111001111111011011111000101110111111100011010110110 #
b110000100001011101011000001110100111010001101010001010101101000010011001001000101010110010111001111111011011111000101110111111100011010110110 *
b11011010000110011001100001000010 $
0"
#9000
b101 &
1"
#10000
b1 A
b1 K
b1000000000000011111111110111001110xxx00000000000100111010111010100100011001000110010001100011110100110011101010011100011011001100001101001000000000000100001101 !
b1000000000000011111111110111001110xxx00000000000100111010111010100100011001000110010001100011110100110011101010011100011011001100001101001000000000000100001101 +
b11100 .
b11100 ^"
1X"
0Y"
b1110xxx0 0
b1110xxx0 M"
b10011101011101010 4
b10011101011101010 &"
b0 2
b0 6"
b0 ;"
b0 ="
b1000110 t
b1000110 ~
b10001100100011001000110 6
b10001100100011001000110 q
b1110001 :
b1110001 O
b1110 K"
b1110 U"
bx J"
bx T"
b0 E"
b0 F"
b111100 B"
b11110100110011101010 8
b11110100110011101010 c
b1000110 u
b1000110 !"
b1000110 s
b1000110 }
b1011001100001101001000000000000100001101 <
b1011001100001101001000000000000100001101 C
b100000000000001111111111 ,
b100000000000001111111111 d"
b11101111 P"
b11101111 Q"
b11001000 O"
b11001000 R"
b1011 N"
b1011 S"
b1101 ("
b1101 0"
b10 -"
b10 /"
b111 '"
b111 1"
b101 $"
b101 3"
b11100000 H"
b111101 :"
b111101 >"
b10000000 C"
b10011111 8"
b10011111 @"
b111 7"
b111 A"
b111101 d
b111101 m
b1000110 x
b1000110 y
b1000100x w
b1000100x z
b10000101 v
b10000101 {
b11011011 r
b11011011 |
b1101 @
b1101 J
1Q
1R
0S
0T
b1000000 [
b1000000 \
b10111010 Z
b10111010 ]
b1010 Y
b1010 ^
b1100 V
b1100 _
b11010110 e"
b11010110 g"
b10000000 b"
b10000000 j"
b11 a"
b11 i"
b11111111 f"
b11111111 k"
b110 c"
b110 h"
b11101111110010001011 1
b11101111110010001011 I"
b10 %"
b10 2"
b111 #"
b111 4"
b1111011010001110011111111 3
b1111011010001110011111111 5"
b1101 f
b1101 i
b10001101000100x100001011101101111 7
b10001101000100x100001011101101111 n
b1100000 F
b1100000 G
b10110011 ?
b10110011 I
b1101 D
b1101 M
b100000 B
b100000 L
b1010011 E
b1010011 H
b10000001011101010101100 ;
b10000001011101010101100 N
b11010110110 -
b11010110110 `"
b10011110 5
b10011110 ""
b11110110 9
b11110110 `
b110000001010011 =
b110000001010011 >
b1101 W"
b1101 _"
b1101 /
b1101 V"
b100 (
b11011101010111111110010001011001111011010001110111111110010011101000110100010010000101110110111001111011001000000101110010101100010000001010011 #
b11011101010111111110010001011001111011010001110111111110010011101000110100010010000101110110111001111011001000000101110010101100010000001010011 *
b10010000000110000110111010101111 $
0"
#11000
b110 &
1"
#12000
1+"
b100000000000000100000001010101001101000000000100000101010111111101001101100100100100110111100001011001100010101011100011101111001100110111110000000000000100010 !
b100000000000000100000001010101001101000000000100000101010111111101001101100100100100110111100001011001100010101011100011101111001100110111110000000000000100010 +
1,"
b10101 .
b10101 ^"
0X"
1Y"
b1001 W"
b1001 _"
b1001 /
b1001 V"
b110100 0
b110100 M"
b10101011111110 4
b10101011111110 &"
b1 2
b1 6"
b1 ;"
b1 ="
b100110110010010010011011 6
b100110110010010010011011 q
b11 K"
b11 U"
b10 J"
b10 T"
b1 E"
b1 F"
b10010 B"
b1100001011001100010101 8
b1100001011001100010101 c
b10011011 s
b10011011 }
b10011011 u
b10011011 !"
b100100 t
b100100 ~
b1101111001100110111110000000000000100010 <
b1101111001100110111110000000000000100010 C
b100000000000000100000001 ,
b100000000000000100000001 d"
b110011 P"
b110011 Q"
b1000100 O"
b1000100 R"
b1 N"
b1 S"
b1111 ("
b1111 0"
b0 -"
b0 /"
b101 '"
b101 1"
b11010001 :"
b11010001 >"
b10000011 H"
b10110011 G"
b10110010 9"
b10110010 ?"
b10100000 8"
b10100000 @"
b0 C"
b101 7"
b101 A"
b11001100 a
b11001100 k
b11000010 d
b11000010 m
b10101 b
b10101 l
b11101101 x
b11101101 y
b10011011 w
b10011011 z
b100100 v
b100100 {
b10011001 r
b10011001 |
0p
0o
b0 A
b0 K
b100010 @
b100010 J
b10111 [
b10111 \
b1011000 Z
b1011000 ]
b1111 Y
b1111 ^
b101 V
b101 _
b1 a"
b1 i"
b1 f"
b1 k"
b1010110 e"
b1010110 g"
b110011010001000001 1
b110011010001000001 I"
b0 %"
b0 2"
b101 #"
b101 4"
b110100011011001010100000101 3
b110100011011001010100000101 5"
b1100 g
b1100 h
b10 f
b10 i
b1 e
b1 j
b1110110110011011001001001001100100 7
b1110110110011011001001001001100100 n
b100010 F
b100010 G
b11011110 ?
b11011110 I
b1100110 D
b1100110 M
b11111000 B
b11111000 L
b10111100 E
b10111100 H
b101110101100011110101 ;
b101110101100011110101 N
b1010110110 -
b1010110110 `"
b10111 5
b10111 ""
b1100001001 9
b1100001001 `
b10001010111100 =
b10001010111100 >
b101 (
b1011101010100011010001000001110100011011001011000001010000010111101101100110100100100100110100110000100100010111010110011110101010001010111100 #
b1011101010100011010001000001110100011011001011000001010000010111101101100110100100100100110100110000100100010111010110011110101010001010111100 *
b10000011101011010010111010101000 $
0"
#13000
b111 &
1"
#14000
b111111111110001010100010000000100001101110100111101010011010100110100001000100100101000100010101010011011111111001111100111111010000000000111101 !
b111111111110001010100010000000100001101110100111101010011010100110100001000100100101000100010101010011011111111001111100111111010000000000111101 +
1]"
0\"
b110111010011110 4
b110111010011110 &"
b101001101010011010000100 6
b101001101010011010000100 q
b1001101 :
b1001101 O
b101 K"
b101 U"
b0 J"
b0 T"
b1010001 0
b1010001 M"
b1000011 B"
b100100101000100010101 8
b100100101000100010101 c
b10100110 u
b10100110 !"
b10000100 s
b10000100 }
b10100110 t
b10100110 ~
b1111111001111100111111010000000000111101 <
b1111111001111100111111010000000000111101 C
b111111111 ,
b111111111 d"
b1010111 P"
b1010111 Q"
b11011 O"
b11011 R"
1L"
b1110 N"
b1110 S"
b11 ("
b11 0"
b1101 '"
b1101 1"
b1101 $"
b1101 3"
b10100011 :"
b10100011 >"
b11111000 H"
b1010110 G"
b1010101 9"
b1010101 ?"
b0 D"
b10000000 C"
b10110 8"
b10110 @"
b110 7"
b110 A"
b1000100 a
b1000100 k
b1001001 d
b1001001 m
b10000100 x
b10000100 y
b10100110 w
b10100110 z
b11101101 v
b11101101 {
b100001 r
b100001 |
1o
b111101 @
b111101 J
0Q
0R
1S
1T
b10011010 [
b10011010 \
b1001001 Z
b1001001 ]
b1100 Y
b1100 ^
b1000 V
b1000 _
b110001 .
b110001 ^"
b11100100 e"
b11100100 g"
b0 b"
b0 j"
b1 a"
b1 i"
b11111111 f"
b11111111 k"
b111 c"
b111 h"
b1010111000110111110 1
b1010111000110111110 I"
b1100 %"
b1100 2"
b1 #"
b1 4"
b101000110101010100010110110 3
b101000110101010100010110110 5"
b100 g
b100 h
b1001 f
b1001 i
b1000010010100110111011010010000101 7
b1000010010100110111011010010000101 n
b111101 F
b111101 G
b11111110 ?
b11111110 I
b1111100 D
b1111100 M
b11111101 B
b11111101 L
b11000001 E
b11000001 H
b100110100100100111001000 ;
b100110100100100111001000 N
b11100100111 -
b11100100111 `"
b1100000111 5
b1100000111 ""
b100100101 9
b100100101 `
b11110111000001 =
b11110111000001 >
0X"
1Y"
b1111 W"
b1111 _"
b1111 /
b1111 V"
b110 (
b11101001111110111000110111110101000110101010100101101101100000110000100101001111101101001000101010010010110011010010010111001000011110111000001 #
b11101001111110111000110111110101000110101010100101101101100000110000100101001111101101001000101010010010110011010010010111001000011110111000001 *
b10110010101101011111010011111101 $
0"
#15000
b1000 &
1"
#16000
b100 K"
b100 U"
0+"
1*"
0."
b1101110000001101000011011100010100xxx010000000000111011100111001100101010001010101100000x1100010011001100010101010011100000011100100011110110100000000000010101 !
b1101110000001101000011011100010100xxx010000000000111011100111001100101010001010101100000x1100010011001100010101010011100000011100100011110110100000000000010101 +
b1110111001110011 4
b1110111001110011 &"
b10000000 2
b10000000 6"
b10000000 ;"
b10000000 ="
b10000000 <"
b101010 t
b101010 ~
b101010001010101100000x 6
b101010001010101100000x q
b1001110 :
b1001110 O
bx J"
bx T"
b100xxx0 0
b100xxx0 M"
b0 E"
b0 F"
b10000110 B"
b1100010011001100010101 8
b1100010011001100010101 c
b1100000x s
b1100000x }
b101010 u
b101010 !"
b11100100011110110100000000000010101 <
b11100100011110110100000000000010101 C
b110111000000110100001101 ,
b110111000000110100001101 d"
b1001011 P"
b1001011 Q"
b10110011 O"
b10110011 R"
0L"
b1100 N"
b1100 S"
b1110 ("
b1110 0"
b1 -"
b1 /"
b1100 $"
b1100 3"
b1111000 :"
b1111000 >"
b1110110 H"
b11111111 G"
b11111110 9"
b11111110 ?"
b1111000 8"
b1111000 @"
b10100000 D"
b11110000 C"
b1 7"
b1 A"
b11001100 a
b11001100 k
b11000100 d
b11000100 m
b101010 x
b101010 y
b1100000x w
b1100000x z
b101011 v
b101011 {
b11111001 r
b11111001 |
1p
b10101 @
b10101 J
b1101 [
b1101 \
b1 Z
b1 ]
1X
0W
b1001 Y
b1001 ^
b1001 V
b1001 _
b110111 e"
b110111 g"
b11011100 b"
b11011100 j"
b1101 a"
b1101 i"
b1101 f"
b1101 k"
b10 c"
b10 h"
b1001011101100111100 1
b1001011101100111100 I"
b1 %"
b1 2"
b1101 #"
b1101 4"
b11110001111111001111000001 3
b11110001111111001111000001 5"
b1100 g
b1100 h
b100 f
b100 i
b1010101100000x001010111111100111 7
b1010101100000x001010111111100111 n
b10101 F
b10101 G
b111 ?
b111 I
b100011 D
b100011 M
b11011010 B
b11011010 L
b11110010 E
b11110010 H
b11010000000110011001 ;
b11010000000110011001 N
b110111010 -
b110111010 `"
b1110101 5
b1110101 ""
b1100010001 9
b1100010001 `
b1010111110010 =
b1010111110010 >
b111 (
b111110011111011101100111100011110001111111001110000010001110100101010110000000101011111110111110001000100001101000000110011001001010111110010 #
b111110011111011101100111100011110001111111001110000010001110100101010110000000101011111110111110001000100001101000000110011001001010111110010 *
b100010000010100001111100111110 $
0"
#17000
b1001 &
1"
