rewiring/runs_tb/cycle_0000/sim.log
CYCLE=0 IN=00000000 OUT=00000000000
CYCLE=1 IN=10011100 OUT=00000101010
CYCLE=2 IN=00000010 OUT=00000000001
CYCLE=3 IN=11100100 OUT=00000011010
CYCLE=4 IN=01111000 OUT=00011100001
CYCLE=5 IN=10111100 OUT=00000110010
CYCLE=6 IN=10110110 OUT=00000101011
CYCLE=7 IN=11100100 OUT=00100011010
CYCLE=8 IN=10110111 OUT=00011101110
CYCLE=9 IN=01010011 OUT=00000100011
CYCLE=10 IN=00100001 OUT=00000011010
CYCLE=11 IN=11100001 OUT=00000011010
CYCLE=12 IN=11000101 OUT=00011000101
CYCLE=13 IN=10000010 OUT=00110000001
CYCLE=14 IN=01100010 OUT=00100001001
CYCLE=15 IN=00110101 OUT=00000011100
CYCLE=16 IN=00010010 OUT=00000010001
CYCLE=17 IN=01010110 OUT=00010100011
CYCLE=18 IN=11111101 OUT=00000100100
CYCLE=19 IN=11110100 OUT=00010101010
CYCLE=20 IN=00111011 OUT=00010110011
CYCLE=21 IN=01011000 OUT=00010011000
CYCLE=22 IN=10110010 OUT=00001101010
CYCLE=23 IN=01011100 OUT=00000101010
CYCLE=24 IN=00011110 OUT=00000101011
CYCLE=25 IN=10011110 OUT=00000101011
CYCLE=26 IN=10011110 OUT=00100101011
CYCLE=27 IN=11101110 OUT=00100100011
CYCLE=28 IN=00010000 OUT=00110010000
CYCLE=29 IN=01110110 OUT=00000101011
CYCLE=30 IN=01100011 OUT=00000011011
CYCLE=31 IN=11000000 OUT=00011000001
CYCLE=32 IN=00011101 OUT=00110011100
CYCLE=33 IN=00100010 OUT=00000001001
CYCLE=34 IN=00000110 OUT=00000010011
CYCLE=35 IN=10000001 OUT=00010010010
CYCLE=36 IN=01100011 OUT=00000011011
CYCLE=37 IN=01111000 OUT=00011100001
CYCLE=38 IN=01101111 OUT=00000010101
CYCLE=39 IN=11001110 OUT=00011001100
CYCLE=40 IN=11110111 OUT=00010011101
CYCLE=41 IN=11010001 OUT=01001100011
CYCLE=42 IN=10011110 OUT=00110101011
CYCLE=43 IN=01110111 OUT=00100011101
CYCLE=44 IN=01101110 OUT=00011010100
CYCLE=45 IN=10101000 OUT=00001010001
CYCLE=46 IN=01001111 OUT=00110001101
CYCLE=47 IN=10111011 OUT=00000110011
CYCLE=48 IN=10010100 OUT=00110100010
CYCLE=49 IN=11100010 OUT=00000001001
CYCLE=50 IN=01100110 OUT=00110011011
CYCLE=51 IN=00011111 OUT=00011101110
CYCLE=52 IN=00001001 OUT=00000011010
CYCLE=53 IN=11100011 OUT=00000011011
CYCLE=54 IN=00011111 OUT=01001101110
CYCLE=55 IN=10000100 OUT=00000010010
CYCLE=56 IN=11000101 OUT=00000000100
CYCLE=57 IN=00110011 OUT=00010101011
CYCLE=58 IN=01001011 OUT=00000011011
CYCLE=59 IN=10011100 OUT=00011101011
CYCLE=60 IN=11110011 OUT=00100101011
CYCLE=61 IN=11001001 OUT=00110011010
CYCLE=62 IN=11101101 OUT=00011010101
CYCLE=63 IN=11001010 OUT=01001011010
CYCLE=64 IN=01011101 OUT=00011011101
CYCLE=65 IN=01000111 OUT=00011010110
CYCLE=66 IN=00100100 OUT=00001011011
CYCLE=67 IN=11101111 OUT=00010010101
CYCLE=68 IN=10101001 OUT=01001100011
CYCLE=69 IN=01101101 OUT=00100010100
CYCLE=70 IN=00111001 OUT=00001110011
CYCLE=71 IN=01111000 OUT=00010100000
CYCLE=72 IN=11101010 OUT=00000010001
CYCLE=73 IN=11000010 OUT=01001010010
CYCLE=74 IN=01010100 OUT=00011100011
CYCLE=75 IN=01010100 OUT=00000100010
CYCLE=76 IN=00100011 OUT=00000011011
CYCLE=77 IN=10011101 OUT=00010011100
CYCLE=78 IN=10110011 OUT=00000101011
CYCLE=79 IN=10101101 OUT=00100010100
CYCLE=80 IN=11010101 OUT=00000010100
CYCLE=81 IN=00101110 OUT=00011010100
CYCLE=82 IN=11001111 OUT=00000001101
CYCLE=83 IN=00000101 OUT=00110000100
CYCLE=84 IN=11010111 OUT=00000010101
CYCLE=85 IN=10001001 OUT=01001011011
CYCLE=86 IN=11110110 OUT=00110101011
CYCLE=87 IN=10101111 OUT=00110010101
CYCLE=88 IN=11101111 OUT=00110010101
CYCLE=89 IN=10011101 OUT=01001011101
CYCLE=90 IN=00111111 OUT=00110100101
CYCLE=91 IN=11001111 OUT=00000001101
CYCLE=92 IN=00101010 OUT=00110010001
CYCLE=93 IN=01110111 OUT=00010011101
CYCLE=94 IN=10011010 OUT=00011101010
CYCLE=95 IN=00001011 OUT=00000011011
CYCLE=96 IN=01010011 OUT=00010100011
CYCLE=97 IN=10101111 OUT=00000010101
CYCLE=98 IN=10001100 OUT=00110011010
CYCLE=99 IN=00000010 OUT=00000000001
CYCLE=100 IN=11111011 OUT=00000110011
CYCLE=101 IN=11101000 OUT=01001010001
CYCLE=102 IN=11000010 OUT=01001010010
CYCLE=103 IN=11011101 OUT=00011011101
CYCLE=104 IN=11001000 OUT=01001001001
CYCLE=105 IN=01100100 OUT=00110011010
CYCLE=106 IN=01100001 OUT=00001011011
CYCLE=107 IN=11100101 OUT=00011001101
CYCLE=108 IN=00100001 OUT=00110011010
CYCLE=109 IN=11110011 OUT=00000101011
CYCLE=110 IN=01011001 OUT=00110101010
CYCLE=111 IN=11110101 OUT=00000011100
CYCLE=112 IN=10111101 OUT=00011100101
CYCLE=113 IN=01111110 OUT=00100110011
CYCLE=114 IN=01100010 OUT=00011011010
CYCLE=115 IN=11001010 OUT=00001011010
CYCLE=116 IN=10010000 OUT=00011010001
CYCLE=117 IN=01000101 OUT=00110000100
CYCLE=118 IN=01011000 OUT=00000011000
CYCLE=119 IN=00010000 OUT=00001010001
CYCLE=120 IN=01100000 OUT=00010001000
CYCLE=121 IN=01110011 OUT=00000101011
CYCLE=122 IN=11111100 OUT=00000110010
CYCLE=123 IN=00111101 OUT=00011100101
CYCLE=124 IN=01101100 OUT=00000100010
CYCLE=125 IN=00001110 OUT=00000011011
CYCLE=126 IN=11100111 OUT=00010001101
CYCLE=127 IN=00110111 OUT=00110011101
CYCLE=128 IN=01000111 OUT=00010000101
CYCLE=129 IN=01000000 OUT=00000000000
CYCLE=130 IN=00110011 OUT=00000101011
CYCLE=131 IN=00011100 OUT=00000101010
CYCLE=132 IN=10110110 OUT=00000101011
CYCLE=133 IN=11010111 OUT=00100010101
CYCLE=134 IN=00111010 OUT=01001110010
CYCLE=135 IN=01100111 OUT=00000001101
CYCLE=136 IN=01010011 OUT=00000100011
CYCLE=137 IN=10000100 OUT=00000010010
CYCLE=138 IN=11110100 OUT=00000101010
CYCLE=139 IN=11100100 OUT=00010011010
CYCLE=140 IN=00101000 OUT=00011010001
CYCLE=141 IN=01100111 OUT=00010001101
CYCLE=142 IN=10010101 OUT=00000010100
CYCLE=143 IN=00111100 OUT=00000110010
CYCLE=144 IN=01100100 OUT=00000011010
CYCLE=145 IN=10010101 OUT=00001010101
CYCLE=146 IN=10001010 OUT=00110001001
CYCLE=147 IN=00111101 OUT=00100100100
CYCLE=148 IN=01111111 OUT=00000100101
CYCLE=149 IN=01011011 OUT=00000101011
CYCLE=150 IN=11011100 OUT=00000101010
CYCLE=151 IN=11101100 OUT=00010100010
CYCLE=152 IN=11000110 OUT=00010010011
CYCLE=153 IN=01000110 OUT=01001000100
CYCLE=154 IN=01111001 OUT=00000110010
CYCLE=155 IN=00000100 OUT=00001010011
CYCLE=156 IN=11010100 OUT=00010100010
CYCLE=157 IN=00110100 OUT=00010101010
CYCLE=158 IN=10111101 OUT=00000100100
CYCLE=159 IN=00011011 OUT=00000101011
CYCLE=160 IN=00000010 OUT=00000000001
CYCLE=161 IN=01110001 OUT=00000101010
CYCLE=162 IN=01010011 OUT=00000100011
CYCLE=163 IN=01100011 OUT=00000011011
CYCLE=164 IN=11011110 OUT=00011011100
CYCLE=165 IN=11110000 OUT=00011011001
CYCLE=166 IN=00000100 OUT=01001010011
CYCLE=167 IN=01011111 OUT=00010011101
CYCLE=168 IN=11111000 OUT=00011100001
CYCLE=169 IN=00100011 OUT=00110011011
CYCLE=170 IN=10000000 OUT=00010000000
CYCLE=171 IN=01100001 OUT=00000011010
CYCLE=172 IN=01100001 OUT=00001011011
CYCLE=173 IN=01010111 OUT=00011100110
CYCLE=174 IN=11010010 OUT=00000010001
CYCLE=175 IN=11111100 OUT=01001110011
CYCLE=176 IN=10111100 OUT=01001110011
CYCLE=177 IN=01111011 OUT=00110110011
CYCLE=178 IN=00110001 OUT=00011101011
CYCLE=179 IN=01111110 OUT=00000110011
CYCLE=180 IN=11101101 OUT=00011010101
CYCLE=181 IN=01100100 OUT=01001011011
CYCLE=182 IN=11010100 OUT=00011100011
CYCLE=183 IN=10111101 OUT=00110100100
CYCLE=184 IN=00010100 OUT=00000100010
CYCLE=185 IN=11001011 OUT=00000011011
CYCLE=186 IN=11001011 OUT=01001001100
CYCLE=187 IN=11011011 OUT=00010101011
CYCLE=188 IN=11101001 OUT=00110100010
CYCLE=189 IN=01001110 OUT=00010011011
CYCLE=190 IN=00100100 OUT=00011011011
CYCLE=191 IN=01000010 OUT=00010000001
CYCLE=192 IN=00000111 OUT=00000000101
CYCLE=193 IN=00000000 OUT=00000000000
CYCLE=194 IN=11010110 OUT=00000100011
CYCLE=195 IN=00111111 OUT=00110100101
CYCLE=196 IN=00111001 OUT=00000110010
CYCLE=197 IN=11111001 OUT=00000110010
CYCLE=198 IN=11010111 OUT=00011100110
CYCLE=199 IN=01111010 OUT=00010100001
TB_SIM_OK cycles=200
- /module-fuzz/rewiring/runs_tb/cycle_0000/tb_top.sv:54: Verilog $finish
CYCLE=200 IN=01110110 OUT=00000101011
- S i m u l a t i o n   R e p o r t: Verilator 5.039 devel
- Verilator: $finish at 402ns; walltime 0.001 s; speed 612.299 us/s
- Verilator: cpu 0.001 s on 1 threads; alloced 94 MB
